ccopy_reg
_reconstructor
p0
(cneurolab.core
Net
p1
c__builtin__
object
p2
Ntp3
Rp4
(dp5
S'layers'
p6
(lp7
g0
(cneurolab.layer
Perceptron
p8
g2
Ntp9
Rp10
(dp11
S'initf'
p12
cneurolab.init
initnw
p13
sS'ci'
p14
I38
sS'co'
p15
I21
sS'cn'
p16
I21
sS'inp_minmax'
p17
cnumpy.core.multiarray
_reconstruct
p18
(cnumpy
ndarray
p19
(I0
tp20
S'b'
p21
tp22
Rp23
(I1
(I38
I2
tp24
cnumpy
dtype
p25
(S'f8'
p26
I0
I1
tp27
Rp28
(I3
S'<'
p29
NNNI-1
I-1
I0
tp30
bI00
S'\x00\x00\x00\x00\x00\x00\x00\x00\x00\x00\x00\x00\x00\x00\xf0?\x00\x00\x00\x00\x00\x00\x00\x00\x00\x00\x00\x00\x00\x00\xf0?\x00\x00\x00\x00\x00\x00\x00\x00\x00\x00\x00\x00\x00\x00\xf0?\x00\x00\x00\x00\x00\x00\x00\x00\x00\x00\x00\x00\x00\x00\xf0?\x00\x00\x00\x00\x00\x00\x00\x00\x00\x00\x00\x00\x00\x00\xf0?\x00\x00\x00\x00\x00\x00\x00\x00\x00\x00\x00\x00\x00\x00\xf0?\x00\x00\x00\x00\x00\x00\x00\x00\x00\x00\x00\x00\x00\x00\xf0?\x00\x00\x00\x00\x00\x00\x00\x00\x00\x00\x00\x00\x00\x00\xf0?\x00\x00\x00\x00\x00\x00\x00\x00\x00\x00\x00\x00\x00\x00\xf0?\x00\x00\x00\x00\x00\x00\x00\x00\x00\x00\x00\x00\x00\x00\xf0?\x00\x00\x00\x00\x00\x00\x00\x00\x00\x00\x00\x00\x00\x00\xf0?\x00\x00\x00\x00\x00\x00\x00\x00\x00\x00\x00\x00\x00\x00\xf0?\x00\x00\x00\x00\x00\x00\x00\x00\x00\x00\x00\x00\x00\x00\xf0?\x00\x00\x00\x00\x00\x00\x00\x00\x00\x00\x00\x00\x00\x00\xf0?\x00\x00\x00\x00\x00\x00\x00\x00\x00\x00\x00\x00\x00\x00\xf0?\x00\x00\x00\x00\x00\x00\x00\x00\x00\x00\x00\x00\x00\x00\xf0?\x00\x00\x00\x00\x00\x00\x00\x00\x00\x00\x00\x00\x00\x00\xf0?\x00\x00\x00\x00\x00\x00\x00\x00\x00\x00\x00\x00\x00\x00\xf0?\x00\x00\x00\x00\x00\x00\x00\x00\x00\x00\x00\x00\x00\x00\xf0?\x00\x00\x00\x00\x00\x00\x00\x00\x00\x00\x00\x00\x00\x00\xf0?\x00\x00\x00\x00\x00\x00\x00\x00\x00\x00\x00\x00\x00\x00\xf0?\x00\x00\x00\x00\x00\x00\x00\x00\x00\x00\x00\x00\x00\x00\xf0?\x00\x00\x00\x00\x00\x00\x00\x00\x00\x00\x00\x00\x00\x00\xf0?\x00\x00\x00\x00\x00\x00\x00\x00\x00\x00\x00\x00\x00\x00\xf0?\x00\x00\x00\x00\x00\x00\x00\x00\x00\x00\x00\x00\x00\x00\xf0?\x00\x00\x00\x00\x00\x00\x00\x00\x00\x00\x00\x00\x00\x00\xf0?\x00\x00\x00\x00\x00\x00\x00\x00\x00\x00\x00\x00\x00\x00\xf0?\x00\x00\x00\x00\x00\x00\x00\x00\x00\x00\x00\x00\x00\x00\xf0?\x00\x00\x00\x00\x00\x00\x00\x00\x00\x00\x00\x00\x00\x00\xf0?\x00\x00\x00\x00\x00\x00\x00\x00\x00\x00\x00\x00\x00\x00\xf0?\x00\x00\x00\x00\x00\x00\x00\x00\x00\x00\x00\x00\x00\x00\xf0?\x00\x00\x00\x00\x00\x00\x00\x00\x00\x00\x00\x00\x00\x00\xf0?\x00\x00\x00\x00\x00\x00\x00\x00\x00\x00\x00\x00\x00\x00\xf0?\x00\x00\x00\x00\x00\x00\x00\x00\x00\x00\x00\x00\x00\x00\xf0?\x00\x00\x00\x00\x00\x00\x00\x00\x00\x00\x00\x00\x00\x00\xf0?\x00\x00\x00\x00\x00\x00\x00\x00\x00\x00\x00\x00\x00\x00\xf0?\x00\x00\x00\x00\x00\x00\x00\x00\x00\x00\x00\x00\x00\x00\xf0?\x00\x00\x00\x00\x00\x00\x00\x00\x00\x00\x00\x00\x00\x00\xf0?'
p31
tp32
bsS'inp'
p33
g18
(g19
(I0
tp34
g21
tp35
Rp36
(I1
(I38
tp37
g28
I00
S"\x04\x84\x14\xf7\xb5L\xc6?\xfb\x18\x9c\x8f\xc1\xf9\xc8?\x04\x84\x14\xf7\xb5L\xb6?\x18Z\x05\xc6\x9e\xf2\xb0?\xb1\xa7<\xc4\\h\xc5?\x9d\xd1K\xf5s\xc2\xaa?\xf9\x18\x9c\x8f\xc1\xf9\xb8?\x9e\xd1K\xf5s\xc2\xba?\x7fNX\xc3;\xa3\xc7?u\xe3\xdf[GP\xca?\xdb\xb6m\xdb\xb6m\xdb?\xeek\x99,r\x80\xe0?\x7fNX\xc3;\xa3\xc7?\xf9\xf7\xd6\x11\x94f\xd3?U?'\xac\xe1\x9d\xd1?\xf0\xad#(\xcd\xa6\xcb?lxg\xf4R\xfd\xcc?L\xf5s\xc2\x1a\xde\xc9?\xf9\x18\x9c\x8f\xc1\xf9\x98?i6\xdd\xf8\xf7\xd6\xb1?\xd1*0\xf6\x94\x87\xc8?7\xdd\xf8\xf7\xd6\x11\xc4?\xb1\xa7<\xc4\\h\xc5?\xda\x95\xa8]\x89\xda\xd5?\xee\x8c^\xaa\x9f\x13\xd6?_\xcbd\x91\x03\x84\xd4?\xfb\x18\x9c\x8f\xc1\xf9\xa8?\r\xef\x8c^\xaa\x9f\xa3?\x0e\xef\x8c^\xaa\x9f\xc3?\xbb\x12\xb5+Q\xbb\xb2?\x04\x84\x14\xf7\xb5L\xb6?\x0e\xef\x8c^\xaa\x9f\xc3?8\x1f\x83\xf318\xbf?\xbb\x12\xb5+Q\xbb\xb2?\x9e\xd1K\xf5s\xc2\xca?\xa6\x1b\xff\xde:\x82\xd2?\xda\x95\xa8]\x89\xda\xd5?B\x8a\xfbZ&\x8b\xcc?"
p38
tp39
bsS's'
p40
g18
(g19
(I0
tp41
g21
tp42
Rp43
(I1
(I21
tp44
g28
I00
S'Qi\xb7\xfe\xed$\x06@\xbdG\xd3\xf1\xb5\xc2\xe9\xbf1<\xc7D`n\x16@K\x1c\x8f\xf5\xbf\xed\xf0?J2\x16\x0c#\xf7\t@\x90\xcaU+\xda\xe5\x0b@\xa6\xd7z\xe9\x98\x19\x01\xc0H\x917\xe7\xec\x11\xf9?\x18\xd4\x88\xdd)\xc8\n@\xce\xbf\xaa\x93\x13\xfe\xe3?\x03\xbc\x87\xbf\xe2K\x02@\'-\x1b\xf7\xc8\xab\x07\xc0X\xe2Hz\x86>\xee\xbf\x06\xee\xe9\xad\x97"\x01\xc0W\x97I\xc2^0\xe2?W\x17/\xd4RI\r@\x8a\rH4\x8b\xbb\xf3? \x8b\r\xf3\x1aF\x13@\x06\xc5q[c\xf0\x08@>\xaeb\xcc\xc0\x18\x0b@0\xdc\xbeHa\xa2\xbe\xbf'
p45
tp46
bsS'np'
p47
(dp48
g21
g18
(g19
(I0
tp49
g21
tp50
Rp51
(I1
(I21
tp52
g28
I00
S"\xdd\t\x7fV\x7f\x85\x06@\nZ\x0fr\xe0P\xea\xbf\x14\xa1A\xc5\x06\xf5\x18@-\x11<\x805\xc1\xf2?6\xd5'\xa4\xc3\xb0\x10@\xa2\xb2\xad\xe4\x14\x89\x12@!Bs*VQ\t\xc0\x92\x92\x80\x07\xe3\xa8\xfa?\x9b\xcbx\x82\xb5\xbd\x0c@y\xaeMG\x7f\xc9\xf4?\x0fj\x93\xbc\x1d\xb4\x03@l\x01\xf5t;\xb7\t\xc0c\x0eu\x11\x05B\xd5\xbf\x8d\x14\xa7\xac\xad\x97\x06\xc0\x19\xe5d\xe8.(\xef?\x97+\x02w\x1fA\x0f@F\xce\xca\xd1;\xb1\xf2?\xc3A&\xae\xdeu\x16@\x84\xbc\xa4\x85\x1f\x87\x10@[\x1c8s\xff\xa1\r@:\x99\xa3\x95V\xd4\xec\xbf"
p53
tp54
bsS'w'
p55
g18
(g19
(I0
tp56
g21
tp57
Rp58
(I1
(I21
I38
tp59
g28
I00
S'=\xc8crE?\xe7\xbf\x08Fb9"r\xe8?;\x057\xfe_\x91\xca?x0r\xbd\xbdp\xe4?\xeds\xe0\xf3\xe0F\xe8\xbf\xb4"\xc1\t\x96\xf0\xe3\xbf\xf6\xe9\xeeV\x0be\xd2\xbf\x97]\x1bJ\xb4\xb5\xe1?\xb0\\H\xf1\xd8\x01\xe0\xbf\xfb-\xaf\xaay\\\xc8\xbfV\xd8\tZ\x87\xdf\xe8?||9#\x80\xd5\xce?\x1a\xc9>\x83\xa7\x98\xd5\xbfY\xfc\x01\x06\xba\xec\xcc\xbf\xfb\xcc!\t\x83\x18\xe0\xbf\x08\x01\x94\xa9\xc5\xeb\xe1\xbf\x14\xc7\x9f\xc0\xdb3\xde?~\x18<\xdcON\xe5?\xf9\xe5\xc1\x02\xde\x9c\xb8\xbf\xc1\xb8F\x04\xe9\x86\xcd?n#\xac\xe6\xdc\xa0\xe7\xbf\xfa\x86\xc06\x06y\xe1\xbf\t\xce\xb5\x93\x08 \x8a\xbf\x94\xb9\xc2o\xe8\n\xda\xbf\x96\xc3\x8d\xe5\x90\xee\xd1?pn\xf7\xab\x17\xd0\xc8\xbf\xa4\xf9\x85\x86\xffY\x9f?*\xd1\xea\xf9"\xf9\xb8?]\xcd\x053\xf2\xfb\xc9\xbf\x7f\xc3+Y\x11>\xe7?7\x03@F\x94.\xe4?\xdf\xa2\xf0\xdf6\xae\xe1\xbf\xed\x08!\x88f\x8b\xa6\xbfc\xeb\xfe\xca&9\xe2\xbfBf\xe9\xd9F\x9e\xd1?Qr\xadG\x14M\xdc?\x0c\x11\xa7\xe1\x85\xc8\xe0?L\xa7\xa1\xa7\xf3\xbd\xe8\xbf\xf6\x1d\xc9}"\x90\xd7\xbf\xc1T\xcb\xe4t\xc7\xc5\xbf3\xf6GJ\xa3\xb7\xd1?\xdc\x1b\x9c\xbd\x83\\\xe2?\xf1\xefE(\xa9\x8d\xe7\xbf1\x02B\x98\r\xb1\xd0\xbfePzw\x10\xe8\xd0?\t?n>\x7f<\xe8?\x80\x01\xf4\x98\x93z\xe7\xbf\x0bObd\x96\x0e\xb8\xbf\x00\x8f\xcc?\xef7\xe9\xbfi/\xf8\x85\x84\xc4\xd5\xbf \x00Z\xf4\xae%\xe8\xbfzW9\xfa,/\xc2?\xe7\xe7\xff\x8d\x14\x9d\xd2?5\xe0\x10\xad\xb6A\xbc?\xfc|,\x16$p\xce?\x18%\x80\xd8\x91q\xdd?\xa5\x18\xb7\x8c\x03\x83\xe3\xbf,\xac!\xafsU\xab\xbf\xd7M\xc2[\x9d\xfb\xc9\xbf\xba\n\xf5\x90\xf5d\xc8?~\xfa\xb8\xb4\x06D\xeb\xbf\x081\x1c\xd5\x1fy\xd1\xbf\x0f\xe0\x9fU\xf8\xf2\xb7?r\xb5\x9eU82\xcb?\\,\xb8Q\xb3\x82\xdb?\x82%\xe9\xd0\x82\xdb\xbc?\xc8\x8e_z\xc4+\xd4\xbfJ\\J\x9a\xe3C\xdf?\x19\x19\xa8\x06\x86\x92\xe6?|o\xa4\x1e\x1du\xe5?\xe5\xe3~\xc5\t\x12\xda\xbf\x86\x03\x0b\x05e[\xeb?e:\x00?\x19\xe8\xe9?P\x1c>\xf8T\x07\xd5?\x8dL\x8dI\x1d\xdf\xdb?\xa2c\xe7\xa5\xb3\xad\xe6?eV\xb1^\x05\x0e\xde\xbf\xb1\xb7(+\x16\x1d\xe0\xbf\xb3\xa4\xc8M\x07\x1c\xd9\xbfV\xe28n\x0c\x8e\x94\xbf\x06*\xd9\x88\xaf\xe1\xd7\xbfC\xffZPP7\xe7\xbf8\xd2\xd8w\x82\xbe\xda\xbf\x1ai\xbf\xdb\xe7\xb8\xd8?DnH\x8b\xe5\xb8\xca\xbf\x92\x89\xf8\x86\xed\xf6\xdb\xbf2\xa2r\x0b\xff\xcd\xe6?\x8c\x95\xa6\xe3\xb5\xe5\xde?\xf6\x8f\xcf\x8c\xd0\xfa\xcf\xbf\x12#\x0e\x8e\x01\xcf\xe0\xbf\xec\xa3Z\xe69\xc2\xb8\xbf-\xb35\xc3!\xfa\xd0\xbf\x97\x94!\x1f\xf0\x96\xe3\xbf\xa6\x89\xb6\xa962\xe9?\'\xe2\xcfy\xec}\xcc\xbfR\x82\xac\x802\x1b\xe3?\x1f\xc5l\xadJs\xce?c\xc2\xef\x18\x19\xb5\xe6\xbf`t\x90]P\x1a\xeb\xbf\x1fX\x9c\xf3\xa2\xe8\xc2\xbf\xf2\\\x1b\xfc\x16\xec\xd0\xbf\xd1m\xa8f\x9c\xc8\xca\xbfA\x1a\x9c\xffb~\xdf\xbf\xe8\xfb\xd7\x97W\x86\xe9?\xe8\x1c\xe7\x1a\x1c\x1b\xda?uI\xadHA5\xa9\xbf1\x97\xfb\xa8d\xd1\xb6\xbf]\xa4\xca\xc3\x16\xa1\xca\xbf\x08\x8d\x97$Er\xea\xbf\xdd\x86k"t\xe7\xa1?\xd5e#r\xbb<\xed\xbf\xfe\xfba%\x05\xe8\x9f?\xcf\xaf\xc5\x0e\xf8{\xb7\xbf\x814c\xf63\xb9\xeb?\x1d7\xbb\xaa\x944\xd0\xbflp\xdbi\xf4\xc3\xe2?\x88>\xc737\x9b\xd3?\xa1\x18\xc4\x86\xd5\xa0\xe5\xbfh\xaaYh\xe1\x88\xd6?\x08xJ\xb4B\x83\xe1?\x02\xa81\x9e]m\xd6?\x17\xc1\x97\xa20e\xe3?Y.\xf4(d\x8f\xd1?\xd6UA\xcbAH\xdf\xbf\xad\xd8>\xa6\xdc\xce\xe3\xbf_\xee[u\x93a\xe5\xbf\xe3\xd0<Z\t5\xdf?_5W\xcekE\xcb\xbf\xdd\x87G\xc9\xe8\x81\xe3\xbf0:)\xd7\x91\xf3\xe3?\xb3\x9b\xe3\x1a9\xdc\xb8\xbf\xb0\x9f\xf3\x93\xa1\x1d\xe6\xbf\xc8.\xac\xd1\xae\xf9\xe4\xbf2\xf0\xea\xbb\x8d/\xdd\xbfo\xa2\x0c\xd36c\x9d?\x93,\x1cI\xfe\xcc\xd9?VQ\xb6\xb5\xc9\x95\xd8\xbf\xa7tV\xcdUX\xe2\xbfc8\x13\xd6M\\\xe3?\x9b\xc3|2\xff\x97\xa4\xbfxqM}\'\xfe\xe2\xbf\x83\xb3\xec\xd1\x81\xc4\xe4\xbf\t\xe4\xa6\x8b7\xca\xb3?\x1e\xef\x1a\xd6\xa2\x00\xe5?pI\xa4\xd0\xd4>\xe1\xbf\x8e}\x81\x16\xd5\x15\xc0\xbf\x01h\x98\xe6\xd7\x14\xd5\xbf`\xb8\x08\x01\xb5\x12\xd7?\xb2y@+yd\xdc?\xea\xf6\x11\xeb\x96\x8b\xdb?\x85SE+\xac:\xe6?I\x03\x90x\xb6#\xe4?\x86\xbb\x02\x99k1\xe3\xbf\xdc\x12\x17t4%\xe3\xbf\xadLn\xa4\x8d\x0e\xc5?\x18\xdft\x80!\xb2\xde\xbf\x90W%\x9c\xe0\x1e\xd3\xbf\xca\xber\xe7\x04\r\xe0?\x9f\x10+\x0f\x93\x00\xdd\xbfk\xa6fb\x93+\xd1\xbf\x92\xc1\xa6M\x94\x12\xe0\xbf\x19\x1fw\xcfd\xd4\xd2?\t\x96\xe2\xf1\xd6\xd0\xe3?\x9d\x95\x10!\xf4i\xdf\xbf\xdd;b\xe2w\xb3\xe5\xbfQ\x19\xde\xc9&\xae\xc9\xbf4\x9d\xb8\x9b\x90\x0b\xe7\xbf\xb8\xbdx\xdd\xa7\x0b\xe4\xbf\r\xc9&g\x98\xa8\xe3\xbf\xff\xf4\x06\x18\xe6\xa9\xca?>\r\x1f\x81\xed?\xe2?\xd8\xa5S{\xf5\xb2\xbd\xbf`\xc2\x193\xdc\xec\xad\xbf\xd6o\x18\xd3\xd1\xe1\xe7\xbfp\xfd \xbbz \xe4?\x9e\x8c{\x8e\x15\xc6\xdb?\xd5T\xd6\xd9\x9c8\xe2?3.\xb9\xce\x17\xa7\xe6\xbf\xe3\\\xc2\x939^\xd4?\x84C\xa2\xca\xe0]\xda?\xbe\xb3\x02\xb4\xec\xfc\xd9\xbf\x99.\xb7\x18\xe7.\xe6\xbf\x99\x86\xa0\x06\xff2\xe7?\x83@\x9f\xd6\x9c\xcb\xc8?\xe9.\x10\xee{\xfe\xc4\xbf\xe5|\xa6\x95\xe9A\xe2?\xf1\xdb$M\x82\xe2\xe2?\xb9zi\xac\x02\xec\xa5\xbf\xe9\x01\xd7\xff\x94-\xe2\xbf\x08\x11\xedJ\xf9\xe6\x9b\xbf\xcd"\x86\x85\x1a$\xe8\xbfH7\xb9{x\x93\xd8?\xe7\xbd\x9f\xb7vY\xb3?R\x1dN\xdd~#\xe0\xbf{\tBD\xa53\xd0\xbfQ\xado\x87d\xd0\xe1\xbf>\x89\x06\xff\xf3\x0b\xbb?\xad9a\xd6%\x88\xd2?\xa0@\x85\x0ft\xf8\x97\xbf0\xfd\x81\xdb\xda3\xc2\xbf\xaf\xd9\xf9\x14\x058\xe3\xbfob\x8d\x19\xa9y\xeb\xbf\\\x8au\xb2\xec\xdc\xc5?\xf7*\xc7\x10\xb8h\xe5?^\x8f\x14\xcf"\xad\xe5\xbf\xa9\xf9\xe87\x10q\xc9\xbf\x19\x81\xf7\xeeiQ\xe2\xbf/m\xeeOb\xda\xe7?\x88\xe9\x1b;\x7f\xed\xd2\xbf\xe4\xb5\x06\xc5\xa0\xd6\xd9\xbf\x18\xcc\xa6g&l\xda\xbf\xc0\xe3(\xab>\x08\xdb\xbfh^\x14\xd2\xb7\x80\xe8?\x10\xa2uL\x93\xbc\xe0?\xe4\xddQ$\xd89\xe6\xbf\xf2\xdbu\x01\xd5[\xe5\xbf&}\xeb`\x9d%\xb2\xbf5XI\xd0/+\xdd?\xcc\x88\xf0\xe9\xe1\xe8\xc7\xbf0\xba\x88\x8e\xde\xb8\xca?\x1d\x0f\xc9$\xd7V\xe1?\xdb\x96\xe0;\xc8\x04\xdf\xbfh\xc7\x86\x1c\xa8\xb9\xb4?T\xaaXN\xcf\xa8\xbb\xbf7\xc9\x90\xadw\x1f\xe2?e\xb9K\xae\xddA\xe5\xbf\xe6\xdc\x99\xb8\xd7\x9a\xe5?\xd6\xa6\x9f<\xc0\x93\xe2\xbf\xe8{\x19\xb8\xae\xa8\xda\xbf\x10\\\xb2 \xbc\xf8\xd6?\xa1\xe9\x8e\x94+\x0b\xe8\xbf\xb2#\x9dP\x11;\xd9\xbf\x94\x89\xccL_\xf1\xb3?\xf1\xf3\xd0\xbdBw\xe2?V\x9d\x80\xda\x10\x1f\xea?\x97\xb3\x87\'\xcaE\xe9?73\x14h\x0c\x97\xa2\xbf\x00\xce\xbdx\xa7#\xec\xbfRn\x96\xd7/\xb2\xea?\xe9MN2K\xae\xe2?\x81\x19\xde\xd1\xa0\xf9\xde?g\xcaZ\x05\xd2U\xc7?\x07\xdbz\xa0\xa8\x98\xb5\xbf;\xef\xf3vk\xd5\xe5?\xcd\xddx\xa0\x04\x8f\xd6\xbf\xef\x88\x92\xa5T\xa7\xe2?b?\x98\x15\xb0\xc9\xec?\x9e\x12A4\xc2=\xd6?\x05\xdb\x19\xa2\xc8\xdc\xe1\xbf\x95M\xd6\x9b~\xcb\xcb\xbf\xa8\xad(\xa3\xea\xa4\xba?i,\x08\xc0\xbf\x0c\xc4?\xd2\xfae\x94\x17u\xe8?\xae\n\x9a\x04\x15\x8a\xda\xbfL,\xd2(/\xcf\xcc?4\xdby47\x81\xba\xbf}\xf7o\'g.\xd7?\xe6\xb8\xd8\n\xc2\t\xe7\xbf\x0e\xc9\xe2\xadO>\xb8\xbfv\x1e\xe0\x96C\xfc\xcb?\xa6m\xe6\x13\xeb\xe8\x89\xbf\xa2Z\x1f\xb2>3\xa8?\x80v\x07\xa20\xd9\xe1\xbf\x1e\xaf\xfe\xfa\xcc\x04\xd1\xbf\x94F\x1e\r\xde\xb4\xe1?0\xacW\xa6\x05\x08v\xbf\xac\xb7\xd4y\x8e\xe0\xd5\xbfC\xbc\xd0\x8a%\xd6\xe0\xbf\xc7\x16\x14\xf8\xfe\x13\xc4\xbf[\xca\x18)g\xcb\xc3\xbf&\xa3\xc2y^M\xd5\xbf\x02\x92\xf9\x168\xe9\xd3?\xed?\xb8q\x01k\xe8\xbf&\x08\xfa\x8b\x03l\x89\xbf\xd30\x11\xd1N\xf9\xe8\xbf\xad\xa6\xde\xe7\xf0\xec\xc5\xbf\xd9\x03\xb7\x8f&\xcf\xd9?\x97\xcb$\xa9\xe9$\xdb\xbf\x8c\x06rZ\x03=\xd4?\x99D~pM\xe7\xe1?\x8ct\x00\xb6\x87\x1e\xd2\xbf\xb5\xae!W\xe6\xfa\xd5\xbf&\x05\x1f\x15\x96\xe0\xbe\xbfN\xe6\xfeQ\x84\xc1\xd6?.\xed\xeb\xe4x\x0c\xea?-Us\x99\xfe@\xe9\xbf\xc6\x1d\xfelB\x83\xea\xbf\xa9\xe6\xbc\xac}\xf4\xd2\xbfb\x03\x0e\xb8\x14\x01\xa2?\xbb8\xa8\x92\xfaI\xb2?\xa8\x90m\xd6,\xe2\xdf?(\xa9\xc5\x89P/\xc3\xbft@\x99U\x8c!\xe6?&\xcf\xe9D\xd7w\xdd\xbf\x08\xf5\x92*\x83p\xe5?r\x06\xe4\xff\xec\xba\xe0?\x93\x11Wg\xbfa\xad\xbfxV\xa2L\xfb\x86\xc3?|\x0f\x85\xe8\xb7\xa6\xda?\xce\xaa\xcd\xb1\xaf{\xea\xbf.r^;\xd4g\xdc\xbf+I\x1e\xfaU\xfe\xd9\xbf\xc1\xb4UT\x00K\xe7?\xa1i\xdb\xec\x94\x1f\xeb?\x01\xf7\xdd\xf69\xac\xbf?\xa3\x16\x06\xcfK\xc6\xc9?\xb8\x91\x9aFe\x15\xe4\xbf6\x97p\x0eS\xbe\xe7\xbf\x87\xc9\xf6\xb7\xb1%\xe1?\x01\xc7\xbc|;\x07\xe5\xbfar\xa0K\x14\x00\xab?~\xe29\xad]|\xd8?LE\xbd\xcb\t\xff\xdd\xbf\x909Vt\xeb\xb1\xe1\xbf\xa9\xcc\xc8F\\\x8d\xe3\xbfW\xa4\x0c~\x85\xb7\xdf?Pm`\x0b3K\xe0\xbf\xab\\\xa30d\xa9\xe2\xbf\x05.\xb0\xfbe\x05\xbb?9m\xf7{\x17\xb3\xcd\xbf\x8fP\xa8\x81o!\xe4\xbf\x90\xd0A\xbb+\xd3\xe5?\x9b\xca@\xf8<\x84\xdf?\x08ie\xe8\x1d9\xa3\xbf\xdd\x7f\x9b\x89\xf4e\xdd?\x9c\xcb\xd3\x86_\xcd\xdf\xbf\xe9M\xae\x19\x18\xdd\xb1?\xfb\xad\xdey<u\xbc?D\x84\xd0\x06\xf4\\\xe1?\x8e^\xadl\x90\xaa\xcf?\xf3\xd5\x0b\x04SM\xe6\xbf\xae\xe2\x880\xb2\xbf\xe5\xbfn\x90\x89-:!\xe5?\x92\x9e\xbd|y\x15\xe3\xbf\xbb&\x84_\xd4%\xde?\x1e\xc5\x84\xe63d\xd3\xbfq\x90V\x81>\xa5\xe5\xbf\xb1\x9c\x1a\xb5\xf5\xbb\xdf\xbf\xdd\x87\x14\xca\xd0\xf9\xda?R\xdd\xd9\x02s\xb8\xe0? )\xb1;\xe4z\xdc\xbf\xca\x86\xa5\xaeDl\xdb\xbf\x05V\xe4\xde\xb5\x9c\xd7?\xfb\x91\xf5s\xd9\x98\xb1?])\x13U\x1ck\xd0\xbfO%wk3T\xaf?|\xd1\x18\x11\xa1\x8b\xd7\xbf\xa1\xf6\x0e\xaf\r<\xc2\xbf\xb3\xaa\x97\x00:\xc3\xe8\xbf\xf8\xa55.\x8f?\xe6\xbf\xd3\x1c\xd4\xe7\xb8z\xe5?\x07\x07Q\x19G\xdb\xe0?C\xc1\xd9\xb3\xda\xd5\xe5\xbf\x81bB\x1f\xc2\xec\xde\xbf\x0f\xfb^w\x85d\xe0?Y#l\xe6\xa4\'\xdb\xbf\xa7K\xa8UCo\xd1?\x87\xbf\xe3\x9a\xa0\xdf\x90?\x892\xd4\x1cF\xae\xe5?@\xa9VV\xb3\x10\xd9\xbf\x88U#N\xb7$\xe3?Q\xf9K<\x80\x89\xe2?\x9d\xfd\x11\x19\x9a\xb1\xbb?\x889\xf4\xf8\xda\xf5\xb9\xbf\xc9+\xb8\xe6\xea&\xe9\xbf1^7\xf9s\xee\xc4?`\x1f6g\x8f\x03\xd8\xbfe\x86\xe0?\x19\xa2\xd2\xbf\x9c\xc9\xd3.\x96\xc5\xe9??SV"\x995\xe2\xbfbPI~\rV\xb3?\x8c\x1b\xc6*\r\xee\xe0\xbf\xec\x98\x07\xd9\xd7\x10\xe1\xbf.\xf6\xf9\x167\xca}\xbf7\x18\x1e\xd3V#\xc6?\x11\x88\xacJ`\x81\xe6?\xcc\xac;ZE\xa6\xe5?\x7f\xeb\xc2\xc7Ew\xe2\xbf\x19F\xabR0u\xd3?\xa8\x7f9\xd6\xfa\x01\xea\xbfv\x9cU&\xcb\xc6\xda\xbfZW\xc9\r{\xe2\xc1?j\xc2_n\xb8\xe7\xd3\xbf}\xe1YH\xf79\xed\xbfs\xcd$\xe9\xf1C\xe4\xbf\xc4\xbb\xbfm\xe6|\xd7\xbf|\x11\xd1\x15\xd3x\xbc?uz?\xf4\x0f\xe7\xe1\xbf\x8b\xdcx\x9e\xc6\xd6\xc3\xbf\x8f\xe5\xba\x8d=f\xe3\xbf\x0c\t\xea\xa7\x8d5\xee?\xfbT\x99c.\xe5\x9a\xbfh\x03\x7f\xa0\x9e\xf9\xde\xbf\xf4\x93\x94T\xd7\x90\xd5\xbf\x12_\xe0&)\x9c\xdb\xbf\x9c\xbb\n\xb0,\xf1\xe2\xbf\xb9\x9d\x07\x9c\xder\xbb?\xa8][\xe2F<\xc4?\xa2\x07\xfd]\xc6\x12\xe3?\x81c>Z\x11\x15\xc2\xbf\x15\x82\xb4\x1a@\x9e\xed?\x04\xf5\xd3\xf6-\x12\xca?\xee\xdc\x11\x86\xffi\xea\xbf\x7f\xfc}\xb5\x82\xf0\xd7\xbfxs\x9e\x999\xfa\xc9?+\xdb\xbb\x98(]\xca?u\xb6\x98\xd5\x1d\xc3\xc2?\xb1RY}\x94\xa3\xe6\xbfq\xb1b\x96}\t\xb3\xbfN5r\x02N\xda\xec?m\xe3y#\xaf\xe6\xd9\xbf\xca\x11\xd2I\xa3\x05\xda?e\xc1O\x1b+.\xd8?\x95\xaf\xe5C?&\xb8\xbf\x91\x7f\xb3 ?\xbb\xab?\x9a\x80\x13\xa7Jx\xd9\xbf\n\xd0RS\x86\xe3\xa3\xbfM\xb9\xbddy\x91\xed?j\xe3U#h=\xe7\xbf\xd6\xda\xc3\x8cJ\x12\xde?\xcd=\xa1\xa5\xb5\xf7\xe0\xbf%\xdar-v\x17\x9d\xbf\xc7u\t\xa4\x12\xd1\xe6?4\xf2/\xde\xa81\xd7?\xd7:in\x01&\xdd\xbf\xbf\xf8`\x04d"\xe6?vL}\r\xdb\xb0\xe0?S\ne\xd3\xe8;\xe2?\xc7b."\x8c,\xda\xbf\x19\xe8rps4\xde\xbf\xc5\xf0\xda\xd3\x06_\xe0?C\x94\xa3\xee\xef.\xe1?\r\xf1\xa9\xacn{\xe6\xbf\xca\xcar\x07\xb6\xf0\xdf?\xca\xd9<\x85\x87\x9d\xe2?\x81\xe0\\m;\x99\xe0?\xed\xbe\xda\xfa\x02\xec\xd2\xbf\x1fzp\xac\x8b\xab\xd4\xbf,\x9d x\xf9P\xb6\xbf\xd3\x14\xdf\xf8T\x06\xda\xbf\x1c\xf3\xbd\xac\x957\xd8\xbf\xecJ\x9a\x8d/\xfe\xe0\xbf\x83\xdf\x91\xd0\x02u\xda?\xc5\xe5b\xad\x97\xc8\xe7\xbf\x8c\xd0\xe2\xc3w\x98\xcb?jB\xc5\x13Q\xeb\xdf?j\xd2\xc0\xd5nP\xc4\xbf\xefZ\x9fA\xbdd\xd0\xbf)@K\xb4=\x0f\xc0?p\x0f\xdd#\xa4v\xe4?\x14\x8e\x9e&\xbb;\xe3?St\x8b#uT\xd2?G\xa5T\x16*M\xb5\xbf[\xd4?\x1f\x06W\xdf\xbfl\xe2"\xdf"Z\xe6?\xda\xc0\x1e\x1e \x9a\xe5?\xf2rE\xadY0\xe7\xbf\xac\x1eL\x02\x03\x1a\xa9?81w\x87<\x1c\xd3?\xdeN\xf4+\xe7\xcf\xc7\xbf\x91\x8cN{\xfe\xf6\x98\xbf?\x16\x80\xd0`\x10\xe7?\xb0\x10h\xe4\xd17\xe0?\xe8>\x8b\xcd\xfd\xf3\xec?/n\xa8\rN\xf3\xde\xbf\x95\xdc!\x8d\x03\xf7\xdf\xbf\x8e6\xe8Gv\xe7\xb3\xbf]\xd9L\xc31\x95\xe1\xbfc\xa8\xb35\x142\xd7\xbf\x15\xac\x98\xae-\x1c\xd1\xbfX3\x8fY|w\xd1?\x82\x13\x87\x9ae=\xe2?S\x07\x88gz\xdb\xb9?X\x87\\\xdb\xdb\x13\xe6\xbfN\xd3I\xac\x9a\x06\x9f\xbf\xf1x\xacq\x0el\xc5?*h\x91\xda"\x1a\xb0\xbf<\xff\x9b\xf9\x9e4\xe5?k=\xe3\xf8H\xe8\xbf\xbfEI\x9b\xcf\xaap\xda\xbf9%\xae\xfa\xa9\x01\xaf\xbf\x19\x12_\xdcR\x08\xd6\xbf\x00\x15\xe4:\x88 \xe8?wU\xaf\xcf\x10\xef\xe9\xbf[k\x93x\x8e\xbf\xd2?"\x0f\xa2\x1e\xf7\x01\xed\xbf 3\x8a\x93\x87\xc5\xd1?\xb2\xd7\xdam\xac7\xc5?\x85\xb5\xa7\xfb\x9eX\xbe?\xb7\xf1;\xb6|\t\xed?C\x00\xc4_\xba\xbb\xd3\xbf\x95\xc8\t\x0b-n\xe0\xbf\x07\x0b\xe4\xa7\xab\xd8\xb6\xbfk\xbc\xeaQ\xd5\x9c\xed?.\xba\x16\x12\x9d\xf6\xe8\xbf`M\xec\xb5M\xaf\xe3?\x132\xf5(\xd6H\xe9?\xad\x9d\xd0\xa3\x01\xc8\xe5?\x7f\xd5\xb7\x19n\x96\xe4\xbf\xc6\xbd\xe4m\xf0|\xcd\xbfEP\x10\x08\x86<\xe3?\xce \x83\xd2S\x97\xe2\xbf\xb7Z)]u\'\xc2?c\x133\x0cu\xac\xe6?\xe0JHL\xb6x\xe2\xbf\xf1\xe8\xf2\x9e\x8c\xa0\xa9?\xa0j\x1dj\xf2\xed\xe3\xbf\xf9\xd4\x93)^\xcd\xb7\xbf\xfd\xc5\x9b\xf9\xe1\xdc\xe7\xbfD\x04\xa6\x0b\xc5\x8c\xd3\xbfE\xf9\x17\x08\x05\xd2\xa4?}\x9e\x81dX\r\xd8?\xcce\xcc>M?\xd5\xbf\xcf7E\x84\xban\xde\xbf]\xd1p\xf2\xf0j\xca?\x92\xc1|D1\xe9\xbf?\xf1\xf6\x86\x96\x06\xa8\xdf?l\xc1\xcc\xbb\xc2\x89\xe8?\xe3\xe4"\xdbzO\xbc?\xe1k\x1dGQe\xe4?\xd3\xc2E\xb41\'\xbd\xbf\xfa\x11\x93\x08\xdf\xf1\xc2\xbf.1\xf3t\x00\x96\xd4\xbfk\xd9\x10\xed\xa6\x9b\xa0\xbf\xb8\x8dW\xe7\xb8&\xd8\xbf\x8a\xbe\xd6u\xb4\x93\xd6\xbf\xec\xa8\xb62\xa9\xaf\xc4\xbf\x97\xce6I\x03g\xe5?_<r$#\x99\xd4?\xdbLc\xca\x1c\xb7\xde?e\x11I\xca{\xe6\xe3?\xf0\xfcT\xd0\xf6%\xea?\xdd (\xa2fa\xe6\xbf\xac\x1a\xf7]\x8b!\xe6?\x89\x93\xbdP:L\xe0\xbf\xcc\x8bw\xce~\x7f\xd1\xbf\xb4*,\xf6\x9b\xd5\xd9\xbf\xac\x81\xba-\xe4k\xdb\xbf\xeavY\xe8\xb9\x00\xd6\xbf\x1c\x90\x88\xe3\xeb=\xe9?\x18\xcd\x7f\xa5\xba~\xe4?\x00\x8c\x92\x12\x8a\x13\xdd?u1\x91%\xb4\x13\xda?\x07h(\xdf\x17H\xe7\xbf\x92X\x80"\xb3\xeb\xd0?\xe6\xba\xdeu?\xad\xc8\xbf\x8c\x9a\xed\x0f|3\xb4\xbf|H\\\xee\xd8\xfc\xd4?\xc9\x1fYC\x98-\xe8\xbf\xc1\xda&\xf56\xfb\xe4?\xc8\xea\xee{\x10U\xcd\xbf9\x90~8\x01.\xe7\xbfNc\x93MP\xdb\xb0?;\xe1\x02\xc9J\x10\xe7?q\x8d\xd9\x95\xcd\xed\xd6\xbf\xc5\xef\n\x15\x9a\x1b\xdc\xbf{\x1d\x99y\x9cu\xde?\x95\x04\xa6\xc6\x03@\xa5\xbf(O\xfc\xfaD\xd5\xa3?Y\x81\x80:\xcf\xef\xd4\xbfF\xbe\r\x82\xfa7\xe3?Y\x1df%\x16\x9b\xdb\xbf{.\x9e`\xce\xa9\x9a?\xac\x0c\x0c\xedE\xc3\xe7?\xac\x98\xf7b\xbb\r\xca\xbf\xd8a\x16Si\xc2\xd8?\x84\xd0\xa24\xa9 \xb0?^\xfd<\xfe\x98g\xe8\xbf\xb1\x0bi!\x080\xe9\xbf\xee\x1d+\x96F\xa5\xc1\xbf\x87\xcd\xb2\xb2\xb3\xb6\xdb?iA=\x00\xd2\x16\xb0?5l\x04J\xf9B\xe8\xbf\x00W\x1b\x04j5\xc6?\xf3\xb0m^\xed\x85\xe6?O\x08\xdf\x87\xc4o\xd7\xbf0\xf1\xa8\xee\xdb\x84\xe6?\xc2\x02\xe6\xb1X\n\xd9\xbf\xcc\xf0\xa6\xe8\x87\xe3\xd3\xbf\xd1\xa3L0s0\xe2\xbf\xf1\x81\xd2\xf7A*\xe8?\xd0c\xc2\xff\x81\xdf\xb4?%F\x85a\x17e\xd4\xbf\xb8Ddx\xac%\xdd?\x85G\x85}o\x01\xe3?\xf2\xd5zX\xab\xee\xb0\xbf\x9f\x9fN\x02\x8c\xf3\xda\xbf\x92\xa2\x06MGH\xe2\xbfGE\xa9\x85<\xf2\x9b\xbf8\x15\r\xe2\xb8\x96\xca\xbf\xf6v ZZ\x94\xea\xbf\xdf\x11\xa4\xec\xbb\xa9\xd6\xbf\x06y\x179\'\xc5\xe6?\x14\xe6\x04\x91\x89\xed\xe6\xbf\xe33\xf3<_\xcf\xdd?\xb0LW\xcd\xe6k\x97\xbf\x9b\x11/\x07\xee\xaa\xcf\xbf\x1fD\xe1\x9a\xb6\xd8\xd7\xbfJ\xd4;T\xe5\x7f\xdb\xbf9k\xb6\x84\xfd\x87\xd2?\x15\x93\xd0\xcdl,\xac?N\x8b\x1c@i\x1a\xe8\xbf\x1e^\x9c\xcc\x19 \xcf\xbf\\\xe9\x0b|\x9bJ\xe3?O\x9d2?-\xc1\xe2\xbf\xd4H\x9169V\xe2\xbf\xdbN\xfav\xac\xb1\xe1?{0\xee\x17R\xe6\xe4\xbf\x15\\#\xbdT\xf7\xc3\xbf\xebY\\K\xd8\x88\xd2?\x9eh\x14\xd2\xe4\xed\xe3\xbf6r\xf9\xa2\x0e\x82\xb3\xbf\xa4hE\xc1\xfd\xfc\xe1\xbf\xda\x89c\xa8.\x10\xd2\xbf h\x1e\x98\x88\xe9\xea\xbf8\xde\xbd1\x94\x1f\xec?ll\x18&\xf3\xbe\xd4?kV\xf7\xf0D.\xe9?\xbf\x1b[\x92"\xc4\xe4?z5V\xed*\xa2\xd8?\xeb\xaf\x809\n$\xe0?j\xc6=Q\xa7\x1d\xe1\xbf\x00F-v\xa9\xda\xc2?\xeb\x02\xad\xf5m\xdb\xd7?\xa6\xaf9\x88\xa2:\xe1\xbfEC\xcd4=\x86\xe2?\xaa\xc7p\x04\xbf\x8e\x82\xbf\xb6\xf7B\x0c\x8c\xd0\xad?7\xf8\x81W}r\xea\xbf3\xd7J\x97C\x00\xd0\xbf,\xa7ok\x03\xeb\xe2\xbf==\x9d(\x12a\xe3?\xbf\xf8\x13\xe2\x7f\xf4\xb2\xbf\xe8`\x07\xbf8\xf4\xd5?\xe3\x9b\x04$?\xd7\xc0?\x16\xabS\xdd>\xb5\xe7?\xa4yh\x02%\x9d\xe0\xbf\x92E\xc5\x82z\xa5\xca\xbfo\xa6H\xd8\x84\x96\xe0\xbf\xe2\xcab\xbd\xeee\xc8\xbfrA\x8fD\xbe\xde\xaa?"6ezWR\xe4\xbf):\x1d\x9e\xe1+\xde\xbf<\x93\x9e\r@\xe4\xcd?\x16\xc0\xe4\xa0a&\xe9\xbf\xa5\xba;E\x8a\xdc\xd5\xbf\x107\xd6F<\x99\xc3?\x83\x0f`[\\6\xea\xbf\xb7J#8\xd1\x06\xb1?\x88\xa5\x94iF\x0c\xe0\xbfn\xb4\xda\xbb\xe6X\xe7?\xe8e\x05\x14l\x97\xe3?\xd1\xe6\xe8\xe1\\\xd8\xe2?\xe2\xb2\n\xac\xcd!\xe6\xbf`\x1eT\x8e"\xd2\xe8?\xb83\x9b\x04\xc31\xc4\xbf\x82\xeb0\xe9s"\xe9?\xcb\x17@]\x15\x1c\xe5?\x1b<\x82\x92\x923\xc1\xbfu\xd5\xbb\xf8Y\x1f\xe0\xbf\x02r\x1b\xf3\x8c\x8d\xd5\xbfM\x12\xa2:u\xb6\xe1\xbf\xf3\xe6T\x9a\rd\xc4?\x9b\x8eA\xe50\xa1\xda\xbf\x04P\x7f\x8c\xaa{\xd6\xbf\xae;~\x03\xc8Q\xc6?\xe1FV\xe9\xce5\xe2\xbf\xc0\x822\xc4\x9cs\xe3\xbfX! *\xac\x1a\xe5\xbf(\xa7\x1b\xff\x94\x1a\xd8?\xc3\xcc\x94\xe3h\xc5\xe8\xbfg\x00\xf5m\xe9\x7f\xdf\xbf\xee\x84\x0bA\xbc\xbc\xe2?\xd5\xfa\xb3\xb7\x02\xa6\xd2?\x84\x16Qj\xe8\xea\xd3\xbfiI\xff\x0c\x18x_\xbf\xd6J\x05\xb7\x0e\x11\xcb\xbf\xf6v$\x80@\xf8\xe0\xbf\x03b\x8d\x91\xda.\xdb\xbf\xd5\x16\xb1\xc77\xee\xd2\xbfh\\\xbc\x99)\x97\xc3\xbfr\xd6I\xfd9\x13\x92\xbf\x8a}<~\x06\xd5\xe4\xbf\x1c\xed\x15\x96C \xd6\xbf\xfez\x07\xb4\x08\xa0\xea\xbfyFc\xa9\x02=\xe0\xbfx\xc9=z\xa0]\xd9?N\xa5\xc2\x84\xa3P\xeb\xbf\x97\x85\xe5\x81&\xaa\xec\xbf\x1eE0\x89\x8c/\xdc?2\x1f]U\x8aA\xde\xbfJo\xb9xsC\xeb\xbf\n\xbe\xb2KHH\xe3?o\xdc\x11~\xa9)\x99\xbf\xc8~&\x1f\xc7\x84\xa2?\xaf\x16v)\x832\xd0\xbfx\x07\xee\xb8\x9f\x93\xc4?\'9\x1c/\xcf\xd3\xd5\xbf-\xb1\x0co\x9f\xc9\xd1\xbfk\xf3\x0e\xc14\xbc\xc9?{\x9f\xc9v\x10\x9a\xc4?w9\x059O\xc5\xd2?\x1fh\xf3a4 \xd1\xbfF\x9b\xc3q\xbd\xc7\xe4?G\xaa\xc9XJ\x9a\xe5\xbf\xc5OJ\x1e\xb9\xe0\xb8\xbf\xf8\x90\x03\xca\x98\xd7\xe1?\x93\x0eI\xa4!\x88\xc0?\xd3wd \x91\x8a\xe9\xbfl>\xe3\xb4~\x01\xda?V\x99\x0ep\xd3\xbf\xe6\xbf-\x930Z9*\xe6?\x99g\x06\xea-\xdd\x8e?\xe9\xbas\xc4\xe2\'\xe5\xbf:\xe6\xb9$0p\xbb?\xe3\xdf\x07\x99p\xca\xe9\xbf\xb9B\'\x8f\xc0\x7f\xc7\xbf[G\xcf3x\xbe\xc7\xbf\xbf2D\xda\xe4\xbb\xd3\xbf\xac+\xc7\x05\xf3*\xda\xbf@\x9c!\xa0\xacM\xbd\xbf\xff\xecw\xcf\x10\xf0\xd4?\x00\xb3\x11\x90\r\xbe\xe2?\x9f$\xa5\xa8#b\xc4\xbfY\xb1{:\x9em\xcf?7\x05o\x1d\xbda\xe7\xbf\xd7Y+[P5\xe8?\x99\x82g\xa33\x1d\xe1?\xd5/\x9b\x19h?\xd9\xbf\xed\x94\xf3dE\x9b\xd1\xbfA\x104\xcf\xaet\xeb?\xfc\xe9h:\xbdI\xe3\xbf\x7f\xf3|\xbf{\xe2\xc4\xbf!\xf7\xea(\xb0\x80\xc6?h\t\xe2\x163\xb8\xe8\xbf\x8c\xa4\xa1\xc5x\xd5\xe2\xbf\x9f\x16\x98\r\x85e\xc4?r\xdd\xee\x1a\xc1K\xe5\xbfV\xc0N\xf2\xf1x\xd8\xbf@c\x17\xa9\xcd\x91\xda\xbf\x01\xec\xadX\x96\x9c\xe3\xbf\x93\xd3\xf7b@\x85\xbc?a\xfd\x93;\x98\xee\xcc\xbfp\x9c\x0b^P\xe1\xe3?\x11\x155\xef\x0ez\xe1?\x9b\x8e\x18d\xd5\xd4\xd1?\x87\x95\xf1\xfc\xb9-\xc7\xbfq\x90\xb6\x826\xe7\xcf?\'\xe1\xc8JN\xc9\xc8\xbf\xd8{\x13\xab\x7f\x01\xd9\xbf\xcc\xe2\xa1N\xd2<\xcf?\x91,\x82\x8a\x9e\xd3\xeb?\x07v\tTl\xf4\xea\xbfv\xda!\xcf\xab`\xd8\xbfv\xcc\xad(l\xae\xd6\xbf!\xe6\x0e\x91\xba\xf5\xd1?\x8f\xba\xae\x8e\xf7\xe5\x99?\xc6\xc9\xad\x11\xaf\n\xc9?`\x0cq\xddjb\xc5?V8\x8c\x85=C\xed\xbf\'2\n;);\xc9\xbf\xd8\x8f{]A\xbc\xdd\xbfc\xf5\x99\r\xc8\xa8\xe8\xbf\x96\xb7\xfe\xd9\xa6\xbf\xda\xbf0\xa3f\xfe>\x1f\xea\xbf:\x82K\xa8\x7fY\xe5\xbfi\xed\x9d\xde\x9e\xc0\xe3\xbf\xa57\xf1E)\xdd\xe7?;E\xfb[\xda\x0f\xd6?\x0e\xc3U\x19C]\xdc\xbf\xd5\x01X\xf7\x85`\xbd?A\x91\x83\xd6\xab\xbe\xd8?\xea{oG\x8c\x96\xd5\xbf\xdb\x11\xcd\xe7p>\xb4\xbf4\x92\x9d(\x00\xce\xcf?Q\xfbe\xc4\x90\x14\xc5\xbf\x12)%(\xc3\xe9\xeb?\xd69\r\xc5\r\'\xdc?\\\x9c\xc2\xa6Y\xca\xc3?\x93U\xb7$\xdd-\xd2\xbf\x86\xe7\xc5\xb4\xc9\xb4\xe2\xbf\x9e\x13\x98\xa7\x14\xdc\xc7?\x82\xca\x88@\x8e\x97\xe9\xbf\x8cx\x9f\x02P\x95\xd3?\xf0p\xe1d\xbb\xbf\xe5?5\xaeh\xe7\xf6\x19\xcb?\xd2\xf5\xe7\x92TK\xd8?/\xf1\x82\xed\x12v\xeb\xbf\x8a\xd7\xe5\xd9\x15\xb2\xd6?\x85\xab\xba$\xd9\xf0\xd2?$Y\x99yl5\xb3?\'\xa4Yd\x11f\xe1\xbf\xc9\t\xab\x1d\xccU\xcd\xbf\xf4\xab5?W\xd6\xb1\xbfmz6\xac?D\x81?\x90\x01\xf0\xddRs\xe3?\xae\x03k\x14A\xd0\xe9?\xed\t\xb54\xf6r\xe1?'
p60
tp61
bssS'transf'
p62
(ineurolab.trans
TanSig
p63
(dp64
bsS'out_minmax'
p65
g18
(g19
(I0
tp66
g21
tp67
Rp68
(I1
(I21
I2
tp69
g28
I00
S'\x00\x00\x00\x00\x00\x00\xf0\xbf\x00\x00\x00\x00\x00\x00\xf0?\x00\x00\x00\x00\x00\x00\xf0\xbf\x00\x00\x00\x00\x00\x00\xf0?\x00\x00\x00\x00\x00\x00\xf0\xbf\x00\x00\x00\x00\x00\x00\xf0?\x00\x00\x00\x00\x00\x00\xf0\xbf\x00\x00\x00\x00\x00\x00\xf0?\x00\x00\x00\x00\x00\x00\xf0\xbf\x00\x00\x00\x00\x00\x00\xf0?\x00\x00\x00\x00\x00\x00\xf0\xbf\x00\x00\x00\x00\x00\x00\xf0?\x00\x00\x00\x00\x00\x00\xf0\xbf\x00\x00\x00\x00\x00\x00\xf0?\x00\x00\x00\x00\x00\x00\xf0\xbf\x00\x00\x00\x00\x00\x00\xf0?\x00\x00\x00\x00\x00\x00\xf0\xbf\x00\x00\x00\x00\x00\x00\xf0?\x00\x00\x00\x00\x00\x00\xf0\xbf\x00\x00\x00\x00\x00\x00\xf0?\x00\x00\x00\x00\x00\x00\xf0\xbf\x00\x00\x00\x00\x00\x00\xf0?\x00\x00\x00\x00\x00\x00\xf0\xbf\x00\x00\x00\x00\x00\x00\xf0?\x00\x00\x00\x00\x00\x00\xf0\xbf\x00\x00\x00\x00\x00\x00\xf0?\x00\x00\x00\x00\x00\x00\xf0\xbf\x00\x00\x00\x00\x00\x00\xf0?\x00\x00\x00\x00\x00\x00\xf0\xbf\x00\x00\x00\x00\x00\x00\xf0?\x00\x00\x00\x00\x00\x00\xf0\xbf\x00\x00\x00\x00\x00\x00\xf0?\x00\x00\x00\x00\x00\x00\xf0\xbf\x00\x00\x00\x00\x00\x00\xf0?\x00\x00\x00\x00\x00\x00\xf0\xbf\x00\x00\x00\x00\x00\x00\xf0?\x00\x00\x00\x00\x00\x00\xf0\xbf\x00\x00\x00\x00\x00\x00\xf0?\x00\x00\x00\x00\x00\x00\xf0\xbf\x00\x00\x00\x00\x00\x00\xf0?\x00\x00\x00\x00\x00\x00\xf0\xbf\x00\x00\x00\x00\x00\x00\xf0?'
p70
tp71
bsS'out'
p72
g18
(g19
(I0
tp73
g21
tp74
Rp75
(I1
(I21
tp76
g28
I00
S'[\x8f \xed\xaa\xbf\xef?c\x92\xab#\xb2V\xe5\xbf\xb6\x18\x98\x88\xc7\xff\xef?u\xf5"u\x04\x1e\xe9?$\xa9\x0e\xef0\xe7\xef?\x14{\x15\t\xb0\xf0\xef?\x1b\x19E#1\x1f\xef\xbf%\xac^k1T\xed?C5.(\xc4\xeb\xef?\x8b\x15\xc7\xe8\xf2\xbd\xe1?\xb0\xe4\x9cd\xb7X\xef?|\x1d\x19{\x06\xd4\xef\xbf\x8f\xfe\xfd\x7f/\x9a\xe7\xbf\x83\x9a\xe2\x9f!!\xef\xbf\xd7\x1aM}7t\xe0?_u\xf5\xf9,\xf5\xef?\xa7\xc4\x06\xe72\xfe\xea?~\xd7\xae=\xee\xfe\xef?7<\xcb\xc7\xf2\xdf\xef?z\x1c\xfb\xbcK\xed\xef?\xab\xdb\x11\xd6(}\xbe\xbf'
p77
tp78
bsbag0
(g8
g2
Ntp79
Rp80
(dp81
g12
g13
sg14
I21
sg15
I1
sg16
I1
sg17
g18
(g19
(I0
tp82
g21
tp83
Rp84
(I1
(I21
I2
tp85
g28
I00
S'\x00\x00\x00\x00\x00\x00\xf0\xbf\x00\x00\x00\x00\x00\x00\xf0?\x00\x00\x00\x00\x00\x00\xf0\xbf\x00\x00\x00\x00\x00\x00\xf0?\x00\x00\x00\x00\x00\x00\xf0\xbf\x00\x00\x00\x00\x00\x00\xf0?\x00\x00\x00\x00\x00\x00\xf0\xbf\x00\x00\x00\x00\x00\x00\xf0?\x00\x00\x00\x00\x00\x00\xf0\xbf\x00\x00\x00\x00\x00\x00\xf0?\x00\x00\x00\x00\x00\x00\xf0\xbf\x00\x00\x00\x00\x00\x00\xf0?\x00\x00\x00\x00\x00\x00\xf0\xbf\x00\x00\x00\x00\x00\x00\xf0?\x00\x00\x00\x00\x00\x00\xf0\xbf\x00\x00\x00\x00\x00\x00\xf0?\x00\x00\x00\x00\x00\x00\xf0\xbf\x00\x00\x00\x00\x00\x00\xf0?\x00\x00\x00\x00\x00\x00\xf0\xbf\x00\x00\x00\x00\x00\x00\xf0?\x00\x00\x00\x00\x00\x00\xf0\xbf\x00\x00\x00\x00\x00\x00\xf0?\x00\x00\x00\x00\x00\x00\xf0\xbf\x00\x00\x00\x00\x00\x00\xf0?\x00\x00\x00\x00\x00\x00\xf0\xbf\x00\x00\x00\x00\x00\x00\xf0?\x00\x00\x00\x00\x00\x00\xf0\xbf\x00\x00\x00\x00\x00\x00\xf0?\x00\x00\x00\x00\x00\x00\xf0\xbf\x00\x00\x00\x00\x00\x00\xf0?\x00\x00\x00\x00\x00\x00\xf0\xbf\x00\x00\x00\x00\x00\x00\xf0?\x00\x00\x00\x00\x00\x00\xf0\xbf\x00\x00\x00\x00\x00\x00\xf0?\x00\x00\x00\x00\x00\x00\xf0\xbf\x00\x00\x00\x00\x00\x00\xf0?\x00\x00\x00\x00\x00\x00\xf0\xbf\x00\x00\x00\x00\x00\x00\xf0?\x00\x00\x00\x00\x00\x00\xf0\xbf\x00\x00\x00\x00\x00\x00\xf0?\x00\x00\x00\x00\x00\x00\xf0\xbf\x00\x00\x00\x00\x00\x00\xf0?'
p86
tp87
bsg33
g75
sg40
g18
(g19
(I0
tp88
g21
tp89
Rp90
(I1
(I1
tp91
g28
I00
S'\xb1(\x98\xabN\xd5\xda?'
p92
tp93
bsg47
(dp94
g21
g18
(g19
(I0
tp95
g21
tp96
Rp97
(I1
(I1
tp98
g28
I00
S"\xeb'\rsv\xc3\xaa?"
p99
tp100
bsg55
g18
(g19
(I0
tp101
g21
tp102
Rp103
(I1
(I1
I21
tp104
g28
I00
S'"A&\xff\x06\x10\xdb?x\xc2"\x03N\xc1{?P}\x02\xdb\x86\xab\xa6\xbf\x9f\x0b\xaf\'\xf8q\xda\xbf\xb8\x05\xe1\xa8\xbb\xa9\xdf?\xe4\xcd~\x96\n\x92\xd7\xbf\xf5q\x92\xa3KN\xd1?\xb3\xec\xa4\x82k\x9d\xd8\xbf\xf8\xed\x11E\x9f%\xd1?\xe8S\xf4\xa6\\\x14\xb5?1\xea<\x91<\xc6\xd0\xbfG\xadbNh\xc5\xd3\xbf\x82\x98>L\xee\xb6\xd2?h\xb6\xe1Y\\\xc3\xd1\xbf4\xe8\xd8\x80\xab\xba\xcc?X\xb3\xcd\x07J\x87y\xbf"\x84Jt\x97Z\xd7?\xd0\xad.\x03\xc5X\xe0?\xfa\xdea\xce\xc4\'\xd1\xbf\x19^\xcc\xe7\xa9M\xd0\xbf\x87\x86\xf3\xe4\xbb\xe5\xbd?'
p105
tp106
bssg62
g63
sg65
g18
(g19
(I0
tp107
g21
tp108
Rp109
(I1
(I1
I2
tp110
g28
I00
S'\x00\x00\x00\x00\x00\x00\xf0\xbf\x00\x00\x00\x00\x00\x00\xf0?'
p111
tp112
bsg72
g18
(g19
(I0
tp113
g21
tp114
Rp115
(I1
(I1
tp116
g28
I00
S'\x1f\xc1H\x0b8]\xd9?'
p117
tp118
bsbasg14
I38
sg15
I1
sg17
g18
(g19
(I0
tp119
g21
tp120
Rp121
(I1
(I38
I2
tp122
g28
I00
S'\x00\x00\x00\x00\x00\x00\x00\x00\x00\x00\x00\x00\x00\x00\xf0?\x00\x00\x00\x00\x00\x00\x00\x00\x00\x00\x00\x00\x00\x00\xf0?\x00\x00\x00\x00\x00\x00\x00\x00\x00\x00\x00\x00\x00\x00\xf0?\x00\x00\x00\x00\x00\x00\x00\x00\x00\x00\x00\x00\x00\x00\xf0?\x00\x00\x00\x00\x00\x00\x00\x00\x00\x00\x00\x00\x00\x00\xf0?\x00\x00\x00\x00\x00\x00\x00\x00\x00\x00\x00\x00\x00\x00\xf0?\x00\x00\x00\x00\x00\x00\x00\x00\x00\x00\x00\x00\x00\x00\xf0?\x00\x00\x00\x00\x00\x00\x00\x00\x00\x00\x00\x00\x00\x00\xf0?\x00\x00\x00\x00\x00\x00\x00\x00\x00\x00\x00\x00\x00\x00\xf0?\x00\x00\x00\x00\x00\x00\x00\x00\x00\x00\x00\x00\x00\x00\xf0?\x00\x00\x00\x00\x00\x00\x00\x00\x00\x00\x00\x00\x00\x00\xf0?\x00\x00\x00\x00\x00\x00\x00\x00\x00\x00\x00\x00\x00\x00\xf0?\x00\x00\x00\x00\x00\x00\x00\x00\x00\x00\x00\x00\x00\x00\xf0?\x00\x00\x00\x00\x00\x00\x00\x00\x00\x00\x00\x00\x00\x00\xf0?\x00\x00\x00\x00\x00\x00\x00\x00\x00\x00\x00\x00\x00\x00\xf0?\x00\x00\x00\x00\x00\x00\x00\x00\x00\x00\x00\x00\x00\x00\xf0?\x00\x00\x00\x00\x00\x00\x00\x00\x00\x00\x00\x00\x00\x00\xf0?\x00\x00\x00\x00\x00\x00\x00\x00\x00\x00\x00\x00\x00\x00\xf0?\x00\x00\x00\x00\x00\x00\x00\x00\x00\x00\x00\x00\x00\x00\xf0?\x00\x00\x00\x00\x00\x00\x00\x00\x00\x00\x00\x00\x00\x00\xf0?\x00\x00\x00\x00\x00\x00\x00\x00\x00\x00\x00\x00\x00\x00\xf0?\x00\x00\x00\x00\x00\x00\x00\x00\x00\x00\x00\x00\x00\x00\xf0?\x00\x00\x00\x00\x00\x00\x00\x00\x00\x00\x00\x00\x00\x00\xf0?\x00\x00\x00\x00\x00\x00\x00\x00\x00\x00\x00\x00\x00\x00\xf0?\x00\x00\x00\x00\x00\x00\x00\x00\x00\x00\x00\x00\x00\x00\xf0?\x00\x00\x00\x00\x00\x00\x00\x00\x00\x00\x00\x00\x00\x00\xf0?\x00\x00\x00\x00\x00\x00\x00\x00\x00\x00\x00\x00\x00\x00\xf0?\x00\x00\x00\x00\x00\x00\x00\x00\x00\x00\x00\x00\x00\x00\xf0?\x00\x00\x00\x00\x00\x00\x00\x00\x00\x00\x00\x00\x00\x00\xf0?\x00\x00\x00\x00\x00\x00\x00\x00\x00\x00\x00\x00\x00\x00\xf0?\x00\x00\x00\x00\x00\x00\x00\x00\x00\x00\x00\x00\x00\x00\xf0?\x00\x00\x00\x00\x00\x00\x00\x00\x00\x00\x00\x00\x00\x00\xf0?\x00\x00\x00\x00\x00\x00\x00\x00\x00\x00\x00\x00\x00\x00\xf0?\x00\x00\x00\x00\x00\x00\x00\x00\x00\x00\x00\x00\x00\x00\xf0?\x00\x00\x00\x00\x00\x00\x00\x00\x00\x00\x00\x00\x00\x00\xf0?\x00\x00\x00\x00\x00\x00\x00\x00\x00\x00\x00\x00\x00\x00\xf0?\x00\x00\x00\x00\x00\x00\x00\x00\x00\x00\x00\x00\x00\x00\xf0?\x00\x00\x00\x00\x00\x00\x00\x00\x00\x00\x00\x00\x00\x00\xf0?'
p123
tp124
bsg33
g36
sS'trainf'
p125
g0
(cneurolab.core
Trainer
p126
g2
Ntp127
Rp128
(dp129
S'_train_class'
p130
cneurolab.train.spo
TrainCG
p131
sS'__module__'
p132
S'neurolab.train.spo'
p133
sS'params'
p134
(dp135
S'epochs'
p136
I50000
sS'train'
p137
(dp138
S'rr'
p139
I0
ssS'goal'
p140
F2e-05
sS'show'
p141
I0
ssS'defaults'
p142
(dp143
g136
I500
sg137
(dp144
g139
I0
ssg140
F0.01
sg141
I100
ssS'error'
p145
(lp146
cnumpy.core.multiarray
scalar
p147
(g28
S'\xb8\xba\xd2e\x86%j@'
p148
tp149
Rp150
asS'__name__'
p151
S'TrainCG'
p152
sS'__doc__'
p153
S'\n    Newton-CG method\n    Using scipy.optimize.fmin_ncg\n\n    :Support networks:\n        newff (multi-layers perceptron)\n    :Parameters:\n        input: array like (l x net.ci)\n            train input patterns\n        target: array like (l x net.co)\n            train target patterns\n        epochs: int (default 500)\n            Number of train epochs\n        show: int (default 100)\n            Print period\n        goal: float (default 0.01)\n            The goal of train\n        rr float (defaults 0.0)\n            Regularization ratio\n            Must be between {0, 1}\n        \n    '
p154
sbsS'connect'
p155
(lp156
(lp157
I-1
aa(lp158
I0
aa(lp159
I1
aasS'errorf'
p160
(ineurolab.error
SSE
p161
(dp162
bsg65
g18
(g19
(I0
tp163
g21
tp164
Rp165
(I1
(I1
I2
tp166
g28
I00
S'\x00\x00\x00\x00\x00\x00\xf0\xbf\x00\x00\x00\x00\x00\x00\xf0?'
p167
tp168
bsg72
g115
sb.