ccopy_reg
_reconstructor
p0
(cneurolab.core
Net
p1
c__builtin__
object
p2
Ntp3
Rp4
(dp5
S'layers'
p6
(lp7
g0
(cneurolab.layer
Perceptron
p8
g2
Ntp9
Rp10
(dp11
S'initf'
p12
cneurolab.init
initnw
p13
sS'ci'
p14
I37
sS'co'
p15
I51
sS'cn'
p16
I51
sS'inp_minmax'
p17
cnumpy.core.multiarray
_reconstruct
p18
(cnumpy
ndarray
p19
(I0
tp20
S'b'
p21
tp22
Rp23
(I1
(I37
I2
tp24
cnumpy
dtype
p25
(S'f8'
p26
I0
I1
tp27
Rp28
(I3
S'<'
p29
NNNI-1
I-1
I0
tp30
bI00
S'\x00\x00\x00\x00\x00\x00\x00\x00\x00\x00\x00\x00\x00\x00\xf0?\x00\x00\x00\x00\x00\x00\x00\x00\x00\x00\x00\x00\x00\x00\xf0?\x00\x00\x00\x00\x00\x00\x00\x00\x00\x00\x00\x00\x00\x00\xf0?\x00\x00\x00\x00\x00\x00\x00\x00\x00\x00\x00\x00\x00\x00\xf0?\x00\x00\x00\x00\x00\x00\x00\x00\x00\x00\x00\x00\x00\x00\xf0?\x00\x00\x00\x00\x00\x00\x00\x00\x00\x00\x00\x00\x00\x00\xf0?\x00\x00\x00\x00\x00\x00\x00\x00\x00\x00\x00\x00\x00\x00\xf0?\x00\x00\x00\x00\x00\x00\x00\x00\x00\x00\x00\x00\x00\x00\xf0?\x00\x00\x00\x00\x00\x00\x00\x00\x00\x00\x00\x00\x00\x00\xf0?\x00\x00\x00\x00\x00\x00\x00\x00\x00\x00\x00\x00\x00\x00\xf0?\x00\x00\x00\x00\x00\x00\x00\x00\x00\x00\x00\x00\x00\x00\xf0?\x00\x00\x00\x00\x00\x00\x00\x00\x00\x00\x00\x00\x00\x00\xf0?\x00\x00\x00\x00\x00\x00\x00\x00\x00\x00\x00\x00\x00\x00\xf0?\x00\x00\x00\x00\x00\x00\x00\x00\x00\x00\x00\x00\x00\x00\xf0?\x00\x00\x00\x00\x00\x00\x00\x00\x00\x00\x00\x00\x00\x00\xf0?\x00\x00\x00\x00\x00\x00\x00\x00\x00\x00\x00\x00\x00\x00\xf0?\x00\x00\x00\x00\x00\x00\x00\x00\x00\x00\x00\x00\x00\x00\xf0?\x00\x00\x00\x00\x00\x00\x00\x00\x00\x00\x00\x00\x00\x00\xf0?\x00\x00\x00\x00\x00\x00\x00\x00\x00\x00\x00\x00\x00\x00\xf0?\x00\x00\x00\x00\x00\x00\x00\x00\x00\x00\x00\x00\x00\x00\xf0?\x00\x00\x00\x00\x00\x00\x00\x00\x00\x00\x00\x00\x00\x00\xf0?\x00\x00\x00\x00\x00\x00\x00\x00\x00\x00\x00\x00\x00\x00\xf0?\x00\x00\x00\x00\x00\x00\x00\x00\x00\x00\x00\x00\x00\x00\xf0?\x00\x00\x00\x00\x00\x00\x00\x00\x00\x00\x00\x00\x00\x00\xf0?\x00\x00\x00\x00\x00\x00\x00\x00\x00\x00\x00\x00\x00\x00\xf0?\x00\x00\x00\x00\x00\x00\x00\x00\x00\x00\x00\x00\x00\x00\xf0?\x00\x00\x00\x00\x00\x00\x00\x00\x00\x00\x00\x00\x00\x00\xf0?\x00\x00\x00\x00\x00\x00\x00\x00\x00\x00\x00\x00\x00\x00\xf0?\x00\x00\x00\x00\x00\x00\x00\x00\x00\x00\x00\x00\x00\x00\xf0?\x00\x00\x00\x00\x00\x00\x00\x00\x00\x00\x00\x00\x00\x00\xf0?\x00\x00\x00\x00\x00\x00\x00\x00\x00\x00\x00\x00\x00\x00\xf0?\x00\x00\x00\x00\x00\x00\x00\x00\x00\x00\x00\x00\x00\x00\xf0?\x00\x00\x00\x00\x00\x00\x00\x00\x00\x00\x00\x00\x00\x00\xf0?\x00\x00\x00\x00\x00\x00\x00\x00\x00\x00\x00\x00\x00\x00\xf0?\x00\x00\x00\x00\x00\x00\x00\x00\x00\x00\x00\x00\x00\x00\xf0?\x00\x00\x00\x00\x00\x00\x00\x00\x00\x00\x00\x00\x00\x00\xf0?\x00\x00\x00\x00\x00\x00\x00\x00\x00\x00\x00\x00\x00\x00\xf0?'
p31
tp32
bsS'inp'
p33
g18
(g19
(I0
tp34
g21
tp35
Rp36
(I1
(I37
tp37
g28
I00
S"\x04\x84\x14\xf7\xb5L\xb6?\x18Z\x05\xc6\x9e\xf2\xb0?\xb1\xa7<\xc4\\h\xc5?\x9d\xd1K\xf5s\xc2\xaa?\xf9\x18\x9c\x8f\xc1\xf9\xb8?\x9e\xd1K\xf5s\xc2\xba?\x7fNX\xc3;\xa3\xc7?u\xe3\xdf[GP\xca?\xdb\xb6m\xdb\xb6m\xdb?\xeek\x99,r\x80\xe0?\x7fNX\xc3;\xa3\xc7?\xf9\xf7\xd6\x11\x94f\xd3?U?'\xac\xe1\x9d\xd1?\xf0\xad#(\xcd\xa6\xcb?lxg\xf4R\xfd\xcc?L\xf5s\xc2\x1a\xde\xc9?\xf9\x18\x9c\x8f\xc1\xf9\x98?i6\xdd\xf8\xf7\xd6\xb1?\xd1*0\xf6\x94\x87\xc8?7\xdd\xf8\xf7\xd6\x11\xc4?\xb1\xa7<\xc4\\h\xc5?\xda\x95\xa8]\x89\xda\xd5?\xee\x8c^\xaa\x9f\x13\xd6?_\xcbd\x91\x03\x84\xd4?\xfb\x18\x9c\x8f\xc1\xf9\xa8?\r\xef\x8c^\xaa\x9f\xa3?\x0e\xef\x8c^\xaa\x9f\xc3?\xbb\x12\xb5+Q\xbb\xb2?\x04\x84\x14\xf7\xb5L\xb6?\x0e\xef\x8c^\xaa\x9f\xc3?8\x1f\x83\xf318\xbf?\xbb\x12\xb5+Q\xbb\xb2?\x9e\xd1K\xf5s\xc2\xca?\xa6\x1b\xff\xde:\x82\xd2?\xda\x95\xa8]\x89\xda\xd5?B\x8a\xfbZ&\x8b\xcc?L\xf5s\xc2\x1a\xde\xc9?"
p38
tp39
bsS's'
p40
g18
(g19
(I0
tp41
g21
tp42
Rp43
(I1
(I51
tp44
g28
I00
S'\xec\xec<d62\xf3\xbf%\x11J1=\xa2\x18@C\x1aC\xc4\xdf\xcd\x11@#\x81\xda\xd7\x98M\r\xc0\x91\xe2\xe2\xd4L\xfa\t@~\xd4\xcdM\xfd\\\x05@\xb9\x07\x05\xda\r\xfe\x02@\x84\x98Ov\xb7\x82\x10@\x9as\xc2\xb3\x06\xab\x15@\xe6fD\xa2\x8c\x15\x06\xc0\xf05\x1f$\xb8\xa0\x9d?l\xa8\x08\xd9OW\xc4?\x03\xc78\xf7v\xe9\xf3?kW\x102u\xf4\xf5\xbf\xb6\xaa\xf5X\x83Q\t@\x904\x12y\xcf\xa5\xdd?\xf4{\x90\xf1P3\xe0\xbf*\xd1\x1c\xb9<\x11\t@\xae0+\xfa\xb9\xde\xea?\xe4l\x04\xf3\xf3\xc9\x06@ \xadez\xf9\x05\xb7\xbf\xe5NY\xb4) \x07\xc0\xa3\x8e\x9f\xe7d\xb2\x12\xc0\xb8\xb0~\x1f+\x7f\x07@\xc2\xeb\xc7,\x96\x95\xe5\xbf\x92\x05\xa6\x92h\x7f\x0b@\x05\x1d\n\x04\x16\xe6\xe7\xbf\x90&;k\x80\xb7\xb9?\xd2\xf0J\xfa\x1bm\xe3?wG\xd4H\xd5\xb9\xf8\xbf\xb1\xd3\xa0\xacF\xe5\xf7\xbf\x02\xb56\x9a]\x99\x05\xc0\xef\xf6]\xf7\xa9\xd0\x14\xc0^%\xa9\x17R\xfb\x0e@\n\xebRzo\xd3\xf2?\x98s)]\x82\xaa\x01\xc0c.\x8b/\xf3g\xe4?\x04<\xfa\xd0C\x06\xc1\xbf\xe0\x881\xd1\x02\x89\x0e@\xb7+@\x10\x04\x05\x11\xc0g\xb3\x85\xd664\x06@\xe0\x80\xf6e}E\xb8?\xcf.,\xc9Y\xf8\x03\xc0\xb3{\x97z\x03+\x07@Y\x15NC\x1c\xe5\x12\xc0?\x03D\xdcXx\r@\xe4\x9f#\x8e\xa0\x98\xfe\xbf\xc6\x16`\x91\xbe{\t@\x07\xbe\x1c\xeba1\x13@p\xf4\xd0\x9euu\xd9\xbfB6\xfe\xa0\x12\x94\xc5?'
p45
tp46
bsS'np'
p47
(dp48
g21
g18
(g19
(I0
tp49
g21
tp50
Rp51
(I1
(I51
tp52
g28
I00
S'\xa9\x1d\xceL\x89\x1b\xf6\xbf\xfe\xd5\x1b\xe5bR\x1b@\xaa\x1a\xcd\xb1el\x13@Q|\xb6\x8cjX\x10\xc0\xe2|dP\x8cb\x08@\xe8\xc4:\xd7\xdd\xde\n@\x08\xe7\xb6\x9eiA\x08@\xd9\x1a\x81B\xefL\x12@o\x91 L\xe4\x85\x16@\xb5\x19\xb1\x93\xc5:\x0e\xc0$\xaf6\x96\xc3F\xdb\xbf\xde\xb2\x05\xf5G5\xee?S1\xd5*U\xfa\xb9\xbf\xe9i\x19c\xcb\x7f\x03\xc0\xc3\x16\xa5D\xe67\x0c@9r{\xb4K\xa3\xf5?qi\xa6]\xf8_\xeb\xbf\x91\x9b\xd3\xe3\xa1\x1e\x12@\xf8m\r\xdf5|\xe0\xbf\xb2>\x03bH\xc3\xeb?\xd3\xf6\x12Wn \xe1?\xa6\x86\xc7\x14\xb0\xd3\r\xc0ua\x9b\xc8\x1d\xa5\x15\xc0\x11\xcb\xab=\xe0=\x0c@\x10\x04\xce;\x88\xc0\xe0\xbf&\x9d?>h\x15\x13@\x00F\x97~\x14\x06\xea\xbf\xd2\x1a\xb4>H\x8c\xf2\xbf\x0fR\xcd\xf1\x7f,\xf1?q\xc1z\xddt\xb6\x03\xc0\xac\xab\xa30d\x85\xfc\xbfa\xa5\x82\x1b\x89\\\x05\xc0\xfeo\xadp\xb0&\x1a\xc0\xb6v\xc7u%\xd6\x12@\x9c\xed?\xbb\xf7\xc5\xc3\xbf\xb3\x9b\xad\x05\xc6M\x02\xc0\xe1D\xd4\xea\x85\xbd\xca?\x8e^\x16\xe4\x82\xec\xe0?|\xbaj\x05\xe6\xd0\x12@*\xb2\x83\xb2}\xc9\x12\xc0\xb2@\x11\x88\x8e8\xff?\xb1\xf6\x11\x97\xa8\x8f\xe8\xbf e\xd2\xc6?T\x05\xc0\xe5\x1f\x7f\xb0e2\xd0?\x92\xc9\xf2(\xad\x88\x16\xc0\x00-\xe9@\t\x88\n@\xa5\xa0\xb0\xbe\xc2\xce\x01\xc0g\xce|\xb3&2\n@\x84\x8b|"M\xed\x14@\xd0\xd1\x84\x0c\xce\xeb\xed\xbf\xa3\xc9\x81y\x11s\xd4\xbf'
p53
tp54
bsS'w'
p55
g18
(g19
(I0
tp56
g21
tp57
Rp58
(I1
(I51
I37
tp59
g28
I00
S'.\xa5\x81$#\xa7\xdf?\x98%\xb5L=m\xe8?\xd2w\x0b7\xa6\xe5\xb4\xbfs4\x1dhkw\x97\xbf\xae\xe4p\x976\xbb\xd0\xbfy\xab\x94\xac\x932\xde\xbf(\x07D<0\xd0\xdb?\xf2\xb7\xac\xea\x93\xa3\xcb\xbfT\xd3MK\x12\x15\xde\xbf\x8c\x11\x9e"\x10\xb4\xb4\xbf\xa6(M\x97\x01<\xe9\xbf"\xeaa>\xaf\xaa\xce?\xf1\x99\xad\xfcRj\xe3\xbf\x95\xc8x\xaai\x11\xd3\xbf\x1c\xf4\x9e\x1d\x8c\x11\xca?\xecrB\x1b\xf6i\xe6\xbf\xd6\xea\xf69\xa5\x8c\xe3\xbf"/*\x91+\xf3\xdc?3\x9e~%K8\xd5?Z\x85\x9e\x1b\x10b\xe2?\xaf\xd7\x185\xf0b\xea?6\x9a\xce\x82]u\xd1\xbf\x83\x03*Tw6\xc0\xbf\xdb\'\xb4\x0b]_\xe2?\xd1\xc8\xeb\xcc\xe2\x1c\xd8\xbf\xdb\xd5\xaez\xccK\xec\xbf\x86-\xde\x0bJ~\x92\xbf9\xc2\xd3c*4\xc1\xbf\xd76\xf2\x15\xd0\x9a\xcc\xbff?\xfa\x9a\xd2Y\xc4\xbf\xc1D\xd5\xf9&\xdf\xe1?\xcdOR\x941\x83\xe8\xbfl\xd6u\x03\x19\xac\xe6?K\x16\xac4G\xc7\xdd?#\x91\xb6O\x12G\xec?\xfe\xae\xf1IL\x8b\xe6\xbf\xc5\x05P^qa\xdf? \x0f\x9a\xef\x91\x08\xe9\xbfQ\xefp\xa5(\xb5\xe5\xbf{\n\xbf\xde\x85\x18\xd8\xbf\xe1E\xfb\xab\xbfz\xe6?\xc8\xda\x96\xb2\x82\xbb\xe8\xbf\x0cMNo\xa8\xf2\xbc\xbf\xedT*\x85\x1aF\xc3?\x85\r\xb3\xcba\x16\xbb\xbf\x08\xed\xba\xde\xb6\xf1\xe3\xbfy0<=\x85\xf2\xd6?\xb6@\xd7B\x8d=\xd1?]l\xf6\xe8~`\xc2?\x98\x8fuJ\x94i\x83\xbf\xcc}/\x1a\xfe}\xe0?\x80\xaeU=w#\xd2?\xbfR`\xc9\xca\xbdZ?\xaa\xa3\'\x97\xec\x81\xcc\xbf\x96\xa1d\x8eD\xbf\xd5?\xe6\x15\xa32\x91\xf1\xc4\xbfY\x1f\xe9\x1c\xa4\xdd\xe3\xbf6\xa0\x8e\xb2\x88\x7f\xe8\xbf*.\x9bK":\xe8?C\xee6\xe2g\x88\xda\xbf\x14\xf2\xde\xd0\xc4;\xe6\xbfC\xe7K\xe2\rq\xdf\xbf\xeeA\xefR\x06\xe6\xe8\xbf\x16\x92\xdb\xb5\x0b\xc4\xe8??\xb5[B5H\xe8\xbf\x10\x00Xaa~\xcc\xbf\xee\x0bQ>TP\xb9?\xb8]M\xd2\x0f\x0e\xe1?\xfa\xfer.n\x0c\xe9\xbfj\x10Ee\xbf\xf0\xe1?l\xf2`\xe7\xff4\xd1\xbf\xb8{(\xeb\x8c-\xe7\xbf\x1e\x87s\x03\xbd\xcf\xc5\xbf"}l\xb5\xf0\x15\xd2\xbfJ\xc3m\xf12\xaf\xeb\xbfh\xa3nQ\x93\x11\xcc\xbf\x88\xdb\x14\xfeU\x0c\xe1\xbfE\xd1q\x13\x17U\xc4?\xe4\xad\xe6\xbf\xc4\xa8\xed\xbf\'\x9a@Xxb\xd7\xbfE\xda\xce\xf2\x9b\xc2\xb3\xbf\xa7\xf1.eq\xa2\xe6?\xac\x082\xc1\xb15\xb8?|\x7f\xc2\x84\x99\xa1\xea\xbf\x0f:\xc3\x9dWf\xb3\xbf$\xcd\xe5\x0e\x989\xe2\xbf\x8a\xd1@\xd7(\x8c\xdb?7\xd8\xf5!\xb7\xe4\xaf\xbfSH\x02xSV\xe6?\xe7\x02\xb8\xe8\x1d=\xd1\xbf\xad\xd8L\xd3#\xe9\x8e\xbf\xbdC*\x14\x06T\xd1\xbf\xa6\x9e\xc5\xaaP\x9c\xc6\xbf\x1d\x07\xc3\x1faq\xdd\xbf*Y`\x16N;\xca?\xd94\x0c\x0c&1\xed?\xadu4\xe2\xe2\xfc\xe3\xbfG\xb2\xca\xe9[A\xd6?\xe6\x88\xa7\xfb\x96*\xd9\xbf\x97a\xe3r`\x19\xe3\xbfU\x10\xf4\xd3\xbd\x94\xe8\xbf/}<\xa0"\xc4\xd1?\xbd\xa0+>\x9e\xa3\xe4?\n\x1c\xafW\x00}}?@$\xfc\x91\x06\xda\xe2\xbf\x19\x10\x02\xd3\xa7X\xe0?\xaf\x8f\x1a\x9a\xc7\x1bR\xbf\x9c\x8b\xd5\xf3\xb4\xab\xd6?\x08\xe8\x82\xbc:\x94\xd0?_$\xb17L\xa6\xe2?\x11\xab\x1f\xf0U-\xee\xbfJ\xbcof\xbc\xd8\xe2?MMDY\xbf\x81\xd3?\xd8v\xa0\x91m\xb3\xe5\xbf\xe6\xcb\xdf\x9c3\xe4\xcf\xbf\x10F3\xcb\xb7\xcb\xe8?*\x82\xce4bl\xe0\xbf\xcch\xe8\x18\xf0\xb9\xe0?\x02\xc5\r3\xf6\x8e\xe5?\x13\x95\x00\x86\x9d\x87\xd1?\xb7\xd7\x9eW+Z\xd4\xbf\xbd\x92.\xed\x9do\xd2?/&w.\xa0\xab\xde?\xe5\xaa>\xd2 #\xb8\xbf\xf2\xc4\xaa\xf1\xc2Z\xe8?J\xc8!)}r\xe0?`\xb8(I\xbfC\xb3\xbf\xc6\x9eZ\x01 x\xe3?\xd0\x11\xc5\x1esf\xe6\xbf\xe1n,p$\xe9\xe0\xbf\xb1\x0b"\r\x9a\x81\xea\xbf\xa9\xaa\x8d\x86,\x88\xc7\xbf\x87\xf7U^~\xad\xe6?V\xd0t\x06B\x17\xe3\xbf=\x9e\rD\xc5\xab\xb9\xbf\xdb\xc6\xceQE\x97\xeb?\x98\xfdU\xd1\x08x\xe3\xbf*\x06V]\x12h\xd2?\xfeF\xf7}\xd9\x12\xd0?U~\x1e\x01\xfa6\xd4?\xe6\xa3\xec\xf2\x9f \xdd?\x8c\xe2\x11\xfa\x04\xaa\xe0\xbfQ\xc7\xf1\x19N\x03\xd9?\x10\x17La\xa6\xbe\xd5\xbf\xc9\xfc%Gk3\xe5?\xdf\xf2\x95\xf9\x03\x8b\xc0?\xbdB\x0f\xb2v;\xcf\xbf\x14\xdc\xa2\xc2\xce\xed\xe4\xbf\xd1\xa3.\x99On\xe1\xbf\x8f\xd3\xb4JCy\xdf?\xb8\'[|\xfb\x90\xda?\xde=!\x10`\xb1\xc5?8\x9b\xd7Qm\x1a\xd8\xbf0)\xed\xc6\x88d\xc4?\\,\x18t\xa9\xfe\xd9\xbf\x83s\x16\x15\x0c\xdd\xe3\xbfY\x86\x82\xa7\x18\xb0\xa0?\xe8 \xc0\xc86k\xdc?C\xdb\xfb\xc1\xa4\xa2\xeb\xbfn(I\xc4wI\xda?\xca\xb4\x86\x83\xae\x8b\xce?\x1b\xd4\xac\xab& \xde\xbf\xa5\x10@\xa03"\xe2?]\xa1\x1f\x17\x11/\xd7\xbf0\x05\x89\xf9\x10,\xec\xbfj\xeda\xda\xfcq\xbd?\xea\xc0\xc9p\x98}\xc5?Qfc4z}\xeb?qM\xcc_\xf1\x82\xc1\xbf\xc6&\x1fn#\xe5\xc3\xbf\x07F2\xa6d\x86\xd0?\x02\x0c\xd7~\xa3%\xbe?\x1f6IsO\xcf\xba?\xad}\x9c*\x82=\xed\xbflp\x9cos\xa6\xa7\xbf\x8f c\t\xc7\xf0\xeb\xbf\x94\xdd\xce\x1a\x19A\xd0\xbf-\xf5MnT\r\xea?\x98x\xf7\xdc\xe9|\xd5\xbf\xc5\xe5\x10.\x81L\xc5?O/\xc6\xf0\x04\x96\xbb\xbf\xa3!\xbf\xabK~\xed\xbfY\xf0\xd6\xbf]H\xe6?\xdc\x83\x19\xa1\x84.\xe4\xbf\xa7&\x8b\x05!\x1b\xe7?\xab\x80\xa2\xef\xae\x0b\xe3?\xf4(\xc5\xdb\x87\xbe\xa1?\xdd\xdd\xf2\xf8\xa6\xc2\xe0?\xff$\x83\x99\x9b\xaf\xd9\xbf\x0f\xfa\x92v\x05F\xe9\xbf\xe9C\xc8r\xe7 \xe0\xbf\xd3\xc1l\x9ey\x95\xed\xbf.`2:`\x17\xd8\xbfL\xe9\xfd\xae\xda<\xe7\xbf\xcc\xa7B\xd3A0\xe4?\xbes4\xe6\xc1\x08\xdc?4r?\x9bA;\xd1?^\x95\xe8\xb3)f\xd6\xbf\xb9\x02s\'K\xa9\xdb?n\x19\'\xb5(M\xd7\xbf\x13n|\xc0l\xde\xd0\xbfW\xec\x0b\x1a)_\xca\xbfy\xecM\xa4\xff\xdb\xb6?\xe1|4Go\xd5\xcb?R\xde\xb7\xf1Bb\xe0\xbf\xdd\xd2\xe4\x8bp>\xe5\xbfOC4b\x8a\xaa\x92\xbf3\x13:?J\'\xe3\xbf\xb9i\xdf\xe3A\xc5\xea?\xd9\xd1\x88t\xaf\xc2\xe7\xbf\xa9\xc2D\x16\xee\xaf\xe2\xbfxIc9\xbc\xc6\xc0?\xdd\xb9k\x04\xe1\xa0\xd8?\xd9\xcc\x08\xc6h-\xd3\xbf\xdc\xba\x94\xc9\x02\x94\xe9\xbf\xfa\xbd-\xa4 \x1a\xcb?\xba\xd69\xd1\x8dn\xac?Y\x17t\x1f\xd5X\xe4\xbf\xbaZ\t\xc6\xa6\x05\xdb\xbfA1\xefok\x82\xc5\xbf\x8c\xa1\'\xe0\x86\x1c\xea?\xfc\xd6\xa8\x86\x1c|\xe2\xbf\xd0\xf8C+\xe1M\xa3\xbf\xbbj.Y\x99f\xcb\xbf\x7f\xf0\x07\xc5HG\xc3?\xab\x1d\xf7\\Q\x9f\xd9?\x9b\x8d\xb6\xc0N\x17\xb2\xbf\xab{\xee\xec\xb76\xe9?x\x9aB\xaf\x8c\x0e\xc3?\xf2\xbf\xfe\x93I\x08\xe1\xbfF-"\xb2\x81\x86\xe8?h4\xf4xD\xe8\xd4\xbf\xddT\xc4&\x15\xd6\xe6\xbf\xd9\x9b\xd73\xf9a\xe3?\xcb\xcc\x96\'\xac\xb2\xe2?\x98\xd4\x0e\xea\x01\xfe\xee\xbf\x81\xc2\xaa\x10\xe7\x84\xe4\xbf\xe1|\x96W\x03N\xc2\xbfK\xcd\x19\x90\xa0x\xbb?\x99\xa0\\JW\xd2\xd9?M\x02D\xd8\xf9\x12\xd4?r\xe7\x9d\xa2\xfb\xc5\xe0?\x044f"f\xd0\xe7\xbf`\x14\xe9\xe4uF\xe5?y\x14\x881\x9a&\xe0\xbf\xfd\xaf\xb4l\xa4\x04\xe9\xbf"QL\xec\x9f\xa8\xe3?\x18C+\x1f\\g\xe6\xbf:v\x18\xf1\xd4\x98\xdc\xbf\x8c\x80^\xe5\xe7\x82\xe2\xbf\xd9*s\'\x11\xf9\xbc?6-\xbe\xcf\x04\xa8\xec\xbfQ\xbaY\xca\xff\xb9\xd7?\xbf3H\xca\x83C\xd3?6\x05\x9e#\xbc\xd7\xd1\xbf++V\xeb\x8bv\xe5\xbf[\xae\xe6$l4\xcd\xbf\xa2_7k\x93\xbc\xc7\xbf+\x1e\x14\xf8~<\xb8?\x17X\xccVR\x0f\xdd\xbfP[\x87\xde\x108\xeb\xbfO\x94\x1a\xf0\x17\x16\xe1\xbf-)C\x08\xbe\xb3\xd2\xbf.~\x03\xacD>\xda\xbf\xb0\xc0\xb2\xc1q\x00\xba\xbf\x01\xd5\xbc6\xe6\x87\xd1\xbf\xac\xa6\x81<7\xbb\xb1\xbf\r\x9eeG\xcfQ\xe1\xbfM[\xab\xba@\x02\xc7\xbf\xc6\xcb\xbb\x08\x8d\x9e\xd5\xbf\xf5\xc1[-\xfe\x85\xd2\xbf\x06K\x16\x842\x8c\xdb\xbf%\'\xde\x86\x1d\xaa\xdf\xbf\xe75;\x90\xc4L\xe8?B\x9d\xcf\xa3\xd4\xf3\xcb\xbfBWw5\x99\x05\xe8\xbf\x91\xd3\x9cm\x84%\xdb?c)R\xb9\xd1E\xcc?t\xed\xc5\xa3\xc4*\xe1\xbfa\xf1\xe1\xfd\x93=\xc7\xbfR\xde\xa0\xec\xd3\xe9\xea?\x1a\xf1\x03t\xa84\xdd?\x8f\x13\xa4H\xa3\xa8\xd3\xbf\x8b\x8e\n\xe3\xffs\xd9\xbf\x02H\xafw\xcae\xdc\xbf\x86J\xa0\x9a\x87x\xec?\xd484^\x81\xc7\xa0?.\xd2\xa7\xbe@K\xee?=\xaa\xd4pK\xc6\xc0\xbf\xe8\x1e\xae\xbbB7\xe7\xbfT\x8e\x13\xce\xd3t\xc4?\x85`t\x9d.\xb4\xcd\xbf\x869\xa3C4\x0c\xc6?Q\x9dd\xb1sJ\xe8\xbf\xa4\xeb\x88\xa3\xee:\xeb?\n\xc7\xa3\xbc|y\xe5?\xcez\xbe3e\xca\xe9\xbf\x1d\xf4\xd7C]\x0b\xc4\xbf\\s\xca@\x1c8\xc6?\x8b\xd0lV\xe8_\xe5\xbfoR\x9a#\x80\x91\xd1\xbfC\xf8B\xef\xb8\xbf\xd2\xbfWl?C\xa53\xe4?A;\xc4\x1aV\x0e\xc8?5\xe9\xe4\xec\xd4\xbb\xe3?9v\xcbA\x1d\x1eR?(:\x85\n\xd1&\xc2?\xe9F\xa6\xda\xf0\xbe\xe9?[\'A\x1a\xf1K\xe7\xbf\xe6\xaf\\\nkv\xbd?\xe6\xa5\xbe\xa1\xe43\xdf\xbf\xea\r\xf6\xb4\xf1\x94\xc1\xbf\xff&/\x17\xaaz\xe7\xbfd!Z\x8c\x94"\xe8\xbfk\x9c4U\xe8\x1f\xe3\xbfF\x11\x94g\xff:\xd8\xbf\xbcTk\x8f\xf6\x7f\x87\xbfu\x84d\xa4\x05x\xea?e\x04\xe8\xff\x9d\x91\xe2\xbf\xb9v\xd5\xcd\xd7\xd0\xe2\xbfXo@\x8e\xf0\x80\xd4?\xf8\xf1\x0e\xe6U\x96\xa6?\x1a\xb4MR\xcdH\xe4?k\r0*\x86\xe8\xe6\xbf\xaaY\x8c\xb8QF\xce?\xec\xa3\xb3\x96\xe2\xb6\xe9\xbf\xfe\xd6P)t\xe1\xe7\xbfV\xda;\x86b\x9a\x85\xbf_\x99\x04\xf2\xd2\xa4\xd0\xbf\xee\xee\xa6\xa8,\xed\xe2\xbf\x19\xc7&\x17\xfbI\xd0?\\\xb4\x17_+\xb8\xdc?/\xaa\xd1\xc7\xefU\xd8?O\xee\x1a\x96JB\xe3?\xe6\x9ar\x81;\x8e\xe3\xbf3\xa7N\x92\x81h\xda?G\x04P\xc4(\xb6\xe5\xbfsG\xe5\xee\xac\xc3\xe8?\x01\x18\xe5|\xff\xc2\xe7?uK\x0b\x9d\xd0f\xd7\xbfk\xdag.\x02?\xe5?\x83\xd9\x1e\x999J\xe0\xbf\xdfb\x80W\xd0\xc2\xec?\xf3Rq\x05\xb0\xa6\xc6\xbf\xb6\x13/&\xdb\xc9\xdc?\x86\xbd\x18\x90\x91"\xc0\xbf\xdc\xe9\xd9\x12>]\xcc\xbfT\xe3=\xc1\x17\x00\xd5?"_%\xc0\xff\xe6\xeb?\xbe-\x1cI)\xd3\xdf\xbf\xe6\x18\xcecG\xc8\xb6\xbf\x84TjO\x9d\xd1\xe8\xbf\xfc\xa3z>\x83\xff\xbc?\xf2-\x0b\xdei\xc7\xea?\x02\x14\x1bw\xac\xa7\xcc\xbfG @D)\xd3\xcd?1e\x00s\x84\xae\xdc?*\xe4Zte\xb1\xcd\xbftfK\xe1\xaeE\xd5?y;o2\xaa\x03\xb2?3Yi\xf1\xb16\xd9\xbf\xa8S\xb3\xd6q\xa8\xc4?\xc9\xb7\xd2\xc5\x99\xec\xe3?\xf6\xd9o\x04\xe3m\xd5\xbf\xbd/6a\xba\xb1\xd7\xbf!\xba\x8cTF;\xb9\xbfs\xe65\x10!\x8fq?3\x05\x1a\x8d\xab\xbc\xd9?\xdcPQU\x84(\xe5?oJ\\n\xa7\xe4\xee\xbf\xa3\xd3\'\xb6\x93\xcd\xde?fv.\x16\xed\xf4\xe3\xbfC=K^\'D\xe6\xbf\xf7 \xab\xf8\x9ba\xe3\xbf\xe4S\xa2\x15\'\xb8\xd9?\xd0\xabBE\xe1\xca\xda\xbf\xd1\xb8\x1e\xae\x8b\x0f\xde?\x99\x9d\xf6\x9f\xf2\xdb\xc4?\xb2QHz\x9d\xd3\xe3?\x9c\xf9\xdb~i\xea\xe4\xbf\xda\x13\r?m\xe7\xc5\xbf\xdb\xc9\xe93\xdd\x9b\xd7?>Oj^\xdc\xfe\xc8?\x9c\xf78\xeb*\n\xed?\x85g\xe6r\xccg\xd7\xbf\x00\xd1v\x01\xf2l\xe3\xbf\xb6\x95Ay\xf4\x11\xce?\xd9\xe8\x1e|\x8d\xd9\xe5\xbf\xef\xdd\xa6\xb9B0\xe4?\x02\xda\xaa\xcbe\xc1\xe7?\xdf\xd5\x7f\xa0x\xa7\xe0?\xa8a\xec\xabh\x1d\xc9?\xe8\xd1\xaa\xaaI\x18\xdb\xbfw\x07\x8d\xd1\xc3\t\xab\xbf]\xba\xf3\xcf\xb1\x0f\xe1\xbf4b\'l\xcf\x0f\xe9?\xed\xdb\xa3\x84\xda\xa6\xd6?\xb9\xb6\xfc\xa3\x08\x88\xc2\xbf\x85\xe0\xfb\'\xa4\x84\xab?\x9c\x19>r\xaba\xa6?\xd9\xbc\n\xb8$\xfd\xe9?\x8c-\x9a\x13J0\xe5\xbf\xa2\xa3,}_\x1c\xc6?h\xc1e\xbb\xbb\xf4\xe5\xbf\xc4\x025\xe3\xbf\xa3\xe6?\xe5\xaf\xbdW\r\xc2\xc1\xbf-\xd95\xee>J\xdc?\xeb\xbc\x9b:F\xf7\x9c?\xfd/\x04A\xab\'\xb4?D<\xbb6j"\xea\xbf\x1f\xabX\x81\xd1\xf0\xde?\x02\xfd\x7f\xae\x89<\xdd?\x14A\xe0\x17\xd9\xab\xe3\xbf\x0e\xf5\x1d\x80\x1cE\xb8\xbf\x86\xaf\x08\xcc \xb3\xe4?\xc9\xae\xe2>\xc6/\xc2\xbf\xc7y\xc1\xea\xda\x92\xe4?\x14\xc7qs\x7f`\xe9\xbf\xf5p<\x90\x8fZ\xe2\xbf\x7f\x9b\x90\xe7b$\xe4?{\xf3\xde\xc6t\xab\xe3?t\xb6\x9bEc \xcd\xbf\x8d\xa4\x96\xc6\xe2\xfa\xda\xbf\x1c\xbc\x00)\xbd\xad\xde?\x14\x9d\xba\xde\xaf\x02\xbd\xbf\x04\xfe\xb9\xd9_\xe2\xc4\xbfs\xf2\xf3\xdfOJ\xdf\xbfb9\x0b\xf8e\xd9\x90?K{\xc2\xcf\x83\x11\xd5?\x1e\x89R\x85Vg\xe3\xbfU\xb8P\xaf0\x96\xa6\xbf\xb2\xea\xe4\xc55\xd0\xcb\xbf\xbdQ\x9eg(\xb5\xc3\xbf\x17\xfa?h\x99D\xe9\xbf#\x81s\xb5\x9d\xb9\xe7\xbf\x95\xcaF\xd4U\xfb\xe6\xbf0\x03\x89\xae\x00\x1c\xd7?5A\xef)\x9cJ\xeb\xbf%\xaa\xfc\xcfK\xe3\xeb\xbf\x86\xe5q\xc3 7\xd0?L5Iv\xba}\xa4?J\xf2>\x103t\xe1\xbfXlOHpa\xd1\xbf\xf1\x11D\x07\x04w\xe5\xbf\x1b\xd2e9P\x1b\xef?4\xe6\xb7r\x1e"\xcb\xbf\xabB\x0b\xa2e\xfb\xd7\xbf\x90\x97\xc1u\xed\xba\x8b\xbf\xa7\xaa\x03\xbc\x18q\xd4\xbfB\xdd\x99RSq\xee?y\x11\x98D 5\xcb\xbf\xecB\xcd\xd8\xea\x90\xec?\x9a\xe5x\x89"!\xce?5\xd0\xff.\xfb\x15\xeb?5|WIx\x9d\xd9\xbf\xces\xf1\x122B\xbc\xbf-}Y+_X\x88?\x938\xef9\xde\xed\xd2\xbf\xb9\xba\xaei4\xc6\xc2\xbfy\xd5\'\x93\\\xe5\x8a?\xc3\x86\xded.\n\xaf\xbf\xc4\x02\xe8\x0cGg\xe3\xbf\x06\x9b\xa6\xff\xa1\x1a\xd6\xbf\xc6`\xf5\xa1\x1c\xab\xae\xbfU&\xdc\x1f/P\xd5\xbf\xd5l\x08\\\xfb\x0b\xe3?\xe9\xca,\x8f0\x04\xe7?\xd0~=\x90\x84@\xe4?z\xbe\xbca\xbb3\xdd?E\xd0\xd4\x03\xc2\xdd\xe1\xbfL\xba\x0e\xfb\xf8\x98\xee?\xfe?\xd9\\1!\xde?\xff\x86\xa0\x02\xec"\xe0?\xf2%\xe4K\xce\x94\xd5?\x90\xd76!7\xe8\xde\xbf\x1d\x9eB\'\x93d\xe1\xbf\x1bjQ\xe2k\xe6\xeb?\x11Q\xc4\xf1er\xa8?\xb3LW1\x10\xf9\xd5\xbf*(W\xed\xa9+\xe0\xbf,\xa5\x063|\xd4\xe9?\xa6h\xd3$\xd3\xc5\xba\xbfWGrfK\xa3\xec?\x8c{NW\xc1A\xe0\xbf\xdf\xab\xc6\x15\x90c\xd6\xbf\x18\x1ckn\xd6\xeb\xb5\xbfz\x0f\xacp\xef\x89\xc9?\xa0\xdc\xb0p\\\xd6\xcb?\x00@\xa7I"\xb1\xea\xbfl{\r%\x9c\x02\xd1?}\xb0\t\xca\x073\xc4?vA6\xbb\xe3\xb1\xe9?5/\xd5\xfed\x12\xe5?5~>\xb5P\xd6\xcb?\x96\x91\x12a\x08 \xd4?\xf0Se\x13VB\xcd?\r<\x08\xd0\xcc\x12\xd8?\xa4a\x81\xcf\x0c/\xf0\xbf\xcfy\xb9\x0cDM\xe2\xbf\xa0=\x7f(\xa9I\xe2?L<o\x8aC\xd9\xe1?\xcf:\xea\x86\xcf\x87\x92\xbf;\xcb\xbd+\xc5]\xdc\xbf\x02\x83\x00,\x17\xcd\xe3?:f\xb7\x05\x8a\xa7\xc5\xbf\xbc\'\x05\x01\x8am\xe7\xbf\x0fm\x0eOr\x95\xb7?\xa8:\xad\xbc8y\xd0?]t\x06~\xbf|\xe5?\x92U\xfa\xd4jq\xc2\xbfg|\x98\xf2\xea\x01\xee?#}\xc2\xe9\xc3v\xd5\xbf}g\xbb\xf3x*\xe8\xbf\xb6$z)\x87\xf5\xe1?3\x1e\xff\xad\x9f1\xa0\xbf\xf3\x9fY\t\xbel\xc6\xbf\xb0V\xc34\xc9-\xc7\xbf\xafc\xc7E\x9e\xed\xef?R]%\xa8\x11\xdf\xcf\xbf\xcf\xfd\xa7\xb3{\xaa\xbe?\x7f3>\xc6\xd9\xc3\xd8\xbf\x1f\x94\x1f\xa07)\xce?\x8e\xc13*\x0c\x0f\xdf?]\x05\xdf\xa5\x8fb\xd7?\x04\x92U+08\xec\xbf\x8b\xa2\xb3\xde\xa6\x06\xdd?\x93\xe2\xfb\tr]\xea?s}\xbc\xea\xd8\x91\xc3\xbfU3kN\xd69\xcb?\xe2\xbca4S\xe7\xeb?q\xb0X\x0c\xb6\xc5\xe7\xbf\x85\x99,\xaf\xf14\xd2\xbf\xd7\xc4\x84(\xcb|\xe3\xbf|A\x0crP2\xe9?s\x97X\x98<\xbe\xe0\xbf$|N\xfd-.\xb1\xbf\xc3=k\x8e\xb4\x99\xb8?D5R\xec\xb7\xd8\xe3\xbf\x9c\xcam\xb0\xee5\xd1\xbf\x89\x00\x9e\xc68M\xda\xbf\x84\x9dM\xc8\x99\x88\xdd\xbfG\x8f\xb5\xa0\xfeS\xdf\xbf\xfc?#\xfc-\x14\xeb?\xc8\xa5\xac\xd0\x8d\xf9\xe3\xbf\x14\xd9\xe8\xce;\xc9\xe6\xbf\xea\xf5!\xb9go\xdc?.\xf2\xa0\xd2\x91\xa4\xe1\xbf\xbe\xefE\xd5/\n\xde\xbf~\x04\xc3}uj\xdd\xbf|jI\xc1\xd1\x8a\xe0\xbf\x13\xf4\x08(E\xab\xe6?\x137\xe1\x82\x93\xce\xd8?r\x08\x1cS\xb1\x8c\x97\xbf\xff\x98\xe5}\x07\x03\xc6\xbf\xa1\nW-\xab\x03\xad?\xa4\x15\x8d:S\xbe\xc8\xbf\xa8f,\x0e\xf7?\xc1\xbfl{8r\xb0W\xe1\xbf\x18\xabM\xc8\xcb]}?C\x1c\xdeO=R\xc9\xbf\xe6\xbdY\xca@3\xe2\xbf$S\xf5\xa6.\xb1\x81\xbf\t\x0e\x89l\xc1>\xe0?\x9cX\xf53y\x1d\xc7\xbfy\xbfW\xd6\xc0m\xed\xbf\\\xee\xaehj\xc6\xe8?+\x85\xa6\xf6@[\xd0?\xbe\xda\xac\xcc%{\xbb?\x10~-\xea\xf4\xba\xc4\xbf\x9d \xa4D\x1d\xea\xcd?k|\xb1\x03G\xd3\xec\xbf\xae\x17Ip\xccd\xe1?(2E\x99\xab\x10\xd2?\x88\x18\xee\xc7\xd7\xe5\xe8\xbf0\xed\x1a\xa5\x98\xd4\xe2?\x15\xc6\x1am/]\xdc?\x9b_\x06\'\x1d\xd2\xd6\xbf{l\x95\x02BI\xaf?B\xa2\xf3\xf3\xa9\x02\xd2?\xed|\x1a4\xa9\x95\xe1?\x84a.\x1d\xbb\xc5\xe4\xbf\x8f\xbb=DB\xa6\xbc?$\x91\xd3I\xd2\xc9\xed\xbf2\xc4\xafP\xf7\x1d\xdf\xbf\x12!=\xd6\x98\x94\xeb?8s\xd9\x16\xbcD\xa2?\x1a)\x15\xe0\xbbo\xe7?\xb4\xe8bA\xe9>\xcf?\xfd\x81\xc6t\xab\xf7\xd0\xbf\xdb\xb1\xdc=I\\\xd1\xbf\x9c\xcd1\xe8\x81$\xe8\xbf\xb8\xe3k\x1a_\x06\xed\xbf\xe6\x82z\x7f$\xbf\xe2\xbf\xdbgz1c\xb1\xe3?q\x14\x8cj\xf6t\xd4?+~\x05\xee\xdf\xfe\xc2?\xc1\x0b\x17s\xb8\xf8\xd6?\xdc\xe2\xb0\xb1\x833\xc8\xbf\x0c\xff\x9c-_\xb0\xe4\xbf\x1f\xf7Q\xa2\x8c\xa3\xc1?\xb1\xc2 W8\xc8\xe3?\x8c\x890\x98\xb8\x80\xe3\xbf\xf0`\xc5\xf3X\xbb\xe2?\xb9\xc6m+5\xdc\xdf?\x08W\xdca-\xd4\xe2?\x03\xbd\x17\x9fF\xac\xc6?\xc6h\xee?j\x88\xd2\xbf\xafA\\\xd2\\\xac\xea?\t\xa7k\rB\x8c\xe3\xbf<h\x9b\x8f\xf49\xce\xbfgu\xd6G\x95\x80\xe0?mK\x1f`\xa1S\xe3?\x00\xf4\xcf\x07\xa0\xff\xe9?\xa7\xf7%X\x9e}\xe1\xbf\x1f<\x15P\xbc\xa5\xe4\xbf\xa2\xf0\x061\x84\x7f\xc2?rdn\x11\x12\x1f\xe7?\xfb\xd1\xc5\xb8\xe8\xcd\xe3\xbf\xc3\x97k\x89\x8c\xaf\xcc\xbfj\x8ak\xff"s\xad\xbf\x87As\x8es{\xdd?\xc8\xe6\xcdGq\xee\xa8?\xefx|\x9b\xbf\x9f\xe3?H4-bn\x96\xe3\xbf\xa0\x0e\x815\xefH\xe5\xbf\x1d\x93{,\xba2\xd6\xbfDy\xc4\xc5\x9f\xde\xe5?\xdc\x82+\x99\x7f\x01\xb6?\xa1e\xf3]\xd8\xc7\xe5\xbf\xfa(!\t\t\xe1\xe1?\xac\xa4\x8d\xac!\x1a\xe6\xbfW\xfb\xde,\x0e9\x91?\xa0\x15\xb8\x86\xcb\x94\xe9?\xd2\x02\x9cp\xc07\xcf?\x8d\x0cj.8\x10\xed\xbf\xddp\xf3_\xa1*\xa7?\xcb%ji[\x9f\xda?\xe6e\xce7a\x07\xe1\xbf[\x19@F-\xa7\xe1\xbf\x98r\xb3D\xc0d\xe8\xbf\xab\xfah\xc1k-\xe6\xbf\xe7\xef\xfc\x15M\xe4\xa3?~w3\xde\x03@\xe0\xbfs\xf5_\x9a\xe4\x05\xde\xbf\xc6\x03\x1d]\x90\xc5\xc7?Y\x06\xd5881\xe3?\xc4I\x1a\xb59+\xd9?\xfc|S\xd3R\xde\xcf\xbf=\xd0jv:\x1b\xd5\xbf\x05i\x10X\xa74\xe8\xbf\x86\xd2Mz\xc3\xf8\xe1\xbf\xc4\x9f%\xa2\xdcq\xe5?\xe5\xd8\x17\xa85|\xbd\xbfkt\x93\x02A^\xe4\xbfc\xea\xc0\x0ct@o?\xa9o\x82\xde\x1e4\xdd?a\xab=\xc3[}\xe8\xbfv\xf2E*X\x95\xda?\x99\xad\xcdS\x08V\xd6\xbfE\xa9\x03h\xb7G\xd1\xbf\x8f\xb4\xe8\x13\xff\x1b\xd4\xbf\x9fLE\xc2\xba)\xe4?\x1a,f\xcc\x05\xd5\xa3?\xccA\xf5\xa3\x92\xb8\xed\xbf\xdf\xaf`g\xa1\xc1\xb8?R)N\xb3\x0c\xd4\xac\xbfA\xf0\x16\xf2\x8cW\xea\xbfp\x90\xf5\xd0\x9a\xcf\xc7?=\xc8\xf2\xe6Lq\xd4\xbf\x0bFVx\x8eX\xd4?\x16\xcd4\xe5\x9dV\xe4\xbf\x81\xf1\xd3C\xc7\'\xd2\xbf\x13@Z\xbc{[\xc2\xbf\nu\xdcn8F\xea?\xad\x08S\x0e\x81H\xd7?z\x13\x9e\xa0\xfa\xa2\xde?\xeb\x0b@\x93\xb1M\xea\xbf\x9d\xcaEk\x81\xd3\xea?\xe5\xa1\x11\xb2\x9c7\xbc\xbfm\x1e39\x18\x15\xcb\xbf\x9cG#\x1a2\xc7\xa6\xbf"\x81\xf0.%k\xed?U\x1d\xa7{\x89\x10\xdd?"\xa8L\x8f\xed\xde\xaf\xbf~\xb4h\x9a\x1d\xb6\xe3?n<\x06\r\x96}\xd7?\xca\x96\xc2\xd3\xfcE\xd3?\xd9g\xa9WkJ\xf0?a\xa3G\x9ee~\xd5\xbf\xa3y!}e\xa3\xda\xbfx\xffq\xef\xe0Y\xc5?\xa3\xf2}6\xfcf\xd4?\xa5\xdc\xbc\xc1\xfb\x8a\xea?0;\xc1Dm;\xd6\xbf\x9f\xb7\xca\x171\xa1\xe3?\xe6\x93\x95\x05\xea0\xc5\xbf\t\x89p\x93;\xde\xe0?r\xbagi\x16\xbf\xe0\xbf\x8a\xc7\x98\x01\xd8W\xd2?\xb3q0\xed\xbc\xf4\xeb\xbf\t\xda\xfa9\xb7\x1a\xea?L\xff~F\xecO\xde?\xc9\x1e\xd5\xee\x80\xb4\xde?\xd9\x9c\xe5\x88\x0f\x94\x83?\xe2\x13{\x99#$\xe2?}\x7f{$\x12W\xef?\x9d\x1b\xc5<\x8e\x1a\xe5?\xc3\xfa\xe9\xa5R`\xcb?\xfd\x87\xe2\xec\x10B\xd2\xbfz\xba\xf7<\xbbo\xd7\xbf\xe2\x95\xfefb|\xd4\xbf\xd3kO\x9cx\x02\xbf?eR\\\xc9\x92E\xcc?\x0b\xc8TW*\xb7\xe1\xbf\x12\x93\xe7\xe9y\xfa\xd3?m}E\x1f\xf1P\xda?\x1a7\x94\xf2?\x1d\xc6\xbfqD\x8c\\\xaa\x8d\xc6\xbfs\xf1\xc2\x14\xd0\x97\xf3?\x1c\x15\x18\x01cW\xb1?\xb0\xb9\xb6\x95\xa3\x16\xf0?\xf4\x8c\xedS\x9a\x9a\xf3?\xbe\xc7;\xc6&{\xb5\xbf1n!\xf8\xc1\xee\xdf?q\x03\xed\x155M\xf0?\x19\xda}\x8f\xcd\xd4\xce?\'\x10\xae\x92\xc3Y\xb6\xbf\xba\x98\xb4\xde\x00\x8b\xe6?F\xdb\xf9u[4\xdf\xbf\xe3\x1a\x07JB\x88\xd4\xbf\xef)\xdbv\x05\xbc\xf0?9O\xdd\xd4\xf0=\xc1\xbfL\xa4\x16\xc2\x80\r\xe8?\x92\x85pm\xba\x82\xe6?\xbc}\xdd\xbdb\xe8\xd2\xbf\x95\x88\xa4\xfc\xb8i\xd0\xbf\x8d/d0\xe3\xa8\x80\xbf\xe6%]>\x86T\xf0?w\x9bh"4\x14\x9e?K\x19\xb8\x9b\xac\xa0\xe8?\xb3I\xd0d|T\xae\xbfA\xfd\xe7\x0b\xc6\x8c\xe5?n\x84\x03\xd4Fb\xd8\xbf\xb3\xb6"\xf3m\xb6\xe8?MU\x13y\x82\x87\xe0?\x07h\xe9R\xc0Y\xa1?\\q\x84\x9c\xe5\xb2\xe8\xbf\xd6\xa9u\x91\x84\xd0\xa1\xbf\xb6|\xaf\xa0\xb8\x06\xa2\xbf\x8d<\xb3\x9e|6\xec\xbf\xb6"%\x94U\xbc\xea\xbf\x0b+$\xa05\xca\xe6?\xdb0\xedl%!\xcd?\x81\x12\xbf\xb7\x90\xcc\xa3\xbfA\xaa\xdf\xed\xd4)\xd9\xbf\\>\x04\xd5\xca\xbc\xe7?\xecd\xee\xd8\xf3d\xeb\xbf\x03\x99\xa3U:\x93\x95\xbf"\rc\xda^N\xe4\xbf\xd3\x91o\x17\xc4P\xb7\xbf\xdf\x184\x17\xa8V\xdb\xbf%\xc4\xe4^\x9bR\xcb?\x99j5Oo\xd9\xdf\xbf\xa9\xd9\xb2J\xaa\xc9\xda?\x13\xa7n\x95-\x82\xcd\xbf\x04\x85\x8bp2\x94\xcf?\xebPVM\xc9\xef\xd7\xbf\x11\x7fR\xf0\xec\x97\xe4\xbf\x1f,\xd8\xf8\x06\x9d\xd4\xbf\xc9\xa7\xc99\xa7\x95\xe7?\xbf\xd1\xe5\x93\x10\x00\xea?U@\x1c\xa0_\xc4\xd6\xbf\x08\xee\xb8\xafE\x02\xe2\xbfmn\xe2~\x99m\xda?L@\xb3\xabh`\xe1\xbf\xc1\x87v\'\xa6\xd5\xd6?\x88\x7f\x13l \xc5\x9d\xbf\x17\xb33\x8c\xc1\x16\xa8?O\x89\x03Ez\xf2\xea?\xbbl\xadN\x8f\xc8\xc4?\xf6\x83mx\xa4=\xed\xbffR\xec\xa9\xf02\xdf\xbf\xd7\xe8\xae\x16CI\xd2\xbf8~\xae\xdc\xa6\x0b\xed?\xe4\x06\x1bDu`\xe6\xbf\x16\x16\xa5\r\xe3\xb4\x95?ce\xcc\xc9\xdf-\x91\xbf\xd7\xa7-\xff\xbf\xc3\xbc\xbf\x85o\xedH\xd1%\xe4\xbf\xdf\xedG\xac!t\xe2?U`D\x7f\x01 \xb9\xbf\x910\x0b\xe5Vg\xaa\xbf\x95\x06\x04=\xe6\xd5\xce?\xc5\xc0\xc5A8\xe7\xe2\xbf\xfb\xdc\x0b\xa7\xd6X\xc1\xbf\x82\xa6L\x05\nJ\x92?c\xd1\xa5\x9b\xd7\x1a\xee?~\x08\xfe09o\xe7\xbf\xae\x1eL\x86\x1f \xa4\xbf\xd6\x02P \xf97\xd9?\xc0K\xd0xd\xa4\xcf?l\xe0\x8a\xad\x0f7\xd6?\xd4Z\xf6\xabEw\x8d\xbfPO\xa8d\x97\xba\xe7?\xc1\xabS#k\xa0\xe5?feOo,w\xb8\xbf\xe1\xf1\xb1\xca`E\xd1?\xc6V\xc1w&|\xdd?\xe0\xc0\xca\x96\xe1"\xe9?\xc8\xe0\x91W\xe2\x1a\xaf?Npj\xa4b|\xed?\x9b,|\xae\x9b\xc2\xe5?[x\x06^\r\x92\xc0\xbf\x91\xff\xf6\x1eW\x06\xe4\xbf\x87x)\xfdL\x89\xe4?\xd7`\x90\xd6\xd6\xed\xe7?`\x1c\xb4\xce\x8a^\xdc?\xe8 \x9d|<b\xa4\xbf%\xde`\x0e\xaf\x9e\xc3?\x98\x17@[\xff\x0f\xe1?\xb2\xb6H\x99\xc2\x1f\xb9\xbf\x0cJ\xdb\x0c\xca\xe3\xe2\xbfJ\xb2\xf3\x80\xc2!\xdd?H\x8b\xf3.a\x82\xe7\xbf\x0f\x05Vc\xb5)\xe9\xbf\xb7u\x19\x84\'\x1b\xd9?\xdc\xae\x1b\xa3\xf8m\xe7?\x1f[h\xf8\x97p\xe8?7\xf7\xf7\xfb\xdb\xef\xab\xbf\xbc\x0e\x86\xb2X\xfe\xd6\xbf\xf7}_\xfcV\x12\xe0?Y\xcd\xe7;\x89\xfb\xd3?qs\xbc\xd5\x1a[\xa5?:\xe9]\xa7h]\xe1?R/)&\x90^\xe7?A5\'\np\xfe\xbf?\xbd\xd0\x06lfK\xdb\xbf2v6\xaf\x10\xf6\xd8?N i\xd0o\xa1\x8c?\xab\x82P\x87\x14$\xdb\xbf;\xc3\x82H\xfa\xee\xe8?\x11\xfd\'_\xeb\xd5\xe6?\xff\xea\xa4e\xf6B\x9b?\xe5r\xa1\xdbM.\xc0?\x16\xf2\xeb3\xcf.\xea\xbf\x15\xb5\xde&\xdd\x9d\xe2\xbf\x16\x0c\xe2\x83\x83^\xdd?|\xa8\x0bV\xa7\xcc\xa9?\x9f\xe0\xd4\xac\xd3\\\xdb?\xde\x98w\\jJ\xe4\xbf\xc5\xedTEX\x9d\xe5?\xea\x156j\x13r\x9c\xbf\xaeZ\xa2,\xbd~\xdd\xbf\x8f%\xd4\xffG\x96\xe7?\xfa\x88\xb3\xbf.\x12\xe4\xbf\xe6\xc5\xd8}\x1c\xfc\xd5\xbf@\xd4\xcc4\xb69\xa9?\xeap`9\xfa\x1c\xcd\xbf\xbde\ri\x83\xa1\xc5?\x93M\x19\xf8\xcc\x11\xbd?F\x0f\x10\xcf\x97J\xc3\xbf.!n\xf6\xc4U\xd7\xbf\x91\x8b\xe1V[\xab\xe0?\xa5\xdd\xadF\xd6\xdb\xe0?9\xbcRl\xf9\r\xd8\xbfMS\xee6\x91\x15\xd5?\x95\xd7\x99\xd6\xcb\xd5\xe3?\xc3Z_b\x02b\xd6?\xa7}\xb1\xa4\\\x97\xe2?0\x93\xf3\xf2\xe7\n\xea\xbf\xa8\xf7\xbc\x1c0\xe0\xe2\xbf\x8a"\xad(N\xd2\xc4\xbf\xfdu\xe5\x00x\x94\xe5\xbf\x12R\xfc\xb4\xd1M\xd6\xbfA\xde\xe4\x90*\xef\xe7\xbf\xff\xbeS\xc0=$\xd5\xbf\x80\x91 \xe3NA\xca?0[\xf5\x11\nF\xd6?\xf7\xf1k\x0b\xfb\x08\xe4\xbf\x88\x8ca\x9d\xad\x8f\xd8?j9I\x85<\xb6\xd8\xbf\xb4u\xa8\x0f\xa1\xf6\xe5?&\xfeP\xc5\xaa\xe4\xc3\xbf\xc4\xee\x82\x01E5\xea?\x0e\x07\xf6p\xab\xa9\xe0\xbf\x85\xba\xb1^B1\xe7\xbfe\x04\xf8\x1e\xa8=\xe9?\xabP\x97\xcdH\xbb\xe2\xbfm\xcb\x02\xbe\x12k\xaa?7I\xf3!/\xda\xc0?\xa7\x88\xe8l\x16\x9e\xdf?\xb9\xf2E`\xfdQ\xda\xbf\x1f\x0e\r\x1a\x86\x1a\xd3?\xc3\x1cI9\xa5B\xe2?\x95\xce\x91w\xfd&\xd0?\x1a\x13\xe4\x1d\xaaf\xe7\xbf\xb2\x06\x14\'\x9f3\xe8?\xee\x19\xd5\xbc>\xc6\xe9?\x19\xf9z\xf1v,\xb3?\xcf\x06\x06\xc5\xaa3\xa4\xbf\xed\xc7\xbe4\x9f\xfc\xe3\xbf\xdc\x07\xa4E\xbc*\xe4?\xba\x9f?\xf3\xe5j\xd5?v\xa0\xca\x93y\xb3\xe4?\xa8\x9cl\xb7\xd4\xa2\xd0?rK)\xdc\xfa\x90\xe8\xbf\xc2\xa5eq\xd4_\xde\xbf\x10b\x03>\xbb\xd8\xd6?OP\xcd\x82+\xed\xe6\xbf=\xf0Qw\x08\xf5\xe8\xbf\xc70\xec#\x80C\xc7?\x1b\x0b\x9b\xa7\xeb\x17\xe4\xbf-6\x939}\x89\xa7?p}\xb2\x05`\xfe\xd6?\x08\xd0\xef\xf9\t<\xdf\xbfd}s\xc36\xa5\xcb\xbf\xbc7\x84\x01\xfc\xcf\xe2\xbf\xd2\x86\x99\xd6\xfe\xd5\xd6?E\x84+\xea|L\xe9?\xd0i\r\xd81D\xc5?\xff\x0e\x84,^\xaf\xb7?6Rhd.\x11\xe8\xbfV\x9d\xeb\xbe\x9ax\xe4\xbfY\xdc\xbaQ\x05v\x9b?\xdd=\xee\x12}\x8e\xe6\xbf!\x85\xe1\x9a\xa8\xd0\xca?\xf5\x86\xcf\x03\x89\xbb\xd3\xbfo\xf0\xf1\x15\xa9\xe1\xd3\xbf`#\xa6\xadT\x9a\xe7?\xb1\xde`\xb3\xa7\xb6\xe1\xbfi\xef\xec\xf7\x18\xf1\xe4\xbf$\xdf\xb5\xe2\t\xfb\xba?\xa9\xbc\xb0\x96x_\xc6\xbf2\\\xcc<h\x9f\xb5?\xec"eB\xa0\xa0\xec\xbf\xea\xcdX\xfa\xf4\xf0\xe2\xbf%\xaf\xde\xde\xc1\x02\xd6\xbf1\xea\xc2/*\xec\xe6\xbf\xf6\x1a\x01\x8b\x99\r\xbd?gVh\xf3\xfea\xc5?\xda`\xfc\x97\x9b.\xdb?\xb8\xfd\x90B\xe4v\xd5?L\xc9+\x01\xee\x1f\xea\xbf\xf3kvuy\xb4\xde?\x1e\xcc(\xfd1\x81\xe2\xbfKs\x98\xb4zK\xea?\xc3\xd8U\xb4\x86\x00\xe6\xbf\xa7&\xfe\x8b\xdb\xd1\xec?\x97\x0b\xc9_\x9dq\xe6\xbf7\xba\xccg\xe6A\xaf\xbf\xa2\x95\x0c]\xd8\xa3\xd0?l\xda\\[\xdf\xb0\xdc\xbf.\xd3\xbe\xa38\x83\xec\xbf\x17\xf6\xd4\xcc]\xa8\xdf?5\x0e%\xe6\xe9m\xd9\xbf2\x8er\x80}3\x90\xbf\xbbq\x1ay_a\xb1?\xb8\xed\x01:\x03m\xd1\xbf\x1c3o\x00\xd67\xe5\xbf\xb1\x1b8Q\'\x10\xde\xbf\x10\xa4\x0eo\x19u\xd3?\xe7\x1c\xa6\x9d\xd0\xec\xcf?:m\t\xf6T\x85\xe0?\xb2\xc4\x94\xcc\xa92\xe8\xbf?{\x02W\xf9\x98\xde?\xf9\x02L\xceQl\x91?\x92}H\xe3N\x00\xd7\xbf\x021A\x00\x1f@\xe5?\x93\xdf\xf6\xd0\x1b\xd9\xdc?\xb5\xbc\xd1\x0b\xa9\x90\xe9?\x1d\xecp\xb6\xeeX\xd2?\xf8\x89N\xf5\x1cr\xdc\xbf\x8d\xde\x05\xd0A\x84\xe6\xbf\xcbt\xc9;F\x13\x95\xbfIC7\xa0\x96\xce\x95?\xd9\xb9|\x9b\xb5~\xf0\xbf\xb8\xcbp\xad\xcdK\xce?\x8b\xbd\x96\x9c\x8d8\xdb?\xd6\x8db\x10M-\xe7\xbf\xce\xbdjE\xe8\xa0\x9c\xbf\x03T%P\xc2\xa2\xd2\xbf\xc3t\x80+\x1a\x96\xd4\xbfz\xc6\xbe*\x81\x1c\xe4?\xaej.\x81\xd1\x88\x89\xbf\xde9\xbd\x1b\xa2\xf9\xeb?*\xb293\x98u\xd5\xbf\x05\xb7]BY\xb4\xd1?\xbf\xc4mtK.\xc0\xbf\x1e\xfe\xc3\xa5\x88O\xf0?Le\x86p\xffT\xd8\xbfx\x8a\xf5o\xa7[\xc2\xbf_\x9f\x056\xcd\xa1\xe1\xbfG\xc7\xffy\xfc\xc1\xda\xbfw-j\x84[B\xba?\xb4\x01\xfe\x0f<\x84\xe8?\xfcA\xb6\xcay&\xeb\xbfu \xf8}\xe2\xc7\xd2\xbf\xa1\x8f\xb9is\x94\xd9?W\x9e\x854\x82\xdf\xc9\xbf\x902w.\xc5}\xdd\xbfe\xd0\x1c\x1f\x82`\xe3\xbf~\x97\'7\xadG\xc4?|\x12\xa1V\xf0M\xdf?\x87\xf0D\xae\xa1\xf2\xa3?\xbdc\x12\xed\xe2\x8b\xba\xbf\tr\xf7lB\xdf\xcb?*wB\xdb\x7f\xdd\xe9?\x8e\x9aQ\xde-*\xe3??%g\xebi\xdc\xe8\xbf\xffC"\xad$\xf8\xaa\xbf\xcd28\xf44\xe9\xe0?(eG\x03\xbf\xe0\xd1\xbfD\x14\x8d\xa3\xc4\xf0\xad?\x17p:\x14\x87t\xc1?K\x0e\xc0*PG\xe2\xbf=\x9ek\xe4\xc4\xcc\xe2?\'\x91\xb1\x8b\x92\x06\xd5\xbf\xb9\xf1)ci\xd3\xbd\xbf=\xf0\xa9_\xaeY\xd1?A\x81\xf1\x14\xcaa\xac?R{\xc4\xd3Z\xa7\xec?~\x01\xa6I\x89v\xcf?\x8b*H8\x11\xd3\xca\xbf\xf7=\tq\xfe\xaa\xe0?\xbb5[\xd2\xf8M\xe2?\x84\xb7\x95\xbb\x1dF\xec?})R\x984\x1c\xda\xbfgQ\xc1\xe2\xb1/\xeb?\xe8y\x8fXq\x1b\xdc\xbf\xaa\xf2z\xa1\x91\xd7\xea?\xe50-*\x9a$\xdb?\xb27\xa9B\xa5\x9d\xe1?x\xbc>0$7\xd9?Wo\x89c\x0c\xc1\xe7?q\xf7\x1e\x17\xf1!\xef?\xa3Fv\xc3B\xc1\xe0\xbf\x01\xb8\x90\xae\xabA\xea?4\x03Wg\x87\t\xd4?\xf8\x98\x88\xe1\x18\x8f\xe6?~W\xb4\x1a\xf0\xeb\xdf\xbf\xd6\x95\xce\xdf\x13\xfe\xbb?\x0cb\x16\x1b\x80\x8d\xd0?\x82\x1a\xd0\x06\xb2t\xc1?\xc9\xef/\xabt\xfb\xd1\xbf\x9f\xe1\xd8\xfaF\xd1\xe5\xbf\xceg_P\x9c\x07\xd4?r\xa1\x16\xad\xb3\x00\xdc?\xb9zl_o&\xd6\xbfyU\xeb\xa0\xe2M\xe8?\xd3/\xf3\r\xe2o\xea\xbfh\x82\xb0M\xfe]\xa3?&\xf1hlV\x08\xab?+\x91\xe38\xdfa\xdf\xbf\x1c\x83\' Y\xc1\xd4\xbf\x0eO\xd4\xfb2E\xd5\xbfj\xb8\x9f.=\x8c\xdc\xbf\x0f\xc4\xa1\x9b\xb0\x88\xe9?\x02\xbe\x084X\x89\xd8\xbf+\xe1\xdb\x81\xfb9\xbf\xbfT\xb8\xf48=\xca\xe1?\xe3"\xf0vU\xa7\xe4\xbff\xff\xfa;<\xd0\xd2?rs7\x81\x9a\xbd\xe5?\xa1\x9b\xf0\x13\x9d6\xdf\xbf\xbe\x94/:7\xef\xee?hY$Avn\xce?\x88\x1d\x938v[\xd5?.C D\x04!\xcb?K\r\xb0\x8aG\xd2\xcc?\x7f\xd5\xc6\xa6\xb9\x92\xe5\xbf:%a\xaf\x90\x01\xee\xbf\x83H\xf6\xd1\xb3\xeb\xe7\xbff\xa2cN\x1f\x9b\xe1\xbf\xad\x93\xf5\x16G<\xe0?\x82+\xb9\xea\x9a\x99\xe7\xbf\xc4%\xc6\xedv\x8d\xdf?Q\xa9Q\xf2\xfbn\xe3?\xd3Q\x9e\xbe\xdco\xd6\xbf~\xec+\x87\xa1\x99\xe1\xbf\xd1\x88I\xf6UA\xd9?\x87\xb4\x80\x18/\xe5\xe5\xbf\x1ez\xe1;}\x07\xe9?\x10g\xf2Xe\xc7\xd9?\xdbO\xb0\xf2,\xce\xe3?\xc9\xa37=\xd7/\xdc?\x996(\xd9\xab8\xcf?\x8d\xba\xfc\xfeU0\xe3\xbf\x9c\x14\xa8p\xc0K\xac\xbf\x85\xa5h\x8e\xba\xa6\xd0\xbf]\xf4\xf3\x81\xc3\x11\x89?\xad\x93\xcf\xf1f\xd9\xd1?\xdc V\xa1\xe3\xef\x9e\xbf2\xc9\x113\t\xcc\xb7?\xb5#\xe8`\x12\xdb\xe6\xbf\xcc"\x1b<c\xc1\xe1\xbf\xc0\x8e\x16\xed\xbd\xd4\xd4?\x8e\xc1\x8c\xe0\xbc\xbf\xef?]\'\xbf=\x0e\xad\xdb\xbfR\x0e?\\\x98G\xe8?\\\xeeI\xdb\x9a\xac\xbb?D\xa6\xf1Lv\x1d\xe6?^X\xb5G`E\xb2?\xc7\x9e\xc3\xc9\x08\xc5\xd2?\x0fD<\xcb\x0e\xb0\xe0?\xb5\xac\xd4\x95\xc6\xc7\xe6?\x87\xdf\xd3\xd8\xe2\xc8\xc3\xbfU\x11A\x86.\xb3\xed?\x98\xa8A\xf9\xa1\xe2\xdd\xbf\'Y2g\x17\xc7\xe4\xbf\x00\xba\xf8b+C\xb7\xbf\x19\xed\x16\xdc\x12\xf4\xd7?o\xc5\xd4\xa4\xb0\r\xd5\xbfc[\x85\xcd\x99\xda\xd3?*\x94x\xd58\x0f\xd4\xbf\xf0\xf33\x81@K\xd7?\x1f\xd3\xed\xf9\x8e\xdc\xe4?\xa2\x8b\xa4\x1ey8\xbe?\xa6o\xe7GB\xd0\xee?x\xb3"i\xb4W\xe7?\x84v%\xe0g\x8d\xb9?\x82\xfe\x92&\xb1\xe1\xdd?\xc2\xaf\xd3\x0fd`\xaf\xbf\xfb\x87\x87\x97 j\xbe\xbfF\xe64l\x84\x9e\xd1?-!\xfb\x93\x88\xcf\xe5?\xd8\xaeE\xdc\xd4,p?\xd4_\xa1\x92q\xc3\xed\xbf\xc1+\xbe\xce\x06\xa2\xcf?\xbc\x83+\xa4\xf7\xd4\xe3\xbf\x80>\x80\\8\x94\xe1\xbfzB\x85\xab\x16\xee\xd8\xbf%\xe1\xf7\xed>-\xd2\xbf\xd0\x9b\xa8P`\x8b\xd9\xbf\xa5Y@\x19G\xef\xb9\xbf\xb5J\xb3\x1bf\x87\xbb?\xb1\xe6\x94\xac\xd0\xd0\xea?\xb6$\xf7\xd3H\xc2\xd0\xbf\x99C\x17\x04\xa8(\xde\xbf\xc4\xe8\x8c{\xf1\x83\xdd?\t\xf6\x0e\x94\x1f\x19\xba?\x8a4?\x1e\xbd\xc0\xea\xbf\xa5\x7fA\x8a\xfb5\xca\xbfl\x93\xa1\xa8K\xb3\xe8?l\x81@\x13*\x16\xc8?\x11\x96\xa6\xb4\x8b\xd7\xc7?\x91\xff*!s\x12\xec\xbf\xbd\xcf?\x7f\x1d\xb3\xe5\xbf"\xed\xb4L\xe3\r\xe7\xbf\xc6\xec\x11\xc6A\xdb\xd9?\xe6\xfa\xf1=\xd9X\xe1\xbfP\x86\x05p\x17q\xba?\xe9ETc\xd6o\xc7?\xe2:\n)T\xea\xdd?\xb4\xa3\xc9p\xde\x90\xb2\xbf\x83\xffP\x80\xc3\x16\xe5?4M:\x80\x92I\xe5?\xb9\xcb\x05>&\x04\xe0\xbf\xccY\xd4:\xa8P\xd7?\x83\xe2\x14\xcc\x87\x0c\xd4?6\rYlh4\xe6\xbf\xd6\r\xb8.;^\xe0?\x80\xea\xfc\xdf\x97\x8f\xe0\xbf\xd4\xcd\x1c\x8f\xa6\x10\xb8\xbf\xe5\xaf\x16\t\xc5]\xe5?\xd6\x9b\xb6#\x14\x8d\xe2?`Q\x1dkM\x8b\xe5\xbf\xf9\xd77\x15S\xc9\xe3?\x06\x1b\x9c\xff\x01\xdb\xd1\xbf\rtd\xf0\x1b\xb1\xe4\xbf\x03J\x929\xac7\xd1?\xc4{\x8b\x9d\xc3\x01\xca?\x83V\xe3E\x9aq\xe5?\xbf\xd7Tm\xa1\x80\xe9?\xe42\xab3\x04\xeb\xe5??\xb9\x88\x9a\x06\xdf\xe2?CjX\xd5 g\xd3\xbf\xeb\x13\xe4\x80\xa9K\xd4\xbf\xa5\xa0T\xd0\xffn\xd7?.\xd3 i\xbcV\xe4\xbf`\x7f\xe5Q\xad\xe7\xe3\xbf\xb0i(\xd5;\x08\xbb\xbfu\xb4\xf5I\xc9\xc2\xe1\xbf\x04F\xa2\xbf\x97]\xdc?\xba\xab\xb9\x1f\x1f\xe3\xe4?3\xc9\x9d\xdb\xf1:\xe3?\x95D\xa8\x1eK`\xd0\xbfT\xbd\xd1\xfb\x90\xcb\xe3?\xb9\x93\xb6Z\xc1x\xd1?\xc7\x9b9A\x93\'\xe6?\xd0\xed\x8a\xd7\xa6Z\xe7?\xad\xc2\xe9\xcaR\x8c\xd0\xbf\xdc\x1cR\xcd\x88x\xe8?s4\x05\xe7.M\x8a\xbf\x97U\x03\xa5\xed\xe7\xe8?|\xe4\xe0\xf48\xa6\xe9\xbfZ\xab\x0b\x81H\x93\xd2?nt\xad\xef@\x89\xdd?\xe7n\xf3\x9d<\x8f\xe4?\x0e&\x83\x01%\x12\xc6\xbf>\x88H\x14\xc3~\xe9\xbf\x18\xff\xb5|D\xba\xe9\xbf\x89\xcc\x90\x11\xa4\x15\xd6?1\x1bgW\xfb\xc4\x8e?\xfa=0\x04\x19\xd3\xc9?\xaa\x8aDg\xeaW\xe2?Tn\x1b\x83\x03s\xb2?8\xe5\xfe\xb1\x81>\xe5?!\r\xaa\xdfT\xe8\xbd\xbfKB\x12\x83\xef\x01\xcb?\xe3!\x868\x90\xad\xe5?\xf81\xea\xa6Q\x03\xe4?\x07sJ\xbc\xd5Y\xd5?\x9dY\x84\x1e\xce\x1a\xea?\xf2\x0c\x06\xf0\xcc\xc6\xc1?\xd4E\x93\xa5\xc0\x8e\xd4\xbfNv\xd8t1\xcc\xe7?\xaaqd\xdcG\xc5\xda\xbf\xea\xe7\xb4bY\x00\xc7?\xa7S\xe2\xd2`\xcb\xd4?F\xc3v\x04\xd6o\xd9\xbf?\xe62\xcf\x84\x0e\xd8\xbfi\x18p\xf1\x86\xc0\xe9\xbf\xf7\x00\xe3pM\x10\x82?\x1eL\xd1\x0f\xa4\x05\xd2?\x11"8\x0f\xd9\xc3\xaa?\x93\xcb\xb6\xb6cN\xd3??\x97\xb3\xb2k\xec\xd5\xbfI\x05\xce\xeb\xe5|\xdc\xbf\x17\xfa\xe8\x0f\xd0\xdf\xd5\xbf\x0e\xc9\xfc\x16W=\xca\xbf\xcf\xce\xa5A\xca\xd9\xe2\xbf\xc0]\xa9G\x9a\xd8\xd7?\x81=zFhg\xc6?\xf1\x93\xbb{\xaaB\xd7\xbf\xdb\xf9\xc4"\xfe\x84\xdf?\xdf\x14\x1c$\x83 \xea\xbf\xba\xba\x82\xac\xe2\xd5\xe8\xbf\xc9\x12sw_\xf4\xc4\xbfzj\xd3\xbc\xb0S\xea\xbf\xb6J\xb2\xa1b\xa5\xd9\xbf\x1dN:\x96d\xd4\xe5?_!,G\xcb*\xdf\xbfw-\xc3O\xdc\n\xe2?\x15\xae\xae\xf0l\x9b\xc9\xbfh;\x0f\xaf\xb3M\xeb\xbfz\xafM0a\x95\xc6?Y\xd5f\xf1:\xc0\xe5\xbf\xdcUT\xb8\x9d\x84\xdb\xbf\xfb\xb4y,\xfde\xd7\xbft|rdCV\xe2\xbfn\xbbEY\x1ce\xd7\xbf\xea|\x8e\x03\x87V\xd3\xbf\x03\xc6\xb0\xc8\xeb\x88\xe0?\x84~\xf6\xf0\x0b\t\xd9\xbfGN\xbe\x9eu\xab\xc9\xbf\xcc\x1bs\xc1"\xaf\xe6?\xcaT,V\x86\xb6\xeb?\xc4\\\xe9\x87\xa8\x85\xe4?\xc4\x0bzM{_\xd0?\xc4H\x0f}8\xbf\xe0\xbf\xde\xf7\xd3&\x9eo\xda\xbf\xc8\t8\xc7\'+\xb0?\xd9\x07m\xd4In\xe9?\x02i\xc7O\xa5d\xe3\xbfP\'@\xbfu\x9d\xca?\xa2s\xc3%\x9f)\xc6?\xbc\xb0\xb31\xb9B\xe5?z\xe9&\xa1m\xfb\xc4?\xb8\xccA\'g\x89\xe9?\xd7\x92\xa5v\xc3N\xe1\xbf\x14\xd5\xe1t\xd9\'\xda?g\xd1\xe4."A\xdd?\xd7\xc4\xc0\xd0\xbe\xe8\xea?\xa7\xde\xf1\xc8<\x12\xd0\xbf\xcbk\xa9\xe4\x0f!\xed?@\xca\x1e$W\xfa\xe4?\xf3\xb2\xdd\x9f\xc7N\xd9?\x8a9\x7fs\x9fY\xc9?\xb6\x93\x8e0h\xe6\xeb?f\xa0\xbfrN\x01\xd2\xbf\xf2\x92v\xf0L5\xe5?1\xaa \x8f\x00\x80\xe6?S\xe7%\x89 \x16\xe2?\x9f0\x9a\xe6\x9c\x1c\xed?k\xd0,\x9c\xe9Q\xe3\xbf\xf0\x08R\xc8D\x1c\xd3\xbfp6\xd0/\x00\x9f\xd0?\t[l\x00r\x97\xe8\xbf\xc1\xafL\x9b\xc5\xad\xe7?u\xa4\x83\xdb7\\\xa7\xbf\xdc\x8b:kH%\xe0?\xc8g\x83\xaa\x86E\xe2\xbf\xe2\x94\xe0\xbc\xd8\xca\xe0?\xc9D\x90c\x8e\xcf\xe6\xbf\x12\xcfQ\xc6&y\xc8?\x97%>\x1f\x16\xe7\xe7\xbf\x08\xd4\x86\xfb\xa3m\xe9?-#\x9afX\xf4\xcf\xbf\xde\x8bS\xd4\x86Y\xe7?\x9e\xcb3\xf1\x95\x11\xdf\xbf.\xbe\xbfA\x90{\xe3\xbf\x1dc\xaf\xf1V\xd1\xe3?f[\xc9\x9a\xc4#\xc9?h\xc9D\xb1\xb6P\xe3?\xb2w\xb41M5\xe2?:\xb8\x91\x17\xfcN\xec\xbf\x8c\xfe\xb3\xce\xca\x90\xe4\xbf\xcc\xb1\x1e\xaa\xbf\xba\xd2\xbfkL\xe2|\x1d\xe3\xe9?v\xde\xf0\xa9\r\x02\xa9?\xc6\xe3\xe4s\x81#\xe7?\x95\x9f>5\xd5\xd2\xd4\xbfm\xbag\xf2El\xd2?\xc0\xf1\xb7+0`\xd7?\xddR\x87\x13\xadZ\xdd\xbf\xc5\x854\xbf\xbf\xd2\xe2\xbf\xd7\xdc\xb1\xf29)\xc7?\xd0\xf3\xf7\xd2\xc30\xe1\xbf\x06\xf5\xf0\xebwP\xd7\xbf}\x0f\x95T\x1bU\xc2\xbf\x0e\xa9\x14\x18 )\xeb?L\xb3\x06\xa2\x18\x9b\xb9?\x034\x0f^\xd8\xf5~?\x0f\x1e\x8fY\xf9z\xe3?w\xec\x8e\x03\xe6\x93\xbe\xbfQY\xa5\xd6\xca\xb7\xe2?\xfc\n<mZ\xef\xdc?\xa6\x1e\x82Awz\xd0\xbf#\xdf\x1c\xec\xa0\xa1\xce\xbf\x1b\xce\xae\xf2_\x93\xe0\xbf\x9e\xf1 \xde\xc7\xc4\xd8?I\xd3\xd3\x14\xfa\x1c\xc4\xbf\xd1{#\xe90\xe4\xe4\xbf-\xc1\x9c\x02\xf2\xf4\xe1?\xdd\xd4ZZ\x05\x9c\xe4\xbfTfCIQ?\xe0?\x8b\xff.\xa6\xc1\xf5\xd1\xbfZ\x01ch\xca\xf1\xd1\xbf\xba\xedV\x04ae\xcd\xbf`\xcf\xbb{\xd1\xae\xb1\xbf\xe7\xa1\xb2\xc4\x8e]\xc0\xbf\xdb\xe12\x0b\x85\xca\xe0\xbf7\x99_\x99\xb8P\xe3\xbf\xb2\xaf\xda\xc6kY\xd0\xbf\n\xe6\xf5\xf3G\xe2\xe6?#o0MO\x90\xec?\x7f]\x19X\xd4\xfb\xe4\xbf\xd1A\x93\xd0\x13:}?\xd7\xc4\xc5\xf2:\xad\xe0\xbf\x99V\x03\xb1\xac\x07\xec?\xc1\xd5\x03\xfbz\x8c\xd3?t$\x11\xbb\xb8t\xe5?\x95\xcc=H\xb7L\xd2\xbf\xb6^\xd8+7\xf2\x9d\xbf\x06\xe4\xe6\xf1{\xfe\xea?\xebQ\xb2\xa7\x82\xbd\xb7?o\x85\xa9\x88\xdcC\xc4\xbfAx\xbf\xc2\xfe\x1d\xcf\xbf\xae\xf3\xa8&3+\xc4\xbf\xa8k\x7f,\x08\x14\xe1?}E\xab\x03a\xd6\xd8\xbf\xba\x1a\xe4\xea\xdc\xe5\xf0?\xbb\xc9\xe2\xe2\xa0\xfd\xe2?`\'h\xfa\xf8~\xdb\xbf\x97\x8eAb\xb0\xb8\xe2?\x9fFI\xb1\x95,\xd1\xbf\x94\x1f\x17\x1d\xab\xb5\xe1?\x1f\xc9\x0c\xfd\xef\xba\xde\xbf\xe4\x91\x9f\xec\x93(\xe7?\xf0c0\xc5\xf7\x98\xcb\xbf{\x99\'\xe7B\x1c\xe2\xbf"k\xe6z\xec\xc9\xe4?\x00\xcau\xfa\x15\x03\xc5?\xc1\xe0\xe5N\xeb"\xec\xbf\x0e\xfdLs\xeb\x91\xe4\xbf\xe1\xab\x8f\xf4i\xc4\xe2\xbfc*\x1a\x1f\xe8\x1d\xe9\xbfM\xa7\xc7~\xdfb\xe4?X\x13/,\x80\xf5\xd1\xbf\n\xe6\x96\xf0\xe1\xe6\xe6?6\xe5\x0e!\x03\xe2\xea\xbf&{\x90\x95\xf3\xff\xe0?\x8bq,M,\x95\xeb\xbfL;l/1H\xea\xbfVO\xa7\xa6\xa5\xf0\xd0?\xf0\x82\x87\x1a\xee\x81\xcf\xbf-_s~\x17\x8d\xc6?\xca$3d\x82\x87\xe8\xbfd\x02,\x06H~\xc7?^\x00t\xd4\x12\x92\xe6\xbf\xd1\xfd\xb1b\xbd;\xe6\xbf(\xe1\xa53\xa9\t\xc0?\xdb\x92\x8a\r\xfd\x84\xe1?\x80\xc4;%\x9f2\xc9?\x85\xb7s\xf2\x02\x0b\xc5?Q\xf5\xcc@/\xf9\xe6?\xeaK\x17\xdb\xe6\xf0\xd7?\x0e\xe5#\xba\x7f\xeb\xae?K\x87#\x89\x8d/\xc1?\xb8mT|\xe4\xf3\xcb?\xc4\x9bs\xfc\x0e&\xc4?\xc4\xd8\xab\xffr\x89\xe1\xbf8FM\x80\x9f\xff\xd2\xbf\xfa\x83\x9f\x1f\x92@\xbb\xbf,\xce\x15\x08\xd8\x8e\xc4?\xf0m\xdb\xd5\xb8)\xdf?\x8eB\x85g\x83<\xe0?R\xf7\xe6\xb7B\\\xae?\x9a)\xab\xdd8\xfe\xc7\xbf\xa5S\xa9V#\x13\xe0\xbf\x0b;\x87T\x13\xca\xce?\xc5F\x06pF\x1d\xe5?\x14\xe6\xd1\x93\x9dy\xd1?P\xdf\xf2\xae\x88b\xd0?:\x15\xf3\xafK\x05\xe5\xbfo\xf6\x10-\xa68\xe9\xbf\xeb\x00iN\xaf\x9d\xc7\xbf+\xc9\xff\xd0ee\xed?\xe7Z\xfa\xf5\xbd\xe8\xc4\xbf\xa5\xe5,\xb2\x0f(\xb7\xbf#\xbf[N/M\xe2\xbfi(n\xb5\xd9\x8d\xde\xbf\x18\xdd\xe0qR6\xe4\xbfS\x9e\x7f0\xc1x\xde?\x8b\x98]\x84\xba\xbd\xe0?\x8d\xae\xc7e\xb3\xd7\xb9?\x9e i}\xa1\xfc\xa9?\n]\x10;\xfb\xa2\xb2\xbfK\x8e\x14"\xf9\x95\xcf\xbf19\xb6\xc3\x81\xf9\xe4\xbfa\t\xea\xa2\xc9\xbb\xe2\xbf\xdfa\x9b\xba\xe7\xcd\xe6\xbf\\\xacjA\xfah\xd0?\xfc:qR\xa4K\xb7?\xbdL,s\xb2@\xec\xbf\x06^\x11=\xca\xc2\xe0?\x8b\x17\xcf \xe0\x92\xe6\xbf\xa4\\\xd5\x1aJ2\xc3\xbf\xd4-7LQ\xc1\xcd?\x9f\x8f\xc9\x02\x91\xbb\xec\xbf\x86\x9a:\xb7Tg\xe5?\x0eO\xe3\xfd\xef~\xd7?\xe1\x15Q_\xa7\xda\xe8\xbf\xf3H\xf0V\xa4\x11\xc7\xbf)PL\xe1A+\xe5?\x1c\x13O\xa8&\xe7\xdf?6\xbbX\x88\x01 \xe2?H\x83\xa4>\xf9<\xec?\xf1D\x9e+\x8d\xfe\xe7?\xd1\xca\x85\xfc\xd6N\xd0?\x8dI\xbb\x10\xdb\xc2\xe6?\xc6\x93\xbej\x8b5\xb2?\xb2\xe0\xa4\x03~z\xd3\xbfl\xf5\x1c\x1a\x06.\xe4\xbfg}\xca\x0c\xef\xf7\xe3?d\xdb\xbau\x1e*\xeb\xbf 44\xf0+y\xd0\xbf\x0c\xe1G#V=\xe1?\xd8\xa7:\x9a\xef\x07\xcf?\xbc|\xeb\x83\xfbR\xe5?Q\x8f\xa9%\xc2F\xca\xbfv\x85\xac\xdc\x1e\xf9\xcc?\x1cH\xd3\x82\x91\x95\xe7?\x8d\xf8\\vP\\\xe1\xbf\xf7\x0e\xea\xf2\xf1\x9e\xd2?[**f\x91K\xbb?^1\xaf]\x8a\xaa\xe5\xbf\xd8\xd5\xcd\x8f\xc1\xda\xd9\xbf\xb0Z\xbfM\x8f/\xd4?F@q\xb90\x80\xb8\xbf\x9aq\xfe?\xb8\x84\xe3?\xeb\x88\xb0\xbcZc\xe4?l\x9a\x10\xd5\xeb\x97\xdb\xbf\x17>\xf6\xea\xba\xad\xc7?9\xc8\x99c}A\xe9\xbf\x1e\xac\xff\xd6\x145\xe5\xbf\x1ef\xf5%fu\xc3\xbf\xf1\xcbb\x87\x8bD\xe6?t\xa0\xc1\xad\xc2\xab\xdf?\xca\xc9\xf7\xda\xd7y\xb4\xbf\x879^0\xae\x15\xaf?\x8d\x91S\x80\xb1j\xc4\xbf\xc0}\x02"\xe9\x12\xdc\xbf\x96\xa7D\x92\x82>\xa0\xbf\x93M\xe5\xe3\x0e\x96\xd4\xbf\x87\xbbb\xa9\xa8z\xd2\xbfS\xb6\x85[\xed\xe0\xd4\xbf\xbc\r\xa5\'+\xa2\xdd?E~\xaeq\xa5\x1f\xe9?\xcb\xa1\xcc\xd7\xba\x08\xcd?\xde\x95kN0_\xe7\xbf-\xebZ\x03l\x85\xdd?\xc2\x9c\xcc\x98\xca\xf8\xb5?LT\xec\xac\xb1\xef\xe5?\xa7F\xa5_\x9e\xe3\xd6\xbfP\xcc\xfc\x7f \xf2\xe7?\x0cb\xc9\x8eE\xe0\xda\xbfWV\xe5\xce\xde@\xe6\xbf\xddX\xb4\x8e\xb6\x95\xe0\xbf\x87n\x1c\xbd\\e\xa4?Nm\x9cH\xd1\xa1\xc5?\r\xf8f\x902*\xcd?\x04\xd2R\xe7\xa3m\xec?T\xca\x8e\xa22\x90\xe8\xbfWdw\x81\xe2w\xc7\xbfk\xdb!\x9e\x1c\xfb\xcf\xbf\xb4\xb4U\x94\x03M\xbf?\xe3t\x89%\xb9\xac\xe1\xbf\xfe\xbb\xee\x94Tm\x93?\x97p\xed\x90r<\xe8?\xc1&\x9a\xf8\x99\x00\xc0?A\xe48\x95\x8e\xf0\xe4?\x93\xf4W\xc1\x97\xe8\xe6\xbf\xe6n\xd3\x83\x85\xb1\xe8\xbf\xbb\xf1\xec$\xed?\xec?\xeb\r\xc5\x16:}\xdb?\xeab\xcc\x07\xcd%\xd0?\xe9\xc5#\xbd\xfe\xcc\xe6?\x81\x98\xb5\xd4m`\xb3?\x15\x0fP\xf2P\x05\xc0?\x1ep\xb4\xa9\xa7A\xca\xbf\x04\xea\xaf|\xc1G\xc6?\x938\xf4\xb1\x93G\xe5?\x86\xfaV\'\xbc\xd9\xc1\xbf\x1b\xdbE\xc9\x17\xf3\xe2\xbf\x97\x8clf\xc7\xe6\xe5?\x1a"\xd2\xd2cJ\xc3\xbfr#\xe9\x05*\xb6\xe4\xbf8ep\xcf\x8f.\xe8?T\xd9Qm\xb7\xc3\xe3?\x88\x89~=\xe2\xd0\xe1\xbfs<6"\xae\xdb\xe6?\xab5S>+\xaf\xe5\xbf\x14|X\xc2\xd5\xec\xe4?\x9c\x10\x08[\xe4\xc6\xe4\xbfO\xff\xe7\xb3\x99\xe3\xd7?\xb0\xe8"=\xe4\x8a\xea?Q8\xf0Z\xd1\x03\xc9?\x00\xb0\x840;\xdf\xe1\xbf\xd9\r\x88\xcfX\xbe\xe6?\x0c\xc32\xd0\xd5\x9f\xc6\xbf\x0f\x9dy9p\xa4\xd9\xbf\\\xa3\x99{v=\xeb?Pi\x99\xe8\x17G\xc4\xbf\x02H\xfd\xef\xe8O\xd5?+\xc4\xb5y\x8a\xb4\xcc?\x19\xe1q\xfe\xdf\x1b\xa3\xbf\x08"\x93\xeb\xe3\xa5\xe9?lK\xe9\xc2\xb1\xf0\xe3\xbf\xb6\xe5*z\xec:\xe8?\xb4\xab_$\xf1\x95\xb8\xbf\xbdr*\x9b\xffv\xb1?D\x99p\xdb97\xd9\xbf\xa2d\xff+\xe1.\xdf?AY\xe4\x18\x1f\'\xe4?\xfa\x0f\xbf\xfdY\x04\x9b\xbf\x00\x9e\x007-\xae\xe4\xbfl#\x9f\xd8$\xc4\xdb?o\x97\x93\xd0<\x87\xa1\xbfJ\t"*\xb4\xb4\xeb?\xcb\xa2\xb9\xf3V(\xe9\xbf]e%w0\xf0\xca?\xb7\xae\xf2\x9d73\xdb\xbfz3\xef|\xf9\xdb\xea\xbf9\x9a\xb5c\x80L\xe5\xbfe\xae\\\xc4\x12\x9d\xe8\xbf\xc2 Z\xab\xaf\xcd\xe5?\xef7{\x1d\xac\x80\xec?\xb9\xcd\x9a\x04]0\xe0?\x9bkfb\xa2\xae\xcf?\xc1\x802\x80\xfa\x86\xdb?^\x87`R{9\xa3\xbf\xba\xb6\x07s\xf36\xb1\xbfJH\xbd\xb7\'[\xdd\xbf\x18MG\xc6M\xb4\xce?\x92u\x01p\xd8\x8b\xd9?\xa0(\xc7\xf9\x0b\xf2\xa9\xbf\xa6\x17!+[&\xe6?E\x8e\xc1\x06I\xdc\xb6\xbf\xbb\x1c\x99\x1a\x8d8\xd2?\xf2|\xe7\x10\xc4 \xe2?zV\xe56\x13\xb3\xdc\xbff\x10\xe5\x8f+\x17\xeb?,v~r\xd5\x15\xae?\x83\x00\xfd\xf0\x1e\xdd\xba?\x1d\xdc\x0e\xfa@\t\xc6\xbf\xa1~\xca\x91DO\xe0?Z\x89\x90f\xf3U\xd1\xbfig\x1c\x81\xbeg\xe4?f\xf2SIl\xf3\xce?0(r\x81\x93s\xe0\xbf\xc2\x081\x85\xaf\x06\xe4?\xe3\x97\xb8Q\x92\\\xd7\xbf\xf9)\x83`\xaf\xf4\xec?\x00D\x1b\x0fe\x14\xe3?\xcd\xb6\x9f\xfc\xee\x18\xde?\x8c\x06.\xb0"U\xce\xbfu\x92\x89\x85\x18$\xe4\xbf\xfe\x88\xef\x84\xfd\xbf\xe9?\xa5\x8cZz\xc2a\xe7??i9\xca\xbc\xb6\xd4?\xd3p\xb2\x9f\xd0\xbc\xde\xbf\x9f\xb0t\xfc<\x04\xb2\xbf6\xd3\xbe%uH\xad\xbf\x92T\xfa\xff\x19;\x9f\xbf[\xdf\xb2\xa8{l\xe1?+N^\x08,w\xf4?a\xebW\xac\xa4g\xc7?eG\x06o\xb9@\xef?B\xe8[\x81F\xf4\xf2?\x8bvn\xd6\xfcN\xdc?\xc8$ \xd3\xcd\x9d\xdf\xbf\x81\xee\xe1\x98\x96\x86\xd4?d\xc7\x87\x8a\xbe}\xf0?N\xa0\xf9\xa2\xbf\xe2\xeb?z=\xd4|e,\xb7?O\'\xf2\r\xd6\xde\xc0?=\x00\xf0\xc4|\x8b\xea?V\xf5\x84\x90\x93-\xd0?\xa7\xd4\x8e\xa3t\x06\xae?\xc0\xcf\xb7}\xb6F\xdf?\x8cx\xdaSV\xcb\xe0\xbf\x8e\xb0\xf1+\x13\xd9\xb9?t\xb7jO\x0c\x1f\xe7?c\xa7l\xaeA&\x8b?\xfdf\xd9\x14\x00\x8b\xf0?\x80\x15\x18/\\\xa3\x91?oaxC=\xbb\xdc\xbf)\xf8\xc5\x95>&\xe7\xbf\xcd\x03\x11\x82\r\xda\xa1?z\x05\xf4\xed\xf6\xd4\xe8?\x82zmo\x97M\xd3?\x08E7\x92V\x9c\xb2\xbf\xc9\xc5)\x96\xaf\xc5\xdb?\x07f\xc4or\xed\xe1?\x13\x82\xd7\xafa\xc3\xe4?\x0c\x0b\xe9\\\x0f\xbb\xcd\xbf\xda\xc1C\xbfYw\xd7\xbf\rN-\xd8\xed?\xb9\xbf\x7fD\rL&\xa9\xe4\xbf-f\xd8\xba\xe1\x7f\xcd?\xd9%\x90V\xe48\x9c\xbf\xcc\xd5o\xf1\x1f<\xe9?f+\xf7/\x13<v\xbf\x8cg\x91\x99\xb4\x81\xe5?.\x89T\x04r2\xe8\xbf\x8f\x7f:\xa7\x8f\x99\xbd?\xd5\xd6\xd1\xe0*g\xe3\xbf/\x82(\xbc\x10\xa3\xe4?h\\\xc0\x1eJ\xc7\xe4?\xc4\xc9g\xbdk\xf9\xe7?\xbb\r\xe0\x17\xea\x1a\xe7?\xc7\xc5"\x1b\x07p\xe7\xbf\xdf\x92W\xf9\xc1\xbd\xe7\xbf\x13\xa9\x13\xc7\x1a\xf3\xc9\xbf\xed\x9c\xc8g\xd0\xad\xe4?g\x86\xbb\xf6\xcd\xf4\xdd?mH\x11\xb6\xdb\x00\xe4?6mdw!M\xde?\x18\x16\x92@\x1f\x12\xda?\x9c\xe2\x1cIVw\xbf?\x19\xceLp#\xe8\xd4\xbf\xc6p\xaagS\xce\xbd?\xfd\x18\x82\xb9+i\xcc?q\xd9\x8a\x06\xe3]\xdc\xbfrk\t\xc4\x1a<\xeb?\x8cB\x12\'\xc9\x8b\xe3?\xe3_d\x93\xe5\x95\xd1\xbfJ\xc5\x14\xd1Pv\xe4\xbfII\xc8\x88\x93E\xd3\xbf\xf6\x91\xf1\x82Q\xfa\xdc\xbf\xb1\xc9;+\xc6P\xda\xbf%\xff\xd0\x1a\xbd\xbf\xe1?W\x95K\xdb\xd9\xf2\xcf?\xec\xa8\xc7jS/\xc5?\x97\xcdN\x86k\xdd\xda?c2\x15\xc9\xdf\xd2\xe4?G\xcf%\x82G\x12\xeb?)\x05\x8en\x88\x8f\xc8?\xe0*\xcd\xa7\x96\xc4\xe5\xbf\xbe:\x01p\x02\xdd\xda\xbfD8}\xaant\xd0\xbfH\xf2\xde\xfd\x13\x16\xe3\xbf<\xc4\x91+\xfao\xe5\xbfb\x94\xbb\x1d\t\xbe\xd1?>Q\xfb0\xfc\x07\xae\xbf\x83\xa5\xcc</\xf3\xc6\xbf\xa8\xfa\xbe\x81\xc6,\xe8?D-`B\xd0\x9b\xc1?\xb8\xbbk\x8f\xd1\xcc\xdd?\xc8\xf8KhqI\xe3\xbfK/P\\K\xf2\xe8?O\x8a\xa9\xe0\xe5b\xd5\xbf7\xcda\x9eH\x9a\xc7\xbf\xcd+\x8e\xb8\x95\xac\xe4\xbf(\x90W\xe8uW\xe1\xbf\xf9\xfe%p-2\xd3?\x93.\xf0ld/\xe6\xbf\xf6,n\x14\x12j\xd4?\xfc\xc4\x9a\x0b[[\xca\xbf\x14\t]-\xd4\xb9\xd8?\xefc\xb2\xc9\xd1\xc8\xe4\xbf\xb2\x12\xfe\xe2:\'\xea\xbf\xfc\x86\xf9\x0f\x8d\x8b\xe3\xbf\xcc\xe7\xcd\x9f\x00\xa2\xcd\xbf(\x98X\x1aQ\xdc\xd5\xbf\xc5\x1a\xfb|\x85\xb8\xe7?\x86\xdf\x1fr\x89\xaf\xa1\xbfl\x0e\xc7\xd6\x0cB\xe8?E\nH\xe7q\x86\xe7?^?L|l\xb4\xdf\xbf(y\xc7\x0f\xbae\xc6?;\xbfz\xdbP\xb6\xc2\xbf\xb4\xc0\xe6\\\xc2\x03\xe0\xbf7\xc5\x01\xa6K\n\xdf?\x99\x12\x0e{\xdb\xc7\xd6\xbf\xcc\xbd\xc3\xd4\x9d\xcf\xe9?x6\xe8\x98\x9aA\xbd\xbf\xdb\xdd\x7f\x94\xb1K\xe2?\xf5\x83\xcb\xdc\xfd\xdb\xea\xbf\xf6\x8a\xdd\xbcc\xf5\xdb\xbf\xdeU:"\xec\x8c\xdf\xbfd\xaf\x15u\xdea\xc6?fH\xdb\x05\xda:\xd5?\xe1o\xf9\xd23Q\xe7\xbfs\xb4\x8a]\xcc/\xe5?\x83y\xc3T\x10k\xce\xbf\xebT\x04#[X\xd0\xbf&\xffQ\xf0\x8e\xd8\xd4\xbf\x92W\xccjAa\xdf?B\x94\x0b\xc1\x07\x9e\xa4\xbf\xf1"\xd8\xa5/v\xb9\xbf\x06n\x86\x1b7\xb3\xe1\xbf\x1d\x91\xc5\x98\x9f\n\xe1?\x1aFw\xe7\x9f\xe3\xe6?\xf95V\xedF|\xcc\xbf\xaf\x8a\xb1n\xd9p\xe0?\x159\xc9\x0cQ\x90\xe6?\x08\xea 0\xa3\xb1\xc0\xbf\xf5F\xfe\xe8\xa0\x13\xd9?#\xa5j\xeah\'\xde?\x0c\xcf\x0bX\xc07\xe8\xbf\xa0\xfb:\xa8\x08\xa7\xd7?\xce\xee3\xb5\x9a\x99\xb6?\x98\xdb\xc3\x1aA\xa3\xe8\xbfa\xf9%1K\x89\xdf\xbf\xaaU\x8d6\xda\xa2\xd4?\x05\x0e\x87\xa2\xf7S\xef\xbf\xbekX\x00\x12\x88\xdb?\xf3u\x9d\xf1\xc2\xa2\xe1?\x86\xe1%xg\xbd\xe3?:\xeb\x12\x8d\x86\x1a\xe8\xbf\xbf\x93\x18\xfd\xa2X\xd4?\x7f\t\xfe\xcet`\xd8\xbf\x9a\x1b\x94<\x07\xb2\xd6?~\xa1\xe4\xc6\x96\xe2\xef\xbf,\xc4\xd8\xb3\xe2<\xdb?iE\x9d\xb0}\x80\xc2\xbf\x9d\xdd\xe7\xf1\x1b\xfe\xe4?\xb0\x0f88\x91-\xdc\xbfnB\xb7\xbf\xb4\xda\x89\xbf\x98\rl\x1d\xd2\xe9\xea?9\xf8\xe6\xa9c\xbb\xbc?\xb6]\xde\xcaL\xa9\xac\xbf\xef<\xd7\x0c\x16W\xd8?\x93,\x1d_\x82\xb6\xea?\xc6\xdf\xc1\x8d\xeb\xed\xc5\xbf\x1d #\xedAS\xe0\xbf\xe41\x0e*\xa7M\xc0?\xf2^\x12\'\xf6\xc5\xd3\xbf\xbcAK\xa5\xddd\xce?x\x08\xd9\x9a\xf6Y\xd8\xbf\xc7C\x8de\xe7[\xd2?\xed\xee=\x14o\xc6\xdc\xbf<\x01*\xc2\xbf\x1d\xc5\xbf\xe8<\xf5Z\xab\xc2\xe1\xbf\xc0q\x93\x844Y\xe7?\xe4\xf7w\x10\xad#\xe4\xbf\xf2\x1bo\xd2D\x97\xce\xbfYC\xfd\x93 \xae\xe6\xbf\x8c:j\x90\xf1\xb2\xe2?#H\x1b\xc7\x91\xdf\xe3?\xf7\x87\x9e\x16q\xf6\xe6?\x1d\xf76\x80\x0c~\xe0\xbf\x07\x07\x1d\xcc\xdf\xb8\x85?\x93\xfb3\x0e\x8f6\xd0?j\xa1XWV\x03\xe7?\x9e%\xe1\xf2\xc2}\xc1\xbf\x97\xad\xdel\xfd\x1c\xd7?b\x19\x12j\x13\xf7\xaf?\xeeD\xc7o\xf5\x16\xd3\xbf\xa5\x9a\x92\x99\x8d\xbc\xe8\xbf\xd6&\xa5\xe6_\nW\xbf!\x1d\xaf\xeer\xfa\xe1\xbf\x80\xcaP4\xbdO\xe8\xbf~\xff\xac\xa9\x0bG\xde?\xa4b;\xe5=\xfe\xa5\xbf\xc4^\x19S$\x07\xca\xbf>V\xb9\x15\t1\xe9?\x89\xbcIt\xb7\xac\xd4\xbf\xf7e\xd3\xa7\xf1\x80\xe3\xbf\xe7x-\xf0\xab\x9b\xea\xbf\xd1\xb3\xd3L1Z\xd6\xbf2A\xbaD*"\xde?c\xf5\xfb\x8a\x83\xb4\xc7\xbf\xbb\x90E6\x84\xb4\xe7\xbf\xc0\x13(\x97\x80\xa4\xd1\xbf_\x80\xaa\xca\x91\xff\xd2\xbf\xdf|\xfaQda\xc8\xbfun\x991(\xfe\xc0\xbfM\x83\xb1h\xaa&\xea\xbf\x0f\x13\x94\x10.\xc8\xde\xbf\xde\x80\n\xd6;\xed\xe0?\xda\x0c*\xccUY\xc1\xbf10\xb8W\x85\x9c\xda?\xc9^\xcddC\xda\xec\xbf#.vq-\r\xbb?r\xd0\xd6\xc9\x0b\x0e\xee?,\xba\xf3\xb2m\xa5\xb0\xbf\xb3\xc8r\xf9\xb4\xa6e?\xce\t\xbb\xfe\x80\x93\xe2?n\x9aH4\t(\xe6?jM\x8d\x0e\xa5k\xea?\xb1\xd6\xb5\xc1>\x06\xdb\xbf\x03I\nG\xa7z\xea\xbf\xa3\xff\x07\xaa\xa8P\xe1\xbfR\xfe\xd4r\x15\x83\xd0?\x01^4\x05\xceG\xb5\xbf\xac\x0c\xc3X\x8ch\xe3\xbf\xdd\xb5s\xcdC\xd9\xc6?\xeer\x9a\'\xd4\x0e\x99?\x8d[e\x1d\xb0\xaf\xe6?n\x11\xbfD\x04\xee\xa5?@D\xef\xa1S\x8d\xd8?\xf8gF\xf9\xcbp\xe5\xbf?\x93\r\xbd\x93\xfd\xcf\xbf\xbd\xec\xd0\xa8E\xd1\x98?9\x7fq\xc1m\xef\xd1\xbf\xcc\xf2K\xd3R\x19\xd4\xbf\xf4\xc1\x06\xd3\rc\xeb?2\xb5\xfe\xa5=\xab\xe0\xbf?\xaf\x85\x8d\xb7\x1f\xe4\xbf\xc0\x9aJ\x84@\xab\xdb\xbf\xda\x17\x19\xb8\x84 \xe0?\x8d\x02\xd6M\x81T\xed?\x94\xd5\x8f\x9f\x18F\xa2?\xbd\x10\x7f\xc9\xe3\xd5\xc0\xbf\xd1\xf5\x94+\xd11\xe7?z\x12\x92\xa9r\x93\xbe?\xe1v\xfe\x1ak\n\xd9?H\xf5\xdc \x1a;\xe1?G/\x8c\xef\xce\xc6\xd2\xbf)^\xd9\xc6\xa0W\x80\xbf:\x16\xf3\x0e\x8cc\xee?\xca\xe9N\xc03\xc3\xe0?\xf6\x06\x8d[\xe0y\xd5?\xd1\x02\x04\x8b\x90_\xca?\xa6X<\x8b\xd6\xd9\xca?\xea\xd3 \xe9\xe3r\xd5?#\t\xc8\xfa\x0e\xf6\xcf?\xee\x91\xd0\xea #\xe8?=\xe4\x0bK\xb8\xc6\xb3\xbf(\xf6\xe7\xf6\x8f\xc4\xc7?y\'\x91\\\x91A\xd0\xbf\x1bP\xfb9\x80\x92\xe1\xbf\x16\x83\x98\x91\x13\xcc\xe5\xbf\xa6\xec-S\xab\xe0\xee\xbf\xd4:g\x00\xdf\xa0\xe1?\x1d\x13\xe2\xbe\x8a\xa2\xe1?\xd4\x88\xaf\xb1l]\xe2\xbfv\x84"\xa9\x08\xb7\xd6?\xf5\xed\xed&\xd8\x08\xe9\xbf\xbb\xba\xed\xb3\xf4\x8d\xee?\x977\x8b\xa8\xa2Z\xdf?\xcaKw\xb8CG\xc3\xbf}o\xf9\x11\xab\xf1\xb3\xbfT#\x88o\x99U\xe1\xbf\xee\xb5\x85\xd3\x10+\xb2\xbf\x99M \xfc\x8f\xd6\xeb?dv+\xb2\x88(\xd3\xbf$\xce\xc0\x84\xb1b\xd7\xbf\xf8\xedw\xa6\xb7\xe7\xee\xbf\xa8\xbc&\xcf\x18\x1d\xc7?n\x0b\x98\x17\x0fqk?\xe4\xcc\x93\xd0\x0c{\xd0?\xc5\x8f\xec\xac\xf4C\xc7\xbf\xaee\xe8O\xb7!\xdc\xbf'
p60
tp61
bssS'transf'
p62
(ineurolab.trans
TanSig
p63
(dp64
bsS'out_minmax'
p65
g18
(g19
(I0
tp66
g21
tp67
Rp68
(I1
(I51
I2
tp69
g28
I00
S'\x00\x00\x00\x00\x00\x00\xf0\xbf\x00\x00\x00\x00\x00\x00\xf0?\x00\x00\x00\x00\x00\x00\xf0\xbf\x00\x00\x00\x00\x00\x00\xf0?\x00\x00\x00\x00\x00\x00\xf0\xbf\x00\x00\x00\x00\x00\x00\xf0?\x00\x00\x00\x00\x00\x00\xf0\xbf\x00\x00\x00\x00\x00\x00\xf0?\x00\x00\x00\x00\x00\x00\xf0\xbf\x00\x00\x00\x00\x00\x00\xf0?\x00\x00\x00\x00\x00\x00\xf0\xbf\x00\x00\x00\x00\x00\x00\xf0?\x00\x00\x00\x00\x00\x00\xf0\xbf\x00\x00\x00\x00\x00\x00\xf0?\x00\x00\x00\x00\x00\x00\xf0\xbf\x00\x00\x00\x00\x00\x00\xf0?\x00\x00\x00\x00\x00\x00\xf0\xbf\x00\x00\x00\x00\x00\x00\xf0?\x00\x00\x00\x00\x00\x00\xf0\xbf\x00\x00\x00\x00\x00\x00\xf0?\x00\x00\x00\x00\x00\x00\xf0\xbf\x00\x00\x00\x00\x00\x00\xf0?\x00\x00\x00\x00\x00\x00\xf0\xbf\x00\x00\x00\x00\x00\x00\xf0?\x00\x00\x00\x00\x00\x00\xf0\xbf\x00\x00\x00\x00\x00\x00\xf0?\x00\x00\x00\x00\x00\x00\xf0\xbf\x00\x00\x00\x00\x00\x00\xf0?\x00\x00\x00\x00\x00\x00\xf0\xbf\x00\x00\x00\x00\x00\x00\xf0?\x00\x00\x00\x00\x00\x00\xf0\xbf\x00\x00\x00\x00\x00\x00\xf0?\x00\x00\x00\x00\x00\x00\xf0\xbf\x00\x00\x00\x00\x00\x00\xf0?\x00\x00\x00\x00\x00\x00\xf0\xbf\x00\x00\x00\x00\x00\x00\xf0?\x00\x00\x00\x00\x00\x00\xf0\xbf\x00\x00\x00\x00\x00\x00\xf0?\x00\x00\x00\x00\x00\x00\xf0\xbf\x00\x00\x00\x00\x00\x00\xf0?\x00\x00\x00\x00\x00\x00\xf0\xbf\x00\x00\x00\x00\x00\x00\xf0?\x00\x00\x00\x00\x00\x00\xf0\xbf\x00\x00\x00\x00\x00\x00\xf0?\x00\x00\x00\x00\x00\x00\xf0\xbf\x00\x00\x00\x00\x00\x00\xf0?\x00\x00\x00\x00\x00\x00\xf0\xbf\x00\x00\x00\x00\x00\x00\xf0?\x00\x00\x00\x00\x00\x00\xf0\xbf\x00\x00\x00\x00\x00\x00\xf0?\x00\x00\x00\x00\x00\x00\xf0\xbf\x00\x00\x00\x00\x00\x00\xf0?\x00\x00\x00\x00\x00\x00\xf0\xbf\x00\x00\x00\x00\x00\x00\xf0?\x00\x00\x00\x00\x00\x00\xf0\xbf\x00\x00\x00\x00\x00\x00\xf0?\x00\x00\x00\x00\x00\x00\xf0\xbf\x00\x00\x00\x00\x00\x00\xf0?\x00\x00\x00\x00\x00\x00\xf0\xbf\x00\x00\x00\x00\x00\x00\xf0?\x00\x00\x00\x00\x00\x00\xf0\xbf\x00\x00\x00\x00\x00\x00\xf0?\x00\x00\x00\x00\x00\x00\xf0\xbf\x00\x00\x00\x00\x00\x00\xf0?\x00\x00\x00\x00\x00\x00\xf0\xbf\x00\x00\x00\x00\x00\x00\xf0?\x00\x00\x00\x00\x00\x00\xf0\xbf\x00\x00\x00\x00\x00\x00\xf0?\x00\x00\x00\x00\x00\x00\xf0\xbf\x00\x00\x00\x00\x00\x00\xf0?\x00\x00\x00\x00\x00\x00\xf0\xbf\x00\x00\x00\x00\x00\x00\xf0?\x00\x00\x00\x00\x00\x00\xf0\xbf\x00\x00\x00\x00\x00\x00\xf0?\x00\x00\x00\x00\x00\x00\xf0\xbf\x00\x00\x00\x00\x00\x00\xf0?\x00\x00\x00\x00\x00\x00\xf0\xbf\x00\x00\x00\x00\x00\x00\xf0?\x00\x00\x00\x00\x00\x00\xf0\xbf\x00\x00\x00\x00\x00\x00\xf0?\x00\x00\x00\x00\x00\x00\xf0\xbf\x00\x00\x00\x00\x00\x00\xf0?\x00\x00\x00\x00\x00\x00\xf0\xbf\x00\x00\x00\x00\x00\x00\xf0?\x00\x00\x00\x00\x00\x00\xf0\xbf\x00\x00\x00\x00\x00\x00\xf0?\x00\x00\x00\x00\x00\x00\xf0\xbf\x00\x00\x00\x00\x00\x00\xf0?\x00\x00\x00\x00\x00\x00\xf0\xbf\x00\x00\x00\x00\x00\x00\xf0?\x00\x00\x00\x00\x00\x00\xf0\xbf\x00\x00\x00\x00\x00\x00\xf0?\x00\x00\x00\x00\x00\x00\xf0\xbf\x00\x00\x00\x00\x00\x00\xf0?\x00\x00\x00\x00\x00\x00\xf0\xbf\x00\x00\x00\x00\x00\x00\xf0?\x00\x00\x00\x00\x00\x00\xf0\xbf\x00\x00\x00\x00\x00\x00\xf0?\x00\x00\x00\x00\x00\x00\xf0\xbf\x00\x00\x00\x00\x00\x00\xf0?\x00\x00\x00\x00\x00\x00\xf0\xbf\x00\x00\x00\x00\x00\x00\xf0?'
p70
tp71
bsS'out'
p72
g18
(g19
(I0
tp73
g21
tp74
Rp75
(I1
(I51
tp76
g28
I00
S'\x16}\x11,\xb2\xac\xea\xbf\x0c\x9be:\xed\xff\xef?\xc2SJ8\xc5\xfd\xef?\xda\x80U\x828\xf5\xef\xbf\xabq1~D\xe7\xef?\xfeE\x81\xcd\xdc\xb1\xef?\x0c\xf2o\x933s\xef?\x14\xa4\xc3H\xbe\xfb\xef?L\x8b\x94M\xad\xff\xef?fE\x94\xb0\xb2\xbe\xef\xbf\xf2\x04\xe0\x7f\x9a\x9e\x9d?\xacy%U\xea+\xc4?\xf0G\xf3%q\x18\xeb?uW\x8b\xffO"\xec\xbf\x96\x1f\xbe\xf1\xd7\xe2\xef?\x7f\\qH\xc6\xb1\xdb?\x8d\x94\x14\xf8\xce\xe3\xdd\xbff\xc8MT\xf5\xe0\xef?\xc6\x8dB\x87\xcb\xf0\xe5?\xf0<\xc3\xfd5\xc9\xef?\x9d\x18O\x92"\xf6\xb6\xbfdDs\x02\x9f\xcd\xef\xbf\'5\xa7\xb2\x92\xfe\xef\xbfT\xbb,\x8b\x12\xd2\xef?l\xe6)\xffd\xd0\xe2\xbf\xfe\x7f\x9a\x02\x14\xef\xef?DBK3\xa6C\xe4\xbf\xae\x9a6\xe8q\xa1\xb9?m\xe6\n|\x8fX\xe1?\xb8x2\xfdq7\xed\xbf\x90\x0c\x82EB\xed\xec\xbf\x17\xa6V\xf7P\xb6\xef\xbf\xf7\x05\x06R\x81\xff\xef\xbf\x9b\tZ\xd8\xe9\xf8\xef?dv\xdce\xbaq\xea?\xf3\xdd\x13\xd6\x80<\xef\xbf\x949,E\xc0\x06\xe2?\xe9Uy\n\xbf\xec\xc0\xbf\xe9\x8b\x96\xb2\x13\xf8\xef?P[\xed\x14\xb3\xfc\xef\xbf&h\xb7\xfa\x9d\xc0\xef?\x12\x99\x98X\xf02\xb8?!\xe0\x08\x16\x87\x91\xef\xbf\xcf\xfa$\x89&\xce\xef?\xfdOR%\xb5\xfe\xef\xbf\x03\x08\x12E\xa9\xf5\xef?\xe8\x19\xc9>\xff\xa1\xee\xbfY\'A\xff\x04\xe4\xef?q\xa2+\xef\xe2\xfe\xef?)\xe5\xdbx"2\xd8\xbf\xab\xee\x89\x83T`\xc5?'
p77
tp78
bsbag0
(g8
g2
Ntp79
Rp80
(dp81
g12
g13
sg14
I51
sg15
I1
sg16
I1
sg17
g18
(g19
(I0
tp82
g21
tp83
Rp84
(I1
(I51
I2
tp85
g28
I00
S'\x00\x00\x00\x00\x00\x00\xf0\xbf\x00\x00\x00\x00\x00\x00\xf0?\x00\x00\x00\x00\x00\x00\xf0\xbf\x00\x00\x00\x00\x00\x00\xf0?\x00\x00\x00\x00\x00\x00\xf0\xbf\x00\x00\x00\x00\x00\x00\xf0?\x00\x00\x00\x00\x00\x00\xf0\xbf\x00\x00\x00\x00\x00\x00\xf0?\x00\x00\x00\x00\x00\x00\xf0\xbf\x00\x00\x00\x00\x00\x00\xf0?\x00\x00\x00\x00\x00\x00\xf0\xbf\x00\x00\x00\x00\x00\x00\xf0?\x00\x00\x00\x00\x00\x00\xf0\xbf\x00\x00\x00\x00\x00\x00\xf0?\x00\x00\x00\x00\x00\x00\xf0\xbf\x00\x00\x00\x00\x00\x00\xf0?\x00\x00\x00\x00\x00\x00\xf0\xbf\x00\x00\x00\x00\x00\x00\xf0?\x00\x00\x00\x00\x00\x00\xf0\xbf\x00\x00\x00\x00\x00\x00\xf0?\x00\x00\x00\x00\x00\x00\xf0\xbf\x00\x00\x00\x00\x00\x00\xf0?\x00\x00\x00\x00\x00\x00\xf0\xbf\x00\x00\x00\x00\x00\x00\xf0?\x00\x00\x00\x00\x00\x00\xf0\xbf\x00\x00\x00\x00\x00\x00\xf0?\x00\x00\x00\x00\x00\x00\xf0\xbf\x00\x00\x00\x00\x00\x00\xf0?\x00\x00\x00\x00\x00\x00\xf0\xbf\x00\x00\x00\x00\x00\x00\xf0?\x00\x00\x00\x00\x00\x00\xf0\xbf\x00\x00\x00\x00\x00\x00\xf0?\x00\x00\x00\x00\x00\x00\xf0\xbf\x00\x00\x00\x00\x00\x00\xf0?\x00\x00\x00\x00\x00\x00\xf0\xbf\x00\x00\x00\x00\x00\x00\xf0?\x00\x00\x00\x00\x00\x00\xf0\xbf\x00\x00\x00\x00\x00\x00\xf0?\x00\x00\x00\x00\x00\x00\xf0\xbf\x00\x00\x00\x00\x00\x00\xf0?\x00\x00\x00\x00\x00\x00\xf0\xbf\x00\x00\x00\x00\x00\x00\xf0?\x00\x00\x00\x00\x00\x00\xf0\xbf\x00\x00\x00\x00\x00\x00\xf0?\x00\x00\x00\x00\x00\x00\xf0\xbf\x00\x00\x00\x00\x00\x00\xf0?\x00\x00\x00\x00\x00\x00\xf0\xbf\x00\x00\x00\x00\x00\x00\xf0?\x00\x00\x00\x00\x00\x00\xf0\xbf\x00\x00\x00\x00\x00\x00\xf0?\x00\x00\x00\x00\x00\x00\xf0\xbf\x00\x00\x00\x00\x00\x00\xf0?\x00\x00\x00\x00\x00\x00\xf0\xbf\x00\x00\x00\x00\x00\x00\xf0?\x00\x00\x00\x00\x00\x00\xf0\xbf\x00\x00\x00\x00\x00\x00\xf0?\x00\x00\x00\x00\x00\x00\xf0\xbf\x00\x00\x00\x00\x00\x00\xf0?\x00\x00\x00\x00\x00\x00\xf0\xbf\x00\x00\x00\x00\x00\x00\xf0?\x00\x00\x00\x00\x00\x00\xf0\xbf\x00\x00\x00\x00\x00\x00\xf0?\x00\x00\x00\x00\x00\x00\xf0\xbf\x00\x00\x00\x00\x00\x00\xf0?\x00\x00\x00\x00\x00\x00\xf0\xbf\x00\x00\x00\x00\x00\x00\xf0?\x00\x00\x00\x00\x00\x00\xf0\xbf\x00\x00\x00\x00\x00\x00\xf0?\x00\x00\x00\x00\x00\x00\xf0\xbf\x00\x00\x00\x00\x00\x00\xf0?\x00\x00\x00\x00\x00\x00\xf0\xbf\x00\x00\x00\x00\x00\x00\xf0?\x00\x00\x00\x00\x00\x00\xf0\xbf\x00\x00\x00\x00\x00\x00\xf0?\x00\x00\x00\x00\x00\x00\xf0\xbf\x00\x00\x00\x00\x00\x00\xf0?\x00\x00\x00\x00\x00\x00\xf0\xbf\x00\x00\x00\x00\x00\x00\xf0?\x00\x00\x00\x00\x00\x00\xf0\xbf\x00\x00\x00\x00\x00\x00\xf0?\x00\x00\x00\x00\x00\x00\xf0\xbf\x00\x00\x00\x00\x00\x00\xf0?\x00\x00\x00\x00\x00\x00\xf0\xbf\x00\x00\x00\x00\x00\x00\xf0?\x00\x00\x00\x00\x00\x00\xf0\xbf\x00\x00\x00\x00\x00\x00\xf0?\x00\x00\x00\x00\x00\x00\xf0\xbf\x00\x00\x00\x00\x00\x00\xf0?\x00\x00\x00\x00\x00\x00\xf0\xbf\x00\x00\x00\x00\x00\x00\xf0?\x00\x00\x00\x00\x00\x00\xf0\xbf\x00\x00\x00\x00\x00\x00\xf0?\x00\x00\x00\x00\x00\x00\xf0\xbf\x00\x00\x00\x00\x00\x00\xf0?\x00\x00\x00\x00\x00\x00\xf0\xbf\x00\x00\x00\x00\x00\x00\xf0?\x00\x00\x00\x00\x00\x00\xf0\xbf\x00\x00\x00\x00\x00\x00\xf0?\x00\x00\x00\x00\x00\x00\xf0\xbf\x00\x00\x00\x00\x00\x00\xf0?\x00\x00\x00\x00\x00\x00\xf0\xbf\x00\x00\x00\x00\x00\x00\xf0?'
p86
tp87
bsg33
g75
sg40
g18
(g19
(I0
tp88
g21
tp89
Rp90
(I1
(I1
tp91
g28
I00
S'\xceh&^\xb5\xd1\xc9?'
p92
tp93
bsg47
(dp94
g21
g18
(g19
(I0
tp95
g21
tp96
Rp97
(I1
(I1
tp98
g28
I00
S'\x96\xb3\xdeH6w\xb9?'
p99
tp100
bsg55
g18
(g19
(I0
tp101
g21
tp102
Rp103
(I1
(I1
I51
tp104
g28
I00
S"\x14\x90\xd9\x1ch\x81\x9c?\xfe\xb3\xcf\xde\xfb\xb0\xaf?\x01I\x02\xad\xcd\xa6\xc0?\x17\xaf\x1d\xf6\xf1\x97\xc2\xbf\x1f\xb0\xdf\x15\xde\xdf\xac?IP+\xc7D\xe9\xb9\xbf\xa3\xce\x02\xdb\x9a\xd7\xd1\xbf*9\xb7\x92/\xf2\xb8\xbf\xdaI\x8el\xe2\x91\xd0?z\x01\xc5|\xcb\xc8\xb8?Q\x97\xb5\xc4\xecp\xa1?\xfd\xe0WY\xbaY\xb7\xbf\x9c*\xc0\xad?\xed\xba?\xf7\xcc\x10\xdeX\xfc\xd1\xbf\xbbG\xcb\xfb\x9c\xf3\x95\xbf\n\xd3\xbd;{lm?\x0f\xbe\xd9S\xd3\xee\x84?I\\2\x98l.\xb8?\x93\r\xb8nf\xfb\xab\xbfmc\xa6\xcf\xff]\xe0\xbf\x06\x90\xaf\x04\xd3\xd7\x8a?\xf0\xb6k\x9e \xfb\xc3\xbf\x8ex\xb8\x93=\x93\xc1\xbfE27kF\x9b\xa1?\xe0\xb3\x1e\xc3\x01x\xa1?F\xb1&>\x99\xae\xd2?8\xf1\n\xc8\xd5\xd9\xb8\xbf\x98\x95\x1b\xa3U\xf5\xb4?\x01\x999\xd1\x9d\x06\xaf?\x0f+Z\x95\xd7\xf5\xae?\xa5\xd1;\xbe\xba\xe7\xb7\xbf\xb6\xa5\xa5T>\xbd\x91\xbf\xba\xd8}\x08\xb8\xda\xc4?e\x8cX\xacf\xc5\xbd\xbf\xa6\x9e\\-\xc0b\xd2\xbf\xca\x84'\xdeN\xafZ?\xb7|\xba\xcc\x16\xab\xbf?\xc0d\xc7\xb3\xa8\xe4\xa0\xbfy\xf3\xb3\xe3\xa1P\xc9?\xa5NiE\xed\x9f\xd2?t\xbf\x14\x96[\xed\x9a?4V\xcb\xdd\xf92\xa1\xbf\x0f\xa4\xe8\xb9\xe6\xa3\xb3\xbf\xae\xa6I\xb1\xaeU\xc2\xbf9u\xd1Z\xffr\xbb\xbf\xd4\xb8-= j\xb6\xbf\xe0%\xfeA\xb4\xb8\xbf?'\xb4\n\x16\x0b\xd5\xcc?\xc10\xa5%\x97~\xb4\xbfy\xa6p\x8e\xcc\xfa\xa9?a\x05\xec\xc6\xc4\xd3\x94?"
p105
tp106
bssg62
g63
sg65
g18
(g19
(I0
tp107
g21
tp108
Rp109
(I1
(I1
I2
tp110
g28
I00
S'\x00\x00\x00\x00\x00\x00\xf0\xbf\x00\x00\x00\x00\x00\x00\xf0?'
p111
tp112
bsg72
g18
(g19
(I0
tp113
g21
tp114
Rp115
(I1
(I1
tp116
g28
I00
S'BG\x13\xb6\x7fy\xc9?'
p117
tp118
bsbasg14
I37
sg15
I1
sg17
g18
(g19
(I0
tp119
g21
tp120
Rp121
(I1
(I37
I2
tp122
g28
I00
S'\x00\x00\x00\x00\x00\x00\x00\x00\x00\x00\x00\x00\x00\x00\xf0?\x00\x00\x00\x00\x00\x00\x00\x00\x00\x00\x00\x00\x00\x00\xf0?\x00\x00\x00\x00\x00\x00\x00\x00\x00\x00\x00\x00\x00\x00\xf0?\x00\x00\x00\x00\x00\x00\x00\x00\x00\x00\x00\x00\x00\x00\xf0?\x00\x00\x00\x00\x00\x00\x00\x00\x00\x00\x00\x00\x00\x00\xf0?\x00\x00\x00\x00\x00\x00\x00\x00\x00\x00\x00\x00\x00\x00\xf0?\x00\x00\x00\x00\x00\x00\x00\x00\x00\x00\x00\x00\x00\x00\xf0?\x00\x00\x00\x00\x00\x00\x00\x00\x00\x00\x00\x00\x00\x00\xf0?\x00\x00\x00\x00\x00\x00\x00\x00\x00\x00\x00\x00\x00\x00\xf0?\x00\x00\x00\x00\x00\x00\x00\x00\x00\x00\x00\x00\x00\x00\xf0?\x00\x00\x00\x00\x00\x00\x00\x00\x00\x00\x00\x00\x00\x00\xf0?\x00\x00\x00\x00\x00\x00\x00\x00\x00\x00\x00\x00\x00\x00\xf0?\x00\x00\x00\x00\x00\x00\x00\x00\x00\x00\x00\x00\x00\x00\xf0?\x00\x00\x00\x00\x00\x00\x00\x00\x00\x00\x00\x00\x00\x00\xf0?\x00\x00\x00\x00\x00\x00\x00\x00\x00\x00\x00\x00\x00\x00\xf0?\x00\x00\x00\x00\x00\x00\x00\x00\x00\x00\x00\x00\x00\x00\xf0?\x00\x00\x00\x00\x00\x00\x00\x00\x00\x00\x00\x00\x00\x00\xf0?\x00\x00\x00\x00\x00\x00\x00\x00\x00\x00\x00\x00\x00\x00\xf0?\x00\x00\x00\x00\x00\x00\x00\x00\x00\x00\x00\x00\x00\x00\xf0?\x00\x00\x00\x00\x00\x00\x00\x00\x00\x00\x00\x00\x00\x00\xf0?\x00\x00\x00\x00\x00\x00\x00\x00\x00\x00\x00\x00\x00\x00\xf0?\x00\x00\x00\x00\x00\x00\x00\x00\x00\x00\x00\x00\x00\x00\xf0?\x00\x00\x00\x00\x00\x00\x00\x00\x00\x00\x00\x00\x00\x00\xf0?\x00\x00\x00\x00\x00\x00\x00\x00\x00\x00\x00\x00\x00\x00\xf0?\x00\x00\x00\x00\x00\x00\x00\x00\x00\x00\x00\x00\x00\x00\xf0?\x00\x00\x00\x00\x00\x00\x00\x00\x00\x00\x00\x00\x00\x00\xf0?\x00\x00\x00\x00\x00\x00\x00\x00\x00\x00\x00\x00\x00\x00\xf0?\x00\x00\x00\x00\x00\x00\x00\x00\x00\x00\x00\x00\x00\x00\xf0?\x00\x00\x00\x00\x00\x00\x00\x00\x00\x00\x00\x00\x00\x00\xf0?\x00\x00\x00\x00\x00\x00\x00\x00\x00\x00\x00\x00\x00\x00\xf0?\x00\x00\x00\x00\x00\x00\x00\x00\x00\x00\x00\x00\x00\x00\xf0?\x00\x00\x00\x00\x00\x00\x00\x00\x00\x00\x00\x00\x00\x00\xf0?\x00\x00\x00\x00\x00\x00\x00\x00\x00\x00\x00\x00\x00\x00\xf0?\x00\x00\x00\x00\x00\x00\x00\x00\x00\x00\x00\x00\x00\x00\xf0?\x00\x00\x00\x00\x00\x00\x00\x00\x00\x00\x00\x00\x00\x00\xf0?\x00\x00\x00\x00\x00\x00\x00\x00\x00\x00\x00\x00\x00\x00\xf0?\x00\x00\x00\x00\x00\x00\x00\x00\x00\x00\x00\x00\x00\x00\xf0?'
p123
tp124
bsg33
g36
sS'trainf'
p125
g0
(cneurolab.core
Trainer
p126
g2
Ntp127
Rp128
(dp129
S'_train_class'
p130
cneurolab.train.spo
TrainCG
p131
sS'__module__'
p132
S'neurolab.train.spo'
p133
sS'params'
p134
(dp135
S'epochs'
p136
I150
sS'train'
p137
(dp138
S'rr'
p139
I0
ssS'goal'
p140
F2e-05
sS'show'
p141
I0
ssS'defaults'
p142
(dp143
g136
I500
sg137
(dp144
g139
I0
ssg140
F0.01
sg141
I100
ssS'error'
p145
(lp146
cnumpy.core.multiarray
scalar
p147
(g28
S'\xeaj!\x119\x89:@'
p148
tp149
Rp150
ag147
(g28
S'\x88\x0bgw\xd0C9@'
p151
tp152
Rp153
ag147
(g28
S'\xa1X=9p\x16&@'
p154
tp155
Rp156
ag147
(g28
S'\x94\x13\xa3O@\xe4%@'
p157
tp158
Rp159
ag147
(g28
S'\xfa\xd4\xc2\x03\xc3\x9e%@'
p160
tp161
Rp162
ag147
(g28
S'v\x00\xa7\xce\xe1\xce"@'
p163
tp164
Rp165
ag147
(g28
S'\x0bm\x990\xed\xcb"@'
p166
tp167
Rp168
ag147
(g28
S'<T\xa4O\xa4\xcb"@'
p169
tp170
Rp171
ag147
(g28
S'\xc5^\xd8\x1c\x13\xcb"@'
p172
tp173
Rp174
ag147
(g28
S'\xa4\xebE\x15\x13\xcb"@'
p175
tp176
Rp177
ag147
(g28
S't\xb5\x8e\xe8\xfc\xca"@'
p178
tp179
Rp180
ag147
(g28
S'\x94|&a\xfb\xca"@'
p181
tp182
Rp183
ag147
(g28
S'S\xf2\x13F\xcf\xca"@'
p184
tp185
Rp186
ag147
(g28
S'\x02\xf3\x1e\x97\xcd\xca"@'
p187
tp188
Rp189
ag147
(g28
S'O\x97\xe0E\xcc\xca"@'
p190
tp191
Rp192
asS'__name__'
p193
S'TrainCG'
p194
sS'__doc__'
p195
S'\n    Newton-CG method\n    Using scipy.optimize.fmin_ncg\n\n    :Support networks:\n        newff (multi-layers perceptron)\n    :Parameters:\n        input: array like (l x net.ci)\n            train input patterns\n        target: array like (l x net.co)\n            train target patterns\n        epochs: int (default 500)\n            Number of train epochs\n        show: int (default 100)\n            Print period\n        goal: float (default 0.01)\n            The goal of train\n        rr float (defaults 0.0)\n            Regularization ratio\n            Must be between {0, 1}\n        \n    '
p196
sbsS'connect'
p197
(lp198
(lp199
I-1
aa(lp200
I0
aa(lp201
I1
aasS'errorf'
p202
(ineurolab.error
SSE
p203
(dp204
bsg65
g18
(g19
(I0
tp205
g21
tp206
Rp207
(I1
(I1
I2
tp208
g28
I00
S'\x00\x00\x00\x00\x00\x00\xf0\xbf\x00\x00\x00\x00\x00\x00\xf0?'
p209
tp210
bsg72
g115
sb.