ccopy_reg
_reconstructor
p0
(cneurolab.core
Net
p1
c__builtin__
object
p2
Ntp3
Rp4
(dp5
S'layers'
p6
(lp7
g0
(cneurolab.layer
Perceptron
p8
g2
Ntp9
Rp10
(dp11
S'initf'
p12
cneurolab.init
initnw
p13
sS'ci'
p14
I38
sS'co'
p15
I21
sS'cn'
p16
I21
sS'inp_minmax'
p17
cnumpy.core.multiarray
_reconstruct
p18
(cnumpy
ndarray
p19
(I0
tp20
S'b'
p21
tp22
Rp23
(I1
(I38
I2
tp24
cnumpy
dtype
p25
(S'f8'
p26
I0
I1
tp27
Rp28
(I3
S'<'
p29
NNNI-1
I-1
I0
tp30
bI00
S'\x00\x00\x00\x00\x00\x00\x00\x00\x00\x00\x00\x00\x00\x00\xf0?\x00\x00\x00\x00\x00\x00\x00\x00\x00\x00\x00\x00\x00\x00\xf0?\x00\x00\x00\x00\x00\x00\x00\x00\x00\x00\x00\x00\x00\x00\xf0?\x00\x00\x00\x00\x00\x00\x00\x00\x00\x00\x00\x00\x00\x00\xf0?\x00\x00\x00\x00\x00\x00\x00\x00\x00\x00\x00\x00\x00\x00\xf0?\x00\x00\x00\x00\x00\x00\x00\x00\x00\x00\x00\x00\x00\x00\xf0?\x00\x00\x00\x00\x00\x00\x00\x00\x00\x00\x00\x00\x00\x00\xf0?\x00\x00\x00\x00\x00\x00\x00\x00\x00\x00\x00\x00\x00\x00\xf0?\x00\x00\x00\x00\x00\x00\x00\x00\x00\x00\x00\x00\x00\x00\xf0?\x00\x00\x00\x00\x00\x00\x00\x00\x00\x00\x00\x00\x00\x00\xf0?\x00\x00\x00\x00\x00\x00\x00\x00\x00\x00\x00\x00\x00\x00\xf0?\x00\x00\x00\x00\x00\x00\x00\x00\x00\x00\x00\x00\x00\x00\xf0?\x00\x00\x00\x00\x00\x00\x00\x00\x00\x00\x00\x00\x00\x00\xf0?\x00\x00\x00\x00\x00\x00\x00\x00\x00\x00\x00\x00\x00\x00\xf0?\x00\x00\x00\x00\x00\x00\x00\x00\x00\x00\x00\x00\x00\x00\xf0?\x00\x00\x00\x00\x00\x00\x00\x00\x00\x00\x00\x00\x00\x00\xf0?\x00\x00\x00\x00\x00\x00\x00\x00\x00\x00\x00\x00\x00\x00\xf0?\x00\x00\x00\x00\x00\x00\x00\x00\x00\x00\x00\x00\x00\x00\xf0?\x00\x00\x00\x00\x00\x00\x00\x00\x00\x00\x00\x00\x00\x00\xf0?\x00\x00\x00\x00\x00\x00\x00\x00\x00\x00\x00\x00\x00\x00\xf0?\x00\x00\x00\x00\x00\x00\x00\x00\x00\x00\x00\x00\x00\x00\xf0?\x00\x00\x00\x00\x00\x00\x00\x00\x00\x00\x00\x00\x00\x00\xf0?\x00\x00\x00\x00\x00\x00\x00\x00\x00\x00\x00\x00\x00\x00\xf0?\x00\x00\x00\x00\x00\x00\x00\x00\x00\x00\x00\x00\x00\x00\xf0?\x00\x00\x00\x00\x00\x00\x00\x00\x00\x00\x00\x00\x00\x00\xf0?\x00\x00\x00\x00\x00\x00\x00\x00\x00\x00\x00\x00\x00\x00\xf0?\x00\x00\x00\x00\x00\x00\x00\x00\x00\x00\x00\x00\x00\x00\xf0?\x00\x00\x00\x00\x00\x00\x00\x00\x00\x00\x00\x00\x00\x00\xf0?\x00\x00\x00\x00\x00\x00\x00\x00\x00\x00\x00\x00\x00\x00\xf0?\x00\x00\x00\x00\x00\x00\x00\x00\x00\x00\x00\x00\x00\x00\xf0?\x00\x00\x00\x00\x00\x00\x00\x00\x00\x00\x00\x00\x00\x00\xf0?\x00\x00\x00\x00\x00\x00\x00\x00\x00\x00\x00\x00\x00\x00\xf0?\x00\x00\x00\x00\x00\x00\x00\x00\x00\x00\x00\x00\x00\x00\xf0?\x00\x00\x00\x00\x00\x00\x00\x00\x00\x00\x00\x00\x00\x00\xf0?\x00\x00\x00\x00\x00\x00\x00\x00\x00\x00\x00\x00\x00\x00\xf0?\x00\x00\x00\x00\x00\x00\x00\x00\x00\x00\x00\x00\x00\x00\xf0?\x00\x00\x00\x00\x00\x00\x00\x00\x00\x00\x00\x00\x00\x00\xf0?\x00\x00\x00\x00\x00\x00\x00\x00\x00\x00\x00\x00\x00\x00\xf0?'
p31
tp32
bsS'inp'
p33
g18
(g19
(I0
tp34
g21
tp35
Rp36
(I1
(I38
tp37
g28
I00
S"\x04\x84\x14\xf7\xb5L\xc6?\xfb\x18\x9c\x8f\xc1\xf9\xc8?\x04\x84\x14\xf7\xb5L\xb6?\x18Z\x05\xc6\x9e\xf2\xb0?\xb1\xa7<\xc4\\h\xc5?\x9d\xd1K\xf5s\xc2\xaa?\xf9\x18\x9c\x8f\xc1\xf9\xb8?\x9e\xd1K\xf5s\xc2\xba?\x7fNX\xc3;\xa3\xc7?u\xe3\xdf[GP\xca?\xdb\xb6m\xdb\xb6m\xdb?\xeek\x99,r\x80\xe0?\x7fNX\xc3;\xa3\xc7?\xf9\xf7\xd6\x11\x94f\xd3?U?'\xac\xe1\x9d\xd1?\xf0\xad#(\xcd\xa6\xcb?lxg\xf4R\xfd\xcc?L\xf5s\xc2\x1a\xde\xc9?\xf9\x18\x9c\x8f\xc1\xf9\x98?i6\xdd\xf8\xf7\xd6\xb1?\xd1*0\xf6\x94\x87\xc8?7\xdd\xf8\xf7\xd6\x11\xc4?\xb1\xa7<\xc4\\h\xc5?\xda\x95\xa8]\x89\xda\xd5?\xee\x8c^\xaa\x9f\x13\xd6?_\xcbd\x91\x03\x84\xd4?\xfb\x18\x9c\x8f\xc1\xf9\xa8?\r\xef\x8c^\xaa\x9f\xa3?\x0e\xef\x8c^\xaa\x9f\xc3?\xbb\x12\xb5+Q\xbb\xb2?\x04\x84\x14\xf7\xb5L\xb6?\x0e\xef\x8c^\xaa\x9f\xc3?8\x1f\x83\xf318\xbf?\xbb\x12\xb5+Q\xbb\xb2?\x9e\xd1K\xf5s\xc2\xca?\xa6\x1b\xff\xde:\x82\xd2?\xda\x95\xa8]\x89\xda\xd5?B\x8a\xfbZ&\x8b\xcc?"
p38
tp39
bsS's'
p40
g18
(g19
(I0
tp41
g21
tp42
Rp43
(I1
(I21
tp44
g28
I00
S"~\x08$\x1c\xab\xa4\x10@K~\x9d\xb9\x1f\x99\x03\xc0\x8c\x98\xb8\xf3\xc9\x03\xdb\xbf\xcc\xa8!\xca\x10a\x08@\xd8\xb9pR\xdaB\xfe\xbfO\x07\x07\xfe\x1c\xd1\x07@\xa0\xe8\x89\xb8\x1a\xe6\xe8\xbf+\x1dq'\xb6\xbb\x03\xc0\xec\xe4\x16T\xca{\x14\xc0R\x11T\x9b\xcb\xc6\x05\xc02\xab\xfbp\xe6\xd7\xd3?\xcb\xc8\xb9W\x83\x1b\xf0?;\x0f;\x9c\x11\x01\xef?\x84J\x12_\xeb`\x02\xc0\xd8^Y\xbev1\xbf\xbf\xc6\x9e\xcfn\xc5\xa6\x03@\xdaEA\xc07]\xe2\xbfZk\x12\x0b\xd0%\x01\xc0\xbe\x1c\xaa{\xa2\xd2\xf6?\x89-8\x90\xd7\xa6\x10\xc0\x04\xa5\x01\xee\x91\xe6\x0c\xc0"
p45
tp46
bsS'np'
p47
(dp48
g21
g18
(g19
(I0
tp49
g21
tp50
Rp51
(I1
(I21
tp52
g28
I00
S"\x9bO(\x0c\x94+\x0b@\xc4\x86\xca/\xd3|\x05\xc0\x025\x8a\xc0+\x83\xeb\xbf\xd3\xe0\xbc\xcfy\xe2\x0c@\xcf$\xec\x1f(\x99\xca?\x01\x83z\xef\x1b'\n@r\xd9\x88\x01m\xbd\xdb\xbf\xf9\x83\x142q\xd7\xc8\xbf\x83<s\x80T\xb5\x17\xc0\x98KL%\xb4\xfe\x06\xc0\x17\xe9> \x08\xc6\xf4?x\x95a\xde\x94q\xd7\xbf\xa2\x9f%\xe1\xec\x8f\xdd\xbf0H\x14\xc5ON\x03\xc0Y\x86\xbb\xa4S\xa3\xe3?\x8f\xfc\x8a\xa8\xdaI\xe5?\x9d\x04\x8b\xc6\xe2]\xfe\xbf_r\xe4\xd7\x82{\xdc\xbf/L\x88x\x0eJ\x02@&\xdc\x085o\x8f\x12\xc0\xd4\x88\xfd\x80`\x04\xd2\xbf"
p53
tp54
bsS'w'
p55
g18
(g19
(I0
tp56
g21
tp57
Rp58
(I1
(I21
I38
tp59
g28
I00
S'\xb7y\x82m(\x11\xdd\xbf\x1a\xcaox>\x9b\xac\xbfm;Z\xa3F\x18\xc1?\xcd\x9ek\xd9\x17\xcb\xe3\xbf\x8f]\xb5Y\xbd7\xa5?\xe9DU\xb8l\x8e\xe3\xbfI\x7fA\xe48P\xd9\xbf\xf3%\xaa/\xfe\xc9\xeb?h\xe0cr\xb4\xdc\xdd?\xa6y\xc4xK\xc9\xea?\xe5\xaart\x1d\xa1\xce\xbf\x9b\x84\xa0X\xfa\x83\xeb?\x16\xa0\xcd\xad\xcd}\xd8\xbf\xafE\x1aU`b\xd6\xbf\xfes\xff\xebe\x11\xe5?\x138{\x04\xc7\x9d\x95\xbfI\xfa\xeb\xc3A\xb3\xe6\xbf)\x97\xba\x03\x91\x19\xb0?\x89k%\xed\x81\x06\xc1\xbf1[\x93\xe3\x98\x17\xe1?\x06\x96l\xcd\xb7!\xd8?\xc9\xe1\xd5\x08[@\xdf\xbfQ\x806\x14"\xba\xc6?\x05\xe0\x14\xc7\x0e\xbb\xe0\xbfR]<t\xec\\\xd6\xbf%|\xb7L\x934\xd5?\x08\xa2A\xf4\xf8p\xcc?\xaa\x1f,\xe6\xbec\xe1\xbf\x10hq\xcb\xb6\x9d\xe9?\xc8\xa0y\xc4\xa1f\xd2?\xe9k\x15\x86\xf0~\xc3?\x8a\xec\xf0\xb8\xd7\xc8\x9c?q\x8b\xbfZa\xda\xe9?vQ\x84>Qo\xa8\xbfJl\x99\xf2\x84\x83\xc5\xbfu\x16\xfd\xcd\xa6\xa2\xe3?\x12\xa0B\xad{\xf1\xc4?4\x96;{\x9d\x1d\xdb?+\xbeP\x07\x16h\xd7\xbfnF\xed\xe37\x18\xec?\xf1;\x15\xf1\xbc\r\xe2\xbf\x89-\xaa\xba\xc6\xb9\xc7\xbf\x97n\x92\xcd\x1a\x8e\xdd?\xa4>U\xbc\xed\xc1\xc0\xbf\xad\xee\x85\xce\'z\xe5?"\x97V\x8dlC\xe4?\xafH\xf6\xfaB\x1b\xdd?a\xafN\x9f\xa9~\xe6?Dz\x1d\xa6`s\xe6\xbf\xd2\t\x9a;)\xc6\xc7\xbf\xb1#PUW\xbf\xb3?9\x87\xe6\xf2v\x98\xed\xbf-L\xbdv\xdf\xad\xc8\xbf+v\x94\x94\xd7\x1c\xe4?\xae&L\xb7QH\xd1\xbf\xc4Y\xeeM\xb6\xa5\xe2?0:\xd0O\x99\x0c\xce\xbf\xe4\xc8d_\xa4Z\xcf\xbf\xaciyz\x98Z\x9d?\x11\xe8\x8a\x91}\xef\xd2?\x86\x97\x1cm\xfeE\xab?\x8f\x83\x80\xeb\xaa\x0e\xe8\xbf\xcf\xf5\xe2\x06\x1e\xf0\xd3?\xe0\xbd\x1f\xbe\xb8\x05\xe7\xbf\xcd\xc0\xd6do\xb3\xe5?\x00o]\x14\xeb\x96\xe6\xbf \xea\xe4\x1d\xf7\xb8\xc5?\x00\x01\xb5S\xeb\xbb\xda?\x1c\xfa\xdf<\xa2\n\xc5?\xa8\xb8\xfa_9\xd8\xdb?\xc4m\xcd\x0e=\xeb\xd5?\\\x18\xb5\xa6)\x86\xa9?\x83m\xfd!\xae\xe8\xba?\xc4\x8b\xf7\x02\x9a\xd8\xe8?\x10h(\xe6\xd1\xbd\xc5?\xc65(\xfe$\xcd\xe2?\xa05\x8d\x11\x8d\xf3\xe5?\x88B\x94\xc7\x11\x02\xeb\xbf\xcd\xbd|\xa5\xd5!\xba?\x1f\xdd\xd2\x14Xk\xba?\x82~\xe4\xb7\x90A\xdc\xbfRt\x8f\x06\xa6\x00\xb9\xbf\xab\xf7\xac\xd3\xc6"\xce\xbf\xd9Kr!\xa1U\xb8\xbf\x9a\x01\xc4\xa0F\xc6\xe1\xbf\xe2\xc0\x94\xc5\x03\xd4\xc4\xbfv\xb8{\xc0\xe7\x0b\xd0?\x87\xc7\xe7H\x7f0\xe2\xbf\xdaa\xee\\\xdc\x15\xe3?\xd0\xe6b\xee\x7fM\xb3?\x85\x99c\xbd\x80\xe5\xd2?\xad\x8cZ6\x1b\xd1\xcb?\x82\xba\xb1\xf6`\xf9\xd3\xbf\x1c\xe4\xed\xd3Y\xf4\xd1?\xa4\x0e\xcfN\xd5\xaa\xd9?\x83\x1d:\xae\x8e\xb9\xe7\xbfa=[)\x15\x8b\xea?\xec\x03\x1f%ge\x96\xbfa\x90\xa7\xa0\xe9\xd0\xe3?\x93\xd4\xef\xbf\x9a\xfd\xc4\xbf^;\xe47)\xf2\xeb?|\xe4\x820\xc6f\xe5\xbf<\xe8[\xfd\x00r\xe6?\xfa\xb6(\xbcG\xa8\xbc?[\x98\xf1\xb4\xdf\xe6\xea\xbf\xd6\x01F\xce\xaa\x1c\xcc\xbft\xc7/\xbbb\x9a\xd1\xbf\xd6\x82\xcca\xdeK\xe2?\xd6\x16\x1c\xcf\xbe\x9a\xd4?#\xb7\'\x93\xb43\xe0\xbf{\xa3:\x16\xa4\xd4\xe1?\xa6\xaf\xa0\xf1\xdcP\xe2?\x8b\xd7s\x1e5l\xe8?@\xd1H\x8c\xd9\xc3\xdb\xbf\x16\x19\xa6\xfe\x90\xa9\xb2\xbf\xf8k\xf2P\x04|\xd3?$\xfc1\xf5\x1b\xf2\xce?\x1d\xfc`k\x18\xbf\xe3?P\xd6Wg\xb5[\xd8?\x8d\x0c*\xd4\x1a\x1e\xed\xbfSm\xd1\x03\x15!\xe7\xbf\xc5{\x06\x16\x99\x17\xd6\xbf\xfa\xc53\x08\x9b\x04\xe1\xbfRq\xbfw^v\xdc?\x11#_94\xfc\xd1\xbf[\xd5\xfc\\\xf7n\xb6?\xa9\x05d\x81\x86\x8f\xe3?\xc1\xefE\x0c&\x9e\xe9\xbf\xcazh\xaa\x191\xe7\xbf]b\x01-\xdc\x10\xe3?Ww\xd7\x0c\xdd\xcd\xe4\xbf\xc6mJyM\x0b\xd5?\xdf \x06\xd3\xd4\xd8\xda?\xffr\xa9\xa4\x96\xef\xe7\xbf\xa9\x9e\xa9\xd2]\xbf\xdc\xbfnW\x91\xe7X\xe1\xd0?wS\xed\x8a\x07H\xd8?I\x80\xef\xf7G\x95\xa2?e\x1b\xce\xe7\x1e\x8f\xe8\xbf[\xd4U$?\xaa\xe5?\xc0\xe7\x9e\xaa(\xe7\xd4?h\xe1\x93AA\xe3\xce?\xb2*\xfb\x86\xc5j\xae?d2\x9c\x85\xaf\xa8\xe5\xbfmG\xcf>\xc2\xb9\xa5\xbf\x8b\xaaiJ\xfe\x1c\xe3\xbf\x94\xe3\x94\x0e\xe7\xcb\xc1?\xf3\xdb\xe4*\x89m\xc2\xbf\xbb\x8a\xa9\xbe\x7f\xad\xc7\xbf\xcc\xd7q\xd8\xe5\xe8\xe3?_7t\x83@e\xc3\xbfPcJZ\x81\xc9\xe4\xbf\xbe\xd1\xa4M\x16M\x9a\xbf\x1ev\xb0"\x9c\x9f\xcb\xbfm\x83d\xf7\xa6S\xcd\xbf J]\xc7>a\xdb\xbf+<rI\xe25\xef\xbf;\xf3\x98Z/\xf6\xdc?\xa9\xc4\x0e\x08T\x0b\xbf\xbf\x9b\xb6Jk\xae\x01\xe0?\x89\xc4\x92\x0fw\xcd\xee\xbfM\x07-\xd4\x80\x01\xe3\xbfc\xb4\xd9\xa9\xb9\xaa\xd1?tw\r\x1a\xd9\xc8\xad\xbf\xaf\x97\xef\xb5K\xc4\xe6\xbf\xd4zG\xb6\x8a\xe1\xe7\xbf\xc4a!\xfb\x0fD\xf1\xbfD\x9e\xd4\xbd\x89\xce\xd8\xbf\xcdX\xb4\xc9\xf5\xae\xe3\xbf-`Zo\nR\xb8\xbf\xc2\xf4"\x9c\xd8\\\xe4\xbf8\xabk\x7f\xdaT\xce?\xcac\x0e0\x80\x1f\xd5?\r\xa68R\'\x9e\xa6\xbf\x89\xa7n\x11\x07\xc4\xe4\xbf\xd5\xa5\x8f\x0bgP\xeb\xbf^\x04\x96\xf3\xd3t\xe5\xbf18<d\x8e\xce\xe3?\x9d\x82\x7f\xb8\xce\x05\xb3?n\xa2\xcb\xb8\xf0d\xdc?yNfY<\xbc\xdd\xbf5P\xd7\xb1>\xac~\xbf\xf7\xef\x9d\x99$\xb6\xe1\xbf:\x84S\x83\xb3.\xbb\xbf\xe5\xdd\xc9\x1a\x10T\xe2?\xcfe\x9d\xe5E\xd7\xcd?^W\x89\xf9\xd6\x85\xc3\xbf\x8b\x00\xf7)\xbcp\xe6\xbf\x8f\xdc]\x9e\xbcs\xec\xbf\x18\xde\x8e\xf9l\xeb\xe4?\xcc\xd1Y\x87/\x82\xe2\xbf\xc9\xb9\xf8~\x8du\xac?\xf9\xb3\xbb+\x90\xad\xb7\xbf3\x11\x97\x1f\x90\xac\xe3\xbfd\x94\xd6\x0e\x7fL\xe2?\x95\x9b2$\xcb\x84\xee\xbf\r\xef\\\xec+\x8c\xcd?\xc5\x86\xf9Rf\xab\xeb\xbf3\x16\x1f\xa7\xe8\xfe\xcf\xbf\x98\xa5\x05\xe8\xa5\xfc\xe8\xbf\xaa\x10`Mwy\xe0?5>F\xca#F\xd4\xbfI\x9c*\x81\xe1\xed\xea?\xbc\x9eV\xa5x\xa1\xb4\xbfk\xd3r\x18(D\xdb\xbfb\x84H\x8d\xe8k\xe3?\xd7 \xa3\x90\xa3%\xe6?\x10\xaf\x00\xd6dX\x92\xbfdc\x172\xa9h\xdc?\xae\xa1\x99<\xf5\xfd\xd9\xbfO\xc2\x1e\xb1{\x1d\xc4\xbf\xbe\xc5\x97\x98R\xb4\xd4\xbf\xa1\xb8\xd1S8\x06\xb7?\xb4\xd9v\xa2\xb9\x02\xb8?\xc6psB\xd4\x8a\xbd?\x84\xc5\x93\xf2\xafS\xdb\xbfx\x94\xad$\x07\\\xe1?2\xf6\xfd\x07\xee\xad\xa5\xbf)\xcf\x17<1"\xbf?;\xd4\xe1:\xe0=\xe3\xbf2yOj\xe1\x80\xcf\xbfA\xe9\xe5\x1fZq\xe4\xbf\xfc\xbe\x86_\xb3\xfd\x98?\x12\xb8\x0f\xee\xeeY\xe9\xbf^\xb4:\x97\xc6\x11\xe3?\x04\x11\xc00\xa8\xc4\xbd\xbf<K\xa7(\xdd^\xd7?>\xbd\xc5\x9d3\xb7\xe8\xbf[M\xfd#E\xe6\xe4\xbf!\xf1\xc2\xe7\x99R\xdf\xbfS\r\x91p\x00\xbf\xe2\xbfM\xe2\xe7\'#\xf2\xe8\xbf{!/\x8a\xd9\x85\xe3\xbf\xba\x80\xa8\xaa\x83m\xdb\xbf\xd2\xe7\xab\x8a\xcf\xca\xe6\xbf|\x98\xf2<\xd7\xe6\x85?\xfc6\xa2\xf3\xe4;\xc3\xbf3\xac\xac\xd3B\xd8\xb4?\x9f\xc6\xc5\xd7\xf1$\xe2?i\xfdz\x8f\xae\x08\xe8\xbf\x94\xf1\xe7\x8f\xcc\x1a\xdb?\x18\x92\x83\x00K\xb6\xdc?f\xe2\x1f\xbc\x00\xaf\xd5\xbf\x16j|\x8e\x94\xfe\xd6?*\x1ec\xb3D\xc7\xd4\xbf\xb3{9\xc3\xa3t\xc4?\xe0l\x05\xc0\xfcj\xe1\xbfZ\xe92J\xc5>\xe0?_\xfd\xff\xfa|p\xe6?\xc1C%\x17\x8fE\xcb\xbfK\x82\xc3\x01\x83\xa9\xe3?\x1al?"\x0eG\xb8\xbf\xc1\xa4\x12\x87X \xe3?=v\x08\xace\x8e\xec\xbf\x15\xfe\xf1C\x13\xa6\xb8\xbf\xef\xba\r@6\x93\xd4?aF\xe4BK=\xf0\xbf\x88<\x00U\x82g\xcf\xbf4\x1a\x1f\xcb\x17\x90\xe7\xbf%/\x95\x96\xed\xe2\xd3?\xae\x06\xccD7~\xe2\xbf\xd6MKF\xceB\xd7?GnH\xb7\xa2Nt\xbfu3\x05\xbe\xa5F\xa8?\xba^#=\x00@\xe8?:\xc8\r\xca \x97g\xbf?B3\x91\x8d&\xb8\xbf\xee=F\xf8\xd8\x85\xd1\xbf\x8a\x8f7\x19\x1f7\xd9?\x07\x0f\xb9}\xf1\xff\xcd\xbfK[l7\xbd\xba\xae\xbf\x04\xa0\x0f-\xc3\x9e\xe1?y:\xdc\xec\x9d\x8a\xdf\xbf/\x08Wo5)\xca?\x13c\xda\xab\xea\x19\xd5?#\xde\x01\x1e\x84\x18\xe1\xbf>\xde\xc8\x00\xaa_\xdc\xbfu\x9f\xfb\xbe\xf1"\xe6\xbf\xe3\x17\r>\x10\x1a\xdc?\xa7]\xd11k\x15\xe9\xbf\xacBk\x14\x03]\xec\xbf\xf6\x87\xbd\xac\xea\x15\xcf?g\x8b\xd00O\xf8\xda\xbf\xf1\x0e\x95\xf4\xf3\xff\xc4\xbfu\xb9\xc1\xf4n\xb2\xcf\xbf<\'\xbb\x90\x8cR\xf4\xbfO\x1e\xf5+1\x15\xdb\xbf0\xecx\xbc\x80\xbd\xc1\xbf\xab\x93\x8e\x96\xbf\xb5\xf1\xbf\xc5\xb1\xf0\xfa\x04\x18\xf1\xbf\x93\xfb\xcf\x81E\xa8\xd0?\x9bI\xd0\xef\xc9x\xf1\xbf}\xf39#wL\xf4\xbf\xee\xad\x10\xca`|\xa0?a\xa1\x16t\x97\xd3\xe2\xbfh\x8e\xec\x8e\xe3[\xbd?\x10\xc9\xc4\xcc\x863\xd1?Q`o\x14\t\x9e\xbd?p\xbd\xde\xad\x97=\xdd\xbfP\x80,\xf7\xceu\xd8\xbf_b\xe3#\x96p\xb5?Fc\x85\x83\x04\x97\xc7\xbf\xacO[\xa8\xee\x88\xdd?%b`\'\xf28\xd4\xbfv$V\xdbi\x85\xe7\xbf\x89\x1b\xa1\xc7+!\xe1?*\x03\x8e\xbbY\x15\xe5?N\xf2/_\xac\x9b\xea\xbf\x0b\x86P\xd0\x0b\xd1\xdc?\xf1\xd6\xf8\x10 \x9a\xdf?;\x0e0^i,\xc5\xbf\xa6!)#d\x89\xd8?R\xd9\xe0\xc7f%\xdb?\x80\xf4\xb5\x01\xd6\x89\xd3?\\\xe4\x86\xa1\xec\x15\xc0\xbf\x04s^\xb5\xd2\x1f\xd5\xbf\x9b\x13\x8c\x94\x89/\xcb?~\xb9f\xa41\x19\xd9\xbf\xe5\xc3C\xbb\x97y\xd1?\xdaJ\xeb\xf0VM\xa2\xbf\x97\x14*\xba\xae\xcc\xcd?YL(<5\x00\xe0?\xe4S\xc7\xe8\xeb\xb4\xe1? \x979\x08m\xc6\xea\xbf:\xd1\xf3p:\xa4\xe4?-2?x\xa4\x88\xd8?J\xa3\xf8o*\x06\xe4?\x92\xd6\xfc\x97\x06\xa1\xe0?\x94Z\xda\x08HQ\xda?\xb5f\xdb\xe8$\x0f\xa1?\x1a\t\xc7\x9b\xa1\x88\xbf\xbf\xc7\x16&\x15\xa9T\xd6?I\xfdK<\xbaz\xc3\xbf\x16\x9cd\x95\xe4@\xd2?\xc4\xec\x84\xcey"\xe7?)\xddR\n\x85s\xe9?\x08\xc0\x82.u\xbb\xd3?\xf2\x89\x04oKP\xe9?A~\x8d\x80n\x1c\xe2\xbf+\xb9\x94]Q\x16\xc3?\xda$s\xeb\x1f\xd5\xc1?1\xa2<\xf0\x88\xe3\xea\xbf-\x88\x12\xd2H\xdd\xd1?\xa1\xe3\xad\xae\x04\xd2\xd0?\xdb\x1e\xd8\x91\xc8\xd1\xe7?3\x08\x85o\x1b\x02\xe6\xbf\xca.h\x0eW\xff\xcf?\xaa\x18l\xea\x17o\xe5\xbf\xf7,\xad\xe9K\xa2\xd0?\xf7k\xb0\xfd\x0c\xb7g\xbfco;\x90\xf9O\xda?]yy\xa1\x0b&\xd8?\rR\\\xec\x89h\xda\xbffs\r;\xd6\xbb\xe3?g\xa87\xbaK\x90\xc5\xbf\x12\xc61\x10D\xf8\xd4?R\xc0\xe5\xc8\xbb\xc6\xe4?\xac\x89\x0e[\x1c\xb9\xdc\xbf\xe55\xc8@W\xf5\xd7?\xbe\x8dw(s\xb6\xdd\xbfS\n\xd0\xcb\xe4\x0f\xd1?\xcc\x8fF\xd4\xfb\xb0\xe1?\xcd\xa5\x80$YO\xdb?|\xa0\\\x05&\xc1\xc6\xbfa\xbdw*R?\xe8\xbfA\xb7\xe6\xc1\x952\xdd\xbfD\xc5\xdf9\xfcP\xc2?b7!\xc7\x12:\xe2?\x17\xd2\xd1\x9b\x11Z\xda?\xaa\x12\x01\x83R3\xb4?L\xc4\xaaPX\xe7\xe4?\x95\xa1\xc7\x02\xcb\xcd\xe7\xbf\x98K\xfc\x94\x08U\xa1\xbf\xc3`\xcb\xc8u\xde\xe0\xbf\x00t\xff\xe1\t\x08\xba? \xc0\x1f4\x93^\xe6\xbf#\xde\xef\xff9\x9d\xc5?\xf5\x97yt\x99T\xeb\xbf\x9f\xf0\xcc\xd3w\xbd\xe7\xbf=\xa6\xff\xc5d\xa5\xc4?\x1d5\x96\x18\x91\x98\xd1?1+\x08\xc6\xad\xcd\xca?\xf8+\x01\x99\x08~\xed\xbfM8\xe0\xeb\x14S\xd0\xbf\xcf-\xe4\xe6\x89\x06\xdb?\xc44\x91\xfdO\x12\xc4\xbfqv0\xff\x9b\xa4\xc9\xbf\xa6\xacd\x06\xa7\xe1\xd2\xbf\x15d\x01HJ\x17\xdf\xbf\x12U;\xa5\xcf\x1e\xd3?\xcb{h\xea?\xb2\xcb\xbf\xcb~\x8c\xfdh\xd5\xd9?\x0c}\xa0}\xce\xe7\xe3?\xdaolC\xb5\xeb\xe8\xbf\x0e\x11\xee\x8b\xa9\x9c\xeb\xbfh\xf5\xc5!\xfaa\xa0\xbf4`S\x14B\xfd\xe4\xbfk\x96e\x8b\x9eD\xf0\xbf\x8a>\x94}0\xdb\xe8\xbf\xc2\xe1\xa0\xfa\xd8\x01\xd3?j\xb8e{\xc2H\xe5?,\x99IY\x14M\xb7\xbf\xc6/\xd3\x03f\x0c\xe1?\xdd\xf9\xe5v]\xc1\xc4?\xf6t|\xf6\xacv\xc1?9\xf66\x8b\x8ef\xee\xbf\xc0\xa0\xd7\xfe\x84-\xec\xbf2\xa6]Qk\x97\xd3\xbf\xe3\xcf\xec6\xc7\x85\xbf?m\xab0A\xf0\xfc\xd1\xbf\x0b\x1a\x87\xbf\xc1\x05\xe6\xbf~\x0b\xae\xc8t\xc1\xd6?\xf2w\xfc:*\xf9\xd7?\x06^\x94)\tz\xe5\xbf\xef\xe1\xbb\x0b\x08\xcc\xe2\xbf\xcc\x01\x80U\x86\xcb\xdc\xbfl\xac\x98\x97\xe5\xc9\xd4?ihMM\xe4\x1c\xe6\xbfmG\xd4\xa5\x9an\xd3?\x1a\x1b\xf6\xdf\xdcV\xd2\xbf\x95\xc8\x9f\xb0\xb0s\xeb?Tz\xd3lO\x1f\xcd\xbf\xf4RDK$q\xb1\xbf\xa9\xdd[\x1e\x85\'\xe4\xbf\xfc\xed\x01\x08\x03\xde\xd4?E\x8bJ\x8e\xba\x84\xd6?c(\x9c\xb5\'F\xea?\xe4\xdb\x1f!v\xd6\xa8\xbf\xdf\n\x11\x03\xc3S\xe4?B\xf9\x17\nUV\xea\xbf\xba\x02\x99\x00\xa7\x03\xbe\xbf\xb88\xf9\x0f\xe7!\xe2?\xd1;hQ \x10\xdc\xbf9\x17\xc8\x8a`Y\xb1?$P\xec\x10<R\xb9\xbf]\xb8\xf4\xf5\xb9T\xd4\xbf\x02t\x90/\xac\xa4\xd7\xbf\x9eG{cl\xac\xe6?\x9e\x8a\xbb5\xce\x9d\xe0\xbf\xbe\x8c6\xfe\xa2\x1c\xbb?)\xaf5\x00\x81\xaf\xea?\xf1\xe1N\xd1\xedZ\xe4?\xfd7\xfe"\xe0E\xd4?\xdfBH6M\x12\xe4?\xcdy.9\r\xe0\xbf?\xea\xc39)\x88[\xde?\x94\x1f+~l\x17\xb3?F\xbew(i.\xf2?(\x00\xb74?|\xf0?\xc7"?N\xbf\x00\xe0?Z\xa4\x1d\x9eJ\x85\xee?\xb3\xe5\xda\x00\x1fs\xde?\x88\x91(`m\xca\x87\xbf\xdd~\x96\xadp[\xe6?ku\x83|\x05\xcb\\\xbf/\x1c\xb21+{\xd8?\xda\xa8\xe1\xa5\xf3B\xe2\xbfd\x9b\x00\xd7\x8a\x84\xec?@V\x92\x1b\t}\xee?W\xfd\x0e\xf9\xdb\x11\xdb?\xae\x10\xd48\xf2\xbf\xe6?\xbe\x06\xb8\x13\x8e\xc9\xd6\xbfQ\xa0\x18\xa8V-\xd8\xbf\x1a\x0ek\xfe/|\xc1\xbf\xc3\xf66\xcc-\x93\xf0?\xec(\xba\xec\xc9\t\xd3?FB\xcb\rN \xd9?\x1cs\xde\xb8\x94\x17\xdf\xbfu`XYl\x0b\xde\xbf\xe0=d\xb3\x1fb\xbc\xbf\x0fX\xbcC\t\xce\x9f?\xa5\x12\x1f\xcc\xa8\xa1\xd9?\x91+\xeb+\xf2\x96\xe7?\x18X\x86\x85\xed\x8e\xe3?\x0b\xbco\x07 \xd1\xd1\xbf\xcf`\x87\xf7F\xc1\xe3?\x10\x97/\x8c\xe6\xee\xd3\xbf\x1d\x90\xa7\xa2h\xc6\xc4?\xa2\xa4\x0chZ7\xd1?7\xcf%u&=\xb4\xbf\xe5\xccD~\x85+\xb5?\xc1\x9c9\xedG\x19\xcb?w\x00LH\xe6\x9a\xd6\xbf\xbaM$)\xe7h\xd3\xbf\x97\x11\xd2T\xce\xe0\xc4\xbf\xb1\xd1r\x8fw\xa5\xc4?\x85\xcd\xba\x9a\xc7\t\xe5?\xa7\x0b>y5N\xe2\xbf\x8b\xe6#8%\xe5\xef?\xca\x12\xfa\xb3\x86\x99\xf0?\xf8\x95i\x8f0\x0c\xe6?\x9d\xb3P\xcb^<\xeb?\x8c\x1d\xc6\x98 \x96\xdb?>|\xc2\xe1\x18\xa3\xb4\xbf\xa7\x9a\x01\x8d\xb4\x12\xe9\xbfn\xddM\xa6\xca\xfb\xd7?z\x1a|\xc5\xaf\xb8\xc7\xbf\xb7\xbf\xfb\x86i\xb2\xca?iR|j\x01)\xcb?\x17\xb0\x83[\xfcL\xe0\xbfQ;\x05\xe3f\x86\xd0\xbf\xcc\x9eU\xad\x81S\xd4\xbf:\xcc8E\xed\x89\xbb?\xd34R\xccz\x91\xcf?\x9b\xc9\xbc7\xc5\xab\xd3?4K\x9e-J\x9b\xdc\xbf\xf9\xb2}\x85U\xf1\xcc\xbfe\xd2nz\'B\xde?\xecR\xfd\rY0\xeb\xbfKG\xab\x05\xd8\xc4\xe8?}\x91:E\xc7\xc7\xcd\xbf\x9d\xf8\x10\xaf\xbfX\xde?\xe6yR\xd4\x7f\xdc\xdf?\x03\x8a\xf0\xf0\t\xee\xe8?e\xeahv\x16\r\xe5\xbf\x0f\xbbD\xa6GJ\xd1?2\x9b\x01\x08\xdfQ\xc7\xbf\xf9S\xa8\x17\x88Q\xd6?gz\xd9\x896\xa1\xc0?\x91\xa5\x1b\xca>\xb1\xd6\xbf\xa7`\xed\x05\x9d\xaa\xc2\xbfaH\x1e\xb0\xaej\xd2\xbf\xa13\xc5\xc4\xf7\xa4\xd6?\x82\xa7\x89\xc0\xf0\x93\xd9\xbf\xe8yO\x7f\\\xb3\xe7\xbfQ\x8b>\xb1\x17\xb9\xc8?U9W\x80\xa9\\\xf2\xbf\xa6\x8c+B\xc0v\xce\xbf\xf6\xa3\xedy=\xeb\xe0?4\x1f\xf2\x9f\x00x\xbd\xbf[}]3R\xfe\xd8?\xf5\x95\x98\xed@\r\xe6?\\\x1d\x14\xa4\x02\x9b\x9e?\x8d\xf8\x8b\xd1\xfe\xdc\xcb?\xbf\x89\\\xb11\xa3\xc3\xbf\xd4\xf4\t\xefk\x88\xe3\xbfKc\xec\x89\xf7\x93\xeb\xbf\xa3\xd3\xc8\x01\x11\x06\xe2?:^\x05l\x14l\xd9\xbf\xea\xca\xc5y?\x98\xa6?\'\xeakQ\x05P\xe2?\xb2\'\xf698&\xe5\xbf9-\xfd\xff\xe8\xdf\xbf?\xafkG-\nc\xf0?s\xaa.7\x97\x13\xdf\xbf\xb0\xfd\x818\xb1~\xbf?xl]S\x98\x04\xf1\xbf\\\xfb\xfa\xd6@\xe4\xd2\xbf\xeaf\x0bq\x07"\xd6?\x04\xfe/\x05A\xf4!\xbf\xf1_\xc3Q\x1b\xe0\xda\xbf\x8d\x15\xb1\xbb\xabT\xc5?\xec\xb8B2\xbf\x1f\xdc?\xe7m\xcc;I_\xe4?w\xf8g\xb1\xb9\x10\xe3\xbf3\x15\xbb\xbb5\x9d\xef\xbf\x81#Or\xf1l\x93\xbf[E\xa6{1\xff`\xbf\x06Uk\\\x12v\xd6\xbfl|\xb5\xb3\xdb\xba\xc9?<\'\xd6\xd9x\x14\xe2\xbf\xe2\x1b\xc1\xe9\xf0\xf9\xca\xbf\xca\x057\xb7c\xfc\xe2\xbf~\xbe\xf5\xd6\xfe$\xf0\xbf\xfe\x0e(L\xac\xa7\xed\xbf\xe5\xcc\xfc\x19\xd6\x9a\xc7\xbf$G\xf0\xec\x19o\xc7\xbf+\xc1#\xfa\xda\xa7\xd7?\xb4\xa5t{n&\xe1\xbfK\x9a\xf2k\x9d\x9d\xb2?\xdbd\x18N\x8e\x9e\xee?\xd87\xee\xdc\x0f\xd4\xf3?O\x1b\x8cb\x17k\xf5?+\xa5hU\\\'\xf0?\xe0\x97\xe0\x11\xab.\xf0?\x82u\x8d\xf9\x0b\xab\xd7?\xc0&\xc4&\x18\xa3\xec?\xc8iO\x98\x92\x91\xf1?\x11\xb2}\xc1\xc5\x08\xd3?\xa3\x1dk\x82\x904\xe1\xbf\\ \x19\x0fo\xca\xb7?#\xe7\x8c\xe9\xc7\xcd\xe6\xbf\xe9\xbe\xe8(\xf4\xe7\xf3?9l7XJ5\xda?\x89$,\xe3=,\xd2?\x8di\xdd\xf5\x03I\xdc\xbf2\xa1\xe1\xf9\x9dB\xda?_GN\xc5\x8b\xf3\xd2?\xea\xceB\xd3W\xd3\xe8?\xf0"\x91\x1f\xa7\xae\xec?\x8f\xa8j^\x1e\xe3\xdd?\x19\r\xe79\xc6\x87\xf0?\xb5\xf0$)/\xe7\xe7?N\'\x04KF\xcb\xe6?J\xcc\xe4\xc1\x05\x05\xcc\xbf:O\xe3}\xb5Q\xbb\xbf*\xd3\x12\x1do\x03\xc8?\xce\xd9E\xdc\xfa\x0e\xf2?1\xcdv`\xcaV\xe7?\x92%\xbdxjR\xe2?{\x9a\x15\xd2\x1dg\xd2?\xd0\x80\xe0\xfb\n\xda\xd1\xbf\r\xeb,\x80\x1d7\xd6\xbf\xc8\x893\xee\x9c\xc2\xc0?[\xcf\xd1\xf0\x10\xed\xc1\xbf\xf5\xfeHE\xa4\x8a\xca\xbf\xd3I\\\xc7\xd7\x84\xba\xbf\x04\x16\xe0\x1e\xf9\x05\xd7?,\xe6\xb1\x88*\x15\xdd\xbfL,0\t6+\xdd\xbf5\xde\xa4\xb1)\xc6\xe8?\xaf4\xc2\xb2`5\xe0\xbf\x87{\x9fd\xbd\\\xd4\xbf\x0b|.\xf5\xa9\xdc\xdc?4\xe2\xeco6\x17\xe1\xbf\xeeE\x04\xf7\xe4\xbe\xe1?\x9f*\x88\xdb\xacH\xcb?\x82\x9e%\xec\xdd\x1b\xe6\xbf\xe8\xf5\x19\'0c\xcd\xbf\x9a\xe8\x1e\x08<\x11\xe4?\x8d \x7f9\xd7\x95\xc8?q_\xfb\xd4\x82[\xe6?\x88V-_Y\xbfx?4\xdaZ\xee\x00\x8c\xc6\xbf\n\x1a_\xea\xed6\xcc?I\x93\xb7\x83<1\xeb\xbfm\xf8\xfa\xdccY\xe1\xbf\x81\xdab\xb9\xb7+\xbc\xbf\xbd\xd0\xba\xa9\xd5\xa9\xe0?\xf0\xbc\x89x\xda>\xc1?\xe2\x00\x80\xd0=m\xe3\xbfHJ\x7f\xf2\xdc\x90\xdc?\\\xdc\x93:\xd3\xe9\xdc?\xf2\xc5\x7f\xd0C\xfc\xc1\xbf\x01\x82\x07{\x8c\x01\xc2\xbf\xcc\xf9MHQ\xc8\xe4?,\xd6\xb3\x86\xd0\x95\xac\xbf\x0fr\xb9=\xb9;\xdf?\xfb\xe9?\x8f\xc7\xe7\xea?\xe4\x82\xa2\x827H\xe7?\x11\xca\x1e\xe2\xff\x84\xf2?/C\x02rl\xda\xd5?L\xfc\xfdS\xd8\xad\xeb?\xc4\xbf\xb4K\x9d\xf6\xc2?o)-\x82\x03\xd4\xed?\xad\xfd\xadq\x87V\xd4?E\xae\x8c\xf6\xf1/\xd1\xbf\xcb\xa9\xe3r\x83\xf1\xe4\xbf\xd8.>\x04\r\x07\xbd?\xff\x8a\x86\xc87m\xe4\xbf,\xa0\xca\x06\xed\x16\xe8\xbfZ\xd28\x1aQ\x96\xdb\xbf\x8a\xea\xfd\xe58\x8b\xd8?S\x174\x11#\x96\xe5\xbf\xf2C\xde\xa3\xb7\xba0?%]\x06Se:\xd1?\x0b\xab\xce\xc2\x19\xd9\xd4\xbf$U)H\t\xe4\xb0?nU.xP@\xe1\xbfNU\xb5rJ\xcd\xe3\xbf\xf8\xa3u\x0f\t\xaf\xe7\xbf\x01\xcdZj\x9c\x8f\xa3?\xa4\xae*\xb3\x80n\xe8\xbf\xbc\x12\x04[~-\xf2\xbf\xa1\xbd\x96Q\xa84\xe7\xbf\xf3\xc6;\xb9gH\xf1\xbf\xdeD\x0bt\x13\xf1\xe4\xbf\x83\xcc\xe1\x9e\x90\x97\xaf\xbfF\x89v\xc7\xae\x8c\xe4\xbf\xde}\xfa\xe4+\x96\xee\xbf\x1c\xb8\xc3=l\x19\xb1?\r\x89\xe3\xfd\xfc\xa6\xd5?\xc8\xef\xda\xe6\xe6/\xe6?6F\xcb\x8c\x9a\xcc\xe9\xbf\xa5_\xd8\xca1U\xd3\xbfh\xfdY\x95\xc6\xaa\xd0\xbfowt\xfa\x1d\x9a\xed\xbf\x92\xa1Dw\xc5+\x8c\xbf\x93\xa5\xc9N\xa9\x93\x9f?JIS\xc8\xd4\xdd\xd7\xbf\xeb\x07\x82\xea,\x07\xd4?\x9d\xa8\x17\xa8\x84q\xd5?Yq\xd0\x19\xf1\xfc\xcd?7\x17\xf2.d\x87\xd7?\xb0g\xfd\xc1\xab\x96\xe5\xbf\xb3\xa1s\tP+\xbc?\xd7-\x08\xf5|R\xe0?\x03\x99\xf8S6b\xeb?"\xce\x9aW\xc0\xea\xad?\xf2\xfc\xea\x1a"\xc7\xd3\xbf\xe2t\xdfC\xd2\xef\xe4\xbf\x97\x97\xe0\x85\xf2\x18\xea\xbfB^4\xe1\x17\xe8\xd9\xbf\xbd\xa3p-\xac\xe4\xdc?\xe1\xf4\xc2\x19~\x05\xe8\xbfF\x93\xb4}\xc0\xd6\xd3\xbf\xd2c\x9d8\xdf\xf3\xce\xbf\xad_\nkq\x0b\xd6\xbfF\x8c\x1b8\xe0\xda\xdb?\xf84\xba8\x00G\xe8?\x98\x87\x0b\t\x15\xa0\xe1\xbf}\xbd\xb4\x05\x16C\xbc\xbf\xce\xd7\xbar\xe8\xe9\xe5?\x86\xa1\x16\xdf^\xf3\xe8\xbf\x06~pX\xd6\x1b\xe3\xbf\x1d\x88\t\xc6\xdc\x1b\xb4\xbf\xbfB\xc4F\xb6K\xcd?^1\xbe\xcb\xc1\xf1\xd6?F\x1d\x8b\x0741\xe2?q[X:c\xd5\xe6\xbf7L\xf5\xaa\xe2\xc1\xea\xbfA\xd0\n\xe4\xec\xad\xc7\xbf\x1b\x9eI\xd3\x0e\xe0\xe5\xbf\x87\xcf\x07B\x03\xc5\xbb\xbfp\x82\x9d\xba~\xe1\xdd\xbf\x90\xecy\xa6\x89\x11\xd4\xbfz\x80-#C\x97\xd1\xbf\x9f\xa6\x15r@\xa3\xeb\xbf\x8f\xcax_]\x04\xc4?kV\x1b\x16\xe9\x01\xbc?m\xcb\xa1\'r\x0c\xcc?y\'\xa59A\xb0\xa6?\x9a\xa3\xa0\x04{+\xe1\xbf\xf7\x02\xe8\'\xbfr\xc5?\x12xO9c\xdc\xdb?\xc0px\x9a\xd91\xa7?.\xf2\xa7\xaf-\x16\xe4\xbf\xfb5\x17\xea\x07c\xe9?\x9cY\xfaX\x98)\xd9\xbf6\xd9\xa0\xd2\xe8Y\xce\xbfSNq\xc5\x7f\xde\xda\xbf$U\xefB.1\xbf?\xa3\xc8\x1cB\x12\xe2\xe5?Y\xb0"V\x03\xca\xcb?\nz\xdb\x8a\xb7:\xa9?\x8d\xa7\x1a&\xef\x8d\\\xbf\x93O\xa7\x08\x96\xf9\xe7?\x95\xeaG\xb7\xa0\x08\xd8\xbf\x1e<\xd7oI,\xd7\xbf[\xe8\xea\xfe\xdc#\x96\xbfH\x1d\xfdl.\xb6\xd9?x\x98\xa3~\x9a\xc1\xd0?\x8d2*\xa6CY\xea?gI\xf6\'u\x17\xe6?\xfe\x99\xee\xccI&\xea?\xbfD+\xc9\xd1\n\xd9\xbfF\xaf\xa0N\xa3T\xeb\xbf\x9a\xb4\xfeq\xcf\xb0\xd3\xbf\xee[D\xbaA\xda\xe7\xbf\xd9\x01[l\xbf\xfe\xcd?s\xa1\x9b\x88\xa5*\xe3?d\xd9\xae\x1c\xec\x91\xc7\xbf\xb6\xb9\xd6\x9b}8\xd0\xbf\x0f\xe78\x92\xb6\xd9\xe2?\x82.d\x18\x00+\xe3?\xd2\xa0\x12\xb8;1\xd0?\xc3\xae{\x10\x16\xc5\xa1\xbf\xff\xe0\xc9\x85\x7f\xef\xd0\xbfW\x9a\xf0\x9e\xe9`\xeb?Y)\x8eu\xa0z\xdc\xbf1g\x9d\xe1\x1c\x80\xe8\xbf\xca\xc9~\xd2A0\xcd\xbf\xfe\'G\x0cf\n\xc9\xbf\x9d\xd1\x8c\x0f8b\xf2\xbf\x1b\xb7!\xb7c\x07\xc2\xbf\xefe\x1a\x1fG\xf3\xf1\xbf\xf67B\xea\x15\xb4\xe4\xbf\xd4t\xe2\x1c\x93\x1d\xe8\xbf\xce\xa8\x1dp\xb2\xe1\xe8\xbf\x92\x85\x96\xe4\xb3\xd2\xe7\xbfN\x00G\xc7\x1dI\xe4\xbf\xd5\xda!@6\xdb\xe0?$ar\x006\x9a\xd7?O\x8d\x96\t\xb8u\xee\xbf\x1e\xb6\x81\xf2\xbd\xf2\xe0?\xe5\x18\xf6\xce(\x84\xbc\xbf\xb5\x16[\xd4f\x10\xe5\xbf\xf8\x05\xae\x01o\x13\xee\xbf\xaf\'\xcf\x02\x08\xd9\xe0\xbf)\x838\x8e\x11a\xc7?\xd7Lh\xe2T\x86\xf4\xbf\xadt\xbd\x85K\xf2\xec\xbf\x18B\x15]\x87\x08\xe0\xbf\xf6+\xed\xf93I\xf5\xbfD\xc6j\xe2\x93T\xf1\xbf|G#\x85\xc0\x16\xf4\xbfw\xbeg\x08\xdf\xef\xd8\xbf\xb6\xdc-\xc8\xfa!\xc4\xbf\tg\x8b=\x93\xce\xe7\xbf\x11q\xf5\x19\xff\x82\xad\xbfI\xbb\x03\xf4y\x97\xe3\xbft\xc0\xfd\xbd(\n\xcd?\x1cF\xc7s \xbe\xd6?B(\xd0\x81\xca\xd9\xde?\x82nmh\t\'\xd1\xbfU\xbb43\rx\xed\xbfn\xba9\xc4Q#\xd2?\xec\xb6\x14\xd7%\x0e\xda\xbf'
p60
tp61
bssS'transf'
p62
(ineurolab.trans
TanSig
p63
(dp64
bsS'out_minmax'
p65
g18
(g19
(I0
tp66
g21
tp67
Rp68
(I1
(I21
I2
tp69
g28
I00
S'\x00\x00\x00\x00\x00\x00\xf0\xbf\x00\x00\x00\x00\x00\x00\xf0?\x00\x00\x00\x00\x00\x00\xf0\xbf\x00\x00\x00\x00\x00\x00\xf0?\x00\x00\x00\x00\x00\x00\xf0\xbf\x00\x00\x00\x00\x00\x00\xf0?\x00\x00\x00\x00\x00\x00\xf0\xbf\x00\x00\x00\x00\x00\x00\xf0?\x00\x00\x00\x00\x00\x00\xf0\xbf\x00\x00\x00\x00\x00\x00\xf0?\x00\x00\x00\x00\x00\x00\xf0\xbf\x00\x00\x00\x00\x00\x00\xf0?\x00\x00\x00\x00\x00\x00\xf0\xbf\x00\x00\x00\x00\x00\x00\xf0?\x00\x00\x00\x00\x00\x00\xf0\xbf\x00\x00\x00\x00\x00\x00\xf0?\x00\x00\x00\x00\x00\x00\xf0\xbf\x00\x00\x00\x00\x00\x00\xf0?\x00\x00\x00\x00\x00\x00\xf0\xbf\x00\x00\x00\x00\x00\x00\xf0?\x00\x00\x00\x00\x00\x00\xf0\xbf\x00\x00\x00\x00\x00\x00\xf0?\x00\x00\x00\x00\x00\x00\xf0\xbf\x00\x00\x00\x00\x00\x00\xf0?\x00\x00\x00\x00\x00\x00\xf0\xbf\x00\x00\x00\x00\x00\x00\xf0?\x00\x00\x00\x00\x00\x00\xf0\xbf\x00\x00\x00\x00\x00\x00\xf0?\x00\x00\x00\x00\x00\x00\xf0\xbf\x00\x00\x00\x00\x00\x00\xf0?\x00\x00\x00\x00\x00\x00\xf0\xbf\x00\x00\x00\x00\x00\x00\xf0?\x00\x00\x00\x00\x00\x00\xf0\xbf\x00\x00\x00\x00\x00\x00\xf0?\x00\x00\x00\x00\x00\x00\xf0\xbf\x00\x00\x00\x00\x00\x00\xf0?\x00\x00\x00\x00\x00\x00\xf0\xbf\x00\x00\x00\x00\x00\x00\xf0?\x00\x00\x00\x00\x00\x00\xf0\xbf\x00\x00\x00\x00\x00\x00\xf0?\x00\x00\x00\x00\x00\x00\xf0\xbf\x00\x00\x00\x00\x00\x00\xf0?'
p70
tp71
bsS'out'
p72
g18
(g19
(I0
tp73
g21
tp74
Rp75
(I1
(I21
tp76
g28
I00
S'\xd6\xf1F/\x04\xfc\xef?[t~Q\xd7\x86\xef\xbfh\x1e\xe9\x11[\x84\xd9\xbf\x1c\x95\x85\xde$\xdb\xef?ny_/\\\x93\xee\xbf,\xe2%l\x98\xd5\xef?\x9c\xc2\x85\xe8\xf9\xd9\xe4\xbf\x90A\xf7\x1a\xd6\x8a\xef\xbf\x7f\xaf\x1a{j\xff\xef\xbf\x95!b\x02\x80\xb9\xef\xbf\xe2n0\xd7$;\xd3?A\x92 \x8e\xf8u\xe8?M\xe9\xce\x17Z\xf1\xe7?\x8a\x7fo[\x15\\\xef\xbf\xcf\x0f\x06K-\n\xbf\xbfv$\xbf\xf3n\x88\xef?xUeA\x1d\x95\xe0\xbfM\x08\x14U\xd2!\xef\xbf3U\x18\xd5\x82\x82\xec?u\xd1\x04\x81\x08\xfc\xef\xbf\x06\xdf\xae\xa2\x14\xf4\xef\xbf'
p77
tp78
bsbag0
(g8
g2
Ntp79
Rp80
(dp81
g12
g13
sg14
I21
sg15
I1
sg16
I1
sg17
g18
(g19
(I0
tp82
g21
tp83
Rp84
(I1
(I21
I2
tp85
g28
I00
S'\x00\x00\x00\x00\x00\x00\xf0\xbf\x00\x00\x00\x00\x00\x00\xf0?\x00\x00\x00\x00\x00\x00\xf0\xbf\x00\x00\x00\x00\x00\x00\xf0?\x00\x00\x00\x00\x00\x00\xf0\xbf\x00\x00\x00\x00\x00\x00\xf0?\x00\x00\x00\x00\x00\x00\xf0\xbf\x00\x00\x00\x00\x00\x00\xf0?\x00\x00\x00\x00\x00\x00\xf0\xbf\x00\x00\x00\x00\x00\x00\xf0?\x00\x00\x00\x00\x00\x00\xf0\xbf\x00\x00\x00\x00\x00\x00\xf0?\x00\x00\x00\x00\x00\x00\xf0\xbf\x00\x00\x00\x00\x00\x00\xf0?\x00\x00\x00\x00\x00\x00\xf0\xbf\x00\x00\x00\x00\x00\x00\xf0?\x00\x00\x00\x00\x00\x00\xf0\xbf\x00\x00\x00\x00\x00\x00\xf0?\x00\x00\x00\x00\x00\x00\xf0\xbf\x00\x00\x00\x00\x00\x00\xf0?\x00\x00\x00\x00\x00\x00\xf0\xbf\x00\x00\x00\x00\x00\x00\xf0?\x00\x00\x00\x00\x00\x00\xf0\xbf\x00\x00\x00\x00\x00\x00\xf0?\x00\x00\x00\x00\x00\x00\xf0\xbf\x00\x00\x00\x00\x00\x00\xf0?\x00\x00\x00\x00\x00\x00\xf0\xbf\x00\x00\x00\x00\x00\x00\xf0?\x00\x00\x00\x00\x00\x00\xf0\xbf\x00\x00\x00\x00\x00\x00\xf0?\x00\x00\x00\x00\x00\x00\xf0\xbf\x00\x00\x00\x00\x00\x00\xf0?\x00\x00\x00\x00\x00\x00\xf0\xbf\x00\x00\x00\x00\x00\x00\xf0?\x00\x00\x00\x00\x00\x00\xf0\xbf\x00\x00\x00\x00\x00\x00\xf0?\x00\x00\x00\x00\x00\x00\xf0\xbf\x00\x00\x00\x00\x00\x00\xf0?\x00\x00\x00\x00\x00\x00\xf0\xbf\x00\x00\x00\x00\x00\x00\xf0?\x00\x00\x00\x00\x00\x00\xf0\xbf\x00\x00\x00\x00\x00\x00\xf0?'
p86
tp87
bsg33
g75
sg40
g18
(g19
(I0
tp88
g21
tp89
Rp90
(I1
(I1
tp91
g28
I00
S"l'?\xbc\xf0\xb3\xc8?"
p92
tp93
bsg47
(dp94
g21
g18
(g19
(I0
tp95
g21
tp96
Rp97
(I1
(I1
tp98
g28
I00
S'D\xff\xec\x94$0\xdc?'
p99
tp100
bsg55
g18
(g19
(I0
tp101
g21
tp102
Rp103
(I1
(I1
I21
tp104
g28
I00
S'\x81yhF\xef.\xd1?&\xec\xdf\x92\xfe\x91\xc7?\x15;\xc5\xfbX\xfcx?\xda@6\n\xab\x96n?\xcef-\x9eZJ\xc2?\xb8\x7f\x97\xbe\x86 \xbe\xbfQ\xee\xa5\xd1Og\xaa\xbfS\x84\x9d\x0f\x06=\xe2?\x01\xa57\xd4\xb9\x8e\xd5\xbf\x08S@5\xab\xce\xe0\xbfg\x96RM\xa7\x99\x9b?\x9a\x02y\xd8\xa7\xb5\xd1?(\x16\x14\x81\xcd\x11\x9a?6\xfdB\xde\x96A\xa2?>\xdaS\x84\x966\xa3\xbf*8nM\xaaH\xdd\xbf\t\xf1<Q\xd4\xbd\xb3?\xa2\xa7\x19\xd3\xdb\xc6\xe7?B\xd9:{\x91\x81\x8a?\x11\x8a\xfc\x1b\xf9\x16\xe7\xbf\xa3\xe1\x888\xf7\xc6\xc1?'
p105
tp106
bssg62
g63
sg65
g18
(g19
(I0
tp107
g21
tp108
Rp109
(I1
(I1
I2
tp110
g28
I00
S'\x00\x00\x00\x00\x00\x00\xf0\xbf\x00\x00\x00\x00\x00\x00\xf0?'
p111
tp112
bsg72
g18
(g19
(I0
tp113
g21
tp114
Rp115
(I1
(I1
tp116
g28
I00
S'k\xd1\xb4`\x94f\xc8?'
p117
tp118
bsbasg14
I38
sg15
I1
sg17
g18
(g19
(I0
tp119
g21
tp120
Rp121
(I1
(I38
I2
tp122
g28
I00
S'\x00\x00\x00\x00\x00\x00\x00\x00\x00\x00\x00\x00\x00\x00\xf0?\x00\x00\x00\x00\x00\x00\x00\x00\x00\x00\x00\x00\x00\x00\xf0?\x00\x00\x00\x00\x00\x00\x00\x00\x00\x00\x00\x00\x00\x00\xf0?\x00\x00\x00\x00\x00\x00\x00\x00\x00\x00\x00\x00\x00\x00\xf0?\x00\x00\x00\x00\x00\x00\x00\x00\x00\x00\x00\x00\x00\x00\xf0?\x00\x00\x00\x00\x00\x00\x00\x00\x00\x00\x00\x00\x00\x00\xf0?\x00\x00\x00\x00\x00\x00\x00\x00\x00\x00\x00\x00\x00\x00\xf0?\x00\x00\x00\x00\x00\x00\x00\x00\x00\x00\x00\x00\x00\x00\xf0?\x00\x00\x00\x00\x00\x00\x00\x00\x00\x00\x00\x00\x00\x00\xf0?\x00\x00\x00\x00\x00\x00\x00\x00\x00\x00\x00\x00\x00\x00\xf0?\x00\x00\x00\x00\x00\x00\x00\x00\x00\x00\x00\x00\x00\x00\xf0?\x00\x00\x00\x00\x00\x00\x00\x00\x00\x00\x00\x00\x00\x00\xf0?\x00\x00\x00\x00\x00\x00\x00\x00\x00\x00\x00\x00\x00\x00\xf0?\x00\x00\x00\x00\x00\x00\x00\x00\x00\x00\x00\x00\x00\x00\xf0?\x00\x00\x00\x00\x00\x00\x00\x00\x00\x00\x00\x00\x00\x00\xf0?\x00\x00\x00\x00\x00\x00\x00\x00\x00\x00\x00\x00\x00\x00\xf0?\x00\x00\x00\x00\x00\x00\x00\x00\x00\x00\x00\x00\x00\x00\xf0?\x00\x00\x00\x00\x00\x00\x00\x00\x00\x00\x00\x00\x00\x00\xf0?\x00\x00\x00\x00\x00\x00\x00\x00\x00\x00\x00\x00\x00\x00\xf0?\x00\x00\x00\x00\x00\x00\x00\x00\x00\x00\x00\x00\x00\x00\xf0?\x00\x00\x00\x00\x00\x00\x00\x00\x00\x00\x00\x00\x00\x00\xf0?\x00\x00\x00\x00\x00\x00\x00\x00\x00\x00\x00\x00\x00\x00\xf0?\x00\x00\x00\x00\x00\x00\x00\x00\x00\x00\x00\x00\x00\x00\xf0?\x00\x00\x00\x00\x00\x00\x00\x00\x00\x00\x00\x00\x00\x00\xf0?\x00\x00\x00\x00\x00\x00\x00\x00\x00\x00\x00\x00\x00\x00\xf0?\x00\x00\x00\x00\x00\x00\x00\x00\x00\x00\x00\x00\x00\x00\xf0?\x00\x00\x00\x00\x00\x00\x00\x00\x00\x00\x00\x00\x00\x00\xf0?\x00\x00\x00\x00\x00\x00\x00\x00\x00\x00\x00\x00\x00\x00\xf0?\x00\x00\x00\x00\x00\x00\x00\x00\x00\x00\x00\x00\x00\x00\xf0?\x00\x00\x00\x00\x00\x00\x00\x00\x00\x00\x00\x00\x00\x00\xf0?\x00\x00\x00\x00\x00\x00\x00\x00\x00\x00\x00\x00\x00\x00\xf0?\x00\x00\x00\x00\x00\x00\x00\x00\x00\x00\x00\x00\x00\x00\xf0?\x00\x00\x00\x00\x00\x00\x00\x00\x00\x00\x00\x00\x00\x00\xf0?\x00\x00\x00\x00\x00\x00\x00\x00\x00\x00\x00\x00\x00\x00\xf0?\x00\x00\x00\x00\x00\x00\x00\x00\x00\x00\x00\x00\x00\x00\xf0?\x00\x00\x00\x00\x00\x00\x00\x00\x00\x00\x00\x00\x00\x00\xf0?\x00\x00\x00\x00\x00\x00\x00\x00\x00\x00\x00\x00\x00\x00\xf0?\x00\x00\x00\x00\x00\x00\x00\x00\x00\x00\x00\x00\x00\x00\xf0?'
p123
tp124
bsg33
g36
sS'trainf'
p125
g0
(cneurolab.core
Trainer
p126
g2
Ntp127
Rp128
(dp129
S'_train_class'
p130
cneurolab.train.spo
TrainCG
p131
sS'__module__'
p132
S'neurolab.train.spo'
p133
sS'params'
p134
(dp135
S'epochs'
p136
I150
sS'train'
p137
(dp138
S'rr'
p139
I0
ssS'goal'
p140
F2e-05
sS'show'
p141
I0
ssS'defaults'
p142
(dp143
g136
I500
sg137
(dp144
g139
I0
ssg140
F0.01
sg141
I100
ssS'error'
p145
(lp146
cnumpy.core.multiarray
scalar
p147
(g28
S'\x06?\xa0\xa7b\xa1/@'
p148
tp149
Rp150
asS'__name__'
p151
S'TrainCG'
p152
sS'__doc__'
p153
S'\n    Newton-CG method\n    Using scipy.optimize.fmin_ncg\n\n    :Support networks:\n        newff (multi-layers perceptron)\n    :Parameters:\n        input: array like (l x net.ci)\n            train input patterns\n        target: array like (l x net.co)\n            train target patterns\n        epochs: int (default 500)\n            Number of train epochs\n        show: int (default 100)\n            Print period\n        goal: float (default 0.01)\n            The goal of train\n        rr float (defaults 0.0)\n            Regularization ratio\n            Must be between {0, 1}\n        \n    '
p154
sbsS'connect'
p155
(lp156
(lp157
I-1
aa(lp158
I0
aa(lp159
I1
aasS'errorf'
p160
(ineurolab.error
SSE
p161
(dp162
bsg65
g18
(g19
(I0
tp163
g21
tp164
Rp165
(I1
(I1
I2
tp166
g28
I00
S'\x00\x00\x00\x00\x00\x00\xf0\xbf\x00\x00\x00\x00\x00\x00\xf0?'
p167
tp168
bsg72
g115
sb.