ccopy_reg
_reconstructor
p0
(cneurolab.core
Net
p1
c__builtin__
object
p2
Ntp3
Rp4
(dp5
S'layers'
p6
(lp7
g0
(cneurolab.layer
Perceptron
p8
g2
Ntp9
Rp10
(dp11
S'initf'
p12
cneurolab.init
initnw
p13
sS'ci'
p14
I38
sS'co'
p15
I21
sS'cn'
p16
I21
sS'inp_minmax'
p17
cnumpy.core.multiarray
_reconstruct
p18
(cnumpy
ndarray
p19
(I0
tp20
S'b'
p21
tp22
Rp23
(I1
(I38
I2
tp24
cnumpy
dtype
p25
(S'f8'
p26
I0
I1
tp27
Rp28
(I3
S'<'
p29
NNNI-1
I-1
I0
tp30
bI00
S'\x00\x00\x00\x00\x00\x00\x00\x00\x00\x00\x00\x00\x00\x00\xf0?\x00\x00\x00\x00\x00\x00\x00\x00\x00\x00\x00\x00\x00\x00\xf0?\x00\x00\x00\x00\x00\x00\x00\x00\x00\x00\x00\x00\x00\x00\xf0?\x00\x00\x00\x00\x00\x00\x00\x00\x00\x00\x00\x00\x00\x00\xf0?\x00\x00\x00\x00\x00\x00\x00\x00\x00\x00\x00\x00\x00\x00\xf0?\x00\x00\x00\x00\x00\x00\x00\x00\x00\x00\x00\x00\x00\x00\xf0?\x00\x00\x00\x00\x00\x00\x00\x00\x00\x00\x00\x00\x00\x00\xf0?\x00\x00\x00\x00\x00\x00\x00\x00\x00\x00\x00\x00\x00\x00\xf0?\x00\x00\x00\x00\x00\x00\x00\x00\x00\x00\x00\x00\x00\x00\xf0?\x00\x00\x00\x00\x00\x00\x00\x00\x00\x00\x00\x00\x00\x00\xf0?\x00\x00\x00\x00\x00\x00\x00\x00\x00\x00\x00\x00\x00\x00\xf0?\x00\x00\x00\x00\x00\x00\x00\x00\x00\x00\x00\x00\x00\x00\xf0?\x00\x00\x00\x00\x00\x00\x00\x00\x00\x00\x00\x00\x00\x00\xf0?\x00\x00\x00\x00\x00\x00\x00\x00\x00\x00\x00\x00\x00\x00\xf0?\x00\x00\x00\x00\x00\x00\x00\x00\x00\x00\x00\x00\x00\x00\xf0?\x00\x00\x00\x00\x00\x00\x00\x00\x00\x00\x00\x00\x00\x00\xf0?\x00\x00\x00\x00\x00\x00\x00\x00\x00\x00\x00\x00\x00\x00\xf0?\x00\x00\x00\x00\x00\x00\x00\x00\x00\x00\x00\x00\x00\x00\xf0?\x00\x00\x00\x00\x00\x00\x00\x00\x00\x00\x00\x00\x00\x00\xf0?\x00\x00\x00\x00\x00\x00\x00\x00\x00\x00\x00\x00\x00\x00\xf0?\x00\x00\x00\x00\x00\x00\x00\x00\x00\x00\x00\x00\x00\x00\xf0?\x00\x00\x00\x00\x00\x00\x00\x00\x00\x00\x00\x00\x00\x00\xf0?\x00\x00\x00\x00\x00\x00\x00\x00\x00\x00\x00\x00\x00\x00\xf0?\x00\x00\x00\x00\x00\x00\x00\x00\x00\x00\x00\x00\x00\x00\xf0?\x00\x00\x00\x00\x00\x00\x00\x00\x00\x00\x00\x00\x00\x00\xf0?\x00\x00\x00\x00\x00\x00\x00\x00\x00\x00\x00\x00\x00\x00\xf0?\x00\x00\x00\x00\x00\x00\x00\x00\x00\x00\x00\x00\x00\x00\xf0?\x00\x00\x00\x00\x00\x00\x00\x00\x00\x00\x00\x00\x00\x00\xf0?\x00\x00\x00\x00\x00\x00\x00\x00\x00\x00\x00\x00\x00\x00\xf0?\x00\x00\x00\x00\x00\x00\x00\x00\x00\x00\x00\x00\x00\x00\xf0?\x00\x00\x00\x00\x00\x00\x00\x00\x00\x00\x00\x00\x00\x00\xf0?\x00\x00\x00\x00\x00\x00\x00\x00\x00\x00\x00\x00\x00\x00\xf0?\x00\x00\x00\x00\x00\x00\x00\x00\x00\x00\x00\x00\x00\x00\xf0?\x00\x00\x00\x00\x00\x00\x00\x00\x00\x00\x00\x00\x00\x00\xf0?\x00\x00\x00\x00\x00\x00\x00\x00\x00\x00\x00\x00\x00\x00\xf0?\x00\x00\x00\x00\x00\x00\x00\x00\x00\x00\x00\x00\x00\x00\xf0?\x00\x00\x00\x00\x00\x00\x00\x00\x00\x00\x00\x00\x00\x00\xf0?\x00\x00\x00\x00\x00\x00\x00\x00\x00\x00\x00\x00\x00\x00\xf0?'
p31
tp32
bsS'inp'
p33
g18
(g19
(I0
tp34
g21
tp35
Rp36
(I1
(I38
tp37
g28
I00
S"\x18Z\x05\xc6\x9e\xf2\xb0?\xb1\xa7<\xc4\\h\xc5?\x9d\xd1K\xf5s\xc2\xaa?\xf9\x18\x9c\x8f\xc1\xf9\xb8?\x9e\xd1K\xf5s\xc2\xba?\x7fNX\xc3;\xa3\xc7?u\xe3\xdf[GP\xca?\xdb\xb6m\xdb\xb6m\xdb?\xeek\x99,r\x80\xe0?\x7fNX\xc3;\xa3\xc7?\xf9\xf7\xd6\x11\x94f\xd3?U?'\xac\xe1\x9d\xd1?\xf0\xad#(\xcd\xa6\xcb?lxg\xf4R\xfd\xcc?L\xf5s\xc2\x1a\xde\xc9?\xf9\x18\x9c\x8f\xc1\xf9\x98?i6\xdd\xf8\xf7\xd6\xb1?\xd1*0\xf6\x94\x87\xc8?7\xdd\xf8\xf7\xd6\x11\xc4?\xb1\xa7<\xc4\\h\xc5?\xda\x95\xa8]\x89\xda\xd5?\xee\x8c^\xaa\x9f\x13\xd6?_\xcbd\x91\x03\x84\xd4?\xfb\x18\x9c\x8f\xc1\xf9\xa8?\r\xef\x8c^\xaa\x9f\xa3?\x0e\xef\x8c^\xaa\x9f\xc3?\xbb\x12\xb5+Q\xbb\xb2?\x04\x84\x14\xf7\xb5L\xb6?\x0e\xef\x8c^\xaa\x9f\xc3?8\x1f\x83\xf318\xbf?\xbb\x12\xb5+Q\xbb\xb2?\x9e\xd1K\xf5s\xc2\xca?\xa6\x1b\xff\xde:\x82\xd2?\xda\x95\xa8]\x89\xda\xd5?B\x8a\xfbZ&\x8b\xcc?L\xf5s\xc2\x1a\xde\xc9?-r\x80\x90\xe2\xbe\xc6?i6\xdd\xf8\xf7\xd6\xc1?"
p38
tp39
bsS's'
p40
g18
(g19
(I0
tp41
g21
tp42
Rp43
(I1
(I21
tp44
g28
I00
S" $\xe6yCz\r\xc0\xfa\xe8\xeee\xf3P\x02\xc0\xc2-\xb9L\xe5H\xd8?\x06@J,\xbd\xe1\x15\xc0\xc8\xa5?\xd5\xe9\xde\xe5?\xfa:\x1f>oN\xf3\xbf\xc7\t\x8a`\x12Z\xfb\xbfbl\x03\x9a\xce\x17\xdb?\x00\xa2\x98\xf4F\x94\xb0\xbf;\xc7\xe2b\x9e\xd2\x10\xc0Z\xc3\xa6\xc4\xc2\x1f\xe7\xbf\xfew\x82\xbd\xe0C\xf6?\xf1s*~\x98\x0c\x01\xc0\x8eD\xbd\xe0\xfe\xc2\xfd?\xd0f\xcf.\x80O\x02@`\xa8{)\x01\xd8\xe4?l\xb0J\x81n\x86\x0b\xc0\xe8\x13\xf0\x0e<\x0c\x02@\x1ac'\xb3\x83L\xf9?\x8a\xc2/7\xc9\xbc\x00@\xf8\xc3P\xf9\xe6t\xfe\xbf"
p45
tp46
bsS'np'
p47
(dp48
g21
g18
(g19
(I0
tp49
g21
tp50
Rp51
(I1
(I21
tp52
g28
I00
S'\xa6\x88\x8af\xfa\xc3\x11\xc0\x02\xd4.\xbfjw\x00\xc0\x19n%\xfb\x95\x8e\xd6?\xd8\xf8sX\x8f{\x19\xc0\xaa:\x8bp\xe5\xa1\xea?\xfaw\x1e\x1d\xa0K\xeb\xbf\xf9v*\xc0jm\xfe\xbf@\xcd\xe4\xa2\x03\x04\xd3?\x18\xecic\xe87\xd9\xbf\xac\xa5\xa5k\x13\x9b\x13\xc0\xa0\r\xae\xf2Z\xb9\x01\xc0\x04\xf0\x14c\x83\x0f\xff?\xc8;\x00WJ\x87\x07\xc0\xb4:ga\x0e=\xf9?Y@/<\xaev\n@\xc0\x18\xbc*3\x1a\xd7?\xb5\x0b\'\xa88"\x10\xc0\xf1\x98\xbd\xa7\x03\xf5\x06@\xc4\xf8s\x17\xcc\x00\xf5?\xbc\x05\x17\x8a\x19*\xfc?\x1b\x08\x033$\xb7\xf2\xbf'
p53
tp54
bsS'w'
p55
g18
(g19
(I0
tp56
g21
tp57
Rp58
(I1
(I21
I38
tp59
g28
I00
S'\x83\x08\xc0\x12\xba\xe2\xe4?<\xf4\xae\x91\x01\x0e\xd9?\xb3\xd3tm\x83\x99\xe5\xbf\xcd\x8e\xc8\xd9\xb7\x9f\xe3\xbf\xbd\x9c\xee\x08\x07\x04\xd5?5XS\\\xf6\xed\xe0?\x91\xfa\x82\xca\xb5\xbd\xe4?\xc8o\x8bZcD\xc2\xbf\xee\x06\x8d!\x88\xf8\xc1\xbf\xcb\xa9\x03\xc6\xcdR\xe7?F\xc9)\xae2\xbe\xe5?\xd30AO5\xd6\xa8\xbf=dTn\xeb\xaa\xe3\xbf\x9ac*;\xc8d\xd7?\x9b\x83\x845\xe9C\xce\xbf\x17\xcdN\x98\x83$\xbe?o\x81\x1dYA\x84\xe2\xbf\x07D\xc2o\xdcq\xe4\xbf,\xb7\x8b\xc2\xfaE\xd5\xbfLI\xd1H\x828\xe4?\xf1\x8e\xfe\xc3\xd5e\xc1\xbfeY\xeaY\xd9:\xe1?m\xd5p-?\xc2\xd5\xbfeq\xe5\xb1r\x1c\xdd?\xf6\xbeF\x1b\xb8\x90\xbc?\x8fa\xfar\xd8\xe1\xc0\xbf\x04\x02\xb4$\x9f3\xe8\xbf\xba\xc4\x071\xec\xdf\xda\xbf\x02\xbcVo\xde\xbb\xd0?\xd0\xb0\xff:\xf8!\xba\xbf\x9e\xc1\x1e{B}\xe8?\xc8\xf4\xccQ\xb5\xb9\xd9\xbf\x9eI\'\xcf\xd8\xff\xe3?\x991Bi\xbf\xb2\xe0?;b;6~\xc1\xbc\xbf\xb7\xc0\x9b\xd8\x1b\xc6\xe7?\xb59\xcf\xe1\x98\xb7\xe5?\xe5y\x19s,\xd3\xdb\xbfu\xd8!*(\xff\xc8?\xf7\xb2\xa87\xf8;\xdc\xbfi\xf4j\x91\xb0\xca\xb4\xbfAE\xb1\xee\x91\xdf\xe5?e\x93_\x10\r\x8b\xea?\x85\x14\x9a\x90\xb2\xfe\xce\xbf\xbd&\xc7;\x18\xfe\xdc?}5\xbb/H\x96\xc6\xbf\x05\xe5v^\x8c\xfd\xdf\xbf&\x0f\xc7\xba\xf1{\x9e\xbf\x84*\xf6Q\xd2\x93\xa0?\xe3\xc8\xbdgp\xcc\xe9\xbf\xcaj\xb5\xe3\xc9\x06\xeb\xbf\xd6\x1a\x9ey\x84\xab\xd8?C\n\x19}8}\xea\xbf\xfe\xf1f\x80\xbb\x07\xda?\xeb[\xa4\x90I=\xd2?\x9b\x17i\xaf\x91\x8d\xd0\xbf\x9eA\xae\x96\x16g\xda?\xe5\xc1X+\xa9\x86\xc2\xbf\x9b\xf8\xb6\x8f\xdcs\xc8?W\xa3\xb6\x87Vk\x92\xbf#Aj\xc1\xcao\xe1?\'\xf0\x8c \x0eR\xe4?\x9b\xe6\x87\x95\xb6\xd9\xe6?S\xad\xa6\xce\xf4\x96\xdb?+\x8d\x1d)\xc6\x1a\xe5\xbft\xf0f=<L\xe8\xbff\xf1\xe8~#k\xdc?\xe4\xcf\x10\xb7\xed\xe8\xd3\xbf\xd0\x12\xe1\x8d\x97&\xa6\xbf^\xd1\xf7\xd4\x17\xe9\xd5?:\xc9cT&l\xae?F\x15\xca\xbd\\\x11\xed?4%\x9b\x0cC\x1d\xe4\xbf\xe4\xfd]WC\x1c\xbf\xbf s\xb1\xb0\xc5=\xe4\xbf\xed\x12v\x96\\\xac\xcd?2\x97\xe1;*\xbd\xe8?\xc5\x8e\x9fW\xea\xa4\xd3?\x83\x86H\n\x10\xda\xc1?\xfe\x9d\xd3\xce\xc2a\xd5?\xdd\xec\xbb\xe1\x1aN\xd5\xbf5\xae\x91\xc4\xe2\xfb\xc0\xbf\xedqF\xddv\xa6\xcc\xbfE\xae\xed\x00w\x87\xea?}\xe2\xb0\xfd\x1b\xd0\xc8\xbfO\xa9\x88\xea9\xcf\xe4?\x9e|\x1b\xdaNU\xe1?\xc5\x96_!\x86\x02\xa6\xbf2\xad\x00]\x07~\xe1?`\x0ew\xb6?\x1e\xe4\xbfQn\x9c;5,\xe8?\xe6\xc7\x9d)r\x88\xcc\xbf\x92\xa0\x89?N\x82\xe2\xbf\r\xbb\xa5\xf9\x872\x94?\xaa5\xe4Y\x02\xbf\xe2\xbfFV\xc4\x9e\xa2\xb3\xeb\xbf\xbf\xc3\x17\x8f\xf62\xc3\xbf\x04\x18:\x08\xcd8\xd2?pl\x1b\xfa7v\xdb\xbf\xa5\xb1\xd2\xa36\x93\xe7\xbf\xb34\xd7\x86\x80^\xda?{\xb4\xbe2\xb00\xb4?\xa6I\x98\x91\xd8\xf9\xb9?<\xb0\x17\xb0\xa1\xf7\xe3\xbf\x15\'\x91\x9f\x9aD\xd7?0{b\xb9I\x81\xe6\xbf \xf6\x0c\x89\xa8\x8b\xbb\xbf\xc3@\xd0:d\xd6\xe9\xbfB\x87\xf8N\x84\xeb\xdb?\xc2@\x0b\x83n\xb3\xe4\xbf\x95z\xb7\x06yd\xe0?\xbb\xbd\xa4\x90y\xc5\xd4?d\xe8h\xf1\xd4\x07\xd4\xbf1\'\x1cH\xb9\xca\xdd\xbf[\x99\x85\'\xf2\xc8\xd5?.\xbd\xcd\x7f\xa3\xa3\xcd?\xc2aK\xee\xf5\xfc\xe9?\x9feK\r\x80\x04\xbd?\xab\x8cf\x04\xe1\xb0\xda?\xd9X\xc9\x8f\xd2\x85\xd1?\xe0t$-\xb3\r\xcf?8\xbfcj\x04\xff\x9e?\x1b\xf0~%Pw\xc9?~\xa3\x13\xd7\xdb\xc5\xa0?\xb7\xba\xfe\xc0*\xb3\xe8\xbf\xe8z\xefJ s\xdc?\xa1\xa6\xe1a\x97\xeb\xcf\xbf\xa2\x9c\xcf]\xceq\xe2\xbf \xe3\xa9\xd6\x14c\xaa?M\x11\xee\x7f\xf1l\xd6\xbf\x0cqz\xe0G\x9a\xea?~f\xc8\x08x\xd7\xe2?\xfa\xd6@8d\xab\xd3\xbf\xb5o\x1f\xb5rq\xe4\xbf\xb7\x00\x8d\x86s\x99\xe7?\xf3d\x80\xc2\x18u\xa0\xbf\x08\x0fNX*\x92\xd9?\xc1&\xd25}S\xd3?\x1b\xe0U\xab,q\xc2\xbf\x9d5K\x90\xd6\xd2\xc1\xbf\xf16~\xa4\x08\xe1\xe7\xbf_W\x86\xdd\xa6\xe8\xd6\xbf\xe1\xd5\xb6\xe7\xcf7\xea?\xc4\xed|\x16Z\x83\xea?a\xf6V+\x9b\xfa\xd0?\x93\xfc{R\xd8\xcc\xdf?\xc89\xdcG\xf8K\xeb?\xeb\x06\xf8\xe8Z\xaa\xe4\xbf\x99\xa2\x96*\xd9\xf3\xd9\xbf\x04\x8es\xba\xc2Y\xe3?\xc4\xfeP\x88\xa9u\xd7?\x14\x8f$\xc1}\xf0\xd8?y\x1cC\x18\x99\x00\xe2?\x97#K\xf6/\x08\xe3\xbfi\xa6\xa3\xf4\xce\xad\xe2?B\x1f9X\x13\x08\xbc\xbf\xa9\xe6\xdc\x9d\xe0\xb3\xe7\xbf\xd6s\\\x1cv\x01\xcb?\xf2\xa8]\x9d\x08d\xd5?9\x91\xc7\xa3\xfa\x0f\xc3?9P6\\D\xd3\xd0?\xb1\xffG\x94H\xf1\xe6\xbfp\x8f \xfaQ\x13\xe7?<\xb0;.\xe6Y\xe2?\xc5\xfb\x15\xdf:\xf4\xd3?\xca\xe0\xb1O\xec\xa3\xd6?\xbc\x13\x0eO\xaa\xc5\xdc\xbf\xedo\x89\x82M-\xa6\xbf\xb5\x8d2\xa0\xd1\x9f\xde?m\x9fp\x98\xe8\x92\xdd\xbfV\xcc\xff\x84\\!\xe1\xbf\xa8\x10N\x88s\xbc\xe2\xbf5\xd2\x1bi\x99@\xdd\xbf\x8ej\xc9\x8c2\xc0\xca\xbfw\xf9\xf6\xb8\xc6M\xe3\xbfl\x8dz\x8f\xdf\x8e\xdb\xbf\x96\xc2L\x0f\xb8h\xd7\xbf\xbd7\xc2\xca\x10\xa6\xe5\xbf)v\x01\xd6Vd\xe7?\x9cLy\xe1\xc6b\xde?\xbc\x7f\xb5r!\x02\xe8\xbf\xa2\x82\xeb\x08A}\xd7\xbfoV\xf8NM\x04\xd3\xbf\xa8\x7f/\r\xe5\xc9\xbe?VX!\x86\xcb\x9d\xe0?aB@y\xc7 \xae?l\x92"\x14"\x0c\xe6\xbf\x1f\xb4\xf0\xe0*\xb9\xe4?\xff\x17\xbf^\xb8\xbd\xd8?\x12\x1d\xa8\x16g\xd9\xa9?\x93\xac\'"i\x06\xc7?\x8dBs\xe1t!\xde?5e7-\x02\x82\xe0?\x8a$\x15\xd8\xb9)\xe7\xbf\xd2<zCd\\\xe6?\xd3S?\xca6\x8a\xe2\xbf\xa4%\xcf\xdf\x1d\xec\xdd\xbf,\xf3\x04<05\xbb\xbf\xb7=\xfc\x81\r\x11\xcf\xbf\xf5\xe3\x8a\x83\x81*\xd5\xbf\xb7\x07\x02W\x0e\x1a\xda?\x9e\xe81\xe6\x89\x8a\xa0\xbf\x94{(r\xc1\xcd\xe3\xbf\x8a\xa6\x11V\x8d\n\xe6?"\xf9y\xaa,\xa3\xc3?~\x00x,\xb8Z\xe0\xbfq\xf7/\xc5\xe2\xfe\xe8?gZ*\xcf\xac<\xd7?j\xc7\xd0\x8b\x97\xe7\xdb\xbf\xb6\xc5q\xa6\xf2O\xdd\xbf\x19\xab\x92Jr\xc4\xcd\xbf\xa3\xfeU\x00:n\xe4\xbf?Mhk3\x99\xc2?\x84L\xb1\xb0J1\xdd?\xabd\x95\x9f\xc8\x83\xd2?\xb6\xe7\xd5\xbd\xa9\xf2\xd7\xbfO\x14-\x8d\x08p\xe4\xbf#\xfe\xc3\xf2\xb6u\xe1?\xb7?\x9d\xa8\x9f\xa4\xe2\xbf\xf6\x19\x00\xeb\x0c\x9a\xe3?\xf8\x7f\x88\x1dAW\xd8?\xd7\x9c\xfe\x83\x1bb\xda\xbf\xcc%\xf8\x86\xbdp\xd9?\xe6Q\x84\xf4\xee\xdc\xe1\xbfP\xc0`G\xb4C\xdb?\xecD \xabz\x1d\xe7?\xc6\xd9\xfarUi\xe1?\xe0\xab\xee\xa2\xea\xc9\xe3\xbfa\x17J\xec\xa1\\\xa9\xbf?\xae\x97\rD\xe3\xa5?\xbe\xfd\x9b\xd6\xd2\xba\xb9?\xab$_h\xba\xbf\xd1?\x11\x07\xd0\xd4\x1b\xe8\xe1?H2\xa0\t\xdd\xcb\xce? _\x16\x9c2\x1c\xe0\xbf?\x85xH\xab\xa6\xe1\xbf\xf1\xe2V\xc2\t\xec\xe7?)\x1d\xff,3\xd7\xe5?\x03\x06\xa3R\x02~\xe9?\xb3\xc0MP\x1d1\xcf?\x87\x80\x00\xccS\xe2\xe0\xbfr%\xe9\x15\xb7\xae\xe1?\x13\x08P0\x0f\xb5\xe4?"\x0f\x82\xa9\xc2\x93\xdb?\x15\x06\xfen\x82\\\xe9?\xf5$\x94:\'\xae\xcf\xbf6\xb0\xc5\xd6Q\xac\xc9\xbf_\xcf\xa2s\x8a\x08\x9e\xbfj\xeb\xd6\xd1\\\xba\xbb\xbf\x00U\xde\x84T\xa5\xe5\xbf"6yJ\xd9.\xe6?\xdc*\x90_\x14\xad\xb6?\x95\xb3%\xaa)h\xe7?m\xbcH\xcb\xdd\xa0\xe4\xbf{q\xef\x173\xb4\xd6?q\xaf\x8d\xf7e{\xe1?L\x07,\xe1\xb3\xfa\xb4\xbf\x00\xcbC\x87\xe0\xd1\xe3\xbf*U\xb1EK\xc5\xe1\xbfo\xfcV]\x15,\xd2\xbf\x00\x80\x94h-\xa6\xe2\xbf\xbab\x18mZj\xcb\xbfSg\x17\xa3\xca+\xd4\xbf>\xe6\x1f~"8\xe7\xbf\x05\xad\x02]M\x94\xd5?z\x91j\x9d\xc8\xa2\xe1?\xa4AB\x16@\x98\xc0\xbf\xea~v\xb9\xb3\xd7\xaa\xbfn=\xfa|z[\xcd?I{\xff\xffy\xc6\xcf\xbfd\x9d;\xde;\xe7\xba\xbfzh@3&\xb9\xbf\xbfj\xa1\xec\xb5\x9c(\xb3?\xab\xf2\x06l\xf2\xe4\xe5?\xfd\x87+\xbc\xe2E\xe2?0b,\xc4Vc\xd4?\xddv\xbd \x8fM\xa0\xbfe\xfa\x8f\xf9D!\xe0?o\x90-8\x15\\\xde?>\x9cnYth\xe8\xbf\xce\x81\x98PR\xe9\xdc?L\n\x11\x1a\r\\\xe0\xbf\xe6\n\xfb\xcb\xc1\x0e\xd7\xbf\xd7,{$\xdf\xea\xa7?\n\xe1l\xd2\xc4\xa7\xde\xbf#_\xbc\x9c\x99\x88\xe4?\xef\n/=]\xb0\xe1\xbf\x88Vn\xb0J0\xd9?\x05\x1d\xe8\xb2v\xb3\xe8\xbf\xb5\xe8R\xf2hh\xd9\xbfg\x17*N\x81\xf1\xe5?\xa7\xaa\xc9\x06\xbaY\xd0?*\xfc\xcd\xb9G\xd9\xe5?\x0f\x13\x15^L\xf6\xe8?\x1eJPZ\xa8\x96\xe5?\xadc\xdb<\xe4\x10\xd7\xbff{em\xa4Y\xe8\xbfb\x97\xbay\xb6f\xe7\xbfl\\l\x93\xa5\xc4\xd2\xbf\x89/\xf3\x04]E\xe6\xbf\xdd\xd4\x96\x04l\xef\xd5\xbf\xdd\x93j\xd7\xc0F\xdc\xbf]\xb5\xd2_\xbb\xb5\xe0?\x89^\xb1\xe0\xf2:\xd9?EUD\xeb\xd2S\xe8\xbf\xb9\xe2\xc5\xf5\xae\xd8\xd2?\xc6\x9f\xbc& \x01\xe6\xbf/\xe2\x12,\xd0a\xce?\x94\x11Y\x93\xf6K\xdb\xbfR$\xa9X\xd7\x11\xd7\xbfG\xc1!\x83\x8bA\xda?Q\xf51\xc88j\xe6\xbf\xa2\xd6 \x7f\nZ\xda\xbf]\x80\xf2X\xe5|\xe6?\xd4"\x91\x89S+\xe9?adV\x12\x05)\xde\xbf8\xb9\xc1\xb0\x9a*\xe2\xbf\xbc7\x03\xd5F.\xe2?I\xfa\x84\xbd{\xa6\xca\xbf\xe9\xf2K\xb4\xee\xd0\xe1?\xb4\x08\x0b\x8fN\xb5\xe2\xbf\x9a!\x1c\x04\xd2x\xe9\xbfh\xf2E\xe5\xf2\xad\xc2?Fd\xd6\xdb\xe4\xca\x8e?\x7f\x1e\xb0\x06\xa2h\xc3\xbf\x92\x8e?P\xd5H\xda?\xea=$]\x9c\xd4\xe1?O-\xdf\xea_\xbd\xc3\xbf\x10\x86\xc3\xd6\x08\xfa\xd7\xbf\x19[\x88\x06\x9a\x12\xdd?u\xa9/\x0b\tr\x88\xbft\x86\xd0r\x98\xb3\xd1\xbf\xd4\xaac\xd1\t\xea\xd7\xbf\x8c4\xc7\xa2\xc6|\xba\xbf]\x88\xb9\x1bo\xd8\xe6? P\xf2qg\x1d\xd7\xbf\x1fceY\x0f\xfd\xe9?\x91n\x9a"\x9d:\xd2?s\xf9OU4F\xe5?zN\xec\xcb\x1dm\xe2?\xd2Cq\xdd\xb9\xe5\xb2?\x17_\x0f1\x951\xc8?\xbe:$\x90\x10Q\xdb?-^\xab\x14P\x1b\xc3\xbf\xd5\x12\n\xf6\xae\x1c\xbf?\x11\xe3%\x9fO\xa6\xe6?\xe7\xdf\xe7\x97w\x0b\xd7?&\x1c\xb7\xd0\x94\x8d\xe5?i7n|$r\x9c\xbfv\x11\x00z\xf2J\xdf?\xee\xf4\xdc\x8b\x05\xb4\xe7\xbf\xf8\xb1\x9d\xc4\xee\x8a\xb6?+\x83B\xe6\xa5\x8b\xd5\xbf\x88\x84\xa9@\xe2\xc0\xe6\xbfe:N\x18PB\xe3?\xecL\x8c\nT\xf2\xe2\xbf\xdf\xee\xab5\x8b\xc1\xc1\xbf\x86\xf2\xabb\xf4\xe3\xea?\xa1\x17\xc9P\x91\x05\xd1\xbf7\xbd#\r^0\xe4\xbf\xeeT\xf0\x92\x19\x01\xe1\xbf\xf4\x9f\xd6\xca!t\xe9\xbf\xe2;\xc7\xf3\t\x00\xd6?\xdch\xcc\xac\xc3\x1a\xe4?\n\xae\xfb\x96,g\xa2\xbf\x86l\xc7\x08\xd8\xf5\xdc?;\x8c\x17\xf3V=\xdc\xbf\xdc\x1a\xe1\xdc\xa6\xfc\xd0?\x92\xb2wCZ\x82\xac??Bm\x18Du\xe0?!)\x96X\xb7\xed\xd5?\xc3\xa6-\x88\xe8m\xdf?\xab\x1e\x9f\t\xec\x9e\xcd\xbf\x95\x06>\x86\\\x88\xd7?\x04\x0e\x0f\xfd\x9a\xaf\xe8?\x11a\xc09\xee~\xe9?(9\xef\x83\x0f\x1b\xde?\xeb\'\xe9`%\xa2\xc8\xbf9\xdc\xb8&\xbe\xbf\xe2?\xc6e\x19}\xe8\xf1\xc8?\x8ehB\xd3T\xa5\xb5\xbf\xea\x92\xc7&\xb6U\xb2\xbf\x80\xe2L\xdf\xf7\x9c\xe6?\xa9p1q%\xa0\xd3\xbfp\xa5\x03`<\xad\xaa?"\xbd\xe4O\xb8J\xd0?\xdf\x14\xdb\xc5\xc7\x83\xd4?f?r\xb8P\xd5\xcc? "\xed\xe3\x0e@\xe3?e\xa4\xbb\xca?\x05\xe1\xbf\xbb=\xefW\xd1\\\xe5?\xc6\xf0\x86\x84\x85\x9d\xe7?\xdd\xac\xdf\xb6t\x16\xdc?/,\xd5\x87\xe1\xc5\xb5?\x06\xd7\xf7J\xff0\xe7?u\x90WV\xb1v\xe9\xbfi<\x0e\'\n\xa7\xcf?%gk\xd0\xf6\xb5\xcf?(a\x91QRn\xba\xbfVDw\xb0\xebZ\xc6?,2\xf9\xf6\xc0\xcf\xe9?\xeb\xc4\x0c"\x8e\xfb\xb3?\xfc\xd2!\x04\x0c)\xc2?\xe6C\xb3Cf\xc2\xe5\xbf/l\xe1\x19\x97\xbe\xe8\xbf\xe86\x1a\x1f\x857\xd1\xbf%\xee\xa7V\x07\x8e\xe7\xbf=;\xad\x18\x9fD\xcf\xbf\x80O|\rc\x0c\xe5\xbf}\x80\xf1\xd6\xe9=\xe1\xbf\x8bD\xb8\xa3J\x05\xc1?\'\xfa2Vq\x7f\xe1?\xf1\xb2\xa3\x908v\xbc\xbf\xfd(\xf2c\x8b\xdd\xe8?7\x7f\x92\x12\xff}\xe2?\x9d\x8d+\xb14I\xe3\xbf\xec\x9ejz\x01\xdc\xdc\xbf\x19\xe3.,LG\xde?JL\xe1\xc8\x00\x96\xd6\xbf\x18\x1f\xa0\xc4\x93v\xe3\xbf4w\xfd\xf2\xe7\xfc\x86\xbf\xb10Kn\xe8F\xe5\xbf&\x08H\x07Yn\xe6\xbfn\xe57)\xadq\xea\xbf4ve\xc9\x92<\xa2?\\\xffhmM5\xd4\xbf\x95\x90\xf8\xf1-\xa4\xdb?\xae~\t\x99\xd8\xe4\xe9?\xf2\xeaX\x14t1\xac?\xe0w~+\x14\xb6\xea?\x96\xa1\x93+M\x07\xd2?~Cr\xc9\xf5d\xcd\xbf\x12Z2\x99^j\xb5\xbf\xcd\xc6\xa4\x05\xf9\x13\xce?\xc5\xdcm4nk\xbb?\x87\xf8\xc6\xdaQ\xa3\xda?\xae\xce\x9a\xae\xab_\xd0?\xfe\xa6h\x14\xd9\xd5\xb7\xbf\x92\xef\x7f\x1b\xe6\xe6\xe9\xbf1\xb1\xdd\xb2\xdf<\xc4?\xa2-\x1e\x05\x8f\xca\xea\xbf\xc3wl(\xec\x99\xc3?M\x90\xb0\xcb\xd0\xe1\xdb?SS\xe8\xe4F\xff\xd7\xbf\xe4\xfe\xacw\xb8`\xe1?]Y\xdd\x02\xf3O\xdf?I\x82U94\x95\xde\xbf\xa2\xb6\x89E%\xb3\xd4\xbf\xb6\x143MX\xe9\xe0?\xec\xc5\xe5\xe6\xa3\x0f\xe9?\xdd\x9ex\x0e\xd1.\xe0\xbf\xc8\xda\x89[)\xae\xa8\xbfM\xa61\xa79\xde\xe4\xbfx\x95\xfd[\x92\xa7\xd6?k\x81\xcb\xcdT\xe1\xc9\xbf\xe8V\x8b\xef5\x19\xe9\xbf\xf34\xb0\'\xba\xdd\xe4\xbf\xed\xd8\x10\x16\xc6\x01\xe3\xbf6;v7\xf1\xf4\xdb\xbf\xe2\x85\xd1\xa3\x04\x02\xe6?(%K\xc8\xbd\x83\xd0?O\xf3H`\xe4\xe8\xc7\xbf\xf9g\x04\x19%q\xe3?G\'8\x8cI\xc0\xe0\xbf\x02\x15&xv\xa2\xe0?\xcc@\x97\x03s\xdc\xda\xbf1\x1b\xb4\xfe\xfdS\xe0\xbf5\xbc{(\xa9\xa4\xdb\xbf\x15E\x89y\xcc\xad\xe2?A\x13\x86\x04\x80\xda\xe0?wJ\x812\xf0\xc5\xcf\xbfL\x96\x1b\x85\xcfN\xc0?\x80\xdd;\xff\xe4\xd5\xb7\xbf\xb7\xd5\xfa\xd9\x1c\x8b\xd1?xi$SB\xd8\xe8?\xee\xbc\x8d\xf5g@\xe7\xbf\xf3\xcfv\xb8\x8f\xfa\xe1?W\x00\xd5\x00=C\xe3?|{\xd8\xf7\xeai\xcd\xbf\x99\xf7^\xc6\xfd\xab\xd7\xbf\xb9\x0c\x90_F\x9c\xd7?\xba)\x08B\x0b\x82\xc0\xbf\x90\xf5F\xf2\xe6q\xda\xbf\xc0 \x82\xd67?\xe0\xbf\xa8$\x14\tw\x0b\xc9\xbfr\x1cw\x0b\x05]\xd6?\xc5\xa2\x01\xf2\xac:\xd6?\xf6\n\x9d\xbd\xbcD\xe7?&R\xe2\xbc\x04h\xd7?\x97\xa7q\xec\x05\x14\xd4?\xcf\xf5\x90\xfeI\x0b\xe3\xbfO\x14\xa8\x97T\x8e\xe7?\x98\r\xe3D\\\xc0\xe8?\xc2_Mo\xb7\xe0\xdf?G\xc4n\xbbUK\xc7?\xb1\xa18\x12\x92\x94\xb1\xbf\x9b\xf1Z\xdc! \xc3?\xb7\x86Q\xfa\x0ep\xd5\xbf\x03\xfe\x15\xd3\xf4\xdf\xdb?\xe3\xc201\x86\x8e\xe6\xbf\r)P\x18\x19\xf6\xb2\xbf\xa2%\xd1\xe6\xddz\xe7?\x9c\xca\x84\xc2l7\xe1?\x8f\xb7\x1f\x0bvF\xd6\xbf\xfe\xe8Q!\x12\x16\xe8?\x81%\x9f\xc9\x9b\x84\xe4\xbfJ\xefvv\xe0\xec\xe0\xbf\xcdH\x10\xc7\x93\xd5\xe6?\xe7U\x82\xa1\xc4\xf0\xa6\xbf\x8e\xb2\xa9&\xbc-\xd9?\x14\xc3`\xf4\x1f-\xe2?\x92v?\xfe\x12h\xe0?6P\x89x\xd3\x0b\xe8\xbfH{\x91\x8c\x85X\xeb\xbf\x1b=\xff\x0fQU\xd0?dP\x93$\xe2v\xe0\xbf3^h\x8e\xdc\xc2\xd9?\x04\x06MF\xc8k\xdc?1\xf5i\xaf\x82B\xe1\xbf\xefgKJ\xcc\x1e\xa9\xbf\x9a\xf9\xee\xba\x14\x02\xd2\xbf\xe9^\x0f\x02\x19\xa4\xb2\xbf\x01\xf814x/\xec?oTXb\x81l\xd0\xbf\x970c\xdc\x81\x96\xea\xbf\x9a\x11\xdc\x03\xfcG\xcf\xbf;s\nl!\x1a\xd2\xbf\x94\xaaC\x06X\x87\xba\xbf\xafX\xabk0\x9a\xce\xbfh\xe3\xe6\xdcq#\xd3?^Z\xd8w\xf5\x7f\xe0?\x9e@[\xb5Pv\xe1\xbf\x02\\\xb2B\x9c\x04\xc4\xbf\x97\x8c\xaaS)\xb6\xc7\xbf!\xd6\x1bLM\x89\xe0\xbf\x11X\x89Ok\xc6\xdd?w\x15`_\xc3n\xeb?\x0b\x08\xed\x9a\x88\xef\xeb?$h\x8e\xfd\xbd\xe9\xc7\xbf\n&\xc4\xa32\xb7\xd6\xbf\xce\x17\x8f\xf7%4t\xbf\xb4\xb2\x96\xab\xd6\xd1\xd0\xbf\xa2\xdaP~Lr\xc6?N\x02\x0f\xc2\xac\xdb\xe8\xbf\xad8\xa6,\xf9/\xe6\xbf\x18X\xcc\xc9=F\xeb\xbf\xf6\x087\xd7\xe8\xc9\xc4\xbf\x89\xda\x80\xaf\xf3\x97\xe1\xbf\xf0\x8c\xe1\xb3\xaci\xcb\xbf\xfc\xde\x08Y\xfeh\xcc\xbf\x9c a\x84\x04\xb1\xea?f\xe7\xcb\xd4@@\xea?XP\xe4\x07h\t\xd3\xbf\x9e\x1a\xd0\xc3B\xff\xb0?\xb1\xaf\xf5s\xbdv\xe4\xbfY\xb7\x949\x14\xa5\xce\xbf\x8e\xe09}\x87\x1b\xe4?^\x07\xbb\xabos\x8e?\xb5\xe6\xbeC\x07j\xe4\xbf\xb91R\\p0\xd1?\xde\x8b\xdc\xcb\xe3\x1a\xbb\xbf\x80`\x83A\xed\xc9\xe1?\x8f1`i8%\xe3\xbf\xb31\n&O\xc3\xc1\xbfp\x1a\x8b\xab\xc7\xf6\x90\xbfe\xdb\xcd%\x80$\xe5\xbf0\xcf\xcd\xca\xe7\xf9\xd9?\xcf\x07\xb7\xc1\xe7\xbd\xdc\xbf\xd9_w\xb2\xbd)\xd6\xbfN\x1b.A\xc8\xcc\xdb\xbf2\x16\x00\x99G\x19\xda\xbf\x94\xf4\xe0\x148a\xe5\xbf\xb4\x93\xc1\x8f\x81\xa9\xe8\xbf\xfd"\x98\x1bI\x9a\xe0\xbf\xe6\xfc\x1d\xb1~\xdd\xd8?L\xc3Ra\xd2\xed\xe4\xbf\xcep\x13\xa6\xb3\x18\xe1?\x0e\x9f=O\x06\xbd\xdb?C\x10WK\x87L\xe8?\x11\x8a\xf0\x01\xdf\x84\xe1?\x1e\xe1\xb0\xd7a\xf5\x9b\xbf\xec\x07\xe0\x05\xe7\xbc\xd1?;\xa3\xe3\x86\x90\'\xe6?\x82\xc5\xc9\xe1[\xe9\xe3\xbfF\xa8`#\x8f\xef\xe3?i!\x89uf\x16\xe2\xbf\xc5j\xeeI\xfa\x95\xe1\xbf\xc1>\xbf\xa4i5\xa5?^\x91)\xe6\xf5a\xb0?\\\x9a[Qkc\xbd?5\x17\xe6\xb4\xcd\x08\xe5?\x8f+{\xa5A\x1f\xda\xbf\x07G\x05J\xd1\xc1\xe4\xbf\x07v\xa5\xf7\xd1\x7f\xbe?M}\xcb\x05g4\xcc?B\xf0\x80\xcf\xf5\x82\xd5\xbfd\xdaY#\x01<\xc7\xbf\x8d\xd9^\x0b\xc9p\xb2\xbf\x1e\xcb\xa0\x82\x1bP\xe1?\xaac\x9d\x1fS\x08\xe0?\x1f\x96[\x87\xe5$\xd2\xbf\x987\xcf\xb32L\xea\xbf\xa7+o\xaa\xc3x\xdf\xbf\xe2\r\xbfBi\xea\xe0\xbffR<OtE\xe7?\xb5;\xdbH`3v\xbfi\x07k\xf6{v\xcf\xbf\xbdAIoQ2\xdb?\x08E.\x9d\x03\xe2\xe5\xbf\xfck,B\xfc\xe5\xc7?,\x87\xa7\xec\xbc\x15\xb1\xbf6\xb4E\xeb\x1eQ\xe8?\xa7\x89\xf6T`\xee\xe2\xbfF  \x10\xc0M\xcc\xbf\xa1\xd0.\x99\x04(\xe7?h\xf7\xe8\xaf\x0f]\xd2?\x1f\xf7\x08\xf5\xff\xa3\xcb\xbf\x7fLj\x95\xfe^\xdf\xbf\x128_S\xf8O\xdb?j9\xf8\x16\xfa\xbe\xda\xbf\xdb*\xef\xcf\xd4\x9a\xdb\xbfQ\x87\xb6\x02\x92G\xd2?\xb2l\x00\xe5v(\xd6\xbf/\xd2\x95}\xc2\x98\xea\xbfc4\x9dr\xe0\xc9\xc2?\xb8\xacvEU\xda\xd8?r\x12b\xd7<?\xac\xbf\xbf\x86\x1e&j\xd1\xdf?\xb4[\x00\xfdI\x9a\xb3\xbf\r\x08N2 \x92\xa2?\xee)\xc31\xd7m\xdb?\x0c[w\x99\xa9\x88\xcd\xbfY(@\rpe\xdf?l\xfb\xeb\xbe+\x94\xd7?+\xad~\x8a</\xe6?\nA.5n\x89\xea?R4\x93\x05\xe0\xfa\xdf?\xeb\'\x1cr\xbe\xa5\xe8?C\x11(\xb3)\xa5\xc5?\xc1&p\xf5\xc01\xe4\xbf\xf6\xd0\xeb\x870\x1e\xe4?\xf57\x8a\xa73E\xdb?\x83w\xe2~\x92)\xe7\xbf\xef\x1a\xb2X\xdd2\xad\xbfE-\xf8\x8c\x92\xe6\xe1\xbf\x85U\x85\xf3\'f\xe6?\x06\x94\x96\xa9].\xb0?h\xa4\xc2~!\xf3\xe0\xbfU[\x18\xf1\x00j\xec\xbfh\xeb\x00\xa8\xdb\x8a\xb0\xbfQ\x05q\xf6\x1aH\xdf\xbf\x1d\x1b\xc0\xa2c{\xda?\x8c\xbe\xfaxw\xc4\xe4?G)`\xc4V\xd8\xe5\xbf9NMV\x04\xc3\xc2?s\x9anJ\xc7\x83\xd7\xbf\x8f\xfb\x1e\xc7%\xf5\xd0\xbf>\xcf#\xb1\x01\x04\xe0\xbf\xfc>r4g\x91\xd7?\x9d\xc2\xd8 \x98\x7f\xe4\xbf2\xe6\xa8@\xad\xc8\xdf\xbf\x84j5\xd3\x95\xaf\xe0?#\xb7\xbe\xecd\xa7\xd0\xbf\xa6r\xaf\x07\xef\x9b\xd4?\xd9\xe5\x07\xcb \xde\xbe\xbf)\xea\xb3]-\xe6\xb8\xbf\x1e\xac\x1b\xee\xa1v\xd9\xbf\x8f\xa5\x9b\xcc{6\xe2?\x9e>c\x13i<\xea\xbf\xc3\xdc\x1a\xb4\xa1\x07\xe1?Ii\xba%Xx\xe2\xbf\xe8\x89.\x11\x87*\xe7?b\xc7\xd1\xa2(\xa3\xd9\xbf\x061\xad\xe8\xaa\xe8\xe5?\xb9="\xc5z\t\xe7?a\xe7\xb2=\x03\x15\xd6?\xdb\xa1[\x08\xfdJ\xb2?"XeI\x1e4\xab?\x86\xeaCr\xf3\x94\xed\xbfnw\\\x8a\xd4\x00\xd6?AeeOZ\xff\xe4?\x99\'\xb2\x1a\xd5z\xd5\xbf\xfaF\xd4rj\x9a\xba\xbf\xd68\xea\xae\xf7\x06\xb1\xbf\xb8"\x99\xe4\xcf,\xd8?\x94\x81\xc4\xc7!\xdf\xc4?\xa0w\xce\xc9\x9ee\xe7\xbf\x9c}]\x10}\x9b\xd8?\xd6\xd3\xb5\x14\xb2\xb8\xd6\xbf\x10x\xde\xca!?\xe0?W\x91s<zG\xd4\xbf\x9e\xca\x07\x7f\xfef\xe3?_K\xc0 y\\\xe5\xbf9\xd2+.\n\xdb\xdb\xbf;\xa5fb\xfb,\xe7?\xf4c\x05\x9a\xd6f\xd1\xbfgC\x18x\n\x04\xe6\xbfI\x91\xb0\xeb\x92\x0f\x8e?\xf5\x19\xef\xb5"l\xc2\xbfS\x93\x97\xbc0\x8e\xdc?a\xd7\xddv\x8b\xb4\xe7\xbf\xaf\x16\xb4w\x9c\xcc\xe4?\x10I\xbcZ:q\xd4?\xf1\xf8\xb8\xfe\x9b\x11\xca\xbf\x1f\x97\xdf\x89@}\xdf\xbf0T\xe6\xc8\xddq\xde?u\xfe\x7f64\xd9\xc4?\xf0\xae\x07Js\xff\xe5\xbfV\x1a\xfc\xb7\x91J\xe5\xbf]3\x05;\xaa\xe7\xae?\x8c\xc5:-\xc4\x81\xdb\xbfY\xaa\xc7\x0e\xb6\\\xd5?\x80Gi"Bp\xca?v\xddDT[A\xdc\xbfj\xdeS\xc4\xa3\xfb\xe4?\x85\xe9h\xe8\xf3>\xe4\xbfWsz#\xb9x\xb2\xbf\xa9\x1d\x81m\x9b|\xe5?\xf1<%\x0ep\xa9\xd4\xbf\xdd\x9dC\xbc\';\xe7?\xd4\xe0\xeatV\xe3\xd3?\x1d\xe6\xf1C8\x1e\xe5?\x05\xfa\xf2\xce\x03\x00\xaf?W!\xa1Z\xe9\x18\xe3?\x9f0O\x96\xfb\xab\xe5\xbf\xd5\xb7\x0f\xd4m\xf4\xdf\xbf3\xe4\xbc\x12\xc6U\xda\xbf9p\xee\xdeh\x12\xe6?\xd1\x18\x19{\x90\xda\xe4\xbf\xd8Q#\xc1\x00B\xb4\xbfC\'\xd9!\xde\x0b\xda?\xa0\xa8-\x81\xdc\xf1\xc8?\x80Ry\xcad,\xe9\xbfb\x93\x9dp\xa0\x97\xe2?3\x13\xc5\xe3\xb6\r\xea?h\xbf\xb0$\x98\xa1\xe7\xbfG\x10%~t\x8a\xe0\xbf\xab\xfe\x16*\xa6\xac\xdb\xbf\xc1 \x912\x99\xae\xc3?>\xc0\x1d%\xedS\xde?\xf2\xfd\x01\xd2V&\xa3\xbf\xf2\x85\x86XQU\xd6?`\x92\xcc\xdd1$\xcb?\x7f_\xd0\x12\xbe\x14\xdc?\xeaj\x96]\xf2\x03\xd4\xbf\xdd\xd0\x86rD\xc0\xdd?f\xbb\xef\x98]\x1c\xb3\xbf\x06\t\x08H\xbe\x05\xd2?\xa7\xdc\x84\xd8&\xc1\xe1?hg\xe6`\xe3\x1a\xe4\xbf\xcf3\xd5\x9c2P\xcc?91\xfb\x04z\x89\xc5?\xe2\xd3\xb7\x8d\x12\x9d\xdf\xbf\xa1xh\x03\xd6\xb9\xdd?!\x9a\xa5\x1dc\xc2\xea\xbf\xb2\xcb\xc1%\x11\xa0\xe0?aJ\xcb\xf9\xc2\xff\xdb?z\x074\xbc\x14u\xd9\xbf\xb5\xef\xefPM\xc2\xe4\xbf\xb5\x82\x88\xb1\xcc\x7f\xd9?8\xbd\xe8{D\xf2\xb7\xbf\xeb\xd06Qe\xdc\xe2\xbf\xe3\x86\xc8\xd6\x7f\x9b\xd7\xbf\'\x00\xd8\x99^\x91\xd6?\x1b\xfc\xf7\x86{\xe7\xe3?\xbd-,rGo\xe6\xbf\xee\xf4\x14\xbcH\x91\xe1\xbf\xc01Kw\xf0\xf3\xe6\xbf\x8d\x99$r\x8ey\xcc\xbf\xcf\xb4"\x17f\xb3\xd3\xbf\xcc$\xe6g|\xc0\xdb\xbf\x8cW\xda\xf2\xf7A\x9b\xbf<F\xddC\x9b,\xeb?\x08\xbdj\xad\x9d\x8c\xea\xbf~g\xb5\xbd\xc7\xc8\xdf?_\x15-\xd2\xf6\x19\xdb?U6\xa5-H\xd8\xe5?\xdf\x87m\xdd\x16\x1a\xc1\xbf\xb5{\x8byA\xba\xd2?a\xbd6t\r8\xd8\xbfgMJ5\xaa\xc2\xda?\x92&\x065za\xd3\xbf\xe4lp\x1c\x1e\x95\xc5?\xa0;\x81f\x06\xb2\xe8?\x10\n\xc4z\xa0\xff\xd2\xbfjs\\\x15y\xff\xd2\xbf\x18\xe6$\xd9oi\xe3?\x80\x92b\x92\xc6\x89\xd2\xbf\xca*\xba@\xc9\xa3\xd2?hAl\x8a\xefo\xd7\xbf\x90\xf9\x92\xda\x8f\x08\xe1?D\x8a\xaa\x8f\xbcH\xcc?\xf1\xa5\x01\xb8#\xc1\xe8\xbfs\x11\xc1\n\x1f\xce\xa9\xbf\xe2tR7\xc0\xc8\xe3?!\xf7\xf6\xfc\xbd3\xdc?\x7f\ng\x92W\x8b\xea\xbfi\xec z\x1b\x19\xc6?'
p60
tp61
bssS'transf'
p62
(ineurolab.trans
TanSig
p63
(dp64
bsS'out_minmax'
p65
g18
(g19
(I0
tp66
g21
tp67
Rp68
(I1
(I21
I2
tp69
g28
I00
S'\x00\x00\x00\x00\x00\x00\xf0\xbf\x00\x00\x00\x00\x00\x00\xf0?\x00\x00\x00\x00\x00\x00\xf0\xbf\x00\x00\x00\x00\x00\x00\xf0?\x00\x00\x00\x00\x00\x00\xf0\xbf\x00\x00\x00\x00\x00\x00\xf0?\x00\x00\x00\x00\x00\x00\xf0\xbf\x00\x00\x00\x00\x00\x00\xf0?\x00\x00\x00\x00\x00\x00\xf0\xbf\x00\x00\x00\x00\x00\x00\xf0?\x00\x00\x00\x00\x00\x00\xf0\xbf\x00\x00\x00\x00\x00\x00\xf0?\x00\x00\x00\x00\x00\x00\xf0\xbf\x00\x00\x00\x00\x00\x00\xf0?\x00\x00\x00\x00\x00\x00\xf0\xbf\x00\x00\x00\x00\x00\x00\xf0?\x00\x00\x00\x00\x00\x00\xf0\xbf\x00\x00\x00\x00\x00\x00\xf0?\x00\x00\x00\x00\x00\x00\xf0\xbf\x00\x00\x00\x00\x00\x00\xf0?\x00\x00\x00\x00\x00\x00\xf0\xbf\x00\x00\x00\x00\x00\x00\xf0?\x00\x00\x00\x00\x00\x00\xf0\xbf\x00\x00\x00\x00\x00\x00\xf0?\x00\x00\x00\x00\x00\x00\xf0\xbf\x00\x00\x00\x00\x00\x00\xf0?\x00\x00\x00\x00\x00\x00\xf0\xbf\x00\x00\x00\x00\x00\x00\xf0?\x00\x00\x00\x00\x00\x00\xf0\xbf\x00\x00\x00\x00\x00\x00\xf0?\x00\x00\x00\x00\x00\x00\xf0\xbf\x00\x00\x00\x00\x00\x00\xf0?\x00\x00\x00\x00\x00\x00\xf0\xbf\x00\x00\x00\x00\x00\x00\xf0?\x00\x00\x00\x00\x00\x00\xf0\xbf\x00\x00\x00\x00\x00\x00\xf0?\x00\x00\x00\x00\x00\x00\xf0\xbf\x00\x00\x00\x00\x00\x00\xf0?\x00\x00\x00\x00\x00\x00\xf0\xbf\x00\x00\x00\x00\x00\x00\xf0?\x00\x00\x00\x00\x00\x00\xf0\xbf\x00\x00\x00\x00\x00\x00\xf0?'
p70
tp71
bsS'out'
p72
g18
(g19
(I0
tp73
g21
tp74
Rp75
(I1
(I21
tp76
g28
I00
S'\x04\x0b.7\xae\xf5\xef\xbf\xff\xd91\x8c\x88Y\xef\xbf\x1f\xa1\xa2\xaf\xc2.\xd7?\xfff&\xaf\xb5\xff\xef\xbf1X\x071\x1f\x00\xe3?\xc4W\xbe$\xd2\xbd\xea\xbf\xfa#M\x07\x81\xf8\xed\xbfO!p\xfb.\x95\xd9?\xab\xb7\xe4tZ\x8e\xb0\xbf\x8b~\x10\xb4[\xfc\xef\xbf\xcb\xdf%\xa7\x07\xcb\xe3\xbfOg\xd8\xc8\xc3E\xec?Gns\xfa[\x1c\xef\xbf\x90\xe3\x11\xf3l|\xee?\xbc\xc0\xce\xc5LY\xef?\x13y\xf2C\xa8R\xe2?\xb2\xe1\xe1\x961\xef\xef\xbfQ2\xb0\xca\x1aN\xef?\xe8t\x02\xf0\xb1f\xed?xj\x96-/\n\xef?\xd3,\r\xd1\xf8\x9b\xee\xbf'
p77
tp78
bsbag0
(g8
g2
Ntp79
Rp80
(dp81
g12
g13
sg14
I21
sg15
I1
sg16
I1
sg17
g18
(g19
(I0
tp82
g21
tp83
Rp84
(I1
(I21
I2
tp85
g28
I00
S'\x00\x00\x00\x00\x00\x00\xf0\xbf\x00\x00\x00\x00\x00\x00\xf0?\x00\x00\x00\x00\x00\x00\xf0\xbf\x00\x00\x00\x00\x00\x00\xf0?\x00\x00\x00\x00\x00\x00\xf0\xbf\x00\x00\x00\x00\x00\x00\xf0?\x00\x00\x00\x00\x00\x00\xf0\xbf\x00\x00\x00\x00\x00\x00\xf0?\x00\x00\x00\x00\x00\x00\xf0\xbf\x00\x00\x00\x00\x00\x00\xf0?\x00\x00\x00\x00\x00\x00\xf0\xbf\x00\x00\x00\x00\x00\x00\xf0?\x00\x00\x00\x00\x00\x00\xf0\xbf\x00\x00\x00\x00\x00\x00\xf0?\x00\x00\x00\x00\x00\x00\xf0\xbf\x00\x00\x00\x00\x00\x00\xf0?\x00\x00\x00\x00\x00\x00\xf0\xbf\x00\x00\x00\x00\x00\x00\xf0?\x00\x00\x00\x00\x00\x00\xf0\xbf\x00\x00\x00\x00\x00\x00\xf0?\x00\x00\x00\x00\x00\x00\xf0\xbf\x00\x00\x00\x00\x00\x00\xf0?\x00\x00\x00\x00\x00\x00\xf0\xbf\x00\x00\x00\x00\x00\x00\xf0?\x00\x00\x00\x00\x00\x00\xf0\xbf\x00\x00\x00\x00\x00\x00\xf0?\x00\x00\x00\x00\x00\x00\xf0\xbf\x00\x00\x00\x00\x00\x00\xf0?\x00\x00\x00\x00\x00\x00\xf0\xbf\x00\x00\x00\x00\x00\x00\xf0?\x00\x00\x00\x00\x00\x00\xf0\xbf\x00\x00\x00\x00\x00\x00\xf0?\x00\x00\x00\x00\x00\x00\xf0\xbf\x00\x00\x00\x00\x00\x00\xf0?\x00\x00\x00\x00\x00\x00\xf0\xbf\x00\x00\x00\x00\x00\x00\xf0?\x00\x00\x00\x00\x00\x00\xf0\xbf\x00\x00\x00\x00\x00\x00\xf0?\x00\x00\x00\x00\x00\x00\xf0\xbf\x00\x00\x00\x00\x00\x00\xf0?\x00\x00\x00\x00\x00\x00\xf0\xbf\x00\x00\x00\x00\x00\x00\xf0?'
p86
tp87
bsg33
g75
sg40
g18
(g19
(I0
tp88
g21
tp89
Rp90
(I1
(I1
tp91
g28
I00
S'\x16\xe2\x16zH,\xc7?'
p92
tp93
bsg47
(dp94
g21
g18
(g19
(I0
tp95
g21
tp96
Rp97
(I1
(I1
tp98
g28
I00
S'P\x89\xa1g\xd2H\x9a?'
p99
tp100
bsg55
g18
(g19
(I0
tp101
g21
tp102
Rp103
(I1
(I1
I21
tp104
g28
I00
S'\xf4*\xe5\xb9\xf0u\xd4?\xe2\x16tTG\xe5\x91\xbf\xdc+[\xdd?\x83\x90\xbf\xa4#\x8f\x91\xcaR\xda\xbfE\x9a5\xa7m\xf8\xc1?\xbcff\xa1\xd6\xae\xc4?-#\xf1\xe7_s\x9e?\xa4\xe8c\x9fH|\xb7?\x80\xd2|\x8aI[w\xbfF\xb5\xfb+]/\xd9?lm\xf1\x14\xa8\xfe\xc7\xbf\xf2\x99\x1c^\xc2:\xbf\xbf\xc6\xe68k\x96\x91\xd8?^\x05;\x92\xd6\x95\xd6\xbf\x196\x1ad\\\x0b\xd6?\x18\x1b\x17\x1fW\xa0D?\x88\xb7\nK\xaf*\xd0\xbf\x8c\x80V\x9a\xfa\x90\xd3?O6^G\xc1\xa5\xd3\xbf)\x0e\xab\xac\xe06\xd6?>}\xcaOan\xd0\xbf'
p105
tp106
bssg62
g63
sg65
g18
(g19
(I0
tp107
g21
tp108
Rp109
(I1
(I1
I2
tp110
g28
I00
S'\x00\x00\x00\x00\x00\x00\xf0\xbf\x00\x00\x00\x00\x00\x00\xf0?'
p111
tp112
bsg72
g18
(g19
(I0
tp113
g21
tp114
Rp115
(I1
(I1
tp116
g28
I00
S',\x9d\x8e\xb0O\xec\xc6?'
p117
tp118
bsbasg14
I38
sg15
I1
sg17
g18
(g19
(I0
tp119
g21
tp120
Rp121
(I1
(I38
I2
tp122
g28
I00
S'\x00\x00\x00\x00\x00\x00\x00\x00\x00\x00\x00\x00\x00\x00\xf0?\x00\x00\x00\x00\x00\x00\x00\x00\x00\x00\x00\x00\x00\x00\xf0?\x00\x00\x00\x00\x00\x00\x00\x00\x00\x00\x00\x00\x00\x00\xf0?\x00\x00\x00\x00\x00\x00\x00\x00\x00\x00\x00\x00\x00\x00\xf0?\x00\x00\x00\x00\x00\x00\x00\x00\x00\x00\x00\x00\x00\x00\xf0?\x00\x00\x00\x00\x00\x00\x00\x00\x00\x00\x00\x00\x00\x00\xf0?\x00\x00\x00\x00\x00\x00\x00\x00\x00\x00\x00\x00\x00\x00\xf0?\x00\x00\x00\x00\x00\x00\x00\x00\x00\x00\x00\x00\x00\x00\xf0?\x00\x00\x00\x00\x00\x00\x00\x00\x00\x00\x00\x00\x00\x00\xf0?\x00\x00\x00\x00\x00\x00\x00\x00\x00\x00\x00\x00\x00\x00\xf0?\x00\x00\x00\x00\x00\x00\x00\x00\x00\x00\x00\x00\x00\x00\xf0?\x00\x00\x00\x00\x00\x00\x00\x00\x00\x00\x00\x00\x00\x00\xf0?\x00\x00\x00\x00\x00\x00\x00\x00\x00\x00\x00\x00\x00\x00\xf0?\x00\x00\x00\x00\x00\x00\x00\x00\x00\x00\x00\x00\x00\x00\xf0?\x00\x00\x00\x00\x00\x00\x00\x00\x00\x00\x00\x00\x00\x00\xf0?\x00\x00\x00\x00\x00\x00\x00\x00\x00\x00\x00\x00\x00\x00\xf0?\x00\x00\x00\x00\x00\x00\x00\x00\x00\x00\x00\x00\x00\x00\xf0?\x00\x00\x00\x00\x00\x00\x00\x00\x00\x00\x00\x00\x00\x00\xf0?\x00\x00\x00\x00\x00\x00\x00\x00\x00\x00\x00\x00\x00\x00\xf0?\x00\x00\x00\x00\x00\x00\x00\x00\x00\x00\x00\x00\x00\x00\xf0?\x00\x00\x00\x00\x00\x00\x00\x00\x00\x00\x00\x00\x00\x00\xf0?\x00\x00\x00\x00\x00\x00\x00\x00\x00\x00\x00\x00\x00\x00\xf0?\x00\x00\x00\x00\x00\x00\x00\x00\x00\x00\x00\x00\x00\x00\xf0?\x00\x00\x00\x00\x00\x00\x00\x00\x00\x00\x00\x00\x00\x00\xf0?\x00\x00\x00\x00\x00\x00\x00\x00\x00\x00\x00\x00\x00\x00\xf0?\x00\x00\x00\x00\x00\x00\x00\x00\x00\x00\x00\x00\x00\x00\xf0?\x00\x00\x00\x00\x00\x00\x00\x00\x00\x00\x00\x00\x00\x00\xf0?\x00\x00\x00\x00\x00\x00\x00\x00\x00\x00\x00\x00\x00\x00\xf0?\x00\x00\x00\x00\x00\x00\x00\x00\x00\x00\x00\x00\x00\x00\xf0?\x00\x00\x00\x00\x00\x00\x00\x00\x00\x00\x00\x00\x00\x00\xf0?\x00\x00\x00\x00\x00\x00\x00\x00\x00\x00\x00\x00\x00\x00\xf0?\x00\x00\x00\x00\x00\x00\x00\x00\x00\x00\x00\x00\x00\x00\xf0?\x00\x00\x00\x00\x00\x00\x00\x00\x00\x00\x00\x00\x00\x00\xf0?\x00\x00\x00\x00\x00\x00\x00\x00\x00\x00\x00\x00\x00\x00\xf0?\x00\x00\x00\x00\x00\x00\x00\x00\x00\x00\x00\x00\x00\x00\xf0?\x00\x00\x00\x00\x00\x00\x00\x00\x00\x00\x00\x00\x00\x00\xf0?\x00\x00\x00\x00\x00\x00\x00\x00\x00\x00\x00\x00\x00\x00\xf0?\x00\x00\x00\x00\x00\x00\x00\x00\x00\x00\x00\x00\x00\x00\xf0?'
p123
tp124
bsg33
g36
sS'trainf'
p125
g0
(cneurolab.core
Trainer
p126
g2
Ntp127
Rp128
(dp129
S'_train_class'
p130
cneurolab.train.spo
TrainCG
p131
sS'__module__'
p132
S'neurolab.train.spo'
p133
sS'params'
p134
(dp135
S'epochs'
p136
I7000
sS'train'
p137
(dp138
S'rr'
p139
I0
ssS'goal'
p140
F2e-05
sS'show'
p141
I0
ssS'defaults'
p142
(dp143
g136
I500
sg137
(dp144
g139
I0
ssg140
F0.01
sg141
I100
ssS'error'
p145
(lp146
cnumpy.core.multiarray
scalar
p147
(g28
S'C\x96\xaf\x9f\xff\xc76@'
p148
tp149
Rp150
ag147
(g28
S'%\x9f\xab\xdf<\xa63@'
p151
tp152
Rp153
ag147
(g28
S'\x1b;\xef\xc8Nr/@'
p154
tp155
Rp156
ag147
(g28
S'\x1a*\xa7\xb5\x97\x10/@'
p157
tp158
Rp159
ag147
(g28
S"U\xab\x8dK\x94R'@"
p160
tp161
Rp162
ag147
(g28
S'\x0f(\xca\x93\x97\xd9"@'
p163
tp164
Rp165
asS'__name__'
p166
S'TrainCG'
p167
sS'__doc__'
p168
S'\n    Newton-CG method\n    Using scipy.optimize.fmin_ncg\n\n    :Support networks:\n        newff (multi-layers perceptron)\n    :Parameters:\n        input: array like (l x net.ci)\n            train input patterns\n        target: array like (l x net.co)\n            train target patterns\n        epochs: int (default 500)\n            Number of train epochs\n        show: int (default 100)\n            Print period\n        goal: float (default 0.01)\n            The goal of train\n        rr float (defaults 0.0)\n            Regularization ratio\n            Must be between {0, 1}\n        \n    '
p169
sbsS'connect'
p170
(lp171
(lp172
I-1
aa(lp173
I0
aa(lp174
I1
aasS'errorf'
p175
(ineurolab.error
SSE
p176
(dp177
bsg65
g18
(g19
(I0
tp178
g21
tp179
Rp180
(I1
(I1
I2
tp181
g28
I00
S'\x00\x00\x00\x00\x00\x00\xf0\xbf\x00\x00\x00\x00\x00\x00\xf0?'
p182
tp183
bsg72
g115
sb.