ccopy_reg
_reconstructor
p0
(cneurolab.core
Net
p1
c__builtin__
object
p2
Ntp3
Rp4
(dp5
S'layers'
p6
(lp7
g0
(cneurolab.layer
Perceptron
p8
g2
Ntp9
Rp10
(dp11
S'initf'
p12
cneurolab.init
initnw
p13
sS'ci'
p14
I46
sS'co'
p15
I14
sS'cn'
p16
I14
sS'inp_minmax'
p17
cnumpy.core.multiarray
_reconstruct
p18
(cnumpy
ndarray
p19
(I0
tp20
S'b'
p21
tp22
Rp23
(I1
(I46
I2
tp24
cnumpy
dtype
p25
(S'f8'
p26
I0
I1
tp27
Rp28
(I3
S'<'
p29
NNNI-1
I-1
I0
tp30
bI00
S'\x00\x00\x00\x00\x00\x00\x00\x00\x00\x00\x00\x00\x00\x00\xf0?\x00\x00\x00\x00\x00\x00\x00\x00\x00\x00\x00\x00\x00\x00\xf0?\x00\x00\x00\x00\x00\x00\x00\x00\x00\x00\x00\x00\x00\x00\xf0?\x00\x00\x00\x00\x00\x00\x00\x00\x00\x00\x00\x00\x00\x00\xf0?\x00\x00\x00\x00\x00\x00\x00\x00\x00\x00\x00\x00\x00\x00\xf0?\x00\x00\x00\x00\x00\x00\x00\x00\x00\x00\x00\x00\x00\x00\xf0?\x00\x00\x00\x00\x00\x00\x00\x00\x00\x00\x00\x00\x00\x00\xf0?\x00\x00\x00\x00\x00\x00\x00\x00\x00\x00\x00\x00\x00\x00\xf0?\x00\x00\x00\x00\x00\x00\x00\x00\x00\x00\x00\x00\x00\x00\xf0?\x00\x00\x00\x00\x00\x00\x00\x00\x00\x00\x00\x00\x00\x00\xf0?\x00\x00\x00\x00\x00\x00\x00\x00\x00\x00\x00\x00\x00\x00\xf0?\x00\x00\x00\x00\x00\x00\x00\x00\x00\x00\x00\x00\x00\x00\xf0?\x00\x00\x00\x00\x00\x00\x00\x00\x00\x00\x00\x00\x00\x00\xf0?\x00\x00\x00\x00\x00\x00\x00\x00\x00\x00\x00\x00\x00\x00\xf0?\x00\x00\x00\x00\x00\x00\x00\x00\x00\x00\x00\x00\x00\x00\xf0?\x00\x00\x00\x00\x00\x00\x00\x00\x00\x00\x00\x00\x00\x00\xf0?\x00\x00\x00\x00\x00\x00\x00\x00\x00\x00\x00\x00\x00\x00\xf0?\x00\x00\x00\x00\x00\x00\x00\x00\x00\x00\x00\x00\x00\x00\xf0?\x00\x00\x00\x00\x00\x00\x00\x00\x00\x00\x00\x00\x00\x00\xf0?\x00\x00\x00\x00\x00\x00\x00\x00\x00\x00\x00\x00\x00\x00\xf0?\x00\x00\x00\x00\x00\x00\x00\x00\x00\x00\x00\x00\x00\x00\xf0?\x00\x00\x00\x00\x00\x00\x00\x00\x00\x00\x00\x00\x00\x00\xf0?\x00\x00\x00\x00\x00\x00\x00\x00\x00\x00\x00\x00\x00\x00\xf0?\x00\x00\x00\x00\x00\x00\x00\x00\x00\x00\x00\x00\x00\x00\xf0?\x00\x00\x00\x00\x00\x00\x00\x00\x00\x00\x00\x00\x00\x00\xf0?\x00\x00\x00\x00\x00\x00\x00\x00\x00\x00\x00\x00\x00\x00\xf0?\x00\x00\x00\x00\x00\x00\x00\x00\x00\x00\x00\x00\x00\x00\xf0?\x00\x00\x00\x00\x00\x00\x00\x00\x00\x00\x00\x00\x00\x00\xf0?\x00\x00\x00\x00\x00\x00\x00\x00\x00\x00\x00\x00\x00\x00\xf0?\x00\x00\x00\x00\x00\x00\x00\x00\x00\x00\x00\x00\x00\x00\xf0?\x00\x00\x00\x00\x00\x00\x00\x00\x00\x00\x00\x00\x00\x00\xf0?\x00\x00\x00\x00\x00\x00\x00\x00\x00\x00\x00\x00\x00\x00\xf0?\x00\x00\x00\x00\x00\x00\x00\x00\x00\x00\x00\x00\x00\x00\xf0?\x00\x00\x00\x00\x00\x00\x00\x00\x00\x00\x00\x00\x00\x00\xf0?\x00\x00\x00\x00\x00\x00\x00\x00\x00\x00\x00\x00\x00\x00\xf0?\x00\x00\x00\x00\x00\x00\x00\x00\x00\x00\x00\x00\x00\x00\xf0?\x00\x00\x00\x00\x00\x00\x00\x00\x00\x00\x00\x00\x00\x00\xf0?\x00\x00\x00\x00\x00\x00\x00\x00\x00\x00\x00\x00\x00\x00\xf0?\x00\x00\x00\x00\x00\x00\x00\x00\x00\x00\x00\x00\x00\x00\xf0?\x00\x00\x00\x00\x00\x00\x00\x00\x00\x00\x00\x00\x00\x00\xf0?\x00\x00\x00\x00\x00\x00\x00\x00\x00\x00\x00\x00\x00\x00\xf0?\x00\x00\x00\x00\x00\x00\x00\x00\x00\x00\x00\x00\x00\x00\xf0?\x00\x00\x00\x00\x00\x00\x00\x00\x00\x00\x00\x00\x00\x00\xf0?\x00\x00\x00\x00\x00\x00\x00\x00\x00\x00\x00\x00\x00\x00\xf0?\x00\x00\x00\x00\x00\x00\x00\x00\x00\x00\x00\x00\x00\x00\xf0?\x00\x00\x00\x00\x00\x00\x00\x00\x00\x00\x00\x00\x00\x00\xf0?'
p31
tp32
bsS'inp'
p33
g18
(g19
(I0
tp34
g21
tp35
Rp36
(I1
(I46
tp37
g28
I00
S"\xa8<\xc4\\h\x15\xb8?i6\xdd\xf8\xf7\xd6\xb1?\xc5}-\x93E\x0e\xb0?\x04\x84\x14\xf7\xb5L\xc6?\xfb\x18\x9c\x8f\xc1\xf9\xc8?\x04\x84\x14\xf7\xb5L\xb6?\x18Z\x05\xc6\x9e\xf2\xb0?\xb1\xa7<\xc4\\h\xc5?\x9d\xd1K\xf5s\xc2\xaa?\xf9\x18\x9c\x8f\xc1\xf9\xb8?\x9e\xd1K\xf5s\xc2\xba?\x7fNX\xc3;\xa3\xc7?u\xe3\xdf[GP\xca?\xdb\xb6m\xdb\xb6m\xdb?\xeek\x99,r\x80\xe0?\x7fNX\xc3;\xa3\xc7?\xf9\xf7\xd6\x11\x94f\xd3?U?'\xac\xe1\x9d\xd1?\xf0\xad#(\xcd\xa6\xcb?lxg\xf4R\xfd\xcc?L\xf5s\xc2\x1a\xde\xc9?\xf9\x18\x9c\x8f\xc1\xf9\x98?i6\xdd\xf8\xf7\xd6\xb1?\xd1*0\xf6\x94\x87\xc8?7\xdd\xf8\xf7\xd6\x11\xc4?\xb1\xa7<\xc4\\h\xc5?\xda\x95\xa8]\x89\xda\xd5?\xee\x8c^\xaa\x9f\x13\xd6?_\xcbd\x91\x03\x84\xd4?\xfb\x18\x9c\x8f\xc1\xf9\xa8?\r\xef\x8c^\xaa\x9f\xa3?\x0e\xef\x8c^\xaa\x9f\xc3?\xbb\x12\xb5+Q\xbb\xb2?\x04\x84\x14\xf7\xb5L\xb6?\x0e\xef\x8c^\xaa\x9f\xc3?8\x1f\x83\xf318\xbf?\xbb\x12\xb5+Q\xbb\xb2?\x9e\xd1K\xf5s\xc2\xca?\xa6\x1b\xff\xde:\x82\xd2?\xda\x95\xa8]\x89\xda\xd5?B\x8a\xfbZ&\x8b\xcc?L\xf5s\xc2\x1a\xde\xc9?-r\x80\x90\xe2\xbe\xc6?i6\xdd\xf8\xf7\xd6\xc1?C\x8a\xfbZ&\x8b\x9c?\xc5}-\x93E\x0e\xb0?"
p38
tp39
bsS's'
p40
g18
(g19
(I0
tp41
g21
tp42
Rp43
(I1
(I14
tp44
g28
I00
S'\xe7:=\x17;\x02\x10@\x1c \x14|\x01$\x02\xc0\xfe\xae\x9f4\x84\x11\xf6?{\xae\xa60\xf9O\x17\xc0\xf8s?\xcb\xcdh\xf1\xbf\ny\x9d\x88\xeb\x91\xd4\xbf\x16\x95=l\xdd\xdf\r@\x03\xed\xe7g\xf0\xe3\xe4\xbfZ\x84\x00\xfa\x154\x17@\xea\x89DF@+\x05@\x0b\rF\xc9\xa0r\xf5?\x9f\x00\xc7\xfc\x13v\x05@\xaa\xebWS+%\x08@\x05\x84\x87\x9d`\xf0\xfd\xbf'
p45
tp46
bsS'np'
p47
(dp48
g21
g18
(g19
(I0
tp49
g21
tp50
Rp51
(I1
(I14
tp52
g28
I00
S'"\x8d\x18\x97\x88V\x14@(s\xb2\x18Y\x05\x0f\xc0\xaa]\xaa\xe5[|\xee?\xee\xcf\x9aavP\x1d\xc0\xc5a\x92\xeb\x9f\xa0\x08\xc0\x93\x06\xb4\xfb\x97\xbe\xe3?f\xf4\xf2Q\xe4\xec\x13@\x1d\xe8\x8d\xc8\xd2\r\xf0\xbfD\xbb\xcab\xb1\xfd\x1b@\xf1\xcb\xac\x8a\x06\xf9\xf5?\xe1M\t\x1e\xe6\xc6\xeb?\x8e\xcc?^\x7f]\x05@\xe5\xb6\x91\xec\xda\x87\xf1?\x90F\x1c\x029\x8b\xe7\xbf'
p53
tp54
bsS'w'
p55
g18
(g19
(I0
tp56
g21
tp57
Rp58
(I1
(I14
I46
tp59
g28
I00
S'*\xd8oW\x13\x94\xde\xbf\xe08l\xe7\xb4\xff\xa6?\xde\x8b\xb0s*\xac\xf2\xbf\x1f\x01 \xa9\xac\xa5\xe1?\x8d\xff)\x01==\xcf?d]\x85\x10#7\x02@M\x08\x8d\xa6\x16\xdf\xf2\xbf\xed<\x0b`H\xbe\xe8?Op\xe00y\xe3\xba\xbf\xa2\x9e\xf6\xd4\xd6x\xf1\xbfi\xed\x05\xbc\xa4~\xfa?\x12f\xe2\xdb^\xf9\xe3\xbfs\x8e\xd3\n\xeb\x98\x84\xbf\x1c\xa7\x83\x19\xbe\xac\xfc? \xdb\xb8^|P\xd2\xbf\x1c\xc2Z\x1c\xcd\x08\x98\xbfa\ru\x05\x0cE\xd9?\xafN\xf7h\x1d\xd2\xef\xbfU\xd6\x84>U\xf6\xe7?=\xab\xc3\x93\x90\x7f\xea\xbf\t\xfbk>\xc6\xb4\xb0?\x1e%\xdb_\xe2!\xf0?b\xf2`vTF\xd4?O\xd7\t\xd0[s\xce\xbf\xd9\x0f\x13\x9f\xba\xc2\xe9\xbf\x10;\xe936\xda\xe0\xbf\xf6Uc\xecA\x90\xe3?\xcb\x8f\xc6\x1e\xf6\xae\xef\xbf\x8e\x16#\xc6\xfe\xfc\xf0?\xf3Ek\x8a.c\xfd\xbfv3\xa2\x8f\x81\x97\xfa\xbf\x18\xbf\xa9`t\xc8\xc2\xbf\xc1f?\x82\x1a\xe7\xe3\xbf\xdd[E\x0e \x95\xe9\xbfR\x14\xa8\xae\xd0\x04\xec?k\xdc\x93\x8c}b\xea\xbf\xa4\x83[\xa3ek\x04\xc0\x88\xbd\x88\xeb\x94\x06\x95?\xc0\xf5\xf6\x18\xc5&\n\xc0\xec\xe5\xd6-\\\xf7\xe1\xbf\xcc\xe0\t\xfbN \xcf\xbf\xf9gnj\x8a\x95\xd1?\x1e\x05\xcaA2\xbd\xca\xbf!\x89\x94M`X\xf0\xbf\x8a"\x00\xee\xe7\xb6\xc9\xbf\xc4\xdf\xa1,\x06H\xc9?)\xeb\xc0\xf6_\x9e\xc7\xbf\xdd$\x92\x87k\x92\xf6\xbf4\xda\x1cc\xee\xfd\xc3?<\xe8\x87\xd4\x86g\xfd?\xcb\x82\x0b\xc7\xd1\x18\xd8?\xd4\x80y\xb7g\xde\xe6\xbf\'X\xc0t\xfb\x93\xee?\xf2\x85/\xb2r\xfa\xb4\xbf^pR$\xaf\xb7\xf4\xbf\x06\x85lj\xd8\x14\xda?\xe8\xb7\x00;\xb4\x92\xf1\xbf\xd3\xea\x8a\xeb\x99\x7f\xd7\xbf\xb2\x19\xd8\xac\n \x00@\x8b\x08\xb4@D \xed\xbf(*\x10\x11\x8dj\xec\xbf\xaf0\xec-\xbf:\xe0\xbf\xd2\xf8\xde!/\t\xf6?\x0c\x0b\xe5\xe4\x15\xfc\xfd?\x11\xa4t\xaa\x8b\x0c\xe7\xbf\x87\xedYL\xc4\xb7\xf7?g\xc5Y\xe9\xf1+\xdb\xbf\x82\x9d\xf5?f\x87\xd6?\xa6\xeb\x18(\xce\xda\xda\xbf\xcbZw\xe0\x8d\xc0\xe1\xbf\x85\x10\x00W\xd6s\xe4?,C\x88\x97\r\xae\xe2\xbf^\x97xbK5\xed?\x9c7\x10:f\xd0\xed\xbf\x17\xa7\x0b7\x0b\xde\xf9?k\xc2\x1c[@\x8c\xe2\xbf\xf9Q\xe0\xd4\xcak\xf8\xbf \x19d\xa9\'L\xe4?\xbf\r\x9d\xdb!\xde\xe5?\x06\x05\n\x0bf$\xe4?*D\x91\x86\x19\x9b\xe0?\xafMfc\x00N\xf0\xbf\x82l\xdb\x13V\xdd\xf9?\x0b6E\xb2)\xa3\xef?\x9c\xbf{v\xb4h\xb8?[\xcc\x9c`\x16\xf9\xeb?\xbe\x9a\x8e\xc66\xab\xd4?\x95\xf3\x8f\xc4p|\xec?v\x855)\xb2\xc9\xf2\xbfr\xd7\xe5\xf1\xb1E\xc8\xbf\xdf\xa2\xa3D\xc5\x83\xe1?b\x8c\x8e\xbc\xab\xa8\xf7\xbf\xf2S\xa3+\xdc0\xfa\xbf\xfe\xb9\xdb\x9d\xf9\x07\xfa?\'m*)\xe2A\x81\xbfx\xe9\xc4\x9d:Y\xf0?.\x02\x04\xda\x8ch\xcc\xbf\x06\x92\xb5\xef\xc6\x03\xd6\xbfJ\x1e\xbb\xab\x12*\xfa\xbf(3\xc4=I\xb6\xe9?Ki\\w\x85Q\xd9\xbf%[\x13\xfd\xdc\xa6\xcd\xbf\xd1\xc69\x85\xe8\x10\xd9\xbfw\'\xdf\xd1v\xe9\x00@[\xccDv\xa7\xab\xef?z!\xb9\x1a\xe1T\xf7\xbf\xf2\x97\x88R\x89\xb8\xc7\xbf\xa9\xb2Y\x14\x87\x13\xea\xbf$\x99q\x85\xf6t\xe2\xbfJ$\xc6\x8e\x13\xfc\xef?_\xfe\xcc*:.\xf3?\xed\x02\xfc\xd1\xbf:\xe6\xbf3\x1aR\x99/\xdd\x86?\xf0|\xa6\\\xa0\x90\xf0\xbf\xa51\xef`\xc0\xdf\xdf?\x07}\x15#\xee\xd7\xe5\xbf;Q\xbb^\xa1\x0f\xed?;\xfe-\xd8\xad[\xe5\xbf<\x008;\x14\xaa\xf2\xbf\xa4"\xd1\x8be\xe7\xf4?6D\xbb\xa4\xf2\xb0\xc6?\xc2\x0b\xf2\xfft,\xba\xbf\xc6\xb0*\xe9\x0f-\xed?\xf7OL\xff\x0b\xab\xf0\xbf2\x96\xd6~\xf5x\xea?EX\x0c\xd5\xc0/\xe1?\xb0\xa8\xb1\xb7\xa3f\xee?\x84(O\xef9j\xff?U\xc3\x91o)0\xeb?\xcb65\xe9,\x0e\xf4\xbf+{\x01\x93\x17f\xda?~Nv\xce\xe5s\xf3\xbf\x8a\xcc&\x98\x9dM\xf5?y\x81\x87\x00$\xd6\xd6?Z\x06\xdc\xe7\x1cR\xfb?5\x87|\xef*\xec\xee\xbfd\nY\x8fv\x14\xea?M\xdbG\x95\x1b\x88\xe8?\xc8lr-,\x9e\xe3?]\x98\x88Z8r\xe1?a\x981$\x16D\xe4\xbf1#\xb8?}\xa9\xe2?\x02\x9aY\xb8\n\x9e\xdb\xbfW=\x8b\xbe\xf9_\xdf\xbf8\xef\xaev\xea\x01\xd5\xbf\x07\xcb&6r]\xdc?\x0b\x1d\xb8_t\x1f\xab\xbf}\xbdY\xf2\xc1;\xc5?\x00\xd2\x13\x1cF\xe9\xa5?\xac2K\xc3\x0c\n\xdb\xbf\x9d,\x19\x8c\x86]\x9a?kb\x05\nr\xc2\xc3\xbft\x00\x8b\x9d\xd6\xc0\x90?\xdd\xf7\x99\xb3<\x01\xbf?G\x16\x8eT\xdf\x7f\xe4?&\x93\xa8\xa8\xb8*\xd5?\xf9\xc2(B\xd27\xe5?{\x00\xf7\x86\xaeL\xbc\xbf\xbd\xfa\xc5z\x9eq\xe1\xbf+w\x03ue:\x9d?2\x96\xc4\xaez\x19\xae\xbf\xc2\xcct8\xeb\n\xe2?\x18w\xd0w\xa0s\xda?\x18u\xac\x95F[\xe2\xbf\xe1%C]|\xd7\xda?\xfc)n\xcf*\x18\xe5?iXQ\x96\xf5W\xb6?\xe0\xef\x08}\x80X\xe2?\x07\xb0\xc3\xd70\x95\xd1?\x83\rB\xd4\x11\xbe\xce?\x9dhG.2W\xe3?\xf8\x92\xfd\xa1#\xec\xd0?\\fy~`\x0f\xdf\xbf\xb57\xfb(\xf4\xd6\xdf?\x95\xba4\x19gE\xe3\xbfc\xed.\x07\xe3\xd1\xe1?\xac\xb5\xbdc]\x8e\xb6?\xac#\x1f\xc6h*\xe4?\xb5f0\x9c\\c\xe0?f\x92\xc9:r-\xd1?\xe8_\xa8G\x8c\xb5\xdd?4}\x18\xc9/\x9a\xe2?\xd74]/A*\xc7?A;-\xfc\xd6\xaa\xe2\xbf&o\xfaN\x95\xfb\xf4\xbf\x81\xc5\xe6\x1ev\xec\xf1\xbf\xb7\xa9\x857\x05\xb8\xf6\xbf\x05}\xe4\x1f\x9c\xcc\x05@@\x9c\x96\x92\x15S\xf0?\x92\xe2$H\x90\x80\xf8\xbf\x7f$\x1fl\xecD\xc6?yv6O\x90N\xf8\xbf\xff#M\xee\xd8\xad\xf1?<]w\xcd\xe6\x1c\xfb?\x043x\x01\xb0\x7f\x04\xc0\xa7\x11\xfc\x0f#\xf6\x01@\xce\xdd!\x12LU\xfd?\x12d\xd2M\x97=_?\x84\x8f\xcd\xcbF=\xc8\xbf\xfe\xa5\xf7\x9a\xeek\xf0\xbfjq\xbf\x18\xe4\x9d\xea?d~\'\x98\x14j\xfc?\xa8\x9c\xe7\xf5\x95\x1c\xc7?\xc6z\x0bu\x02\r\xf4?\x08\x9a\xeb\xc4\xf1*\xe0?3\xe8\xc0U\t\xda\xf4\xbf\x7f\xfe\xdc\x89\x89\xc3\xce?\x866\xdc\x02E\xb0\xef?f\x11|&S\xf2\xe6?2\xf5E\xbbd\xd5\xed\xbf8S\xe0\xb4\x14\x96\xdc\xbf*U\x88\xa0\xe0\x86\xbd?\xbc5\xc9\xf6\t\r\xf4?>\xb5\xc1\x99\xd5l\xe0?\x88\x88Bc\xb6\xd5\xea?\x13\x01\xa8\xf4\x12\x99\xef\xbf\xb3+B\xf6h1\xf8?4\x96\xe9\x17\xfci\xdf\xbf\xb3\x058t\xa4~\xd5\xbf\x08\xd5\x1a\x1f#5\xe4?\xdb\x88\xd4M\xc0h\xbe\xbfu\xf0\xe9\x0e\xbf\x00\xe1\xbf\xc4x\xe1\x15\xe2\xf1\xe9?\xa5).\x12,=\xd3?\xf3\xac\x8c?r\xdf\xe8?FDk\xdd\xb9\x18\xf9\xbfE%\xad6\x9cE\xcb\xbf\xe9]0\x1d\x8d\x17\xe2\xbf\xf9m^Or\x8e\xc8?\xa9Og\xe7"\x99\xd9\xbfw\x0b\x86D\x01\x99\xb6??\x87\xd5\x89V\xed\xed\xbff\xab\x87\xa4\xb3B\xe1\xbf\xb1\x8a\xe9\xa4\xc0\x16\xe1?m\xf7\xb8i\xd1\xb5\xe6\xbf\xfc\xe7\xdb\xe2\x92;\xd6\xbf\x90E&X\x99\x0f\xf9?\xca\xa0\x03\xb7\xc91\xd7\xbf\xccwOA\xc7Z\xf0?0=r\x97\x96\x06\xf4?\x8f\x12\xbc|.\xe0\xd2?\x9f\xfc#\xba\xb8\xc0\xd8\xbf(\x08\tf\xd5\x1a\xf9\xbf\x0c\x8a\xf9\xd2\xe3n\xe4?\x05\x9e`\xb1\x06\x9e\xe0\xbf\x89\xfd\x95\xaa\xb3*\xe7\xbf\x8b\x07\xe6\xad\x04"\xc4?s_e\x01\xe7\xad\xde\xbfyc\xbc*:k\xd0\xbf?3@mib\xe1?cf\x84ZC\x8a\xde\xbf\xf5\xd7\xa7\x1fp\x98}?\xd801\xf17h\xd2\xbf\xf5a\xa3\xf3\x9d\xbc\xdb\xbfV(\xdd\xa6\xc0y\xc6\xbf\xc0O\x97\xe4P\xdb\xe4\xbf\xea\x08\xeb\xbd\x11\r\xdf?\x80\x04\x15\xa0i=\xb1?\xbdO|\xee\xa7\xa0\xed?S8~\xd7\x85%\xeb\xbf\xf8\x1a\xe0GN\x86\xc1\xbf\xfe\xad\x8d\x8f\x19)\xbf\xbf\x9a\xb1\xed\xb3\xe6\x8e\xf1\xbf\x8e^\x89\x1f\xa3\x92\xea?\x87>\xbd\x11\xb2\xba\x99?\x888\xe9E\xef8\xd2\xbf\x00\xf6\x16\xa62\xa7\xf3?\xc7\xfe\x9f<E\x1d\xbf\xbf\xfc\xa4\xf1\xad\x00\x90\xef?\x16\xe8r\x96$_\xef\xbf{\x9b\xbbU?\x81\xe3\xbf@\x8c\xb7\xae\x9b\x9c\xe3?\xc5\xef\xf4\xfb\x7f\x9f\xf4\xbf\xad\xc8\xf0$Yl\xfb\xbf/\xbf\x02\xba\x04\x95\xf1?\x0f\xf5Q8\x02\r\xf8\xbf\x87\x01\xe5N\xef\x13\xcc?g\xb9qs\xa9\xa9\xd1\xbf\xb3\xe1rA?\x95\xe8\xbfU\xd0\x89\x92B\xae\xe6\xbf\x1d{z\xcaV\xc1\xed?G:T\xc1K\x10\xf2?;\xfd\xbd\xeeV@\xe4\xbf\x15r\x85n\xceO\xd4?q\x83\x1d\xbef\xc6t\xbf\xb1\x96[(\x8e\x04\xf0?5\x8dN\x86\xdc~\xe8?\xbfnG\xd4\xef\x83\xd6?&{@%G\x1b\xc7\xbfe\xbe\xf1\xff\xea2\xed?}\xe5vlS\xb3\xd8?\x01\xa9*-\x05\xa7\xce?\x97P\xda\x92\x1d\xc7\xd1\xbf\x84C\xe8O\x11\xdf\xf1\xbf\x19\x10\x1a\x89\xc8\xb8\xe3?\x8a3q>\xf6\xa3\xeb\xbf\xb8\xac$\xbd[+\xe0?\x13On\xc89\xb1\xf1?\xf0;\xcd\xd7K\xb6\xa8?+\x1c\xee%\xc1=\xe6?]!\x0e\xe8\xe7\x9a\xf0\xbf\x90 \xf6l.^\xe7\xbf\xa2\xad\xfd%\x87B\xc7?\xa1d<\xd8\xb3\x17\xc2\xbf\x9f7\xc9\xd1 \xb6\xec?\xd7\xa1\xc5|]\xfc\xed\xbf3\x15\xecT\x9e6\xf0\xbf\xa1\x80\x97\xaf\xd8\x88\xf0\xbf/\xea\'\xc9"e\xc8?d`q\xe9\xfcg\xe3\xbf\xa6Z&;a3\xc7\xbf\xd6u\x00\xe5\xabD\xe4\xbf\x95\xf9\xa4@\x80\xc2\x03\xc0\x9c\xe5\xd1\xd0\x86x\xfc\xbf\xf8\x0fA\xbc\xf0\xcf\x02\xc0\x1d\x0fJn\xa0\xd3\xf3\xbf\x96\x08\x19\xc2\x1e\xce\xcf\xbf\'\xb8\rS?\x01\xe1?\x14\xb5\x0f\xd5\x10S\xce?{3\xe54\xd2(\xe6\xbf\xb7\x0e\xe4\x1a7\x96\xe4\xbf.q\xee\x8a\xcf\xe5\xdc?\xa6\xeb\xc3\x07\xe0\xb4\xd1?\x86B\xfaq(\x9b\xcc\xbf\xdeM\x82\x90obm\xbf\xda\xf5$@y\xd6\xd7?\xcc\xbbS\xa6@\x03\xb6\xbf\xef\xdc\xfc&\\>\x91\xbf\xe4\x96\x8fu8\x0e\xc0?\x0c\xe0\xf6a\xe0P\xca\xbf\x80\xba\xe76\x90\x95\xef?\r\x9f|\x1f\x1e\x9d\xe0?\xa3\x9a\x01\xabI"\xe9\xbf\x04\x85\xf05\xca\x00\xf0?\x03\xeb$3|\x01\xd6\xbf\x9d,\xdfl+\xd4\xa3\xbfBP\xf7\\P\x80\xda\xbf\xdc\x12\x9a\x93\xb1\x97\xba?\x81\xcb\x91\xa6\x9a\xb3\xcd?\xd1\x14\x7f\xa9\xbb\xf0\xbc?k\xf8Q\xcbQz\xd2?F\xe0\x13M5_\xd2?\x18j\xed\x05\xe5I\x95?\xfbk\xbd\n\xf2\xbf\xe6\xbfk=i\x15\x8e_\xef?}\x0c;=\x04\x08\xca\xbf8\x0cZZ\xfa\xd0\xc4\xbfu+\xd4d\n\xe0\xed\xbf)\xe1JO\xb7\xac\xb9\xbf\x13NB\xe5\xe6\xfb\x8d?\x9e\x01\x85\xb4\xe0\xf6\xf3?\\\rP\xff!\x1c\xf4\xbf\x1b\xe1\xb2RoT\xd8?Z\xa5c\xda\xb6c\xe5?\xbbThH\xbet\xe0\xbfI\xccs\x82\x1c\xe7\xe4?\x8a\xda\xa7\x94\xc9\x03\xcf?\x9e3\xb2\x92:\xaf\xeb\xbfTQ\n\xf5\xc4B\xdc?\x86\xdd"\xb8r!\xc3?\x89z\x02\x18\xae\x0c\xaf?]\x88\x8c\x03\xb0\xa1\xd6?6\xe8q\xa1\xcc\x95\xdd\xbfXti^\xb1\x95\xb3?\x18\xd1\x7f\xc2a0\xad\xbf\xc8G\x1e\xbcXl\xea\xbf%\x82tC\x19\x9a\xc6?!2\x94\xd6\xce\x80\xe3\xbfh\n4\xa9\x94&\xe6\xbft53\x00\xf0e\xdd\xbf\x04Y\xda\xf4C[\xe3\xbfur\xd6!\xca}\xd0\xbfZ>K\x8fF(\xe7?(\xfa\xbeD^\xd4\xd4\xbfpP0:\x0f"\xce\xbf\xf0\xd9L\xce\\*\xb9?\xf0\x98\x16\xae0\xcd\xb2?\x12\xbc\xc3\x93\x1c\xc6\xe1\xbfS\x8b\x16OrF\xdd?veT\xb6\xa6\x07\xd8\xbf\xac"\xcb\xd1Z,\xc8?\x93\xbeO\xc80O\xe3\xbf\xcdbg\xe7\xc3\xc4\xe0?c\xeb\x18\x877i\xe7\xbf\xec6\x15O>\xb2\xd3\xbf\xa5\xbe\x90\xbc0\xae\xe4\xbfz\xe6\x19!\xd5,\xd7\xbf\xe4V\x8bw\xba{\xc1?\xf4\xa9%\x92\x8b[\xce\xbf;\xebp\xe5b\xb2\xd6\xbf\xaaU\xa2\x7fX\xb1\xb2?FV\xc2\x13-\xd4\xda\xbf\xc7\xbb\xca\x84)%\xdf?w\xa3ph\x9d\x0f\xdf?\xa7m\xf7{3\x8a\xd1\xbf\x06\xad\xbfr\xaa\x19{\xbf\xd0\xdf\x9f\x11\xfeR\x9d\xbf\xd4p\'\x97\xeaT\xe1\xbf2)(\x8a\xd9e\xe5?D\xd7\x1am5\xb2\xd3?#/\xf7\xb6\xa9\xa8\xc2\xbf.\xf1N\xa0\x92E\xe0\xbf\xb2;\t\x84?f\xc3?\xaf\x19\xd8\xf0v\x8d\xab\xbf\x01\x90\xca\x0f\xd9o\xdc\xbf?m\xc8\x06\xa9\x9c\xe5\xbf\x9eb\xc0\x8e\x81~\xb4\xbfN\x15S\t\xff\xc3\xe5\xbf\xc8B(\xeb\xc5\xa2\xd9?p_cw\'&\xe8\xbf\xa5\x18\xeee\xa0^\xd5\xbf\xf4\x8f\xba?\xc4\xb1\xc4\xbfN{l\xfc{[\xd7?\xef\xa71\xaf\x11\xc1\xd4\xbf\xca\x8b.\xf1\x1b\xd8\xd9?\xa4}\x15\xdab.\xfc\xbf\xd3\xad\xc6\xb6}\xe1\xbd?\x05\\\xa1\x9d\x8aq\xe7?\x98\x11\x10B\x9e(\x03@\xa2\x05\x17\xc1K\xab\xdd?}\x12m\xcf\xdc\xad\xf6\xbf\x1c\x8cA:\xa6\x17\xf1\xbf\xd65H\xf1xl\xa5\xbf3\x9a\xe5x\xcf\xdf\xf1\xbfi\x15^\xc5\x8e\xc6\xf6\xbf\xb9XIq\xf4\xff\xfb?y\xc4p|\x83[\xe5?\xe7\xf9fb\xc5\xdc\xd9\xbf\x8e>3\x97\xc5\x00\xb3\xbfX\nDm1(\xf6?V\xd5\xaa)H\xd3\xf2?\xf9a\xf2-o\x18\xe3\xbf\xf4\xa5\xf1tX|\xed?\x17\x855J\xbc\xb9\xc2\xbftS\x81\xe2{=\xd4\xbf\x13\xac\xba\xdd\x1a\x9d\x81\xbf3?D\xbf\xb6\xf1\xef?\xfe<\xb6\x9d\xb8\xaa\xf1?\xea\x89\x92\\&_\xde?ll\x0e\xdd\xe5q\xb4\xbf\x8d\xbd\xcb7=|\xef?w\xd2 \xa1I\xfa\xfb\xbf\xed_M\xd4g\x1f\xd1?\xc6\xd9TB\x7f<\xd3?\x07e\xf6G=\xfc\xe6?]\xba\xf0\xbd\xc2x\x05@\xd5\xc9\x8e6hN\xb9\xbf"\xfa\x84\xa9je\xd8\xbf\x9bu\xd5\x84\xd1n\xb8?:\x8cnHkb\x01\xc0L\rL\x92\xbb\xd6\xa8\xbf!\xea\x15\xdd\xc5\xd6\xe3\xbf\xf9{3I)c\xea\xbf\x08L\xa9I\xc0\x1c\xf9?B\xa5\xfc\x95\x9cT\xde?\x93\x13G\x03\xed\x1c\xdd?H0\x080\x17\x0b\xfd\xbfn(\x90[2&\xf3?\x8a\x9c\xa2_*\xa6\xe3\xbf \x9bD\xde}Y\xf0\xbf\xcbk\xc5\\\x1a\x80\xe0?\xb3N9\xca\xfa\x1a\xcc?\xd5&u4p\xef\xf1?\xc4g\xf3\x14\xc4\x96\xf6\xbf\x1d\xb9\xda\xf1\xe1\xf0\xdf?\xf7\xe1\xac\xfe\x97\xbe\xf1?\xa7\xf8\xee\x89\xb0\x1e\xf6\xbf\xfc*\xa2$\xef\xdb\xee?\x97A\x03\xe9r\x90\xe4\xbf\x8c(\xc5\xa0l\xd3\xec\xbf\x84\xc1T?]\xc2\xd2?ZM\x1a(\xd8x\xda\xbf\'\xa5 3K\x97\x8b\xbfy\x14\xd3\x00\x9b\x89\xe1\xbf\x95h\xe0<i\xc9\xb8?H\xe3\x03\x13\x90v\xf6?\xa5C\x80h\xfe\xcb\xc5\xbfue\xda\x7f\x1e\x8f\xd0\xbf[\xf7\xe2\xa7\xf0`\xe2?\xdb\x9e\xe9\xc7`M\xf1\xbf\x93\xd8\x84\x80\xc7\xda\xac?j;;\xb8\xa4@\xde\xbfU\x9flA5\xa0\xed? \xb9\x06\x88X\xcf\xb2\xbf\xca/\x04\x88\xa6\xc8\xe7\xbfw\xe1<ko\x00\xf0?,\xf3\x14\x15C\xcb\xe4\xbf\x14\x85Kp\xc1%\xc5?\xf4\x0b\xd8\xc9!\xb1\xca?}\xfc\xb1\xffuh\xbb\xbf\xcf\t\xc4T\x9e/\xef\xbf\x93\x99\xb4z:\x1b\xf7?5\x03d\xb2\n\x95\xe0\xbf\n\xc4\x00\xdc{\x8e\xf0?\xc4\xc5)\xdcx3\xd5?\x14\xcb\xcaV\x8d~\xf5\xbf\xd1\x9f\xb6kU\x9e\xa6\xbf\xfb\x02\x1f;\xbc\xa2\xc4?\x1a"\xa3\xa9_\xb3\xea\xbf`\xce\xa7\xb7G\x13\x00@s+\xb4\xeb\'\xce\xde\xbf\xd1\xa4\xd0\xf0\xe08\xda\xbf\x06|X{B\xd7\xf0?\xac\x1fN,\x96\xa2\xdb?\xbe\xc2#\x0e\t\xdb\xc2\xbf\xaa#\xf5C\xf1\xb6\xc5?vh\xa5\xcfx\x03\xf4\xbf\xc2\xb3\x0bU\x16\x95\xcc?\xd3\xb5_j\xe3\xe3\xea\xbf/\x82\xc2PVr\xe3?]\xba\x06\x15=\xc2\xe9?\x94\x86\xd7\x9d\xbc\xe7\xf6?|\x98)\x19=\xd6\xf2\xbfE=\xb5\xb0\x17\x0b\xd4?2\x97z\x1a\xb7\xbe\xa2?\xc9\x9a\x8a\xe1\x16\x81\xf1\xbf\x10\x89\xe2\xc7c\xcb\xe9?\xb4\x12|\x1d\x7f\xd1\xd3\xbf&\x1cY\xfc\xe65\xf2\xbf\x94[\xb3\xc5\xe0\xb2\x00@\x9d{\xf3E\x00\x02\x98?.\x7f\x89>S%\xe0?r\x84t\rV \xd0\xbf\xfc\x98\xd4\xbb ^\xd8\xbf\xae\xa0K\xa5\x11h\xce?\xc9\xc2uA|\x88\xe5\xbf\x02g}\\F\x17\xd3?\xcd\xa7\xdc\x1b\x1b=\xb2\xbf\x1b\xff\xa0\xdfa\x0c\xf8\xbf\x1e\x10YD\x13\xdf\xe7?M* {\x82\xe3\xe4\xbf\xdf\xdb\xf2\x90\xc8h\xf0?E\x98\x97D\xcd\xcd\xcc\xbfR\xfau\xd0g\xad\xd9\xbf\xfa\xfd\x9a{\xcds\xce\xbf\x8aOE\xe0\x94\x0c\xde?\xe6\xb5]9\xd1\xef\xe6\xbf\x9d\xbc\xa3~@\xe8\xd7\xbf\xdcf\xa9[\xe0\x9c\xe2\xbf\x15\xfc\x08\x1e\xe8g\xdb\xbfTdmu\x11R\xe0\xbf\x80\xcdZ\xff\x8cX\xea?\x1e\x17jzk\x13\xe5\xbf\x07y\xb2\xaa\x98P\xdd\xbf\xc3\xf3\x10\xa5\xdaj\xeb\xbfT(F\xde\xbf s?\xa4\x86\x0b\x93`\\\xe4?\xc8\xa4\xfd\x85\xaa\x7f\xf0\xbfd\xa8\xad\xedA\xb1\xd4\xbf\x86\x1ba\xd1\xae3\xdd?\xb5\x8f\xbb\xf4\xa0\x99\xd1\xbf\xe3\x7fC\x82\x96\x0c\xfa?\x921\x12W\xb2f\xc6?\xdd\x16[\x98\x94\xc1\xeb?\x9c\xe0\xb7\x8a\xf0\x1c\xe5\xbfC\'V0l\x05\xcf?\xd6\xf0=\x91\x8d\x91\xb6?\x86\xe8\xdbuM\xee\xe9?\x0c\xb6t\xce\xd5H\x01\xc0\x95\x8e\xbd7\xec\x88u?\xefwJ\x10\r\x91\xd6\xbf\xec\xa7\xd1\xc0\xd1\x1b\xe4\xbf\x1a\xf9\xa4&`D\xfd\xbf\x8b\x9c\xf3\xe5\x9b\xae\xfb?\x07r\x8b\xc9C4\x04\xc0\xd09\x9e\x93\x18\xc4\xed\xbfD5A9g\xfd\xf2?nH\xc0\x15\xc5\xc9\xe8?Dz\x1dD\t\xb8\xd9\xbf\xc4=\xea\\.\x1b\xdd\xbfc1\xff\x0c\x8f\x19\x0b@l\xdb2m0\x1f\xf0?\xd5\x06\x9f\xf7\x97\xca\xf1?\xb2\xc6\x17m\xa8,\xe1\xbf\x95\xb2I\xca\xfa\xd5\xe4?\xa6\xe7|@\x84n\xfe?{\x14`\x13P\xa9\xdb?\x83\xa9\x0b\x15\x06\x11\xe6\xbf\x88.r=\xc9\r\xfc\xbfS\xe4\xaf\xbb\x04\x9f\xd4\xbfw\xbd\x1cV8(\xf9\xbfpPF\xad7\xf8\xe5?\xb9h\x05\xc0\xa7\t\xf3\xbf\xf0\x8d\x88\x0f\xf2\x01\xe3\xbfW\'%5\x81#\xdb\xbf\xcb\xaf\xb8sW,\xa5\xbfhz\xa3)\xec\x97\xd8?F\x8e1\xc8\xfcs\xec?&}\x97\xa0<w\xe7\xbf\x13\xdd\x98\xd6\x1eJ\xd4?3\x9fj4\x7f\x1a\xe0\xbf\xd8\xabq\xddb\x15\xfe?\xa7\xbcWb+q\xe6\xbf$\xcb\xa9%\x064\xea?\x16\x96\x80/\x98\xe4\x15@\xb4\xfey_\xf12\x04@\xa2.\x9b\xb8\xebV\xf6?\xe8Z<\xe2\x87\xaa\xdd?V}3\x8f\xb5\xa8\xaf\xbf\xbb\x1d\xc6\x11\xcd\xd8\xeb?\xbc\xe1/[\xc4\x1a\xcd?\xfd6\x98+\xef\xad\xf1\xbf\xe5$R\xe0\x13>\xf9\xbf~+S\xce(;\xd8\xbfa<E\xec\xa6\x14\xe9?\xd4=\x00\x96[8\xec?\x1b\xa7U[\xb1\xfe\xca\xbfn\x9eL\xa1\x13\x18\xf0?l\xec\x1e\xa0bZ\xf7?\'\xfe\x87\xf7\xe2\xa6\xfb\xbf\xddxM\xd8\xb9\xdb\xeb\xbf\x86{\x06\xc4\xb5g\xd5\xbf.\x13\x93\xf9/\xea\xdc?$\xac\xcd?\xecx\xec\xbfv\xd4b\xcb\xd7\xdf\xee\xbfv\x06\x18\xdd\xe1\x84\xc4?lC!M.\xcd\xc2\xbf&\xf0\xf8f\xfe\xdc\xcf\xbfF2\xabp\x84\xdc\xc4\xbf\xa2\xc5hR\xe2\xd5\xc4?\xfe5\xa5^\xd7\x1e\xdf\xbf%|\xaa\x93a\x89\xe7\xbfP\x95\x84\xd2[\xac\xd6\xbf\x02\rC\x8a\xd9i\xe7?`\xd6\xcfq\xf3\xfd\xec\xbf\x90A\xcf\x1fO\x9c\xf3?\x00\xc1:"9\xbd\xd0\xbf\xf0\xfe\xc9\xfb\xe6\x06\xc6?\x8b\x8c1\x8bT\xc9\xe9\xbfj~\xc4\xc3\xb5h\xfc\xbf\xaf\xa7\xccP%\xde\xd7\xbf[7\x1b\xb1\x93\x0c\xe8?\xf1X\xd8\xe6\xef\xff\xc9?\xed\x02\xa5d\xeb \xe9?\xdd\xd3\x90\xdd|"\xe0?z\xbe\xb4\xb9\xb5\x06\xd8?\xac`\x10\xa5v\x7f\xed?\xe7\xfa5\xf6\xf2\x15\xe8\xbf\xd0Bi\xd1)\xf0\xe4\xbf\xe1\xbe%\xdc\x9c\x11\xc6\xbf<\x91\xd4dk\x82\xf3??\xecY,\x98V\xef\xbf\xcbd\xf35\x0c\x93\xef?\xf6\xe1\xbe@?6\xd0\xbf'
p60
tp61
bssS'transf'
p62
(ineurolab.trans
TanSig
p63
(dp64
bsS'out_minmax'
p65
g18
(g19
(I0
tp66
g21
tp67
Rp68
(I1
(I14
I2
tp69
g28
I00
S'\x00\x00\x00\x00\x00\x00\xf0\xbf\x00\x00\x00\x00\x00\x00\xf0?\x00\x00\x00\x00\x00\x00\xf0\xbf\x00\x00\x00\x00\x00\x00\xf0?\x00\x00\x00\x00\x00\x00\xf0\xbf\x00\x00\x00\x00\x00\x00\xf0?\x00\x00\x00\x00\x00\x00\xf0\xbf\x00\x00\x00\x00\x00\x00\xf0?\x00\x00\x00\x00\x00\x00\xf0\xbf\x00\x00\x00\x00\x00\x00\xf0?\x00\x00\x00\x00\x00\x00\xf0\xbf\x00\x00\x00\x00\x00\x00\xf0?\x00\x00\x00\x00\x00\x00\xf0\xbf\x00\x00\x00\x00\x00\x00\xf0?\x00\x00\x00\x00\x00\x00\xf0\xbf\x00\x00\x00\x00\x00\x00\xf0?\x00\x00\x00\x00\x00\x00\xf0\xbf\x00\x00\x00\x00\x00\x00\xf0?\x00\x00\x00\x00\x00\x00\xf0\xbf\x00\x00\x00\x00\x00\x00\xf0?\x00\x00\x00\x00\x00\x00\xf0\xbf\x00\x00\x00\x00\x00\x00\xf0?\x00\x00\x00\x00\x00\x00\xf0\xbf\x00\x00\x00\x00\x00\x00\xf0?\x00\x00\x00\x00\x00\x00\xf0\xbf\x00\x00\x00\x00\x00\x00\xf0?\x00\x00\x00\x00\x00\x00\xf0\xbf\x00\x00\x00\x00\x00\x00\xf0?'
p70
tp71
bsS'out'
p72
g18
(g19
(I0
tp73
g21
tp74
Rp75
(I1
(I14
tp76
g28
I00
S"\xe3Z\x7f\x8d\x87\xfa\xef?\x90\x94\xf3\xb8$R\xef\xbf\x87\x0f\x93\xb9l/\xec?$\x88\xea\xa7\xdb\xff\xef\xbf8Ag\x01Lz\xe9\xbf\x94\xac\xef\x06\xc9\xe3\xd3\xbf\x02\xbfp\x9b\xa7\xf6\xef?\x86F'\x1b\xacZ\xe2\xbf\xac|\x17\x9f\xd9\xff\xef?\xb8\xb0\xb11\xfe\xad\xef?*h\x02\x94\xb1\xe5\xeb?s@E\xaf\xbe\xb3\xef?\xc7vI\xe1\xed\xd8\xef?\xaa\xd9\xff\x08\xb9\x84\xee\xbf"
p77
tp78
bsbag0
(g8
g2
Ntp79
Rp80
(dp81
g12
g13
sg14
I14
sg15
I1
sg16
I1
sg17
g18
(g19
(I0
tp82
g21
tp83
Rp84
(I1
(I14
I2
tp85
g28
I00
S'\x00\x00\x00\x00\x00\x00\xf0\xbf\x00\x00\x00\x00\x00\x00\xf0?\x00\x00\x00\x00\x00\x00\xf0\xbf\x00\x00\x00\x00\x00\x00\xf0?\x00\x00\x00\x00\x00\x00\xf0\xbf\x00\x00\x00\x00\x00\x00\xf0?\x00\x00\x00\x00\x00\x00\xf0\xbf\x00\x00\x00\x00\x00\x00\xf0?\x00\x00\x00\x00\x00\x00\xf0\xbf\x00\x00\x00\x00\x00\x00\xf0?\x00\x00\x00\x00\x00\x00\xf0\xbf\x00\x00\x00\x00\x00\x00\xf0?\x00\x00\x00\x00\x00\x00\xf0\xbf\x00\x00\x00\x00\x00\x00\xf0?\x00\x00\x00\x00\x00\x00\xf0\xbf\x00\x00\x00\x00\x00\x00\xf0?\x00\x00\x00\x00\x00\x00\xf0\xbf\x00\x00\x00\x00\x00\x00\xf0?\x00\x00\x00\x00\x00\x00\xf0\xbf\x00\x00\x00\x00\x00\x00\xf0?\x00\x00\x00\x00\x00\x00\xf0\xbf\x00\x00\x00\x00\x00\x00\xf0?\x00\x00\x00\x00\x00\x00\xf0\xbf\x00\x00\x00\x00\x00\x00\xf0?\x00\x00\x00\x00\x00\x00\xf0\xbf\x00\x00\x00\x00\x00\x00\xf0?\x00\x00\x00\x00\x00\x00\xf0\xbf\x00\x00\x00\x00\x00\x00\xf0?'
p86
tp87
bsg33
g75
sg40
g18
(g19
(I0
tp88
g21
tp89
Rp90
(I1
(I1
tp91
g28
I00
S'\xfc-\xf4\xc1\x10-\xd7?'
p92
tp93
bsg47
(dp94
g21
g18
(g19
(I0
tp95
g21
tp96
Rp97
(I1
(I1
tp98
g28
I00
S'\xa5\xf8\xc6I\x16\xac\xf1\xbf'
p99
tp100
bsg55
g18
(g19
(I0
tp101
g21
tp102
Rp103
(I1
(I1
I14
tp104
g28
I00
S"\xd7\xd8\xd4\xce\x98\x03\x04@q\x8a\x10\x89\xe5\xf4\x06\xc0\x85Mea@\x18\xfa?\x89\xe2\xd9\xcd\x1a\x9c\xe5?\xa4\r\xe8\x8f\x8bP\xeb?\xa8\xc7\xbe\xedi\x90\xf2?#;\xf5\x1b\x08\x16\x06\xc0\x91\xf9\x93\xee\x8f\x11\xf6\xbf\x80\x90\xa9'\xfcm\xeb\xbfX\x88\xfaHE\xaf\x07\xc0\xe4\xe8\xf2?\x97q\xfe?\xa3^\\\xfd\xafP\x03\xc0A\xee\xee\xc7\xbb7\xda?\x8d\x91\x99'\xd9\x1c\x05\xc0"
p105
tp106
bssg62
g63
sg65
g18
(g19
(I0
tp107
g21
tp108
Rp109
(I1
(I1
I2
tp110
g28
I00
S'\x00\x00\x00\x00\x00\x00\xf0\xbf\x00\x00\x00\x00\x00\x00\xf0?'
p111
tp112
bsg72
g18
(g19
(I0
tp113
g21
tp114
Rp115
(I1
(I1
tp116
g28
I00
S'G\xcet\xb0\xa36\xd6?'
p117
tp118
bsbasg14
I46
sg15
I1
sg17
g18
(g19
(I0
tp119
g21
tp120
Rp121
(I1
(I46
I2
tp122
g28
I00
S'\x00\x00\x00\x00\x00\x00\x00\x00\x00\x00\x00\x00\x00\x00\xf0?\x00\x00\x00\x00\x00\x00\x00\x00\x00\x00\x00\x00\x00\x00\xf0?\x00\x00\x00\x00\x00\x00\x00\x00\x00\x00\x00\x00\x00\x00\xf0?\x00\x00\x00\x00\x00\x00\x00\x00\x00\x00\x00\x00\x00\x00\xf0?\x00\x00\x00\x00\x00\x00\x00\x00\x00\x00\x00\x00\x00\x00\xf0?\x00\x00\x00\x00\x00\x00\x00\x00\x00\x00\x00\x00\x00\x00\xf0?\x00\x00\x00\x00\x00\x00\x00\x00\x00\x00\x00\x00\x00\x00\xf0?\x00\x00\x00\x00\x00\x00\x00\x00\x00\x00\x00\x00\x00\x00\xf0?\x00\x00\x00\x00\x00\x00\x00\x00\x00\x00\x00\x00\x00\x00\xf0?\x00\x00\x00\x00\x00\x00\x00\x00\x00\x00\x00\x00\x00\x00\xf0?\x00\x00\x00\x00\x00\x00\x00\x00\x00\x00\x00\x00\x00\x00\xf0?\x00\x00\x00\x00\x00\x00\x00\x00\x00\x00\x00\x00\x00\x00\xf0?\x00\x00\x00\x00\x00\x00\x00\x00\x00\x00\x00\x00\x00\x00\xf0?\x00\x00\x00\x00\x00\x00\x00\x00\x00\x00\x00\x00\x00\x00\xf0?\x00\x00\x00\x00\x00\x00\x00\x00\x00\x00\x00\x00\x00\x00\xf0?\x00\x00\x00\x00\x00\x00\x00\x00\x00\x00\x00\x00\x00\x00\xf0?\x00\x00\x00\x00\x00\x00\x00\x00\x00\x00\x00\x00\x00\x00\xf0?\x00\x00\x00\x00\x00\x00\x00\x00\x00\x00\x00\x00\x00\x00\xf0?\x00\x00\x00\x00\x00\x00\x00\x00\x00\x00\x00\x00\x00\x00\xf0?\x00\x00\x00\x00\x00\x00\x00\x00\x00\x00\x00\x00\x00\x00\xf0?\x00\x00\x00\x00\x00\x00\x00\x00\x00\x00\x00\x00\x00\x00\xf0?\x00\x00\x00\x00\x00\x00\x00\x00\x00\x00\x00\x00\x00\x00\xf0?\x00\x00\x00\x00\x00\x00\x00\x00\x00\x00\x00\x00\x00\x00\xf0?\x00\x00\x00\x00\x00\x00\x00\x00\x00\x00\x00\x00\x00\x00\xf0?\x00\x00\x00\x00\x00\x00\x00\x00\x00\x00\x00\x00\x00\x00\xf0?\x00\x00\x00\x00\x00\x00\x00\x00\x00\x00\x00\x00\x00\x00\xf0?\x00\x00\x00\x00\x00\x00\x00\x00\x00\x00\x00\x00\x00\x00\xf0?\x00\x00\x00\x00\x00\x00\x00\x00\x00\x00\x00\x00\x00\x00\xf0?\x00\x00\x00\x00\x00\x00\x00\x00\x00\x00\x00\x00\x00\x00\xf0?\x00\x00\x00\x00\x00\x00\x00\x00\x00\x00\x00\x00\x00\x00\xf0?\x00\x00\x00\x00\x00\x00\x00\x00\x00\x00\x00\x00\x00\x00\xf0?\x00\x00\x00\x00\x00\x00\x00\x00\x00\x00\x00\x00\x00\x00\xf0?\x00\x00\x00\x00\x00\x00\x00\x00\x00\x00\x00\x00\x00\x00\xf0?\x00\x00\x00\x00\x00\x00\x00\x00\x00\x00\x00\x00\x00\x00\xf0?\x00\x00\x00\x00\x00\x00\x00\x00\x00\x00\x00\x00\x00\x00\xf0?\x00\x00\x00\x00\x00\x00\x00\x00\x00\x00\x00\x00\x00\x00\xf0?\x00\x00\x00\x00\x00\x00\x00\x00\x00\x00\x00\x00\x00\x00\xf0?\x00\x00\x00\x00\x00\x00\x00\x00\x00\x00\x00\x00\x00\x00\xf0?\x00\x00\x00\x00\x00\x00\x00\x00\x00\x00\x00\x00\x00\x00\xf0?\x00\x00\x00\x00\x00\x00\x00\x00\x00\x00\x00\x00\x00\x00\xf0?\x00\x00\x00\x00\x00\x00\x00\x00\x00\x00\x00\x00\x00\x00\xf0?\x00\x00\x00\x00\x00\x00\x00\x00\x00\x00\x00\x00\x00\x00\xf0?\x00\x00\x00\x00\x00\x00\x00\x00\x00\x00\x00\x00\x00\x00\xf0?\x00\x00\x00\x00\x00\x00\x00\x00\x00\x00\x00\x00\x00\x00\xf0?\x00\x00\x00\x00\x00\x00\x00\x00\x00\x00\x00\x00\x00\x00\xf0?\x00\x00\x00\x00\x00\x00\x00\x00\x00\x00\x00\x00\x00\x00\xf0?'
p123
tp124
bsg33
g36
sS'trainf'
p125
g0
(cneurolab.core
Trainer
p126
g2
Ntp127
Rp128
(dp129
S'_train_class'
p130
cneurolab.train.spo
TrainCG
p131
sS'__module__'
p132
S'neurolab.train.spo'
p133
sS'params'
p134
(dp135
S'epochs'
p136
I30000
sS'train'
p137
(dp138
S'rr'
p139
I0
ssS'goal'
p140
F2e-05
sS'show'
p141
I1000
ssS'defaults'
p142
(dp143
g136
I500
sg137
(dp144
g139
I0
ssg140
F0.01
sg141
I100
ssS'error'
p145
(lp146
cnumpy.core.multiarray
scalar
p147
(g28
S'\xab\xc7\xcb!\x06\xfbi@'
p148
tp149
Rp150
asS'__name__'
p151
S'TrainCG'
p152
sS'__doc__'
p153
S'\n    Newton-CG method\n    Using scipy.optimize.fmin_ncg\n\n    :Support networks:\n        newff (multi-layers perceptron)\n    :Parameters:\n        input: array like (l x net.ci)\n            train input patterns\n        target: array like (l x net.co)\n            train target patterns\n        epochs: int (default 500)\n            Number of train epochs\n        show: int (default 100)\n            Print period\n        goal: float (default 0.01)\n            The goal of train\n        rr float (defaults 0.0)\n            Regularization ratio\n            Must be between {0, 1}\n        \n    '
p154
sbsS'connect'
p155
(lp156
(lp157
I-1
aa(lp158
I0
aa(lp159
I1
aasS'errorf'
p160
(ineurolab.error
SSE
p161
(dp162
bsg65
g18
(g19
(I0
tp163
g21
tp164
Rp165
(I1
(I1
I2
tp166
g28
I00
S'\x00\x00\x00\x00\x00\x00\xf0\xbf\x00\x00\x00\x00\x00\x00\xf0?'
p167
tp168
bsg72
g115
sb.