ccopy_reg
_reconstructor
p0
(cneurolab.core
Net
p1
c__builtin__
object
p2
Ntp3
Rp4
(dp5
S'layers'
p6
(lp7
g0
(cneurolab.layer
Perceptron
p8
g2
Ntp9
Rp10
(dp11
S'initf'
p12
cneurolab.init
initnw
p13
sS'ci'
p14
I59
sS'co'
p15
I30
sS'cn'
p16
I30
sS'inp_minmax'
p17
cnumpy.core.multiarray
_reconstruct
p18
(cnumpy
ndarray
p19
(I0
tp20
S'b'
p21
tp22
Rp23
(I1
(I59
I2
tp24
cnumpy
dtype
p25
(S'f8'
p26
I0
I1
tp27
Rp28
(I3
S'<'
p29
NNNI-1
I-1
I0
tp30
bI00
S'\x00\x00\x00\x00\x00\x00\x00\x00\x00\x00\x00\x00\x00\x00\xf0?\x00\x00\x00\x00\x00\x00\x00\x00\x00\x00\x00\x00\x00\x00\xf0?\x00\x00\x00\x00\x00\x00\x00\x00\x00\x00\x00\x00\x00\x00\xf0?\x00\x00\x00\x00\x00\x00\x00\x00\x00\x00\x00\x00\x00\x00\xf0?\x00\x00\x00\x00\x00\x00\x00\x00\x00\x00\x00\x00\x00\x00\xf0?\x00\x00\x00\x00\x00\x00\x00\x00\x00\x00\x00\x00\x00\x00\xf0?\x00\x00\x00\x00\x00\x00\x00\x00\x00\x00\x00\x00\x00\x00\xf0?\x00\x00\x00\x00\x00\x00\x00\x00\x00\x00\x00\x00\x00\x00\xf0?\x00\x00\x00\x00\x00\x00\x00\x00\x00\x00\x00\x00\x00\x00\xf0?\x00\x00\x00\x00\x00\x00\x00\x00\x00\x00\x00\x00\x00\x00\xf0?\x00\x00\x00\x00\x00\x00\x00\x00\x00\x00\x00\x00\x00\x00\xf0?\x00\x00\x00\x00\x00\x00\x00\x00\x00\x00\x00\x00\x00\x00\xf0?\x00\x00\x00\x00\x00\x00\x00\x00\x00\x00\x00\x00\x00\x00\xf0?\x00\x00\x00\x00\x00\x00\x00\x00\x00\x00\x00\x00\x00\x00\xf0?\x00\x00\x00\x00\x00\x00\x00\x00\x00\x00\x00\x00\x00\x00\xf0?\x00\x00\x00\x00\x00\x00\x00\x00\x00\x00\x00\x00\x00\x00\xf0?\x00\x00\x00\x00\x00\x00\x00\x00\x00\x00\x00\x00\x00\x00\xf0?\x00\x00\x00\x00\x00\x00\x00\x00\x00\x00\x00\x00\x00\x00\xf0?\x00\x00\x00\x00\x00\x00\x00\x00\x00\x00\x00\x00\x00\x00\xf0?\x00\x00\x00\x00\x00\x00\x00\x00\x00\x00\x00\x00\x00\x00\xf0?\x00\x00\x00\x00\x00\x00\x00\x00\x00\x00\x00\x00\x00\x00\xf0?\x00\x00\x00\x00\x00\x00\x00\x00\x00\x00\x00\x00\x00\x00\xf0?\x00\x00\x00\x00\x00\x00\x00\x00\x00\x00\x00\x00\x00\x00\xf0?\x00\x00\x00\x00\x00\x00\x00\x00\x00\x00\x00\x00\x00\x00\xf0?\x00\x00\x00\x00\x00\x00\x00\x00\x00\x00\x00\x00\x00\x00\xf0?\x00\x00\x00\x00\x00\x00\x00\x00\x00\x00\x00\x00\x00\x00\xf0?\x00\x00\x00\x00\x00\x00\x00\x00\x00\x00\x00\x00\x00\x00\xf0?\x00\x00\x00\x00\x00\x00\x00\x00\x00\x00\x00\x00\x00\x00\xf0?\x00\x00\x00\x00\x00\x00\x00\x00\x00\x00\x00\x00\x00\x00\xf0?\x00\x00\x00\x00\x00\x00\x00\x00\x00\x00\x00\x00\x00\x00\xf0?\x00\x00\x00\x00\x00\x00\x00\x00\x00\x00\x00\x00\x00\x00\xf0?\x00\x00\x00\x00\x00\x00\x00\x00\x00\x00\x00\x00\x00\x00\xf0?\x00\x00\x00\x00\x00\x00\x00\x00\x00\x00\x00\x00\x00\x00\xf0?\x00\x00\x00\x00\x00\x00\x00\x00\x00\x00\x00\x00\x00\x00\xf0?\x00\x00\x00\x00\x00\x00\x00\x00\x00\x00\x00\x00\x00\x00\xf0?\x00\x00\x00\x00\x00\x00\x00\x00\x00\x00\x00\x00\x00\x00\xf0?\x00\x00\x00\x00\x00\x00\x00\x00\x00\x00\x00\x00\x00\x00\xf0?\x00\x00\x00\x00\x00\x00\x00\x00\x00\x00\x00\x00\x00\x00\xf0?\x00\x00\x00\x00\x00\x00\x00\x00\x00\x00\x00\x00\x00\x00\xf0?\x00\x00\x00\x00\x00\x00\x00\x00\x00\x00\x00\x00\x00\x00\xf0?\x00\x00\x00\x00\x00\x00\x00\x00\x00\x00\x00\x00\x00\x00\xf0?\x00\x00\x00\x00\x00\x00\x00\x00\x00\x00\x00\x00\x00\x00\xf0?\x00\x00\x00\x00\x00\x00\x00\x00\x00\x00\x00\x00\x00\x00\xf0?\x00\x00\x00\x00\x00\x00\x00\x00\x00\x00\x00\x00\x00\x00\xf0?\x00\x00\x00\x00\x00\x00\x00\x00\x00\x00\x00\x00\x00\x00\xf0?\x00\x00\x00\x00\x00\x00\x00\x00\x00\x00\x00\x00\x00\x00\xf0?\x00\x00\x00\x00\x00\x00\x00\x00\x00\x00\x00\x00\x00\x00\xf0?\x00\x00\x00\x00\x00\x00\x00\x00\x00\x00\x00\x00\x00\x00\xf0?\x00\x00\x00\x00\x00\x00\x00\x00\x00\x00\x00\x00\x00\x00\xf0?\x00\x00\x00\x00\x00\x00\x00\x00\x00\x00\x00\x00\x00\x00\xf0?\x00\x00\x00\x00\x00\x00\x00\x00\x00\x00\x00\x00\x00\x00\xf0?\x00\x00\x00\x00\x00\x00\x00\x00\x00\x00\x00\x00\x00\x00\xf0?\x00\x00\x00\x00\x00\x00\x00\x00\x00\x00\x00\x00\x00\x00\xf0?\x00\x00\x00\x00\x00\x00\x00\x00\x00\x00\x00\x00\x00\x00\xf0?\x00\x00\x00\x00\x00\x00\x00\x00\x00\x00\x00\x00\x00\x00\xf0?\x00\x00\x00\x00\x00\x00\x00\x00\x00\x00\x00\x00\x00\x00\xf0?\x00\x00\x00\x00\x00\x00\x00\x00\x00\x00\x00\x00\x00\x00\xf0?\x00\x00\x00\x00\x00\x00\x00\x00\x00\x00\x00\x00\x00\x00\xf0?\x00\x00\x00\x00\x00\x00\x00\x00\x00\x00\x00\x00\x00\x00\xf0?'
p31
tp32
bsS'inp'
p33
g18
(g19
(I0
tp34
g21
tp35
Rp36
(I1
(I59
tp37
g28
I00
S"\x9d\xd1K\xf5s\xc2\xaa?\xf9\x18\x9c\x8f\xc1\xf9\xb8?\xb3\xa7<\xc4\\h\xb5?b\r\xef\x8c^\xaa\xcf?\xf9\x18\x9c\x8f\xc1\xf9\xd8?\xbb\x12\xb5+Q\xbb\xd2?\x88\xb9\xd0*0\xf6\xd4?#(\xcd\xa6\x1b\xff\xde?\xbeT?'\xac\xe1\xcd?\xe4\x00!\xc5}-\xc3?\r\xef\x8c^\xaa\x9f\xd3?\xf9\x18\x9c\x8f\xc1\xf9\xd8?\xbb3z\xa9~N\xd8?!\xe6B\xab\xc0\xd8\xd3?:\x1f\x83\xf318\xcf?\x7fNX\xc3;\xa3\xc7?\xa8<\xc4\\h\x15\xb8?i6\xdd\xf8\xf7\xd6\xb1?\xc5}-\x93E\x0e\xb0?\x04\x84\x14\xf7\xb5L\xc6?\xfb\x18\x9c\x8f\xc1\xf9\xc8?\x04\x84\x14\xf7\xb5L\xb6?\x18Z\x05\xc6\x9e\xf2\xb0?\xb1\xa7<\xc4\\h\xc5?\x9d\xd1K\xf5s\xc2\xaa?\xf9\x18\x9c\x8f\xc1\xf9\xb8?\x9e\xd1K\xf5s\xc2\xba?\x7fNX\xc3;\xa3\xc7?u\xe3\xdf[GP\xca?\xdb\xb6m\xdb\xb6m\xdb?\xeek\x99,r\x80\xe0?\x7fNX\xc3;\xa3\xc7?\xf9\xf7\xd6\x11\x94f\xd3?U?'\xac\xe1\x9d\xd1?\xf0\xad#(\xcd\xa6\xcb?lxg\xf4R\xfd\xcc?L\xf5s\xc2\x1a\xde\xc9?\xf9\x18\x9c\x8f\xc1\xf9\x98?i6\xdd\xf8\xf7\xd6\xb1?\xd1*0\xf6\x94\x87\xc8?7\xdd\xf8\xf7\xd6\x11\xc4?\xb1\xa7<\xc4\\h\xc5?\xda\x95\xa8]\x89\xda\xd5?\xee\x8c^\xaa\x9f\x13\xd6?_\xcbd\x91\x03\x84\xd4?\xfb\x18\x9c\x8f\xc1\xf9\xa8?\r\xef\x8c^\xaa\x9f\xa3?\x0e\xef\x8c^\xaa\x9f\xc3?\xbb\x12\xb5+Q\xbb\xb2?\x04\x84\x14\xf7\xb5L\xb6?\x0e\xef\x8c^\xaa\x9f\xc3?8\x1f\x83\xf318\xbf?\xbb\x12\xb5+Q\xbb\xb2?\x9e\xd1K\xf5s\xc2\xca?\xa6\x1b\xff\xde:\x82\xd2?\xda\x95\xa8]\x89\xda\xd5?B\x8a\xfbZ&\x8b\xcc?L\xf5s\xc2\x1a\xde\xc9?-r\x80\x90\xe2\xbe\xc6?"
p38
tp39
bsS's'
p40
g18
(g19
(I0
tp41
g21
tp42
Rp43
(I1
(I30
tp44
g28
I00
S'\x91\x875\x05/\xcc\x0c\xc0z\x1a*k\x14\xd5\xe5\xbfT\xbb\x89l\xef&\xec?g\x821\x1e\xa7\xd4\x10\xc0\xe0\x90\x9c\x03\x0c\xf0\xe9\xbf\xfe\xbc\x82D\x1e2\xfe?\xa1bo\xf4~\x0b\xff\xbf=)\x0f\x89\xad\xbf\xec?\xec\xe2\xfeN\xcd\xdd\xf3\xbf\xa8\x9eki\x85\x10\xed\xbfT4\x90\xcb5\xf8\x13\xc0\xe2E\x1f\xf8\\\xe8\xeb\xbf\x02lm\xbb\xd3T\x07\xc0\xae\xc0{W\x0c\x87\x12\xc0\x18\\\xd1\xba\x01N\x11\xc0\x04\x89!\nsH\xf9\xbf6h\xf4\xdd\x07>\x0b\xc0o\xcd\xee\xd7\x88\x8b\xf0?U*[OB\xb9\xf8?\xd3\x93V|\x11)\xfa\xbf8\x152z\x19K\x02\xc0\x97Nq8\xa2b\xed\xbf\xc9GTSo\xee\xfd?\x9cB\x9e\xb4\xa9\x9f\x0c\xc0\xaa\xdf\xb2\xb6l\xe6\xde\xbf\xe4?\xf9\x18~\xc4\x07\xc0\xb8\x02\x8b7\xa7:\xf1\xbf\xbf\xc2\\\xdeOU\xfa?,c\x9f\x8c\x81\xf1\x02@\x85\xc1\xb82@\x9e\x0c\xc0'
p45
tp46
bsS'np'
p47
(dp48
g21
g18
(g19
(I0
tp49
g21
tp50
Rp51
(I1
(I30
tp52
g28
I00
S'\x13\xc0X\x9e|>\x15\xc0=\x89\xbd\xb9)\xbe\xe6\xbf\xbcV\xb9\xe8\xe21\xe6?u\x93\xb2\xb1\xda\xfb\x12\xc0\xfb\x9b\t\x9a}t\xe9\xbf\x15\xc2\xebB\xbb\xe6\xfe?y\xed\xfb\x19{\x84\xfa\xbf\x1e\xb7\xeaU\x0ch\xe0?c\xfc\x9d\xb3e@\xdf\xbf\xb3\xf3\xb5\xfc\xb5\xc1\xf8\xbf\xdf\xa9\x95\xf0\xbfG\x18\xc0\xde`@\x7f\n\x02\xe4\xbf\xa9D\x93%\x04,\x13\xc0\xb7\x1b\xc4\x0c\xfa"\x16\xc0_\xfcQ\x07>\xcd\x16\xc0\x10|\xf54<w\xfc\xbfd\x05\x8d\xef\x1c\xcb\x13\xc0\x7f\x04\xdd\xd9\x1e\xf6\xdd?\xb8n\xf0\xd0\xd9\xd8\xfd?o\xa9\xabU\xa2\x0c\xff\xbfM})\x82u[\x06\xc0Hi\xc40o5\xf8\xbf\x10D\x8a^\x0f2\x05@\x06\xb26?\xc2)\x12\xc0\xab\x82v7[\x8f\xd0\xbfK/\xffl\xfa\xeb\x11\xc0v\xfd\xc3\xd1\x83\xf6\xe4\xbf&\xc0=Q\xc99\x03@.\x1b\xa4"\xd4V\t@\x9b\xbe,\x1f,]\r\xc0'
p53
tp54
bsS'w'
p55
g18
(g19
(I0
tp56
g21
tp57
Rp58
(I1
(I30
I59
tp59
g28
I00
S']\xd7}\xd1\xd4\x0f\xd7\xbf\xfa:\xbb\x86Y\x01\x91?r\xe2\x050\x80\xea\xe1?\x7f\tM\xad\xd5\xe2\xd9\xbfo)\xca\xe0\x89\xf9\xe0\xbf\x02\xf7\x06\xaf\xddo\xca?\x8c\xaep\t\xb7S\xb3?\xf3\x91\xee\xc1tr\xde?\xe2o\x02\xf7\xfd\xee\xd3?\xe5\x9c\xc6\xc8\xf6\xcb\xd4?%}j\xa4p\x04\xe1?S\xdbG\xf5ln\xa7\xbf!m&\xef+3\xcd\xbfc$\xcc\xdc1\x16\xe1?\xc9"\xfb\n\xb7\xbc\xde\xbf\x13\xa2c\xe3G\xf7\xd6\xbf\xdea}\xe2C\x86\xc8?\x95t\x05\xe3\xae\xa0\xb3\xbf\x86\x0fa\x02\x93/\xdc?5r\xdf\xca;h\xe2?\xec\x83R\x96\xd8Y\xcc?\x14\xfe/\'m\xfd\xd6?\x18~=&\xbe/\xde\xbf\x10\x8e\x07O\x81\xad\xcb\xbfj\x97\xa5\xf2\xda\xe7\x9f?\xda\xe9"\xb6\xaa\xea\xdc\xbf}\xb3][H\xe9\xc1\xbf\xa5\xb8?\xec$\xf6\xde?\xbf\xe1n\xd4\xedy\xe1?m!\xc8\x874E\xe2?\xa8b\x939\xf7\xa7\x8e?\x9c\t\xa9\xc5\x87X\xdb\xbf\xc4\xddd~\x15x\xda?\xf0x\xbdcB\xf6\xa5\xbfu\x9aN\x9f\x10\x03\xbe?L\xf28\xbe\xe5b\xe3?\xb1\x99\xe0UF\x0b\xe3?z/\xbcJ\xf25\xc5\xbf\xdb\xe2\xd8k\t\x1b\xc8\xbf\xa9r\x81\x1b^\x1d\xe3?\xf6\x8c7\xa2yl\xdf\xbf\x00*+\xf8\xb4{\xd8\xbf\xb1[\x82%:c\x98?s\xaf\xe9Lnb\xdd?\xdb\xc96\xbf|R\xd8?\x8e\x9b\x86i\xce\x95\xe2?/\xc4\xb9"\xb2\xa3\xb4\xbf=*(\xbej\x05\xdb?.\xbf\x1f\x9b\xfbx\xe2?\x7f\xb9g\xf2\x13\xf2\xc7?\x82n]\x03Y|\xce?\x03\x9e$N\xc7\xfa\xe2?\x90zw\x11\xeb\xe8\xd9\xbfaW\xa4\x83?\x14\xe2?$r\xe3\xf8\xb5c\xc6?\xe7\xe2A\xb22/\xd8?\\Ph\xffh\x8a\xbc\xbfq\x07g\x06\xac\x9f\xd5\xbfHT-\x8d\x90#\xc4\xbf{\xc8\x9f\x16G6\xd3?3\x94\xe1\xbd}\xf2\xdb\xbfc\xbe\x04\xf1$\n\xe1?\x86\xdb\xdb\xb5l\x9d\xd7?r\xd4\xf33\xc59\xde\xbf\xcb \xcb,\n\x84\xdf\xbfo\xe5\xe2\x03S\xad\xd3\xbf\x90\x85\x83v\xa3\xd9\xce\xbf[,\x11\x1d\x80U\xe4?\xd2\x95\x9a\xf6\xdc6\xc5\xbf\x01\xb9\x88\xe3\xddS\xba?\xb4\x05\xdf\xa6s\xb7\xe0?\x15\x86\xb8\x83\xd6\xec\xe0?F\xe7\xee\x0b\xefH\xe3?h\x03\xa3\xd0f\x9b\xc1?\xa4\x06\xc4\x1f\x03\xcb\xcb?\x16\x06\xce\x89/P\xdc?\x13\x19=\xe8\x1e\x8a\xbc?\xedF\x9a-\xf6\x1e\xd9\xbf\xa31\xd0\xea\xca\xe2\xb8?Q=\xd7\x10\xfch\xd7?U\xa6\xabv\xa75\xc8\xbf\xda$\xb5\xc6\xaaT\xdb\xbf\x07t\xd3\xdb\xbbn\xe2?\xc2u@\x96\x1a\x8c\xde\xbf\xc2\xfav*U\x1f\xb1?7^\xfeH\xf2g\xdd\xbf\xef|\xc1pg\x84\xe0?Q\x9f|\xcaO\x81\xc2?8\xc4\xc6\xde\x8d\xbbm\xbf7\xfe\x12\xd3)\xb8\xa6?N\x9f\xb7\xe8V\x1f\xe1\xbfF\xf5\x15\xd9n:\xd9\xbfd\x8a\xafz)L\xd9\xbfC\x01\xdeo9\x02\xc0?a\xd5\x08\x94\xe8F\xc6?\x9a@\xc5~5p\xdf\xbf\xbd\x91\xa2\xb9\xa9/\xb2\xbf\xad\xd0\x12\x9a\xdc;\xe1\xbf>\x05\xea\x83\xe7\xe3\xdf?\xcf\xbd\x8d\xcan*\xc6\xbf\x92\xb7AK<\x86\xc3?};bb\x96_\xdb\xbf\xb1X\xf7w\xd8d\xe0?\xed\x9b\x14P\xd1\x1b\xc9\xbf\xe9q\xba\x8a\xd1\xce\xde\xbf\xa5\x8a\xb1\xc0G\x97\xb8\xbfj\xd2\xbb\x19\xbc,\xdf?\x99\xc4\x90ak\x11\xe0?O\xdd\xc9n\xf0z\xca\xbf+x\x0c@A\xbf\xd5?\xe3&\x9c\x00|\xcd\xe4\xbf\xf4\x06\x0c"U\x94\x9b?\x02-P\xb0\xf5\xc6\xe3\xbf\x00\x8a\x91{\xbb"\xb9?\x15r\xad\xcc\xf7\xca\xe4\xbfh\x8d\xe5\x16R\xab\xca?\xc7\x8br#\xb0\xd0\xab\xbf\x1e\\KGS\xac\xb6\xbf\xd7N\x0c\x94S&\xe0\xbf\xcc\xe7\x96\x0f0o\xb0\xbf\x8c\x94\xf4\x1e\x12\xe2\xd5?\x9f\x1c\x96\xd803\xe0?^\x93W\xe1\xd9O\xe4\xbf\x07\x9f\x8fT\xc3\xa7\xbe?\x9d\xc7G\xca\nE\xd0?\x9b\'\x08\x0cZ>\xba\xbf\x06X{\xf9\xebY\xdc?\xf2(\xafy\x02\x8e\xe5\xbf\xcb-\xff\x88,B\xd1?\xf1f\xda\xe3\x05\x86\xe2\xbfk\xfc\xd3%\x0b\xa3\xda?\xb9M\xc7\x93f\xcd\xdc\xbf\x94\xfc9!\xb0u\xc2\xbf\xb5\xf5\xfa#9\xc1\xd5?tb\x90\xdeu\x05\xd6?\t\xa6\xfb\xd3\r\xa5\xe3\xbf\x11\xd8\xd0K\x90$\xcb?\x16G\xb9\xf2\xfdp\xe6?!\xd8\xadC\x06\xff\xa6?/\xb5\xfe\x03\xa29\xd2\xbf\x8c\xf0\x1e4\xb7\x8f\xc8?\xa3\x0f\r\xac\xa5w\xc3\xbf\xfe]\x86\x0f\r\x16\xdd?.1hh[~f?\xa30Y\xb9r\x7f\x84\xbfP g\x8c7G\xb7?\xf1\xdbt\x88\x8f?\xb8\xbf\x0b[4\xd8\x18\xaf\xe1?\xbd\xf3u\xdb_\xb1\xba?\xdc^G:\x8b\xc0\xa5\xbf\x12\xfa\x10A\xf61\xcd\xbfu1\x99\xc5\xbd\x88\xc2\xbf\xb5\x9f\xcetEy\xe0?\x1b\x80\xa0\xd3\x18w\xd6?H\x92\xbd\x95q\xe0\xa6?heB\xa8\xba\x99\xc8?\x13\n\xce\x9ef\xd0\xe5?0\x80T3\xbc\xdd\xde\xbf\x8e\xc1o\xa1\x8f\xc6\xe0?\xe8e\xc6Lv\xa3\xc8\xbf\xcb\xf9DY\x89y\xbe\xbf\xb3\xd7i\xa9\x1d\xa9\xd0?\xdf=\xed\x90B\x85\xe0\xbf\xf2\xd5\xfe\xa3]\xe6\xdf\xbf\x1f\xde\x9eIiz\xe3\xbf<U\x13\xaf$\xd6\xda\xbf\xdf=\xacn\xb9\x8f\xc1\xbfX>\xebtD\xbe\x94?\x1c\xd7\xa3\x9eyA\xe2?\x96M\xbe\x82\xb0\x95\xe1?\xb9"\x95\x91|\xe2\xc8?\x18\xcds{\xa5\xfe\xe0\xbf\tn*\xf5\xccc\xda\xbf\xb9\xac\x94\xf2\xe6I\xc9\xbfM\x00<\x90\tF\xcf?H\x84\xae\x8b\x94\xfc\xc8?\x97\xbf\xc2\x02\x1b\xe2\xe3?\x81>h\xc3\x14\xb3\xd1?ZP\x04z\xca\xa4\xa2?\xf8\x94\x8b\x89Z\xfc\xaa?.6r[8\x80\xc6\xbfc\xb9@"t\xad\xdb?\x9a\x9d\x98\xa3\xc1]\xe5??\x88\xdc1\x9dn\xa3\xbf\xe8\xf6\xcc\xc5\xade\xcd\xbf\x0f\x03\xabN\x07\xbd\x98\xbf@(\xfc@@\x0e\xe1?[\xf7\xa3\xc4,\xb8\xe4?\xc4U\x15\xa1F\xbe\xe5\xbf\xe8\x11\xa0W\xdc\xff\xc0?\x91\x0b\xc5|\x9d\xaa\xc3\xbf\x9a\xd3\x14v\xd3\t\xbf?\x89\xaf;\xdb`m\xa4\xbfG\xa0\x15\xa2\xe0v\xdb?E?y\xda\x84\x87\xde?Lq\xe73\x1c\xc4\xe3\xbfxy\x12FSE\xd7\xbf\xdb\x0ei\xdeY\xcb\xc1\xbf\xf1\xb6\xfco{q\xe4?\xb7I\x8dRlG\xe0?\x90p+\xbf0G\xd1\xbf\xa3\xbe\xc9@\xd3<\xd1?&\xf5\x84\x16\xffZ\xe5?mS)w\x9d,\x97\xbf\xf5n\xf7\x0fn\n\xdb\xbf\xc6\x9e\x06\xfed\xb7\xd8?\x1d\x00\xf1\xb6\x95c\xe2?\xf6=Bp\x98?\x9d?E\tO8\xb1C\xd5?_\xb4\x13\x1b\x1d7\xc8?\x0b5(g}\xf5\xd6?Cg\x84Jd\xbe\xa7?\xb4\x14|\xabJ\xa7\xdd\xbf%;\xe6.\xa8\x96\xe2?\xd0\xc9\x18\x14y\xa7\xc5?\xc8G&\x93\xf2v\xe2\xbf\xd4\xb5\n\x02\x88T\xd0\xbf\xd6\xff!9\xb3\x8c\xd8\xbf\xb6D\x9a\x88\xe3\xab\xb4\xbf\x9f\x1e\xdc`\xa8\xf0\xa5\xbf\x0b$z\xd7\xc5\xd3\x99\xbf\xdczWG\xec\xee\xe3\xbf\xb0\xc6\xa2\x06R\x0f\xde\xbf2]q\x05\x0c\xd0\xd7?(\xfe\xd2\xfe\xd3|\xba\xbf&\xf4\x9e\x01"\x17\xc8??A[\x7f\x8b>\xd9\xbf\x00(k;\xee_\xe5?-Z-\x9fbj\xdd?\xe3EjS=F\xdb\xbf\x95x\x92g$\x13\xc7\xbf\xf7J}\xff\x05At?8\xf0\xde\xde\xc1\x90\xd9\xbf\x9e\x18\x8f[\x98\x9a\xe2?25\x8f{\xe0O\xb3\xbf+\x958h\x1ay\xdb?\xbf\xf0\x84/S\xb8\xd5?\xf6XGJ$\x11\xe1?\x0f\xc0\xa0\xf7j\xfe\xd3?\xcc\x17\xefm\x1b\xf4\xb6\xbf\xc9@\x9b\xbc\xdc\x1c\xe6?\xad\x82tQ1\x12\xda?\xc5V*\xe7Q\xac\xba\xbf`v+_]\xc3\xb0\xbfT?>\xf9\xbc\x8c\xd1?ai\xf4\x12To\xce?|\xe1\x89u\xe1\x92\xd6?\xc3\xff\xff\xe8\x1b\xfb\xde\xbf\x92\xd4\xc8\xb3\xdb\xf8\xd4?w\xaep\xb8y5\xe0\xbf\xcbY\x1cvb\xb8\xd0\xbfL\x9fF\xdd\x03]\xdc?r\xf4\xce\xf1\x07\xdb\xd0\xbf\x90[\x1a\x0e\xd3v\xe1?k\xad\xcf\x0bZ$\xe1\xbf\xcc*\x10\x80\xfb\xd1\xac\xbf\x95\xf9\x9c/\xc3\x8d\xe1\xbf\x1c\xf7\xa5\xb6\xa50\xdc?\xbb+\xc5\x96m\xae\xe2\xbf\x8a\xcct\xaa%W\xc6?<\x11\xb0\xfbp\x96\xd2?\x93\x014\xb7\x95\xe9\xe1?\x06\x1e\xe1\xcc\xf6\x9f\xe0\xbf\xfe\xdb\x9d\x8d\x8a\xc3\xe1\xbf\xd8\xed\xf6\xaf\x82\xee\x7f?=\x9fM\xa1]\xf3\xad?I\x97\xa6\x84\xb0\xe3\xd7\xbf\x9d/\x88\'\x1b\xba\xdb\xbf\xbeK\xcc-\xea1\xa9?\xf5\xf5\x14\x1b\xc3\x91\xd4?\x91)\xae\x836\xfb\xdf\xbf\xc4\xdc7\xf5\x92\x15\xaa?\x86Izl\xfb\xbf\xe4\xbf\xc3\xfcl\x0c\x06i\xe2\xbf\x9e\xe1\xe1\xac\x8a\xee\xd9\xbf\x96-\xe3\xf6\xa2\x15\xe4\xbf\x04g\x92\xeb\xd2U\xdb?=\xbe\x9d\x14\xbb\xb2\xda\xbfc\x88\x8dfa\xb6\xd7\xbf\xe2\xe1\x0c\x02\x9e\xc9\xd8?\x9e\xaf\x91\xd1\xae(\xcc?\xe2w\xaaI\xe6&\xc9\xbf\x04%\xc3\x14\x85\x9e\xda\xbf\xa6C{\xfd\xca\xd3\xbc?\x93i\xa93\xd9D\xd7?t\x15[9\xa3\x04\xdf?W\xac7\xb1\xc4Q\xc7\xbf\xa4uwGG\xb0\xd4?\x81\xe9ot\xaa\x82\xdb?\x9aH\xd3WD\x89\xd2?\xeb\xf3\x04{J\t\xca\xbf\xc9\xb3\xa6\tm\xc0\xc3?\x90I\x15\xe5\xda\x07\xca?\xbc\xf9\x9e\xb0i\x86\xd0?\x80\x19\xc3\tq\x00\xbb\xbf\xbeF\x01\xb1\xbcF\xe0\xbf\xf2/\xd4a\xc1\xa8\xdd?r\xb6\x14\xadb\xa4\xad?\xabCC\xb5\r<\xe5\xbf\x02-\xb8\x8bY\xdf\xd3\xbf\t\xd5Y\xdfMQ\xd7?\xf8:o\x1dE\x89\xd5\xbf\x17B\x14\xf4gr\xd9?\x8a:\x8c&\xcf\x1d\xd5?\'\xba\x0f\x8b\xd4\xf7\xc9\xbfj\x85\xe1\x07\x91\xbd\xe2?\xab\x12\x12\'>\xd9\xd1?U\xc0\xb8\x8fb9\xae?i\'6mwn\xe1\xbf\xca\xd9\xe4\xdf\xfe\x96\xe1?\xb9n:\x9b85\xb6?\xc2\x156\x1c\xe4z\xdf?Z\xe2\x0c\x82\xd2\xcb\xa8?\xef\x0f\x94\xd5\xfd\x8a\xb9\xbf\x11\xd1\x99"R8\xe4\xbfWpd\xaf\xeb\xd4\xe4\xbfK\x10\x1c-\xa7\x9b\xb4\xbf\xb5\x9f$\xc8\xe9\x9a\xdd\xbf\xa1\xec\xad\xe6\x96\xec\xb9?\x023\xbc\xa0\xf6\xb6\xd5?3)\x02.\xac{\xca?\xbdG\x89\x84c\xd1\xd0?Y\xd7\xdc8\xac\xbf\xe4\xbfC\x1d\x808w1\xd0\xbf\xaa\xd5\x92$\xdd\xf6\xd7\xbf\xf8q\x8f\xb2w\xd8\xd9\xbf\x91K\xe5T\x93Q\xdd?\xdd\x97\xc1\xad\xd5Z\xc5\xbf\x82\x14\xcaO\xee\xe9\xb2\xbf\xd4|\xe5\xcb\xefA\xd1\xbf\xd7\x0f\xcb`[F\xe2?\x06\xccU\xc0\x91\x14\xc0?V\x94\x02\x0f\x97\'\xbe\xbf\xdeJ\xc0\xf9S\xf0\xbb\xbf\x9c\x8eT\xe3\xf8\'\xbf\xbf\x97\xb1\x92\xe4\xc1\x18\xe5\xbf\xd5\x11+u\xaa\xe8\xd9?\x99\xebtdY\xb3\xe0?\xab\xb7I\x9d\x1d\x1c\xe2?\x17\xa2P{f\xf6\xc2?\x1dS\xe9\x065)\xe0?W\xdf\xedp\xa1\x04\xd0?\xd6\xe0\x0e\x80\x98\xfd\xdb\xbf\x03\xdf\xe1zk\xce\xdb\xbf\xe1\xc0\x08\xc4w+\xc0\xbf\x0e"*k\xa7\x8d\xc8?\xbc\x9ec\x0eD\x10\xe2?\xa6\xc3[s\r\x91\xcb\xbf\x84`V\xa8\xce\x98\xc7\xbf\xadl|\xde\x00m\xc8?\x97\xa0\xef\xc8V\x12\xd2?\x030\x8f\x0c\xab\xd9\xe4\xbf\xc0\x19\x80]\xc5k\x96?\xfb\x17\xda\xad\xe3\xf8\xd5\xbf\x8d?\x919,W\xe4?\xe1\x7f\xa3\xd5\x16\xe6\xb8\xbf\x89!\xb2\xe6\x88\x99\xc4?\xf2\xdb\xd6\xae\xd8\x0b\xd0?\xc9g\x94\xc2\x1c\x89\xdf?&\x84?\xed\x1f\xbb\xe5?\x9c"\x99\x1b\xe8E\xd2?\xa3\xed\x9a\xc1\x94\xab\xda?\xeau:\xd8\x0e\x1d\xa7?\xd8\xdd\x10\x9d\xb5o\xd4\xbf\xab\xc4\x9b\x82n9\xdc\xbf\x1b\xfeQ\x0b\x98\x86\xe0\xbf\x0e:\x008\xb8\x97\xc0\xbf\xda\x1f@Cq\xff\x98?\xb57\x14\x816\x07\xe3\xbf\x0eE\xa7\x03\x8e\x1a\xd8\xbf\x91t\x10\xb9\xb1\x9f\xa1\xbf\xe8>\x0fU\xf3\xa1\xe5?\x88\x1e\xe6T\xb3|\xba?\xd2!\x01\x1d\xd3\xc0\x9a?T\xbd$\xecG>\x93?\xa8\xb6\xb1r\x14\x1b\xd2\xbf=\xbf\x91#\x8b\xd0\xb6\xbf\xb6|\nse"\xd2\xbf\x0c\x9dM!\x8f\xbf\xe5?\xa1i\x88u\x92Q\xd6?\xcfU\x9ckO\xa1\xe5\xbf\xdd\x0f\xc1\x99\x1d\x1c\xd0?\x83\x04\xa3\xc3\\\xbc\xb0\xbf_w\x9b\x95\xb3\xde\xd9?\xed\xc2o\xecG\x9e\xd8\xbf\xeawz_\xe5\xb8\xe6?\xd8\x83\xe4\x1fo\x10\xc1?\x91\x1dj#\xcf=\xcb\xbf\x12$\x8c\x96\x94p\xcf\xbf\xaa\xeb\xde\xcc\xe5\x18\xe5\xbf\xb9m\n\x81\xa0\xe1\xd1?\x83\xcc\xbd6&\x9a\xce?\xc0\xe85s\xb2H\xe1\xbf\x93\xdd\tLk\x0e\xe0?\xbe\x92\x90\xbe_\x1f\xd3\xbf\x08\xdf\xb1!\x00\xf5\xa5\xbf\xc7\x90\x12l\x0f\xff\xd2\xbfW/\xfd\x86s\x11\xd5?\xc4\xcf`@\xea\x8a\xd0\xbf,c\t\xa5\xe9\xdb\xe2?\xd0\xf2Mh\xd3\xda\x8a?\x7f\xe7\xa48\xa6r\xd8?\xbc1\xf9\xbd\xe9_\xc2?\xf1\xe8*\xb6\xd5\x1b\xcb\xbf=n\x98\xe7;\x1e\xde\xbfN\x0b\xd1\xb7U\xc6\xba\xbf\xc0@\x80\xa1Cw\xe1?\xd3\xad\xe9\xb7\xe9{\xe2\xbfE\x07\xdc\xf6\\\xe0\xc2?\xe6\xc8\xab;Mf\xda\xbf\xc8w=\x059b\xc3?\xad|\x83\xf9\x8a\'\xd8\xbf\xef\x15\x9d\xcf\xf4\x10\xe3\xbf\x92\xb9Fc(\xb1\xcc?\xfe\xa4\t\xd5N\xbd\xc4?>\xae\xc4^(\xa7\xc1\xbflR\x05\xe5\xa4@\xdc\xbf\xab\xac\n\x00^\xc9\xe5\xbfl\xe3\xfeZ\x00!\xdc?\x10\x83\x07F\xb2S\xe5?4\x8a";^[\xa6?\xef\x7fd66(\xdf?\x96\xd8\x02\xb3\xe0\xc8\x89\xbfGbp\xaeD=\xe1?"\xe0&\x02\x7f\x1e\xbf?L\x07\xcc\xd3?\xce\xd0\xbf\x8b\x01\xe34\x0f\xea\xd3\xbf\x0f\xbd\xa6\x1c\x06\xcc\xd6\xbf7;\')\x19\xb9\xba?\xd08\xb5\x8e\xd1\x9e\xbf?f\x1e\xec\x8a\\\x13\xb4?\x83r\xcd\xe8\xbc>\xce?\xce\xe6\xba\x1c$@\xc1?\xcc7F\'b\x13\xe3\xbf\xca\x1d&\xb5-\xd9\xc5\xbf\x1cB\xe9\xf1\x9f\xaa\xe2\xbf1\xd7\x054\x85\x98\xe0\xbf\xcd\xec1%\xb9\xbc\xb0?\xf5\xf9\xbfo]\xbc\xb2\xbf\n\x1dW+\xaaj\xe1\xbf\x7f\xd4\xb3t\xfc\xc0\xdc\xbf\xe8\x9a\xaf-:0\x84?\xb4\xbd~D\xfc"\xe4?\x8f\x85\xf8\xe0\x02\x9a\x90?\x84%P\xc7\xfd3\xc3\xbf\x88\x19Lc\xa6b\xac\xbf\x80\xe4cg\x9d\xe6\xcc?=\xe7\x04\xda\xb6l\xc6?\x91\x9b\xa5\x1a\x06F\xe2\xbf\x8e-\xdd/~\xf8\x9c\xbfq\xe7\xb0Y%\xc4\xdb\xbf0k\x84.j\x87\xe2\xbf\xfd\te\xc1\x05\x1a\xe3?\xf2\x9d*\xe4\xcdE\x99?[\x96\xc0O-\xd4\xd0?=\xa4WR\n\xcd\xd1?\xef9\xef\xc8a\xb4\xe5?\xec\x9c!\xc7\xedS\xe4?\xc2\xbdA5\xa8d\xe3\xbf\xec\xcc\x92\xad;:\xb8?R\xa2\xb8\xb2K\xaf\xe1\xbf\xe7\xd6v\x81\xbd-\xdf\xbf\xe2}\x8f\xf5\xc0\xa3\xe3?\x029\xab\\n:\xba?F\x8e~\x14J\xe9\xba\xbfgYdE\xcf\xcb\xe2?@\xfa\xca\'\xde\xd7\xcf\xbf\xb3L\x1b]\xb8\x93\xd1\xbf\xfa\x173P\xde\x1c\xc9?\xcdDx\x8c\xae\x13\xd4\xbf\xe3\x13\x08\x1c\xee\x19\xd4\xbf\x8d\x87k\x14"\x07\xd6?X,%x\x8b\xeb\xe0?\x8eH\x06\xde\xc1\xf2\xe1?\xca\xd1\xc4\xf4o9\xe5\xbf\xe0\x18\xb4\xb3i\xa8\xd3\xbf\xa9\x05\'\xff\xd1\x8b\xb5?Q\xe23\xc2\xd1#\xbb?\xa6-~\x8fl\xdf\xe0\xbf\xaeKz$\xc7\xec\x8a?r\xf6)\x102D\xe1?\x82\x84\x10\xb8\x00\x9e\xcb?\xf4\xde\xa3\xf0\xaf\x96\xde\xbf3\xaa\xe7\x85\xbdy\xd1?\xcb4\x1b\xb8;\x14\xd4?|\x89\x89"Z5\xda\xbf\xf5m;\x94\x0b\xc4\xc7\xbf\xfd{VJ\xc9\xf6\xd2\xbf\xb9\xf4\xef\x13q\x11\xba\xbf\x84\xa8\xe2\xf2\xd7\x1f\xd9?\xce\xdfw\x12\x83\x13\xdd?\x9f> \x1b\xf1n\xe2\xbf6\x8bS\xbf\x86D\xe3\xbf\x98\x08\x19\xefkk\xdf?#\x91\xd1=\xd6y\xe6\xbf$Af\xda\x1c3\xe1?@8\'\x8e\x9d^s\xbf\xb9\xc1\x08\x1c\x10\xb4\xb3?\x85\xfd\x9b\x92 l\xc1?-\xb1\xb9r[)\xd9?X\xd1\x88\xf4H\x81\xc8?&\xa4N\x06x\xaf\xb5?DT\xed6\xa4\x02\xe2\xbfllm\x04\x8a\xc6\xe0\xbf\x15)\xaf\x81\xcb>\xb4\xbf\xdeX\x8a\x99\xe5\xd5\xd8?\x02\xc7\xfc\xf2W\r\x9a\xbf\xae\xf6\x19\xb7e\x8d\xc0\xbf\xe1\x0e\xdf\xae\xd1\x07\xe4?\xc9\xdb\x1c\x85\x85&\xd3?\x89`\x9e\x8e\xe6\x17\x91?Y\xab\xfc\xb2\xda\x9b\xcd?9<%q\xcf\x93\xd5\xbf\xa5d?\'\xd3\xfa\xd6?J2\x87W\xf6\x9a\xb9\xbf\xc8%pa\x87\xe6\xd7\xbf3\xcd\x91J\x0e\xbe\xe3\xbf\xd6\x0c\xaa\x1b\xfe\xb6\x84\xbf\\\xbf\xc3\x0fsd\x98\xbfSe}\x0e\xe5\xc1\xd7\xbf9\xa1\xd9\x93=\x0e\xa5\xbf\xc1s\x91CI\xc8\xd0?\x13Z\x0c\x17\x03]\xd9\xbf\x0cjle0R\xe4\xbf\xbe<\xac\x01)\xd2\xb9?#\x8ag\x96\x86\x7f\xdb?\x16\xd8\x1bkE\xa0\xe3\xbf\x97\xc3\xaaC\xbe\xcd\xd5?\xbbu3\xa9\xc5\xb0\xc2\xbfH\x08\x1f\xe5K\x7f\xd6?\xb7\xe9t.eH\xdd\xbf\xdc\xc9Z\x94 \xca\xa3\xbf\x0c\xc67ePb\xc3\xbf\xab6?\x14\x11\xc5\xe4?\xb8\x85\x84\x90.\xd1\xe0\xbf\xb6\x1c\xf3\x93\xa5\xa7\xd8?\xf1\xd7*\x95SD\xe0\xbf\x1e\xa9c\xdf&\xc1\xe2\xbf\\\x92\xbfp\x94\x0f\xcb\xbf\xabG\xb9\xf9}[\xcb?\x14\xca}\x15\x85\xe2\xe4\xbf\xcb\x80\tZH\xa9\xb5?\xd8\xccb\t\x15B\xc3?\xecV\xf1\x83\xba\xe7\xcc?\x02TUY\xde\x89\xdd?\xe6\x99\x10\x8cq@\xbb\xbf\xce\x1e\xe6\x15gP\xd7?7!)N5\xa4\xe3?\xdb\x9fH\x13\xa9U\xd2\xbf\x80~\xa2\x82\xaa\x93\xd6?\x0bBJ\xb6\x93d\xe0?[j\x85\xcb"\x99\xdb\xbf\xc72\xc3\xa8p\x91\xd6\xbf+ki\xa1Pp\xc2?,>\x13l\xad\xb8\xc1\xbf\x9d^\x06\xebt\xb1\xd0?/p\x08*\xcc!\xa0\xbf9J\xae\xf3o>\xd8\xbf0\xf3\x98=\x08\xf0\xdc?\x13q\xd5\xfa\xc1\xda\xd0\xbf!\xefe\xcc\xb9x\xbf?\x16\xb53\xcdc\xeb\xe1?H\x9e\xe4\xf7\x1c\xc4\xad?\x00\xcd\xe5\xb3\x96\x17\xb6? #/\xde\xfb\x8a\xe5?j}.\x1c\xe5\xd5\xd8?\xea^\x91\xb8\xe9p\xe4\xbf\xcf\x10\xcdnT\xa8\xcb?\xa1\xb3f\xa1\xb9\xf5\xd9?9\xe6\xc4%\r\x86\xc1?\xde\x9e:\x93<\xc1\xe2?\n]\x8a3\x0eJ\xde\xbf(\x1b\xe1\xb5\x19\xbf\xd1?\xbd\xd9\x00U1\x0e\xc2?Y\x83SL\xa9{\xc7?\x1f\x00.Y\xe4[\xdf?Y\x93\x8a\xb2\x12a\xdd?\xd4X\t\xe01~\xbc?u\x15\x16l\xd1^\xd3\xbf\xb3\xa9\xd0\xa7\xdah\xcd\xbf\xb2\xeeHh\x077\xd6\xbf\x1d\xc8V\xa5C\xec\xe2\xbfA\xb6>E:/\xe4?u\xc3=\xa6v\\\xd2\xbf5g\xcca\xe9\x16\xd7\xbf\xec\x12*\x85\x923\xe4?\xa9\xdcW\xbb\x86\xba\xdb\xbf\x1e$\xe5\xfb\xd8#\x8e?\xed\x1c\xeb\xef\x01\x0c\xc5\xbfd1\x86\xda\xf4\x1b\xd2\xbf\xe3q\xeb\x9f)\x8e\xe4?\x9a&_)\xee\t\xc8?\xc6\xc8\xc7!\x16\xf8\xde?N\xf6\xa2huS\xd6?\x1a\x1b\xcb|\x92\xef\xe2?-\xf5aW:\x84\xdf\xbf\xdf\xeb\xb1R\xcdq\xaf\xbf+mf\xa1\x80X\xda?b\xf0W\x96\xd6\x9a\xbc?%\xde]\xbc?Y\xdb\xbf\xbb]\xb8x\xc1e\xd3?\xae!\xa2\xdc\xb2;\xc0?\x83\xcdS5\xd43\xd3\xbfm\xb1 \x84\x9a\x9c\xc2?\x7f\xe4\x1c\x04\xdc\xb6\xe3?\x96c\xe1\x0c$\x13\xde\xbf\xc9\x18\x8f\xda\xe9\xdd\xc8?\x18\\v\x01\n\xb3\xe0?P\xef9K\xb8\xde\xdb?Ac#R\x81\xc1\xd9?\x18\x1dx%\xc3\xd2\xda\xbf\x89\x08\x87\xd0i\r\xe1\xbf\xbc\xaa\x1f\'\x87\xc0\xbf\xbf]\x0e\x84\xb9U(\xa1\xbf\xe4<\xe1\xc3\xef\x03\xd0?Fq\xa8;\xdb\xd0\xc7\xbfDyIz*\x89\xb3?\x8a\xd8[\x82\xb4\xa8\xd5\xbf\x0c\x80<\xccs\x01\xd9?\x84#\x92\xac\xab\xc7\xc5\xbf\xb5\xac\xa8\xb6.\xeb\xe0?\xb7a\xfa`\xeb\xc6\xdd\xbf\xd7\x1f\xea\xd5\xf5\xe3\xd6?\xe2\x81\xb0*\x84\x15\xd4\xbfD\t~\x14\xc1\x9b\xd9?z\x9b\xbe\xbat\x83\xe0?;V<\xeb[\xa0\xc8?\x80\xba?\x92\x01\xd1\xc2?\x10\x0c\xaf\x86lM\xe2?\xe8\xf5<\x91\xf4\x8c\xc1?\xc6&\x14=\xf9\xd5\xd2\xbf\xa7\x17k\x8dpv\xd1?\x98_+\x8c\xd1\xf8\xdf?I\xee\xb2\xa2cl\xe3\xbfO#\x10\xfeK\x11\x90?\x95\xed&\xa2q\xd9\xcb\xbf\x8a\xb8\xa7\xe0#\x7f\xe4\xbf\t\xeftC\xaf\xd8\xd5\xbf \x97/\xd1L\xe9\xe2?u\x05-T\xed\xa7\xd0?E\xc6\xad\x0fv\xbe\xde?\x12\xa7\x0fW\xb3\x90\x8d\xbf\xb1\t\xc5\xf6\xe6\xc5\xdf?T_\\\xb0\x9a\xc3\xdf?\xc8\riD\xa2C\xd7\xbf46\xbd\xd8tj\xd6\xbf\xd5\xa8L\x9ayW\xdb?P\x049cb\xb0\xd6?\x9b\xd2\xe3\xc1\xa4\xf4\xce\xbf\xfeh1\x12\xf2\xca\xdc?\x83\x11\xac\xcc\x82\xa4\xb3\xbf@UQ\xcbV\x15\xe2?\xa4G\xe3\xf5\x96\x0b\xc0\xbf\xa3\xb9\x14\xfe\xfa\xc4\xe6\xbf\x93\x89E\xa7Q&\xe1?n\xb7\x80;\xff\x7f\xc8\xbf\x9c\x07\xedD\x1a5\xc3\xbf\xbe\xbd\xd8/\xc2\xc2\xd0?2\xa0gs\x87.\xb1\xbf\xe4{\xca$\x9e9\xce?#k\xc7q\x16)\xd9\xbf\xb3\x0cq\x11\xb0\x86\xe2?\x84\xb3C\xd0T>\xe0?C%a\xef\x84_\xd5?\xeaq\xac\x1a\xa9\xe7\xe0\xbfo\xb7\xe2T\xc9\x96\xdb?\xe7_\x0fk\xfa\xde\xdd?\x8a\xc0\x87\x0bU2\xe0?\r\xf9 \xf0\xf3z\xc0?\xa6\x98#\xddC\xcb\xe5?"w\r\xeb\x04`\x80\xbfu\xa1\x15\xb3j\xff\xe2?u\xe7\xa8\x06\xd0\x13\xe1\xbf\xb9\x98\xac\xa7\xb2p\xe6\xbf\x80#\x0bsY\x9f\xda\xbfn\xdbv\xec\x93\xcf\xe3?\xa1\xe80\x028|\xd5\xbff\xd4"]Uf\xd0?\x08\xedq\x18\x16\xa1\xd9\xbf\xe2\xcc\xe4\xd5\xe0\x1c\xc3?v\x04\x03\xe7\x81\xbe\xca\xbfm\xe6\x8c\x94\x04\xa0\x8b\xbfXv\x862\xae(\xdd?\xde\x02\xbc\x97\x02`\xe1\xbf\x9fT\xa8/\xf3\xcb\xc9\xbff`\xb3\xa2\xab\x86\xc8?\x17\xac\xe5\xd6U\xd3\xc9\xbf\xc6\xfaf\xfb\xffl\xe2\xbf\x98\xd53\x88\x8bx\xb5\xbf\xf5\xd8\xa8\x98\x87Y\xb3?\x90c8\x08\xf6\xd9\xa6\xbf\xc1\xb4\x97rg\xee\xdf\xbfs\x99+\xf3i\xe9\xbd\xbfA\xd8\xba\xce\x8f\xe3\xb1?\r\xa6\x00\xe5l/\xe3?B\xaf\xa0mNg\xe3\xbf3\xd5\x17\xb3@"\xd3?\x91\xb8\xfb\xd8\xbbe\xdb\xbf\xbc\xd24\x08\xbe\xca\xc9\xbfe\xb4\xb3\xb2?\x99\xd5?\xcb\x15\xb9\xbf\xb1\x1bo\xbf\x17\x17\x9a\x99\n\xd4\xa3?,\xc9\xf7\xea\x01\xa1\xd9\xbf\xebz\xc7S\nj\xca\xbf9\x03\xf5\xb623\xd6\xbf\x97\xe9\xbd\'\x97\xd4\xca?\xa5J\xdeI\xd62\xcd?@\x02 W\x11\x96\xd1\xbf\x7f9ATm\xd3\xc5?\xab\xaf\xeb\x19\xc2d\xcc?\xf9\x0f\x9aJ\x90\xcb\xdc?\xe0\x0c8ECK\xe0\xbf\x9b+\xe3l\x9e\xee\xbe?\xbcE\x0b\xfaA@\xc7?\xba\xd6\x96"/\xf8\xe3?\xc4r\xf6\x1a\x01b\xe3?\x1bD*Z\xa1\x1b\xe0\xbf\xeb\xd6+W\xcf\x0e\xb2?\xe75\xf6|P\x12\xe3?\\O\xbb6\x03b\xd5?%\x07\r\x96\xe8S\x99?;=\xae\x1f\x05\x0b\xe2?\x17})l\xa2\x96\xc4?t\x1a\x0f\x85\xafo\xd7\xbf\xe2\xb7\xe0\xc6\x9d]\xe3\xbf9\xcc?\x15%\x14\xe1\xbf\x8a-\x97\x80Y\xca\xe0\xbf\xa4\x93\xe8\x99%\xb3\xc5?\xef\xd2\x84\x18q\x18\xde\xbf\xa7\xd3\x92\xe2>_\xe6\xbf\x11\xc5I\xa2\xeb\xd1\xb4\xbfr\xcb\xf6&~\xb9\xd2?9\x81\xb0r8\x11\xe2?\xa8\xd4\xbe\xad\xa6\x87\xe2\xbf\x06\xf7\x18A\xfc\x8b\xcc?C\tCe\xcb\xde\xd1\xbf~\xfd-G\x8c\x1f\xb3\xbf\xb4\xf5\xaa\xfc\xf6\x8f\xce?\x91C\xaf\xcc\xe7\xbf\xdd?]\x89\xf5p\x91\xf7\x84?{\xce%:\x1cn\xb0?\xdf\x1a\x11\xd4\x9am\xe3?Y\xb9|\xa7\x02\x13\xd0\xbf\xc6q\xb1^\x8c\xda\xd3? \xcd\xde\x9eD\x17\xe5\xbfb\x80\x12\xe0\xf2D\xd9\xbf9\xcfaI\x10\xc1\xe1?\xce\xbfF\xcb\'V\xa9\xbf\xafzwj\x10\xa7\xbc?ro\xe5k\x0c>\xae?-^~K\xf9K\xe4?\x87\x96\xe7(\x97\xd7\xd7?K<K\x17\x8a<\xd0?\x03x\xe0\xce\xf0{\xd1\xbf\x91\ro\x97\xf3\x80\xc9?\xe2>M/\x91\xe9\xc2?M#\x9eM7\xbd\xdc?\x1b_9+\x80o\xce\xbfwY\xf2\xea,\x12\xbf?\x8d\x98\xde\'32\xdf?M\x83\x94\xe0+\x12\xd2?H\xa0P\xc7\x80\xe7\xd3\xbf\xa8\x1c^\xdf\x84\xa4\xc9?u\xe2\x0f\x08\xb1\xb1\xcb?\xc0\xed2g\x97*\xcc?!\x9d\x83\xdc\xb1\xe1\xe4?\x9d\x03\xa4w\xe8 \xaf\xbf\xb5\x82o\xa1\x99`\xd2\xbf\xa9D\x97\xde\xd4\xc3\xdf?,\x12WZ\x14\x98\xe0\xbf\xcc9=\xde\xb9\xc0\xd8? <\xf1\xea\xf8[\xa7\xbf\xfe\x93\xde\xc9\xc6g\xd6?1oF]\xee\xbe\xd6\xbf\xc1\xc1\x9fUR\xa9\xa4?\xcf\xc6\xcdh\xd8x\xd6?\x1f\xf4\x85V\xbe\xdc\xe3?h\xad%\xa4\xf3g\xe5\xbf,\xffr\xf3\x0f#\xd0?\xed\xa8\xc3[\t\r\xd5\xbfu(\xa7h\xb4\xf0\xd9?\'4u\xade\xda\xda?g\xb9\xdc]\xa5\x92\xe1?\xcf"y2\x80l\xe2?\xa3.\xf4t>\xd2\xe3?=\xd4_\x07\x88\x93\xe0?z\x8d\xa1\x06\xe22\xb6?ir\x87\x19=G\xbd?$5\xd8\x8b\xd4$\xe1?\xdfeXM\x06\xa9\xcf?\xac\xa6\xca\xb4WF\xd2\xbf\xa5X\xf9!\xc3{\xdd\xbf,\xdd\xb5\xccX\xa7\xe0?\x9d\'\x0e\xf8\xe8\x10\xd4?\x92\x93\xa6\xd4\x04J\xe2?\xae\xbfA\x98O"\xdf\xbf\xf7\x06\xbc;XR\xc7\xbf\x16N\xe7f\xc7\x83\xa6\xbf>\xc4\xc3m\xa9#\xe1?\x9d\xd3\xb2e\x88\x08\xc8\xbfJ\x03\xd1a\xe62\x9d?\xd9\xa8=r\\l\xd2\xbfd\x19\x05\x18\xc0\xe8\xda?W\xa5]#\xab)\xd0?\x03\xe7`qC~\xc2\xbf]iJ\xa1\x0em\xe5\xbf5\x10P\xdd\x9bT\xe2\xbf\x93\x1b\x0f\xb2\x8f\xfe\xd7?`V*\x18i\xbb\xd3?\xc5\x9d!\xd6\xe9\xd7\xd3?\xc3\x9f\x0b\x07;\xfd\xdd?(}\xa1\x15\xb5@\xe0?C\xe5\x8e\x9a\x1b\xbd\xd0?\xc0\xc1\xc1X\x8b\x95\xa1?[-\xf8\xf2\xf0c\xdd\xbfX\x8f\x90\xf2yN\xcb\xbf^\xfbT\xc6\x1fk\xb9\xbf\xfa\xef\x955\xbc\xae\xb2\xbf\x1e\'\x87\xce\xa7\xf6\xe0?\xe51B\'\x1d\x01\xd4?T\x8e\x9f\xa3\x00\xd3\xde?p\x05\x03\xc6\xe3U\xd2\xbfb+gV\xfb\xbf\xd1\xbf\x9e\xb5Z\xb1\xc8\x1e\xc3\xbf#\xc3\xcc\xa6\xa9\r\xc5?\x145\x9c\xd3\x8cs\xc1\xbfX\x83"G\xd0\x9d\xd4\xbf9\x1b.L\xda\x0c\xae\xbf\x1cF\xda\xcdJ|\xe4?\x93=\xc5\xdd*n\xd9\xbf\xcc\xb4\xdbEZ]\xd8\xbf\x84\xf4;~`\xf7\xb3\xbfuP\xed\xc2\xedo\xd0\xbf\xab\x88\'\x9c \xf0\xdd?\x02:\x98\xdcP\xd3\xdf\xbf+]\xd0\xac\x909\xb7?\\\xa00\xfdj\xca\xe4?=q_BlP\x9e?\x9dz\x91\xa5\xcf\xd2\xd4?\xd4\xe4\xe5\x98\x19\x99\xc2?\xacA\xdd\xe1oA\xe1\xbfv\x14\xb7\x03RR\xd5\xbf\x18\xbb5\xad\xadV\xda?\xbd\x9a\xbe\xd6\xe7\xba\xba\xbf\x97yeu\xf2\x15\xd1\xbf\xa1\x87@d,\x10\xc9?\x8d\x9bFBiK\xe2?b\x07\x13\xdd\xd0@\xd7?U\x17OT\x01\xe5\xcb?D\x16i2\xc4\x9f\xe4??!\xdc\xf6c\xa3\xa7\xbf\xe6\x07\xd2\x99\xeaL\x93?a\x8c\x97\x8d@\x15\xd9?l3a\xc0\x0e\x85\xc5?I\xdc\xcfx\xc2\xb0\xdf?\x82\x8e\xa8+\xcd\xe8\xe2?\x05alP\x88[\xe0?\x1d\xcf\xcbF\x99;\xd1?]\x93\xd9\xbb\x81\xb2\xe3?\xcb\xec\xfe\xa5\x89\xd4\xa4?d\xcf\x13\xbf\x88\t\xd7\xbf\x8e\xd0L\x14\xe0~\xd3?\xa6\xc3=\x0c0\xeaK?"R\xef\xde\xd1\xa2\xdd?\x07\xad\x16\xd6\x00_\xd9\xbfI\xb9T\xc7b_\xe1?P\xaf\x1a\x0f\x91_\xd9?n\x1cQ\xb3\xde\xa8\xd8\xbf\xbc%\xc5\rE}\xe2?P\x7f\xce\x987\x83\xb6?\x11\x89w"\xad\xbe\xd2?&\x84)\xfa\xce;\xe3?\xc7\x9f\xaey\xe4\x05\xca?\x13\xff \xa0\x04W\xdf?\x8a\xe5\xcaM\xf2\x8f\xa6?\x87\xb1G\x9f\x99\xfe\xdd\xbf"0\xfdn\xb9?\xa8?\xae\xdd\xbaR\xf8\xe0\xc9\xbf\x15\x91^\x04\x9c\x0c\xb2\xbf\xce\x90\'\xf2\xf4$\xdd?\xf7\x7f\x18\xc9w\xe8\xe1\xbf\xfe-(\x9dmk\xe0\xbf\xa0\xce-}\xcb\xb4\xe4\xbf\\\xe5l\xfb\xb0\x05\xcd?\x88"\xd39K\xdc\xc1?\x1a\x04\x1f\xd3\x82\x9c\xe0?b\xd5\x96\xed9L\xdb?\xef\xc6\xacIV1\xe3\xbfd\xce.\x0f\x011\xe3\xbfn\xab\x931#\xb0\xcc?\x0c\x9a\xa3\xa8o\xc3\x99\xbf\xdb8\xf2<\x03\xe5\xcf?\xed\xee\xde)\x81\xe2\xe4\xbf\x0e\xb8[R\\\xf0\xc3?l\xad\xbd\xd7pS\xd0?*G\xd7\\\']\xa2\xbf\x102J^|x\xb4?(um\xd0\xf1y\xd7?v\x84\x86\x90\x9b\x93\xce\xbf\x18\xfbD\x97r,\xd3?s\xea\x18\x145\x10\xe6?\x17\x07\x11\xb4@n\xde\xbf\x93\xf0\\\xb7\xf3]\xc6?]\xe8w\x82Li\xae?W\xbf\x9c\x8e\xfd\xde\xdb?\x07\xdc\xcd$9\xf7\xd2\xbf\xe3\xd4\x06\xf46%\xb4\xbfe\xe5\x9f\xdd\xdf\xa3\xd0?H;\xa5a\x16\x80\xa2?\xc0u\xf6\xa9O\xcf\xd3?\xf2\x84&u\x1a\xe5\xc9\xbf[\xdc\xa7(\xb6r\xe5?\x0ccfL5\xa2\xe6\xbf\xc1\x00\xe1\x1f\xf3O\xdd?\xd75\x83\xca\x96_\xd8\xbfC>}\x05h\x16\xd0\xbf/\x7f\x95\xe2\xb3\x13\xd5\xbf\x03\xc6\xdeC\xb3M\xd1?\xfb\x9c\xb5J\xbd]\x9b\xbfX\x08o\x0co\xbf\xdd?\xde\xbb\x9eq\xb3\x12\xe7?g)k#Z\xf4\xd8\xbf\x04\xb0\xfd\xd9o:\xd9\xbf\xad`\xd6)\xe1\xdd\xb1\xbf\xc7\xe9\xed\xccG+\xc2\xbf`\xf6p\xa30~\xc3\xbf/\x9f\xbe\t+\xce\xce\xbfW\xe94fA\n\xe1?z\x18\xd3i\x9a@\xc7\xbf\xef\x9bV\xc3$\xe3\xe4?\xbb\x813o\xca=\xde\xbf"\xb4\x94*\xd0\xe3\x90?\x94\x81\x9b\xc7sL\xe2?\xbd\xb7Fk\xd0\xe6\xd9\xbf\x91~Zr\xcf(\xdb?\xda\xc3R>\x00\xda\xcc\xbf\xeen\x90Vo[\xda\xbf\xb2>*&&T\xd0?\x91\x82\x17\x86\x04`\xd1?\x11\xce\xc5\xe4\xef\xde\xb1\xbf\xb3\xe3\x88\x85\xd5\xfd\xdf\xbf;\x7f\x97\xdf\xb3\xc5\xe3?e\x13\x02\x11@\xc9\xb7?a\xe7\x1b\x86\'Z\xd9\xbf\xc4_\xfd\xaa\xc6\xe7\x93\xbf\xfa\t\xfb$+(\xaa?\xb0t\x07\x08\xfd\xd1\xc8\xbfc}\x88\x12(\xb2\xac\xbf[y\x1c,\xb6\\\xc2?D"O\xcc\xe2#\xe2?\xa8v\x85\xc54)\xe3?\x0eD\xe8\xb4K\xf8\xd0?\xeb\x9fF,\x15>\xe2\xbfY\xed\xf2\x1dV\xff\xdf?\xf2n\xc8\xec\xec!\xa6\xbf\xc7Z\xcav\n\x96\xca?V$\xf9\x91\x16\x01\xe2\xbf\x16\xc1\x96\xfb>\x0e\xe2?\xac\'\x01v\x98w\xe5\xbf\xc7\x98\xd5\x9e\xb7\x9d\xb7?\x0b:[\xb6\xef\xda\xe1?\x87\xdc\xe5\xea\x0er\xd8?Q\x84*\xe9\xb0g\xe5\xbf\xab"\xc3\x99\x16\x80\xd6\xbf(\xa6\xcapm\xbf\xa5\xbf\x88\xf9\xfc{\x80\xd4\xc8?B\x1fZH\xce\x1c\xb4?\xcd\xe0\xb3.\x11\xe2\xe3?\xcc\x1ba\xc5!\x03\xc1\xbf\xf2i\x1dM\xdfJ\xc7?\xed\xb5O$\xa0\x07\xdd\xbf\x973v\xc5\x10\xee\xe1?\x81\x1eEo\xeb\xb7\xe3?DG\xed\xde2*m?b\x18\x85\x14\x9a4\xe0?2O>EO\x1f\xc1?\x96>8=A\xbc\xa0?\xf5\xa0y.\xa5)\xd3\xbfD\xc6#\x85\xcdW\xe4?8B\xf6\xe2\xa1\x9c\x9b\xbf\xf90\x83)\n1\xdd\xbf\xb4M\xd7}\xf4\xfb\xd9\xbf \xd7\xe7\x80\x83\xda\xcf\xbf\xda\x06\xf7\xca\xb7Z\xd1\xbf7E\x08\xd2\x9c\x10\xe1?\x96|ke\xbb;\xe2\xbf\xc7\xe6\xbfp\x82\x9d\xbc?\x86\xa9{\x11\x9a\xa2\xde?~\x91F@\x83\xcf\xc0?Vs\x03\xf57\x8f\xbf?eBS\xf6q4\xb1\xbf\x11\xb6Km,>\xe5?\x9fY>\x19\xf5w\xc9\xbf\xa8\x91=%4\xab\xd2\xbf\x17\x8a\xa5\x94\xf9\xe1\xdd?\xf0qN\x9bj\xe6\xdb\xbf\xa1\xaf\xcf\x93M\x86\xd0?\x84ws\xd7\xf2\x94\xd9?\x8d\x8d\x99\xd6F\xdb\xe3?a\xf0\x12AD\x95\xcc?\x8b.\xdb\xfc\xe1_\xcb?\x13Cd\xf4)\x19\x8e\xbf \x85\xff4js\xb7?[\xa4\r\x14\xec\xe7\xe1?\xd5\xa4\x0eU/\xe2\xda\xbf*\x91\xf5K\xa1-\xdd\xbf\x1eH\x0c\xceP\xd6\xd3\xbf\n\xf5R\xe8(5\xde?\xbc\xe2s\xff(p\xd0?\xdb*\x14\x92\xb10\xdc?\xbf\x82>#\xfd\xab\xd7\xbfw*#\xb7\x0b\xdb\xe1?\xd4\xf4\xe8\x87(\xf6\xd4\xbf\x87\xa1\xc8\xb3(\x88\xd6?\x15\xa1\xb9?\t|\xe1?@j\xa5t\xd2\n\xe0?\x94\xc5\xa8\xd0\x83C\xdc\xbf\x0c\x819\x8e9P\xd3?\xc4\xf5\xf7$\n2\xdd\xbf\xbb\xa7\xb3\x8c\x9f\xc6\xb1?\xef\xaag\x1f\xdb\xe4\xa0\xbf\xc7\xebo\xea\xb2\x0e\xd2?\x802\x82\xab\xcd\x98\xdf?\x1cJ1\x95\xefH\xe2\xbf\x00\x06\xd1\x0bcS\xe2?j\x1b\x0bB\xba8\xe2?\x86f\x8cvUG\xe2?\xf3d\xb1\xc5\x1d\xc5\xd1\xbf\t\xfaJ\xfaM\xb2\xd5?\xe6\xaf\xf8h\n\xc2\xb7\xbfOp\xc9v\xff \xdd\xbf\xd0*(ZlQ\xd2?\xb2\xc5\x17+\t\xee\xd7?\x85\x97\x83\x89\x14\xc7\xc5?i7?\x19@p\xbd\xbf\xc2\xc2\xa6W:"\xd5\xbf\x8e\x90\x1dYA\xff\xd7\xbf\xa3\xb8\x11"\xba<\xab?\xbe\xac\x16\xde\xa71\xdd\xbf\xe6(\xaa+\xdb;\xdb\xbf\x87\x0b\x0c\xb9\xee\xd9\xe0\xbf\xe5\xc4\x9a;6\xf4\xd2\xbf\x91\xcd\x07\x06+\x8b\xe1\xbf\x85\xc0\xa4\xfe9\x1d\xd2?./\xe7\xe3\x97$\xce\xbf\x8f-Qk\xd3\x8f\xd0?3\xf9\xad\xa5\x0bP\xc7\xbf\x11\xe4v\x91\xab\x9e\xc2?\x95E4\xd0\x89\xc1\xc3?\xeaa\xea \x9a{\xc6?\x98\xc8u%\x0b|\xe1\xbf\x9e\x05_Y\xfb\x8c\xdf\xbf\xf9\xfb.\xb7\xd0DX\xbf\x12\xb6\xdai\xc0X\xcd?T\xa1\x81+\x1f\x17\xe3\xbf#\xc8sUL\xa8\xd5\xbf\x85"\xb5\xc3=\xde\xba\xbf\xe2{,o\xc1\x88\xdc?-\x94t8y\xbf\xe0?\x9cU\x05\xf0B\x17\xd4?.\xd8V\xff\x19\xe5\xd5\xbfe\xd9\x17\'\x05\x18\xcf\xbfr\xeeT\xc4\xda\xb5\xc2?\xa5\xd8r3pp\xe5\xbfy\xed3\xc6\x83\xee\xca\xbf$~\'\xbcrc\xe4?\x0e\xca+\x1f!\xa0\xd4\xbf\xe3\xea\xadE\xf3\x94\xe0\xbf\xfb)\xd5~\x8fe\xe1\xbf\x8f7\x98\x9fA9\xe2?\x96\xb2\xea*\x07T\xdf\xbf\x81,\x9d\xba\xe8*\xe5\xbf\xa5\xcabGr\xe5\xd0?\x92\xe2\x8ei\xa1y\xd3\xbf\xea]\x03q\x91?\xc4?\xcc\xf8M$\x08\xb2\xc8\xbf\x1f\xd6\x90\x0f\xfc\x11\xe0\xbf!"q\x81\xef\x01\xda\xbf\x18\xf7\x9d-\xe0\xf5\x7f?\x80Ah\x8b\x8aN\xc6?\xfe\x83\xa0\x16\xfa[\x9a\xbfgt\xfc\x9c\xa0\x86\xaa?/\xc6\x9c\xfb\xe0\x8c\xde\xbf\xdb\x85\xdf\xb7$\x99\xc1\xbf;\x15G\x0e\xcd\x9c\xd5?\r},\xf4W\xaey?\x9f\x96\x1d-rH\xe2?1X\xfd\x8a\xd7\xfc\xda?\x98\xbd\xb2\x9e\x1c\x05\xe2?\xe4\xc4\'\x8b\xf3\xe2\xdf?sE\x96\xab\xa9U\xdd?\x06\xa5\xb6\xc1\'\xef\xb2\xbf\xff\xbdf\x97\xcdk\xcb\xbf\xe5S/}\x93\xdb\xcd?\xe1,\xa4b\xf6\xb6\xe3?|\x9a]2\xbd\xbd\xe3?\x01\xd4\xc1\x076z\xca?\x98<\xa1\xeb\xcco\xb2?%\xacXK\x1a\x1c\xe0\xbf\xc1YQX\x08G\xc1\xbf\x17+#\xb8$\x12}\xbf\\\x999k\x0c\x1e\xc4\xbf\xe7u\xac\xeb\xab,\xb3\xbf\x84\xe5\x1e?\xdbH\xd8\xbfz\xf6=\xdc\xa0Z\xb8?/\xf8\xec\xf9\xbcF\x97\xbf\x84\xb9P\x05\xf6\xcb\xb6\xbf\x1aXA=&\x82\xd8\xbfU\x08\xe8H\x8b\\\xcb?L\x1ef\xd1\xa13\xd7\xbf\x04\x846\x04,\x8b\xe0\xbf.\x98g1\xb8\xe1\xd0?\x04\tk$E\x91\xe0\xbf\xfa\xd0).\xf9\xf1\xc7?K\xfd\xeb\x83\x0b\xeb\xe2?\x11*>@A\xa5\xc9\xbf\xa2o\x7fH\xcf\xf2\xe3\xbf\x9e\xa1X\x90\xca\\\xe3?\x9d\x17\x82\x88\x900\xd2\xbf\xfa\xd6X\xdb\x11\xb3\xd8?\x19\xac\xc7\xad\x15\x17\xcb\xbf\x98\xcd\xf6\xcd\xcc\xa3\xcd\xbf\x0e+yA}\xbb\xd9?\xd0\xd8HfR\x93\xdc\xbf``\xb7\xe6\x0bT\xc4?\x0fDP\xc8\x8d|\xcb\xbf\x94\xaf\x00^#\xf2\xcc?\x0fYRI\x8e{\xd8?\xfd\x06.\x89\xaa\x00\xd7?\xa9o\xa3\xd0\x96x\xdc\xbf>\x9e\x95\x7f?&\xe7\xbf\xc3_\x1bx0-\xc7?z\xaa\x1dL\xd6\xc1\xe3?\xa2\xd1\xed\x15\x1c\x04\x81\xbfZ\x00\xea\x1ae\x02\xda\xbf\x84\xe1\xd2\x96L\xe4\xe0?\x19\xb6\xfe}L4\xb4\xbfm\x00=\'\x9aO\xa9\xbf\xfbM?\xb2\x98\x9c\xc9?!a\xcb\xc5\xdc\xe3\xe1?S\xe4M\x8b\x8cH\xd6?\xce\xe8P\xec\xda\xa1\xe3?\xfb\xacm\xc2\x97\xc0\xe0\xbf\x0e\xac\x81\xad\xe9\xc3\xdb?\xd9\xc8\xa7\x1cC\x14\xbf\xbf\xc9\x7f\xc1\xffT.\xe3?\x16\xc7Ex+\x81\xd2?q\xe5S@+\n\xc8?#\xc3\x90A\xe0V\xc6\xbf\x90\xc8\xd4\xbd\x18\x04\xab?\xf0f\xfa}\xc0\xe0\xd8\xbf\xc7\x90%\xa9qQ\xd3\xbf\xfa\xf0\'\xed\xb2\xf6\xa0?\xabr\x01:\xb9\xe4\x88\xbf\xc6\x7f\x1cua\xe8\xdc\xbf\xf8Y\xc3\xc6\xe3\xec\xdf?BN,\xca\x07\xe3K\xbf\x8b\x91\x0c\xaa5(\xd6?\x92]s\xab\xb2h\xcb\xbfv\xc8\xbd\xbfmMV?\x9cV\xcda7\x98\xce\xbf\xea\x0c~r\xac\'\xe5\xbf\x9cDD]bJ\xb6?3)D\xfd\xfc\xa6\xd3?\xe5\xda\x9b\x99\x13\xda\xc8?V\xab\x0e \xf9`\xda\xbf\xc5\xa5\x15\xb7\x9e\xb9\xe1\xbf7\xd4\xff\xc0p\xd5\xda\xbf\xc0\xa1(\'\xb9\x0b\xa6\xbf\x7f\x9f)]>;\xe1?\xa7Qoo\x00\xcf\xda\xbf)\x19\x83\x8f\x80%\xd8\xbf\x16\xf6\x14\x83A\x0c\xc5\xbf\xe8\xa3\x90\x88\xfa.\xe6\xbf\x0e\x18\xbeC\xa6\xb9\xe1?\xbb,Le\x18\xc8\xe2?\xd5I]\x1a-\x16\xe3\xbf^\xc8\xd1g\x05\xe7\xd1?\xffl\x15hO\x17\xc0?\xe3J\x8f"8\x0b\xd3?\xfd\x08\xe8r\x96\xaa\xd9\xbf\xc6\xe1\x17.\xbc)\xd5\xbf\xc6\x9d\xeaf\\\x07\xd0\xbfMI1R\xf3T\xa1\xbf\x95\xd3$\xdd\x96\xe8\xc1\xbf!z\xd8-#_\xe4\xbf\xa0\xd9H\x1c\xc6\x91\xdf\xbfA\xb08~8J\xcf?N\xc4\x9c\xbb\tl\xd2\xbf\xc9y\x8a\xd02\x81\xe3?A\xaab\xf0R\r\xc7?\x12\x96\xe0\x07\xf6\xe7\xe1\xbfR\x0b\xb9q\x12\x9f\xcc\xbfPT:\xe1b\xf3\xe1\xbf\xb3%.\x8e\'\xad\xd0\xbf\xd4\xebN\x91.\xc7\x91\xbf}\xbfW\x89W\x07\xdb?\xe4\xeeFJ&\xa0\xe3\xbf\xf5\x0c\xa8e\xdf\xc2\xe3?J`\xd8\\z \xbb?@\x15\xee:\x003\xe6?M\x8d\x12X\x15\xb7\xd2??\x85\x9cy\xa7\x93\xd8\xbf\xeb\xaay\xba\xc5\xcc\xe0?\xde!\xcd-n\xbc\xe1\xbf\xf2\x1a\xc5\xd9+&\xca\xbf\x95\x05\x8a\r~H\xd3?\xaa`\x16\xdd*\x17\xe1?\xcbd\xfb\x9dL8\xc9?uV\x12\xa3\x1ad\xe0?V\xf9\re\x1b\x95\xc9?L/\xb72f\xdf\xdc?)\x8cS\xdbG0\xd1?\xc7\xd6\x1a9\x08\xd7\xc7?\x94\xbfu\xe2\xe0\x1a\xa8\xbf\xbeH\xbf\x0c\xfc\xef\xe2?\xb8u\x08\x8a\x9b\xaa\xdd\xbf2~K29\xb5\xd1\xbf\x07\xc3\x00\x85\xa3\xf8\x90\xbfE\xc7]P\x88\x07\xda\xbf\xbah;\xac\xf3\xd9\x90\xbf\xa6\x02&K@}\xe3?\x1cxvP\x18x\xb4?\xba*{i\x14\xe3\xc9\xbf\x85]\xbb\x8d\xf6\x8f\xbc?\xf9\x14n,X\xad\xc3?\xd9\x9e\xf8\x8b;\xfd\xd2\xbf\xde\x93\xed&s\xea\xde?+\t\x8e\xe8&\xe6\xdd?\x12\xd6\x99!]\x98\xc1?\x82\x08\xff\t\x04\xb9\xe1?\xd3\x01\xd1\xe2\xfa"\xbe\xbf\xa0\xf1\xe3\xbd\x88\x9b\xd2\xbf\x8d\x9aU\xdb\xcf\x9e\xc2?\x9b\x8f\xf9Qhh\xdb\xbfC\x9b&\'>v\xe6?\xecI&3S\x11\xbc?W\x0f6\x17\xda\xbc\xce\xbfoWn\xe7v\xae\xdb?\rXE\xa3D\xec\xd5\xbf\xbf\xaa\xae\xe0z\x1f\xe5?\xbc\xc4\x86\x9f\xe4\xb2\xd6?\xff\x18\x0fg\r\x9f\xd8?\xc0\xc3\xb7f\xb0Y\xdb\xbf\xea\xd0F\xb1c9\xe3?=\x01N\xfa\xd1<\xd2\xbf\xe5Z\xebafW\xd8?\xf6\xbeGG7-\xd7\xbf\xfe}\xcb\x1f95\xd5\xbf\x9e\xa0\x90V\xa8\x12\xcc\xbfg\xd8\xa2\xf56G\xe3?>\x1d\x16\x87\xa0\xdc\xcf?\xb7\xeb\xccf\xa9I\xe5\xbf\xc2\x0b\xbaT%&\xe5\xbf\xa2n~\xa1\xecN\xd1\xbfe\xcc\x1a\xda\xd75\xb9?|\xf0G\x7fgX\xcb\xbf\xfe[2\xb5\x1c\xe4\xe2\xbf8b\xda8\xb3\xa8\xd3?\xfa\x8b\xbf\xcf\x16}\x9c?kX\xb3f\x1d\x13\xd0?\xd2\xf1\x02\x90n\xcb\xd0\xbf\xff%d5\xd9\x10\xdf?H\xe4]%o,\xe2\xbf\x9d$\xdb|\xa4\xa9\xe4?`^g\xd4>:\xbb?z\xcd\x14\xd40G\xe0?\nC\x0e\xfb\xd3\xd8\xda?-\x95\xfb\xb9\xaegt\xbfB,0\xff\xb1\xaf\xd4?\xe7\x8d\xb1\x9fRT\xd3\xbf\xcb\xd8\x16\x1b{y\x9a\xbfL:x\xf2\xc3g\xdf\xbfK\xee\xe6\xa3\x9f\x9a\xb0?C\x8f\xba\x91m6\xe4\xbf\xc3^f\xa01\x8f\xdb?x\x96\xd9\xe9\xf1v\x88\xbf0%\x15I\xab\x18\xaa?\x92\x08\xa4{\xaa\xeb\xd2\xbf\x10\xa6\xd7\x02\xde5\xc7?^\x9b\x94h]o\xdd?\xee\x982\xb6\x88a\xb1?\x11~\x1fpj\xad\xbd?L\x1cu=\xd7\xb3\xd4\xbf\x82\xb0#X\x0fz\xe2?\xa6\x99\xd8F?\xbc\xd2?\xca\x1d$N\\\x06\xbe\xbfm\xaf\r\x94Xq\xe5?\xa1\x9a\xe2\x13\x1ce\xd5?\'\xde\xd4R\xfex\xd0?\xa0_\xce\xd4A\xbc\xe0\xbf\xcc/\xe8\xfdB8\xb3?\x16\xbe\x91\xdd\xe2\xaa\xc4\xbf\xf3\x82^\r\xb3\xab\xe4?\x8e\x15\xac\xf0\xf6v\xbb?9\x88vOX\x95\xc0\xbf\x82\x1c\x12\xd3\x05\xd9\xd7?\x13\xab/fg\x83\xc8?\x89\xbc\xfc\xc0\xa0N\xe4?\xd5\xad\xcf\xa0U\xbb\xd2\xbf\xe1E\xb3>I\x83\xd9\xbfG@\xe2\xe7\x9bW\xba?7\xc1\xdd_\xcf\t\xd4\xbf\xa6\xff\xc8\xaa\xc2T\xe0?\xed\xe5\xda\xc5\xce\xd1\xda? =<L\x90\x92\xe0\xbf\xf4\xc4zQ\xae[\xe4\xbf\x07\xd0d\xe9n0\xce?1\x0c\xa2\xe6f\xb2\xce\xbf\xecmc\xe9\xa0\x18\xd1?/\x9fs\xbe\xce\x8e\xd0\xbf\xf7\xbd\x89\xf49\xa4\xcf\xbf\xf1\x1b\xb7\xfc\x84\xaa\xcb\xbfh\x93\xd9\xf8\x19\x02\xbf\xbf\x12\x1e\x86\xc6\xaf$V?+|\xab\x19\x98Q\xd7?S\x98\x8b?\x80\xe1\xd6\xbf\xdb\xb9\xd80\xc3l\xd9\xbfw\xaf\\\x8b\x97\x84\xb3?\xaf/\x84\x88\xd1\xce\xca?G\x97"\x19Od\xd3\xbf\x7f\x9a\x1cY\x9ft\xd8\xbf\x13\xaeu\x01\xb8(P\xbf\xc6\xcei(\xae\x14\xd5\xbf\x82\xae\n\xd7\xca_\xd8?\x9e\xb1\x00\xae/\xbb\xe0\xbf\x0b\xb4#\xe5\xde\x88\xe2\xbf?\xecT\xa7K1\xd9\xbf!\xe6kQ\xbbJ\xe0\xbf\xe9\xd8\xbd\xd3\x97e\xe5?\\\x00\xb5\xc17C\xe1?\x8a\x18Eg\xdf.\xc7?\xf9\xcb\xe3=\xd6\x12\xe0?)\xcd\x0c\x83\xe8\x01\x95?\xa0#\x19\x17\x1d\xbc\xe4\xbf\x05+H\x1c\xe4t\xc1\xbf\x04\xc8h\xf6\xed\xfa\xb4?\xd8G\xa1\x88j\xbd\xdc\xbfCC\xa5\xc03,\xce\xbf\x0b\xdfi\x90\xb8\x03\xc3?\x15\xca\xea\xfb\xc8\x15\xc2\xbf\xf4\x9af\x12\x9d\xaf\xc4?\xedIR\x9e\xe0\x07\xdf?\xd4\xcf\xe1\xf5\xd9\xdb\xd3?\xb4\x13\x1d\x9c\xda\xbe\xe4?\xcb\xd7\x9d\n`\xe5\xd6?\xe5;\x07\xdc\xbe\xa2\xd4\xbf}\xca\x99\x16b.\xe0?*\xfa\xee\x85\xca\x05\xcf\xbf\xf9\xcd\x15\x00\xe3\xb8\xcf?8\x18I\x8a\xb7s\xe0\xbf{\xa9\x95\xba\xdf\xb1\xd6?\xdb\xf4\xd3s\xd5\xce\xe4?\xd9+q\x11\xc2v\xe1\xbf\xe2\x1eVK\x0e\x02\xac\xbf\x0b\x1f#u"\xf6\xdc\xbf\x8c\xf1\x18\x01\xe5C\xc5\xbf\xd9\x0f\'1\xd1\x81\xc6\xbf4\xde\xfc\x04\x17\xca\xcd?\x1f\xd2\xb9xy\x00\xb2\xbf]\xa2\xf7^Z\x8b\xca?"\xba\\\xc4\xe3&\xc0?\x9a\xdbX\x19?S\xd7?\xa1C\xacn\xfcR\xd3\xbf\x90"\x0c\x90\x97L\xa0?\x19\x9c\xb5N\x13\xa6\xdc?3\xb9\xcd\xc9\xc0\x05\xd3?\xd6\x03\xd3I?\x7f\xe5\xbfC\x84\x0f!\xd1\xd2\x94\xbf\x1e\xbe^9\xda7\xd6\xbf\xc6\x15\x8cD\xdb\x9c\xd3\xbfo\xa0:\x14\xeb\xd7\xc8?\xd5\xeb\x9c\xc8\x00\x93\xe1\xbf\xe3\xfe\x92\xdb\xc2\xbb\xe1\xbf\x7f\x9eqX\x10\xa9\xd2?\xd0\xea\x00\x02\xd4\x06\xb3?\'\xaat\x8fs\xe0\xdc\xbf\xf6_Ec\xf8\xe4\xe4?\x8b\x0c\tiqb\xe3\xbf\x83u\t\x02F\xe5\xc3\xbfW4\xd4\xe4\x84\xb9\xe4?\xcb\xc8\n\xbc|\xd9\xb7\xbf\xb5_\xe85\xa9t\xb9?\x1f]T\xe3O\xf1\xe1?\x8a\x15\xf4B\x86e\xe3?\x14l\xd1\xecM\xbc\xac?}\xee\x00NS\x1f\x97??\xb1\xfd\\\xe0\xd7\xdf?\xa5\x8a\r\xcb\x8a<\xdf?\xad?e\x13\x16\x17\xe3?y*\x96\x87\xd0\xdb\xd7?\x95\x9b\\\x068\x16\x87?\x8b\xda\x1a\xeeu5\xe0?\x1e\xa0\x8a\'^\xc6\xad\xbf\xc2\xe8\xc4\xcc\xb5\x93\xd2?\x9d>1\xa5)V\xe2\xbfg\xbdL\xcaP`\xc7\xbf\x93\xb0u\xef\xc3a\xe4?\x1a\xb3t\xa1z@\xde\xbfg\x92dH\xe3^\xbb?3+\xd0\xf0\xc0\x97\xdb?\xd2\xd2\xc6\xbbDY\xdb?\xcb\x8c" \xffd\xaa?\xa1\x061v\x0bd\xce\xbfE\xd4\xb9\x02\xc1\x8c\xd5\xbf\x91\xacp\x81Hr\xab? \xf6\xf1\x9c`\xc4\xe0?g0\x0f\xfai;\xd2?\xd8\\gq\xc3b\xbe?\xa3\x139\x06\x9d\x80\xc5\xbf\x103\x80J\x9b\x08\xe4?\xe3\x05W\xaew\x1b\xd4?\x80\x88\x1d=\xf3=\xe4\xbfh]\xdc\x14u;\xba?\xfb\xa3\xb3\x1e\xc0\xa2\xe1\xbf8\xc2\x16\x8dI\x81\xd2\xbf\xe2\xbb\xad\x10\xee\x98\xd7\xbf\xdeV\xd23\x14\xa5\xe0\xbf\xeb3\x9fa-b\xc9\xbf$\x94 \xc0\x86\x81\xb2\xbf\xc4\xf7\x81#\xb4\xc6\xda\xbf\x12\xf0\x0c\xb3\xc9\x11\xe6\xbf\x81\xe16-K\xdd\x86\xbf\xa3\x10\xe3&\xa3\xce\xd2\xbf\x88CB\x98\xc5\x98\xe2\xbf\xbd\xfb\x05!S\xd1\xe3\xbf\xcfX\x1a\x9d\xa7\x9c\xcf\xbfs\xce\xe2\x97B\x96\xd1?\xc4\xc0\xbd\xac+\x1a\xe0?\x84\\\xe1\xc0\xd1\r\xda?\x0e\x1c;\xe5\x12<\xdc\xbff\x9e\xda\xfeW\xbf\xb2?\xbe\xc8\xbdyu\x9f\xc3\xbfZ\x1a\x9f\xb6(X\xe2\xbf\xc0n\xaf\x1f\x93\xfe\xd2?\x97\x9eD\xf1@\xf4\xd6\xbf>\xdd7\x15;\xe1\xdf?\xc76E\xf1r\x08\xe4?\x9a\xed\x17\xae\xd1\xe6\xd5\xbf\xd6\xc57\\E/\xc5?m`\xb5\xeb$\x1b\xd9?\x00\x0bM\x19\xf5\xdb\xe4\xbfM;\x1fOgH\xc0\xbf\xd5\xfe\xdb\xb9\x0f\x1d\xe2\xbf\x95\xd1`\x18\x86\x9e\xd7?]6\xca.\x8a}\xc7\xbf\x84\xfc\ta:\xfb\xe1\xbf\xdf\x8a\x1a\x05\xbad\xda\xbf\x9d\xd7W9m,\xd2?G\x1c\xdeJF|\xe4\xbf\x87e\x07!\x13\x99\xdd?\x1b;\x10\xda\xdf\r\xe4?\xd7\\\x1d\xbd\xc7\xd0\xe0?\x1b\xe1jf\xb5\x93\xc2?\xec\xfa@\xfbF\xff\xc1?e\x01\x9b\xc5J\x0b\xdc?\xb4\x85^33\x8a\xe0?\xd5\x00\xf7\xc3ZO\xe3?\xf9M\xc8\x071\xa9\xde?\xcf\x9c\xa9Z\x9fG\xc3\xbfsR\xd2\x03}\x92\xc2?\xaf\xff\xb4;v\xae\xcd\xbfL\xba\xc8\x13\xcc\xab\xd4?g\xa0\x0cbu\xfb\xd2?\xb5\x8b\x037\xbdu\xc2\xbf\xb6\x95ib\xed8\xc1\xbfbLtX\x91\xa3\xa9\xbf\xf34:\x9a\xdcI\xc0\xbf\xc9\xe9\xf9H\x821\xd6?l\xd9\xf0J\x86<\xc1\xbf\xd9I\x15E\x7f\x9a\xdc?.\xa4\\\x0c\xdc\xd8\xc0?so\x92\xbf\xdf-x?\x00.\xc4\x8c!0\xd0\xbf\xed`-p\xda`\xba?aN\xd0\x97\x9a\xa3\x8d?\x92\xd6f\xf2\xa8\xc3\xd6?#\xee\xa0\xbd\xba\xbe\xc0\xbf`\xb2\xdf\x85W\x8d\xd2?\xac\xb4\x15?\x9dy\xe3?a\x00\x0f\xf6\r\xc4\xb9\xbf\xd0\xe4\xf8E\x07\xa2\xe1?\x14\x97S\x8b\xe8\xa2\xdd\xbfS\x0bn\xc1\x95\xfd\xa7\xbf\x98\xe8`\x9b\xbd\x15\xdd?q4\xf5\x9d\xc3\x01\xd0\xbfv\xf89\xe6\xacU\xe2?Wo\xc21\xd1\xd4\xe0?x\r\x97qq\xcd\xc3\xbfC\n\x896\xfd\xb9\xd7\xbfH\xdb%\xa0xZ\xdc?\x18\xdf\x83\xdeU\xb3\xd1?/\x94\x9a\x7fU^\xbe\xbf\x91\r\xc5\xce&\xf6\xe0\xbfy\xd3\x8d\xbb(]\xdd?\xfaP\xca\xb6(\xb2\xe1?\x98P \xa2/+\xdd?z\xe9\x8b.\xc2\x04\xbc\xbfP\xf9\xf1}W\xef\xab?\xbbg\xbc\x1b1\xcd\xb6?6i\xcaY\x1bP\xd2?\xad\x98\x19\xb9\xaa\x1a\xe2\xbf\xd9t\xc9\xea.\x0e\xb1?\x16\xe9n\xdd\xf1\xfa\xe0\xbf\xb3\x18J\xb3^4\xd6?\x851\xd5-\x80\x98\xdf?\x17\xfb\xab\xa7\xac{\xe0?\xb8\xce\xa5Y(\xd6\xd7\xbf\x18"g\x11?\xde\xd4?Ri{\x87-\xb4\x98\xbfk\xb0\xbc\xff\xef\x18\xc8\xbfAr\xdfvSe\xcb?\xf5-\x19\xda\xf9\xf5\xd2\xbf\xc4i\xa6w|B\xd4?\x17,\xe7\xda\xe9\x87\xbe\xbf\x1c\x98\xeen\xbb\x8f\xe1\xbf\xb9\xe5\xe5x\xdb\xc6\xdc?\xaa}\xad<\xee\xcc\xe0?\xf1\x98\xa2\x17l\x1b\xb1?o\x19\xdb\xd8\x86\xc1\xe0\xbf\xfb\x8d\x13\xedk\xfa\xcd\xbfN\xffk\xd5{\xd6\xe2?NUX$\xdc\x9e\xd4\xbf\xf8\xe7\x0e\t\x17\x8d\xe1?\r\xd9/\xa1\x15+\xe1\xbf/\x04C\xb8\x8a\xec\xd7\xbf\x80\x0c\xf4\x92\x83\x86\xd2\xbf\x14F\xab_\xe2h\xe1?\xfb\xe8!T\xa5B\xcb?o\xddf\x82\x86\xb9\xde?Y\x03\xb5V\\\xd9\x9e?\xba\xa0\xd6\x8bn\xed\xda?\x083"\xc4\x99\x87\xc5?\xff\x12Wu\x947\xe2?\xb8\x18z2\x89\x81\xd6\xbf\xa1\xd2\xb1\xf0D\xfe\xd8?p\x96\xf6i_\x97\xb8?\xd6n[y\xf0)\xd7?\x99\xfbsY\xd4*\xb9\xbf;S\xa3!\x1b\xf4\xce?\xab\xd4\xfb\'\x81P\xe2?\x12\xae\x8b{@v\xe0\xbf\xf8\xa6\xbeY\x7f\x84\xca?\x8f\xccs\x03\x11M\xd9\xbf\xaa\x93\xcd\xacaf\xbe\xbf\x8c\xd5\r\x1c=\x9b\xe1\xbfq|\xf7\xcf\xf2\n\xdb\xbf\xd6\xc4\xc6p\xffo\xe2\xbf\x80h\x8a/e\xac\xb4?.\xaej}\xa7\xaa\xe4?\xb7\xa4h)z\xf9\xdb\xbf\xda\xd2\xaa\x8cF\xa0\xe0?\x05)\x8c\x1f\x0b\x80\xda?z\x84\xa9\xda\xcb\xde\xd8\xbf|J\xc7\x8cX\xaf\xbe?\x08\xd3`6k\x95\xe2?\x19\xea\x16\xf6\xd1s\xd4\xbf!\x08\xe03\x87P\xe1?\xb1\xe6\xee\x86\xa1\x10\xd6\xbf\xc6$\xbf\x99\xad\xa3\xe1?\xf0C\xda\x1e\xa8\x15\xd2\xbf\xd6\x08\x86\x0b^\x0e\xda\xbf\xa3A\x89\x06\xb3\x1c\xc1\xbf\xc8\xa0\xffj\xfa0\xe0?\xe9R3\xd4k@\xe0?)\x94\xc9]A\xa4\xd3?\xa3\xcd<\x87+\xa0\xc6?\xd5\x12\x1d\x10\x01\xa8\xdc\xbf\x03\xe1\xe4o\xce\xe4\xbc?\x1b\x00\xeb\x04\x17\xa8\xe2\xbf\x827\xe7[\xd8\x9e\xc0\xbf\xacu\xc2\xd7B\xf7\xd5\xbf\xae\xbaK\xd4.\x9a\xd0\xbfhj\x92\x96\x9bY\xe2\xbf\x8ev4y\r\xf5\xc2?\xf1\xc9y\xdc\x16\x1b\xc9\xbf\x01\x8aE?\x97\r\xdf\xbf\xfc~\xa2d\x14h\xd4\xbfqE\xfb_\xdd`\xb4\xbf\xe5o\x05\xfb\x05\xd1\xb6?\x01+\x07\xdd=v\xd4?\x977q\xa1v\x1b\xe1\xbfj\xe4\xf6\xc1\'\x8a\xd7\xbf\x91\x9bo@\xc1<\xcf?\xb3\xc6v\x8f\xc8"\xc5\xbfm\x92\xef\x99\xca1\xca\xbf\xba,i/B<\x9e?"\xc7\xf8]\x91\xa3\xdb\xbf\txTMr\xc0\xd3\xbf\xdc\x99N\x7f\xa9\xf6\xc3?\x92\xc1\xad6\x18O\xe1?\xc2\xc09}\xa1\x98\xe1?\x7f\x8f&8\'9\xdd?_0\xedL\xaf\xa4\xd4?4//@\xab6\xb7?\xf2\xfb\x90\rxq\xd8?)+\xc7\xf2\xbb\xe2\xe2?]\x8b\xe9G\x82\xcb\xbc?UJ\xc9\xe7\xd2o\xe2\xbfc\xf9\x9b\xa3\x1a\x05\xb9\xbf\xc6\x8a\tG\xc3\xff\xe4\xbf \xd3\xdcZ#\x9d\xb5?\xaf\x11B\x19\xf0K\xcf\xbf\xae\x19\xc6\x9d\x0e\xec\xba?@\x99<_\xc3e\xd5\xbf\x00\xf2A\xa2_\x84\xc8?8\xe8\xf9<\x8d\x8a\xb0?qK\xf1\x92]\x91\xd8\xbfD\xb8F\xad\xbb%\xe3?H.\xf6\x97\xb9\xb5\xd1?TI\xa9<a\x83\xd5\xbfP\x90\xda\xecS\t\xab\xbfp\x98U\xac\xf8}\xc5\xbf\xad\x96\x8a<l\xf3\xb6\xbf\xdeU\x07\x11\x7f#\xdd?\xb6\xe3\x1c\x9f\xc3e\xb0?!\xc1\x1b\xff\x9a\xf0\xdb\xbfm\x1e]\xeat\xe0\xde\xbf>x6\x00\xf7\xca\xd2\xbf\xf6@\xd6\x17\x89\xf6\xbb\xbf\xfd\xb7\x9d.\xae_\xe1\xbf\xb0\x9a8\xf5V\x05\xe5?\xbfFA\x0cFW\xdc?\x9b\xa8\x8a\xc7O\n\xe7\xbf\x84:\x97\xeb6\xdb\xe0\xbf\x8d\xf2"\x02\x07\xc7\xba?;\xb9\x1cY\xa6\xe6\xc2\xbf\xc8t!;N\x00\xde\xbf\xf4\x1fE\x1a\x00\xba\xd2?\xaaD\\\xb8\x9a\xf0\xd3\xbf\xb0\xd08"mX\xd8?g\xf2b\x18\xde\xed\xd1?\x19\xa9\xce\xba\xce:\xd6?\xb1\xe9g\x9d\xfeH\xe5\xbfLB\xd3\xa6\x8cf\xe2?eH\xb5U;\r\xd0?|V\xe8\xb5\x8au\x8c\xbf\xe0M\xb9\xa2\xc7]\xd6\xbf\x9d\xa8;\xde5\x9d\xd3\xbf\x0b_\xb0\xa0\xc1\x17\xbc?\xd8/\xa3:\xf8u\xd3\xbf)\x11<\xaf\x03\x92\xdc?\x1d\x15\xb3\xb0}1\xaa?\x9b\xc8.\x1c\x1fB\xc6?f\x88\x01Xb\xdc\xc0\xbf\xc85\'\x8a\xdb\xd4\xd5?\xbc\xf4cc\x1cR\xcc?0\x93\xa9F\xac \xe3\xbf\xa0\xb6q\x9a|.\xe6\xbf\x99\xb3\x80I\x80\xf4\xdf?\xd1\x0cW\xe6(*\xe2?\xd8\xda3\x86g\xf7\xdb?\xd2y;\xac\x13\xc3\xa2?\x0e9\x95\xa5\x98\xc6\xe2\xbf\xd5\xd8\x03\x8c\xd4\xce\xd8\xbfcpL\xc2\xe4]\xe0?\x9c]EhC\xd0\xd9\xbf\x8186\xc2\xb95\xdf\xbf\'\xa7\x1alT\x15\xb6?\xa9\x83\xf8\x12\xf0\xaa\xd4\xbf\x8dV\xf1\x0c\x02\x1b\xdb\xbfb{fc\xcc\xf1\xe3\xbf\xe2\xd5\x94f2\xcb\xd8\xbf\xb1E\xf4\x12\xaeQ\xd6\xbfb\x9f&\xa8\xecV\xd9?\r\x1d\xa2"\xa7\x9c\xe1?\x8dk(\x8a~\x12\xc3\xbf\x06\xc7n\xe7\x9a\x9d\xb3\xbf\x16+1\xf6Y=\xc8?w\xae^/\xe4\x9aZ?_\xc6\xb2\xa6\xa3N\xd6?\x9b;\x05\x0cr\x88\xd8\xbf\xa4\x86\xdfE\xfc\xb8\xdf?\xbc\x10\xab\x93\xc4`\xe1?F_\xd8\xe0\x07$\xd7\xbf2\x1c\xc0\xe9)\xbf\x94\xbft\x84AG\xaf\x8e\xa4?U|\xda_\xb4\xcc\xba?C\xae\xc3\xe56\xdd\xd1\xbf\x07\x9af< +\xca?\xc0Cv\x81\xf0\xd2\xe1?\x99\xb3\xbb\xd3t\xff\xe2\xbf\xc7\x8e\x8dP\x08I\xe0\xbfne~H\x83z\xe0\xbf\xd9!CP\x01O\xde?\x883\x1f\xdf\x98N\x9c?\x0f\xd9/\xe4\xb1>\xe5?\xf4\x0cP}06\xda\xbf\x86;\xf7\x1c\xf3\x8c\xde?m\x8d\xa4\x80\xc43\xe3?\xb9\xe5\xa2\xfb\xd6\x82\xc3\xbf\x97\xc8\x13\xba{\x8e\xe4\xbf\x1a\x8d\xdfm\x92\xcc\xd0?:\xb5S\x80\xf5?\xda\xbf\x08Ilb4y\xb0\xbf\xc0\xd7\xc3\\H\xcf\xda?\xf9\x8d(\x8et\xd5\xba?E\x7f\x94\x05}\xd9\xce?\xa8[\xef\xa3_=\xbe? \xc6\x1f\xdf\x90:\xc7\xbf5\xed\xfd\xf6\xbf\xbb\xcd?e\xc2a\\\xf1\xa1\xc8?\x94\xdf\xe9\x13\r\x04\xc6\xbf^\xda\x1e\xa8\x0c\xc5\xcb?\x92\x8e\x9f\xc7\x84Y\xd9?\x1a\x04\xb9\xf4\xb4L\xdb\xbf`c\x18\x83\x96\xcb\xe3\xbfe[7\x07\xe4\xd0\xe0?\x95\xa9\xd3\xb1\xff\xe8\xc2\xbf\xeb\x06\xa3\xbc\xabe\xe0\xbfR\xc1\xec\xfc$\xf9\xbb?\xedW\x87^\x04t\xe3\xbf{\x934\xa6\x1c\t\xac?\xf8\xbe\xb4\x18\xdcF\xd7\xbf\x84>\x9f\xd1\x1f*\xe0\xbf\xf9\x1c\xd0\xc2B\xf2\xe0?Y\xe7f)\xb3\xd3\xdb?\xe8\x04\xc8 j?\xb0\xbf\xf9\x83\xed5U\x82\xcc?\xff\xdfi\x15\xf7\x02\xdf\xbf\xec\r\xacE\x1c\xef\xd6?R\xd7\x9e\tb8\xd0?(2,w\xf4\xd4\xdf\xbfT\xa3j\xa0m\xed\xd8?\x93\x00\xe2\xb8@\xb2\xd2\xbf\xa3o.\xc9\x9a\xa0\xb5\xbf\xcbe\x99V\xce\x06\xa9\xbf\xa3\xe6\x87\xb2C?\xe4?\xf2\xc14L\xbc\x82\xcb?\xc2\xe4\x9e\xef\xad\xd9\xd4?\xc41_d\xf1T\xd8?\xb6\xb5\xa8\x1c0V\xd1\xbfl\x15\xc5]\x13\xca\xcf\xbfZn\x9d\xf5w\xf9\xde?r\xc2gqv\xf0\xd0?\x0f\x1e\x90ls\x9f\xc5\xbfn\x13\xdd\xd9X\xfb\xd4?Z.\xf2W3W\xe3?\x1b\xbe\xc2^9\x02\xca\xbf\xfe\x05`\xa8\xe1\xb1\xdd\xbf{\xfe\x0eo\xa9\x01\xe3\xbf^\x92\xc1)\xd2M\xe2?\x9f\xc8+H\xf3+\xdd\xbf\xa7\t\xd7\x87\x05\xbd\xcd\xbf\xff\x15\xee2\xe7 \x98\xbf{x\xea\x1d\x12\x04\xd1?\xf0O\x01\xd7\xe3\xe1\xe4\xbf\xad\xf3P\x95?\x05\xd6?\x81\x9e\xd8\xb4\x8a\xb5\xb2?\xbe(\x1e:\xa3\xf1\xd3?2\x89W\xd7dr\xc3?\x87?\xaan\xb7r\xe0\xbf<\x85\xc2\xa9\x1d\xc4\xe0?9Hi\x15/\x90\xbf?X\x81Do\xcc\x8f\xd5\xbf0k\xa4\xf3BR\xe2\xbf\x81\xdc\xdfr\t\n\xb3\xbfZ\xb9T\xb2\xbeX\xe1?\x10m#\xb5\x9c\xe0\xde?>\x82S-\xd8\xa9\xc0\xbf\x0f<\xe2\xc2\xa6\x9f\xb9?\x9d\x9c\x08\xf4\xbe^\xd2\xbf+\xfe\x07O\xbeC\xd3?\x12\x82\x9c\x12\xa0\xf4\xdf?\x1d\xf1\x87\xb0\xe0&\xe2?\xff\x85\xfdPL\x05\xe0?\x0f\x9e\x93OD\xe8\xe1\xbfM)\xf9\x1a\xe2?\xa8?/\x1d\xf01\xc7\xcf\xc9\xbf\x1e\x8a\r\xeb\xf3\xe5\xd6?'
p60
tp61
bssS'transf'
p62
(ineurolab.trans
TanSig
p63
(dp64
bsS'out_minmax'
p65
g18
(g19
(I0
tp66
g21
tp67
Rp68
(I1
(I30
I2
tp69
g28
I00
S'\x00\x00\x00\x00\x00\x00\xf0\xbf\x00\x00\x00\x00\x00\x00\xf0?\x00\x00\x00\x00\x00\x00\xf0\xbf\x00\x00\x00\x00\x00\x00\xf0?\x00\x00\x00\x00\x00\x00\xf0\xbf\x00\x00\x00\x00\x00\x00\xf0?\x00\x00\x00\x00\x00\x00\xf0\xbf\x00\x00\x00\x00\x00\x00\xf0?\x00\x00\x00\x00\x00\x00\xf0\xbf\x00\x00\x00\x00\x00\x00\xf0?\x00\x00\x00\x00\x00\x00\xf0\xbf\x00\x00\x00\x00\x00\x00\xf0?\x00\x00\x00\x00\x00\x00\xf0\xbf\x00\x00\x00\x00\x00\x00\xf0?\x00\x00\x00\x00\x00\x00\xf0\xbf\x00\x00\x00\x00\x00\x00\xf0?\x00\x00\x00\x00\x00\x00\xf0\xbf\x00\x00\x00\x00\x00\x00\xf0?\x00\x00\x00\x00\x00\x00\xf0\xbf\x00\x00\x00\x00\x00\x00\xf0?\x00\x00\x00\x00\x00\x00\xf0\xbf\x00\x00\x00\x00\x00\x00\xf0?\x00\x00\x00\x00\x00\x00\xf0\xbf\x00\x00\x00\x00\x00\x00\xf0?\x00\x00\x00\x00\x00\x00\xf0\xbf\x00\x00\x00\x00\x00\x00\xf0?\x00\x00\x00\x00\x00\x00\xf0\xbf\x00\x00\x00\x00\x00\x00\xf0?\x00\x00\x00\x00\x00\x00\xf0\xbf\x00\x00\x00\x00\x00\x00\xf0?\x00\x00\x00\x00\x00\x00\xf0\xbf\x00\x00\x00\x00\x00\x00\xf0?\x00\x00\x00\x00\x00\x00\xf0\xbf\x00\x00\x00\x00\x00\x00\xf0?\x00\x00\x00\x00\x00\x00\xf0\xbf\x00\x00\x00\x00\x00\x00\xf0?\x00\x00\x00\x00\x00\x00\xf0\xbf\x00\x00\x00\x00\x00\x00\xf0?\x00\x00\x00\x00\x00\x00\xf0\xbf\x00\x00\x00\x00\x00\x00\xf0?\x00\x00\x00\x00\x00\x00\xf0\xbf\x00\x00\x00\x00\x00\x00\xf0?\x00\x00\x00\x00\x00\x00\xf0\xbf\x00\x00\x00\x00\x00\x00\xf0?\x00\x00\x00\x00\x00\x00\xf0\xbf\x00\x00\x00\x00\x00\x00\xf0?\x00\x00\x00\x00\x00\x00\xf0\xbf\x00\x00\x00\x00\x00\x00\xf0?\x00\x00\x00\x00\x00\x00\xf0\xbf\x00\x00\x00\x00\x00\x00\xf0?\x00\x00\x00\x00\x00\x00\xf0\xbf\x00\x00\x00\x00\x00\x00\xf0?\x00\x00\x00\x00\x00\x00\xf0\xbf\x00\x00\x00\x00\x00\x00\xf0?\x00\x00\x00\x00\x00\x00\xf0\xbf\x00\x00\x00\x00\x00\x00\xf0?\x00\x00\x00\x00\x00\x00\xf0\xbf\x00\x00\x00\x00\x00\x00\xf0?\x00\x00\x00\x00\x00\x00\xf0\xbf\x00\x00\x00\x00\x00\x00\xf0?'
p70
tp71
bsS'out'
p72
g18
(g19
(I0
tp73
g21
tp74
Rp75
(I1
(I30
tp76
g28
I00
S'4\xaf\xb8\x0b\xc5\xf3\xef\xbfqn\x91%\xc0\xf9\xe2\xbf\x92\xae;\xf9\xf8\x99\xe6?\xcf\x80+f_\xfc\xef\xbf\xd8\xa8E\x9e\xc7o\xe5\xbf\xd5\xd4\xe7zo\x90\xee?\x1b2\x10\xa2\xb3\xb4\xee\xbf\xb0P\x06\xf3\x83\xe5\xe6?\xb9sA\xef\xd2\x11\xeb\xbf6\x9fm \xb1\x0c\xe7\xbf\x1aI!\xab>\xff\xef\xbf\t\xcbI\xfeqz\xe6\xbf\xea*\xbd\xa4#\xd0\xef\xbf:\xe4tmr\xfe\xef\xbf\x8b\rnR#\xfd\xef\xbf\xd3l\x05Nme\xed\xbf\xe1c\x02\xba\xf6\xed\xef\xbf*Y\xa3\x9d,\xd1\xe8?\xfa\x16\x02\x12A7\xed?\xb0\x8ef\x1a"\xa8\xed\xbf\x98\xc4\x17\xd6\x96X\xef\xbf\x17!}\xd9\xea3\xe7\xbft.\x04\x08_\x84\xee?\xbe\x08\xb9\x06:\xf3\xef\xbf<\x04\x82\xf1!\xb4\xdc\xbfY\xa7N\'\x12\xd5\xef\xbf\xab8\xf1t3X\xe9\xbfhj\xc1`~\xb4\xed?\xc0J\x93\t{q\xef?\xbd\x1cj\x845\xf3\xef\xbf'
p77
tp78
bsbag0
(g8
g2
Ntp79
Rp80
(dp81
g12
g13
sg14
I30
sg15
I1
sg16
I1
sg17
g18
(g19
(I0
tp82
g21
tp83
Rp84
(I1
(I30
I2
tp85
g28
I00
S'\x00\x00\x00\x00\x00\x00\xf0\xbf\x00\x00\x00\x00\x00\x00\xf0?\x00\x00\x00\x00\x00\x00\xf0\xbf\x00\x00\x00\x00\x00\x00\xf0?\x00\x00\x00\x00\x00\x00\xf0\xbf\x00\x00\x00\x00\x00\x00\xf0?\x00\x00\x00\x00\x00\x00\xf0\xbf\x00\x00\x00\x00\x00\x00\xf0?\x00\x00\x00\x00\x00\x00\xf0\xbf\x00\x00\x00\x00\x00\x00\xf0?\x00\x00\x00\x00\x00\x00\xf0\xbf\x00\x00\x00\x00\x00\x00\xf0?\x00\x00\x00\x00\x00\x00\xf0\xbf\x00\x00\x00\x00\x00\x00\xf0?\x00\x00\x00\x00\x00\x00\xf0\xbf\x00\x00\x00\x00\x00\x00\xf0?\x00\x00\x00\x00\x00\x00\xf0\xbf\x00\x00\x00\x00\x00\x00\xf0?\x00\x00\x00\x00\x00\x00\xf0\xbf\x00\x00\x00\x00\x00\x00\xf0?\x00\x00\x00\x00\x00\x00\xf0\xbf\x00\x00\x00\x00\x00\x00\xf0?\x00\x00\x00\x00\x00\x00\xf0\xbf\x00\x00\x00\x00\x00\x00\xf0?\x00\x00\x00\x00\x00\x00\xf0\xbf\x00\x00\x00\x00\x00\x00\xf0?\x00\x00\x00\x00\x00\x00\xf0\xbf\x00\x00\x00\x00\x00\x00\xf0?\x00\x00\x00\x00\x00\x00\xf0\xbf\x00\x00\x00\x00\x00\x00\xf0?\x00\x00\x00\x00\x00\x00\xf0\xbf\x00\x00\x00\x00\x00\x00\xf0?\x00\x00\x00\x00\x00\x00\xf0\xbf\x00\x00\x00\x00\x00\x00\xf0?\x00\x00\x00\x00\x00\x00\xf0\xbf\x00\x00\x00\x00\x00\x00\xf0?\x00\x00\x00\x00\x00\x00\xf0\xbf\x00\x00\x00\x00\x00\x00\xf0?\x00\x00\x00\x00\x00\x00\xf0\xbf\x00\x00\x00\x00\x00\x00\xf0?\x00\x00\x00\x00\x00\x00\xf0\xbf\x00\x00\x00\x00\x00\x00\xf0?\x00\x00\x00\x00\x00\x00\xf0\xbf\x00\x00\x00\x00\x00\x00\xf0?\x00\x00\x00\x00\x00\x00\xf0\xbf\x00\x00\x00\x00\x00\x00\xf0?\x00\x00\x00\x00\x00\x00\xf0\xbf\x00\x00\x00\x00\x00\x00\xf0?\x00\x00\x00\x00\x00\x00\xf0\xbf\x00\x00\x00\x00\x00\x00\xf0?\x00\x00\x00\x00\x00\x00\xf0\xbf\x00\x00\x00\x00\x00\x00\xf0?\x00\x00\x00\x00\x00\x00\xf0\xbf\x00\x00\x00\x00\x00\x00\xf0?\x00\x00\x00\x00\x00\x00\xf0\xbf\x00\x00\x00\x00\x00\x00\xf0?\x00\x00\x00\x00\x00\x00\xf0\xbf\x00\x00\x00\x00\x00\x00\xf0?\x00\x00\x00\x00\x00\x00\xf0\xbf\x00\x00\x00\x00\x00\x00\xf0?'
p86
tp87
bsg33
g75
sg40
g18
(g19
(I0
tp88
g21
tp89
Rp90
(I1
(I1
tp91
g28
I00
S'\xd9\xd2M\x8c9L\xce?'
p92
tp93
bsg47
(dp94
g21
g18
(g19
(I0
tp95
g21
tp96
Rp97
(I1
(I1
tp98
g28
I00
S']\x9d\xd7\x90\xb1k\x8b?'
p99
tp100
bsg55
g18
(g19
(I0
tp101
g21
tp102
Rp103
(I1
(I1
I30
tp104
g28
I00
S"\xa2\xd2H\xd2\xe6L\xc7?\xb5\xf4Q9.x\xb5\xbf\x95\x9d\x8fDq\x8e\x96\xbf\xc0_ks\xf8\xea\xd1\xbf\x8d\xd8\xee\x07\x92(\xd2?\xde\xbbe\xd6\x1d(\xc6\xbfa\xf8\xdd\xa3\x97T\xc0\xbf\xb4\x9bs\xe28\xee\x85?r\x7f\xea\x93\xa9\xb9\xb8\xbf\xb91\x83{G[\xa3?\xa6\x19\xb3\xc6'.\xc7\xbf^\x87#\xe0Z\x7f\x86?\x1c\x8e\x88\x1a\xa4\xbe\xd1\xbf\x99^\xbd\xffog\xc1?\x03q\x98\x9d=\xeb\xd7?k5\x8b;\x1a^\xc8\xbf=\xc1\x953g\xa5\xd2\xbf\xf0F\x7fn\xa5^\x86?\x92T\xbf\x05\x8d~\xb7\xbfG.|-\x1fb\xc3?>m4@\xdc\xc5\xc1?\xde\xff\xa6z\xeb\xec\xb5?\xd8\xd0\x1d\xec\xb9l\xce\xbf\xfb\xb0/\xd3ik\xc7\xbf\x83\x8a\xe3\xdfT\xc2\x8a??\xb2-\xa6(\xe0\xd2?\xa1\xfa\xadV\x05\xab\xc1\xbfwJ\\fta\xd6?\xfd\xf7Z\x9d\xa8\t\xd5?gQ\x11H\x04W\xc2?"
p105
tp106
bssg62
g63
sg65
g18
(g19
(I0
tp107
g21
tp108
Rp109
(I1
(I1
I2
tp110
g28
I00
S'\x00\x00\x00\x00\x00\x00\xf0\xbf\x00\x00\x00\x00\x00\x00\xf0?'
p111
tp112
bsg72
g18
(g19
(I0
tp113
g21
tp114
Rp115
(I1
(I1
tp116
g28
I00
S'\x9f\xb9\x83\x97\x8b\xbe\xcd?'
p117
tp118
bsbasg14
I59
sg15
I1
sg17
g18
(g19
(I0
tp119
g21
tp120
Rp121
(I1
(I59
I2
tp122
g28
I00
S'\x00\x00\x00\x00\x00\x00\x00\x00\x00\x00\x00\x00\x00\x00\xf0?\x00\x00\x00\x00\x00\x00\x00\x00\x00\x00\x00\x00\x00\x00\xf0?\x00\x00\x00\x00\x00\x00\x00\x00\x00\x00\x00\x00\x00\x00\xf0?\x00\x00\x00\x00\x00\x00\x00\x00\x00\x00\x00\x00\x00\x00\xf0?\x00\x00\x00\x00\x00\x00\x00\x00\x00\x00\x00\x00\x00\x00\xf0?\x00\x00\x00\x00\x00\x00\x00\x00\x00\x00\x00\x00\x00\x00\xf0?\x00\x00\x00\x00\x00\x00\x00\x00\x00\x00\x00\x00\x00\x00\xf0?\x00\x00\x00\x00\x00\x00\x00\x00\x00\x00\x00\x00\x00\x00\xf0?\x00\x00\x00\x00\x00\x00\x00\x00\x00\x00\x00\x00\x00\x00\xf0?\x00\x00\x00\x00\x00\x00\x00\x00\x00\x00\x00\x00\x00\x00\xf0?\x00\x00\x00\x00\x00\x00\x00\x00\x00\x00\x00\x00\x00\x00\xf0?\x00\x00\x00\x00\x00\x00\x00\x00\x00\x00\x00\x00\x00\x00\xf0?\x00\x00\x00\x00\x00\x00\x00\x00\x00\x00\x00\x00\x00\x00\xf0?\x00\x00\x00\x00\x00\x00\x00\x00\x00\x00\x00\x00\x00\x00\xf0?\x00\x00\x00\x00\x00\x00\x00\x00\x00\x00\x00\x00\x00\x00\xf0?\x00\x00\x00\x00\x00\x00\x00\x00\x00\x00\x00\x00\x00\x00\xf0?\x00\x00\x00\x00\x00\x00\x00\x00\x00\x00\x00\x00\x00\x00\xf0?\x00\x00\x00\x00\x00\x00\x00\x00\x00\x00\x00\x00\x00\x00\xf0?\x00\x00\x00\x00\x00\x00\x00\x00\x00\x00\x00\x00\x00\x00\xf0?\x00\x00\x00\x00\x00\x00\x00\x00\x00\x00\x00\x00\x00\x00\xf0?\x00\x00\x00\x00\x00\x00\x00\x00\x00\x00\x00\x00\x00\x00\xf0?\x00\x00\x00\x00\x00\x00\x00\x00\x00\x00\x00\x00\x00\x00\xf0?\x00\x00\x00\x00\x00\x00\x00\x00\x00\x00\x00\x00\x00\x00\xf0?\x00\x00\x00\x00\x00\x00\x00\x00\x00\x00\x00\x00\x00\x00\xf0?\x00\x00\x00\x00\x00\x00\x00\x00\x00\x00\x00\x00\x00\x00\xf0?\x00\x00\x00\x00\x00\x00\x00\x00\x00\x00\x00\x00\x00\x00\xf0?\x00\x00\x00\x00\x00\x00\x00\x00\x00\x00\x00\x00\x00\x00\xf0?\x00\x00\x00\x00\x00\x00\x00\x00\x00\x00\x00\x00\x00\x00\xf0?\x00\x00\x00\x00\x00\x00\x00\x00\x00\x00\x00\x00\x00\x00\xf0?\x00\x00\x00\x00\x00\x00\x00\x00\x00\x00\x00\x00\x00\x00\xf0?\x00\x00\x00\x00\x00\x00\x00\x00\x00\x00\x00\x00\x00\x00\xf0?\x00\x00\x00\x00\x00\x00\x00\x00\x00\x00\x00\x00\x00\x00\xf0?\x00\x00\x00\x00\x00\x00\x00\x00\x00\x00\x00\x00\x00\x00\xf0?\x00\x00\x00\x00\x00\x00\x00\x00\x00\x00\x00\x00\x00\x00\xf0?\x00\x00\x00\x00\x00\x00\x00\x00\x00\x00\x00\x00\x00\x00\xf0?\x00\x00\x00\x00\x00\x00\x00\x00\x00\x00\x00\x00\x00\x00\xf0?\x00\x00\x00\x00\x00\x00\x00\x00\x00\x00\x00\x00\x00\x00\xf0?\x00\x00\x00\x00\x00\x00\x00\x00\x00\x00\x00\x00\x00\x00\xf0?\x00\x00\x00\x00\x00\x00\x00\x00\x00\x00\x00\x00\x00\x00\xf0?\x00\x00\x00\x00\x00\x00\x00\x00\x00\x00\x00\x00\x00\x00\xf0?\x00\x00\x00\x00\x00\x00\x00\x00\x00\x00\x00\x00\x00\x00\xf0?\x00\x00\x00\x00\x00\x00\x00\x00\x00\x00\x00\x00\x00\x00\xf0?\x00\x00\x00\x00\x00\x00\x00\x00\x00\x00\x00\x00\x00\x00\xf0?\x00\x00\x00\x00\x00\x00\x00\x00\x00\x00\x00\x00\x00\x00\xf0?\x00\x00\x00\x00\x00\x00\x00\x00\x00\x00\x00\x00\x00\x00\xf0?\x00\x00\x00\x00\x00\x00\x00\x00\x00\x00\x00\x00\x00\x00\xf0?\x00\x00\x00\x00\x00\x00\x00\x00\x00\x00\x00\x00\x00\x00\xf0?\x00\x00\x00\x00\x00\x00\x00\x00\x00\x00\x00\x00\x00\x00\xf0?\x00\x00\x00\x00\x00\x00\x00\x00\x00\x00\x00\x00\x00\x00\xf0?\x00\x00\x00\x00\x00\x00\x00\x00\x00\x00\x00\x00\x00\x00\xf0?\x00\x00\x00\x00\x00\x00\x00\x00\x00\x00\x00\x00\x00\x00\xf0?\x00\x00\x00\x00\x00\x00\x00\x00\x00\x00\x00\x00\x00\x00\xf0?\x00\x00\x00\x00\x00\x00\x00\x00\x00\x00\x00\x00\x00\x00\xf0?\x00\x00\x00\x00\x00\x00\x00\x00\x00\x00\x00\x00\x00\x00\xf0?\x00\x00\x00\x00\x00\x00\x00\x00\x00\x00\x00\x00\x00\x00\xf0?\x00\x00\x00\x00\x00\x00\x00\x00\x00\x00\x00\x00\x00\x00\xf0?\x00\x00\x00\x00\x00\x00\x00\x00\x00\x00\x00\x00\x00\x00\xf0?\x00\x00\x00\x00\x00\x00\x00\x00\x00\x00\x00\x00\x00\x00\xf0?\x00\x00\x00\x00\x00\x00\x00\x00\x00\x00\x00\x00\x00\x00\xf0?'
p123
tp124
bsg33
g36
sS'trainf'
p125
g0
(cneurolab.core
Trainer
p126
g2
Ntp127
Rp128
(dp129
S'_train_class'
p130
cneurolab.train.spo
TrainNCG
p131
sS'__module__'
p132
S'neurolab.train.spo'
p133
sS'params'
p134
(dp135
S'epochs'
p136
I50000
sS'train'
p137
(dp138
S'rr'
p139
I0
ssS'goal'
p140
F2e-05
sS'show'
p141
I0
ssS'defaults'
p142
(dp143
g136
I500
sg137
(dp144
g139
I0
ssg140
F0.01
sg141
I100
ssS'error'
p145
(lp146
cnumpy.core.multiarray
scalar
p147
(g28
S'\xbdy\xb7\x80\xb9j:@'
p148
tp149
Rp150
ag147
(g28
S'QG\xb8\xd2\xda\xe1(@'
p151
tp152
Rp153
ag147
(g28
S'J\x81\xe0\r\xb7\x12(@'
p154
tp155
Rp156
ag147
(g28
S'\xd9\x00f\xdcw\x8e&@'
p157
tp158
Rp159
ag147
(g28
S'\xd8\xc6Yd\xd3\x04$@'
p160
tp161
Rp162
ag147
(g28
S'\x84\xd9\xa0\xbc1\xdd\x1f@'
p163
tp164
Rp165
ag147
(g28
S'\xa2\xe5\x14p\x8d\xd7\x1a@'
p166
tp167
Rp168
ag147
(g28
S'\xdf,jg%\xbc\x1a@'
p169
tp170
Rp171
asS'__name__'
p172
S'TrainNCG'
p173
sS'__doc__'
p174
S'\n    Conjugate gradient algorithm\n    Using scipy.optimize.fmin_ncg\n\n    :Support networks:\n        newff (multi-layers perceptron)\n    :Parameters:\n        input: array like (l x net.ci)\n            train input patterns\n        target: array like (l x net.co)\n            train target patterns\n        epochs: int (default 500)\n            Number of train epochs\n        show: int (default 100)\n            Print period\n        goal: float (default 0.01)\n            The goal of train\n        rr float (defaults 0.0)\n            Regularization ratio\n            Must be between {0, 1}\n        \n    '
p175
sbsS'connect'
p176
(lp177
(lp178
I-1
aa(lp179
I0
aa(lp180
I1
aasS'errorf'
p181
(ineurolab.error
SSE
p182
(dp183
bsg65
g18
(g19
(I0
tp184
g21
tp185
Rp186
(I1
(I1
I2
tp187
g28
I00
S'\x00\x00\x00\x00\x00\x00\xf0\xbf\x00\x00\x00\x00\x00\x00\xf0?'
p188
tp189
bsg72
g115
sb.