ccopy_reg
_reconstructor
p0
(cneurolab.core
Net
p1
c__builtin__
object
p2
Ntp3
Rp4
(dp5
S'layers'
p6
(lp7
g0
(cneurolab.layer
Perceptron
p8
g2
Ntp9
Rp10
(dp11
S'initf'
p12
cneurolab.init
initnw
p13
sS'ci'
p14
I59
sS'co'
p15
I30
sS'cn'
p16
I30
sS'inp_minmax'
p17
cnumpy.core.multiarray
_reconstruct
p18
(cnumpy
ndarray
p19
(I0
tp20
S'b'
p21
tp22
Rp23
(I1
(I59
I2
tp24
cnumpy
dtype
p25
(S'f8'
p26
I0
I1
tp27
Rp28
(I3
S'<'
p29
NNNI-1
I-1
I0
tp30
bI00
S'\x00\x00\x00\x00\x00\x00\x00\x00\x00\x00\x00\x00\x00\x00\xf0?\x00\x00\x00\x00\x00\x00\x00\x00\x00\x00\x00\x00\x00\x00\xf0?\x00\x00\x00\x00\x00\x00\x00\x00\x00\x00\x00\x00\x00\x00\xf0?\x00\x00\x00\x00\x00\x00\x00\x00\x00\x00\x00\x00\x00\x00\xf0?\x00\x00\x00\x00\x00\x00\x00\x00\x00\x00\x00\x00\x00\x00\xf0?\x00\x00\x00\x00\x00\x00\x00\x00\x00\x00\x00\x00\x00\x00\xf0?\x00\x00\x00\x00\x00\x00\x00\x00\x00\x00\x00\x00\x00\x00\xf0?\x00\x00\x00\x00\x00\x00\x00\x00\x00\x00\x00\x00\x00\x00\xf0?\x00\x00\x00\x00\x00\x00\x00\x00\x00\x00\x00\x00\x00\x00\xf0?\x00\x00\x00\x00\x00\x00\x00\x00\x00\x00\x00\x00\x00\x00\xf0?\x00\x00\x00\x00\x00\x00\x00\x00\x00\x00\x00\x00\x00\x00\xf0?\x00\x00\x00\x00\x00\x00\x00\x00\x00\x00\x00\x00\x00\x00\xf0?\x00\x00\x00\x00\x00\x00\x00\x00\x00\x00\x00\x00\x00\x00\xf0?\x00\x00\x00\x00\x00\x00\x00\x00\x00\x00\x00\x00\x00\x00\xf0?\x00\x00\x00\x00\x00\x00\x00\x00\x00\x00\x00\x00\x00\x00\xf0?\x00\x00\x00\x00\x00\x00\x00\x00\x00\x00\x00\x00\x00\x00\xf0?\x00\x00\x00\x00\x00\x00\x00\x00\x00\x00\x00\x00\x00\x00\xf0?\x00\x00\x00\x00\x00\x00\x00\x00\x00\x00\x00\x00\x00\x00\xf0?\x00\x00\x00\x00\x00\x00\x00\x00\x00\x00\x00\x00\x00\x00\xf0?\x00\x00\x00\x00\x00\x00\x00\x00\x00\x00\x00\x00\x00\x00\xf0?\x00\x00\x00\x00\x00\x00\x00\x00\x00\x00\x00\x00\x00\x00\xf0?\x00\x00\x00\x00\x00\x00\x00\x00\x00\x00\x00\x00\x00\x00\xf0?\x00\x00\x00\x00\x00\x00\x00\x00\x00\x00\x00\x00\x00\x00\xf0?\x00\x00\x00\x00\x00\x00\x00\x00\x00\x00\x00\x00\x00\x00\xf0?\x00\x00\x00\x00\x00\x00\x00\x00\x00\x00\x00\x00\x00\x00\xf0?\x00\x00\x00\x00\x00\x00\x00\x00\x00\x00\x00\x00\x00\x00\xf0?\x00\x00\x00\x00\x00\x00\x00\x00\x00\x00\x00\x00\x00\x00\xf0?\x00\x00\x00\x00\x00\x00\x00\x00\x00\x00\x00\x00\x00\x00\xf0?\x00\x00\x00\x00\x00\x00\x00\x00\x00\x00\x00\x00\x00\x00\xf0?\x00\x00\x00\x00\x00\x00\x00\x00\x00\x00\x00\x00\x00\x00\xf0?\x00\x00\x00\x00\x00\x00\x00\x00\x00\x00\x00\x00\x00\x00\xf0?\x00\x00\x00\x00\x00\x00\x00\x00\x00\x00\x00\x00\x00\x00\xf0?\x00\x00\x00\x00\x00\x00\x00\x00\x00\x00\x00\x00\x00\x00\xf0?\x00\x00\x00\x00\x00\x00\x00\x00\x00\x00\x00\x00\x00\x00\xf0?\x00\x00\x00\x00\x00\x00\x00\x00\x00\x00\x00\x00\x00\x00\xf0?\x00\x00\x00\x00\x00\x00\x00\x00\x00\x00\x00\x00\x00\x00\xf0?\x00\x00\x00\x00\x00\x00\x00\x00\x00\x00\x00\x00\x00\x00\xf0?\x00\x00\x00\x00\x00\x00\x00\x00\x00\x00\x00\x00\x00\x00\xf0?\x00\x00\x00\x00\x00\x00\x00\x00\x00\x00\x00\x00\x00\x00\xf0?\x00\x00\x00\x00\x00\x00\x00\x00\x00\x00\x00\x00\x00\x00\xf0?\x00\x00\x00\x00\x00\x00\x00\x00\x00\x00\x00\x00\x00\x00\xf0?\x00\x00\x00\x00\x00\x00\x00\x00\x00\x00\x00\x00\x00\x00\xf0?\x00\x00\x00\x00\x00\x00\x00\x00\x00\x00\x00\x00\x00\x00\xf0?\x00\x00\x00\x00\x00\x00\x00\x00\x00\x00\x00\x00\x00\x00\xf0?\x00\x00\x00\x00\x00\x00\x00\x00\x00\x00\x00\x00\x00\x00\xf0?\x00\x00\x00\x00\x00\x00\x00\x00\x00\x00\x00\x00\x00\x00\xf0?\x00\x00\x00\x00\x00\x00\x00\x00\x00\x00\x00\x00\x00\x00\xf0?\x00\x00\x00\x00\x00\x00\x00\x00\x00\x00\x00\x00\x00\x00\xf0?\x00\x00\x00\x00\x00\x00\x00\x00\x00\x00\x00\x00\x00\x00\xf0?\x00\x00\x00\x00\x00\x00\x00\x00\x00\x00\x00\x00\x00\x00\xf0?\x00\x00\x00\x00\x00\x00\x00\x00\x00\x00\x00\x00\x00\x00\xf0?\x00\x00\x00\x00\x00\x00\x00\x00\x00\x00\x00\x00\x00\x00\xf0?\x00\x00\x00\x00\x00\x00\x00\x00\x00\x00\x00\x00\x00\x00\xf0?\x00\x00\x00\x00\x00\x00\x00\x00\x00\x00\x00\x00\x00\x00\xf0?\x00\x00\x00\x00\x00\x00\x00\x00\x00\x00\x00\x00\x00\x00\xf0?\x00\x00\x00\x00\x00\x00\x00\x00\x00\x00\x00\x00\x00\x00\xf0?\x00\x00\x00\x00\x00\x00\x00\x00\x00\x00\x00\x00\x00\x00\xf0?\x00\x00\x00\x00\x00\x00\x00\x00\x00\x00\x00\x00\x00\x00\xf0?\x00\x00\x00\x00\x00\x00\x00\x00\x00\x00\x00\x00\x00\x00\xf0?'
p31
tp32
bsS'inp'
p33
g18
(g19
(I0
tp34
g21
tp35
Rp36
(I1
(I59
tp37
g28
I00
S"\x9d\xd1K\xf5s\xc2\xaa?\xf9\x18\x9c\x8f\xc1\xf9\xb8?\xb3\xa7<\xc4\\h\xb5?b\r\xef\x8c^\xaa\xcf?\xf9\x18\x9c\x8f\xc1\xf9\xd8?\xbb\x12\xb5+Q\xbb\xd2?\x88\xb9\xd0*0\xf6\xd4?#(\xcd\xa6\x1b\xff\xde?\xbeT?'\xac\xe1\xcd?\xe4\x00!\xc5}-\xc3?\r\xef\x8c^\xaa\x9f\xd3?\xf9\x18\x9c\x8f\xc1\xf9\xd8?\xbb3z\xa9~N\xd8?!\xe6B\xab\xc0\xd8\xd3?:\x1f\x83\xf318\xcf?\x7fNX\xc3;\xa3\xc7?\xa8<\xc4\\h\x15\xb8?i6\xdd\xf8\xf7\xd6\xb1?\xc5}-\x93E\x0e\xb0?\x04\x84\x14\xf7\xb5L\xc6?\xfb\x18\x9c\x8f\xc1\xf9\xc8?\x04\x84\x14\xf7\xb5L\xb6?\x18Z\x05\xc6\x9e\xf2\xb0?\xb1\xa7<\xc4\\h\xc5?\x9d\xd1K\xf5s\xc2\xaa?\xf9\x18\x9c\x8f\xc1\xf9\xb8?\x9e\xd1K\xf5s\xc2\xba?\x7fNX\xc3;\xa3\xc7?u\xe3\xdf[GP\xca?\xdb\xb6m\xdb\xb6m\xdb?\xeek\x99,r\x80\xe0?\x7fNX\xc3;\xa3\xc7?\xf9\xf7\xd6\x11\x94f\xd3?U?'\xac\xe1\x9d\xd1?\xf0\xad#(\xcd\xa6\xcb?lxg\xf4R\xfd\xcc?L\xf5s\xc2\x1a\xde\xc9?\xf9\x18\x9c\x8f\xc1\xf9\x98?i6\xdd\xf8\xf7\xd6\xb1?\xd1*0\xf6\x94\x87\xc8?7\xdd\xf8\xf7\xd6\x11\xc4?\xb1\xa7<\xc4\\h\xc5?\xda\x95\xa8]\x89\xda\xd5?\xee\x8c^\xaa\x9f\x13\xd6?_\xcbd\x91\x03\x84\xd4?\xfb\x18\x9c\x8f\xc1\xf9\xa8?\r\xef\x8c^\xaa\x9f\xa3?\x0e\xef\x8c^\xaa\x9f\xc3?\xbb\x12\xb5+Q\xbb\xb2?\x04\x84\x14\xf7\xb5L\xb6?\x0e\xef\x8c^\xaa\x9f\xc3?8\x1f\x83\xf318\xbf?\xbb\x12\xb5+Q\xbb\xb2?\x9e\xd1K\xf5s\xc2\xca?\xa6\x1b\xff\xde:\x82\xd2?\xda\x95\xa8]\x89\xda\xd5?B\x8a\xfbZ&\x8b\xcc?L\xf5s\xc2\x1a\xde\xc9?-r\x80\x90\xe2\xbe\xc6?"
p38
tp39
bsS's'
p40
g18
(g19
(I0
tp41
g21
tp42
Rp43
(I1
(I30
tp44
g28
I00
S'\xa49z\xdd\xd2\x81\x16\xc0\x82\xf8O\xba=v\x07@\x11\x04\x0e\x9f)B\xe3\xbf`l\x9fv^\xf7\x08\xc0\x148\xba\xe0\xcei\n\xc09s\xd8\n\x0b\xb0\n@\xf2\xf8\x06\x80\xf1>\xa8?\xa4j}\xda\\\xbf\xc8\xbf\xe2]\xeb\t\xe4(\x00@\x854\x12\xcbt\x90\xfd\xbfx\xfc\xe3\x96\xb6\xcc\x08\xc0|\x8a\xe1\x02\x90\xa1\x10\xc0X\xa3\xb1\xabB\x05\t\xc0O`\xee \xf4_\xc9\xbf\xb8}\x7f\xca\xed`\xf2?\x80h=RV\xd7\xb2\xbf3L\xccN^c\x06@\xd6\xe4\x00T@\xa9\xff\xbf\x82n\x1a\xa9\xfeM\xf3\xbfBk\xbe\xd2\xf5\xac\x19\xc0f\xac\xfbv\xbck\xdd?w\x8e@79\x8d\x02\xc0|3\xf4\xbf+\xa1\x0f\xc0\xba\x13\xf4\xf1\xb3\xf3\xdf\xbfzZ&@\xc6\x08\xfb?E=\x98\xdd\x1a\xa9\x01@\xf8\r\x17\xf1S\x82\x16\xc0+x\xae\x10B%\xef?g3\xd8u1\x05\xe3?\xd2\x94\x88\xacb\\\xe3?'
p45
tp46
bsS'np'
p47
(dp48
g21
g18
(g19
(I0
tp49
g21
tp50
Rp51
(I1
(I30
tp52
g28
I00
S'/\x07\xc6\xecW\xa0\x19\xc0\x14\xd0\xd3\xa4\xd2\xa3\x0f@\xaf\xf9\xb8\xc3\xdaN\xf1\xbfy\x8c\xcc\x83;m\x10\xc0\xc7\xc3%M\xbd\x11\t\xc0\x10a\x86\xed\x9f7\r@\x1b\xe2\x9eg\x82\xba\xb3?^&9\xe6a(\xef\xbf\xde\x0b\xd6k\xf7\xb5\xfe?\x99i\xa6\xa0\x92\xda\x04\xc0?c\x18\xc2\xda\xfa\r\xc0\xfc\x8c\xfe\xf0\x0f\xc5\x12\xc0\xabyP\xac\xfd\xd4\x08\xc0k\xe8\x89\xe4\xe2\x7f\xcc\xbfk\x18\xa2\xe1\x92\x9c\xf3?F\xed9XX?\xc9?\xf5\x19Y\xbbA\xc6\x0c@\xcb\x91k\xe4v\xfa\x01\xc0|3\x0c\xb1]\xdd\xe7\xbfR\x03z\xee\x8c\x94 \xc0g\xf9_\xdd\x9c\xcc\xbc?\xa2P\xb7\x13\x8b\x12\x10\xc0\x12\xb1\x18\x17\x11^\x12\xc0\x96D_\xe0\xec\xf6\xb9\xbf\x0byY0\x0eQ\xf2?\xf6\xe6\xe5%Pq\xfb?\x81 \x85\x86m\xb4\x19\xc0g\x08\x98\xd3$%\xfd?st\xd8\xa0\x1e\x86\xf7?\xd4\xee\xd0\xb1_\xc0\xd1?'
p53
tp54
bsS'w'
p55
g18
(g19
(I0
tp56
g21
tp57
Rp58
(I1
(I30
I59
tp59
g28
I00
S'f\x9aU\xe6\x90\xa6\xe0?ut\xb0\xec\x88`\xd8\xbf\xcd\xd1\x94$E\xc1\xe6\xbf\xc2\xfa*\x05\x19?\xdf\xbf5\xdf\xdc\x92\xf22\xd5?\x85\x83\xed$\xfcS\xd2?\xae\xca\xd6l6\x0c\xcf\xbfJ\x01\xcc\xc9\x914\xe4?\xfc\xe6\\BDM\xd4?\xd1v\xc2\x82vG\xd8\xbf\xc1\xcb\xa4\xd7\xf7i\xe7?\x99\xcaO \\\xec\xc1?\xc0G\xbe\xb4<\xe8\xe5\xbf\xe4\x03\xa0\x9fA\x97\xb2?xJ\x11r\xe2\xd8\xc8?`<\x1a\xe3qt\xd5?-\x04\x18\xa9[\x9c\xce\xbfn\xa31x\x15\xc1\xe3?\x14\x06\xb8Y\xc8\xd1\xd9?N\x8a\x19M?\xaa\xc3?\xe1K\xc8\x90\xbf\xc9\xdc\xbf\xd8#&\xda\x981\xe4?U\x1f\xee\xabO\xf6\xb8\xbf\xe22\x0bu\xf3\xea?\xbf\xef\xec\xad\x18\xd2\xd5\xcd?\xb44\xb6\xf2\xcb\xa2\xc8?=\xf3\xfeE[W\xc6\xbf\x8f\\\x1e\xfd\x17\r\xd4?\x98\xf7f\xc6nk\xc4?`i\xcc\x9a\xf8\x89\xd7\xbfR\xd8\xe6\xe75\x19\xd4\xbfB\xd1\xb33\xecM\xc5\xbf\x8c\xa47\xbc\x1a\x8f\xd0?\xd3\n2"-\xbd\xd0?\xd3W\x86\x05J\x01\xdc?Dc\xe69t\'\xd6\xbf\xd3\x88\x9b)\x19m\xa6\xbf\xbc.\xbbn\xb0\x18\xd0?b\xfe\x19i#\xb2\xe0\xbf"\xfcME\x9a\xb0\xba\xbf\xc9\xc1\xad\xefb[\xc0?\x0b\x97t\xa6f\xce\x9d\xbf_5\xa6,\xa0\x81\xd3\xbf\x0cA\xc8^\x13\xe2\xd4\xbf/\xfa_\xba\xa3n\xe6?\xb1\x00sC\xddu\xc3\xbf7\xa9`C\xdco\xdd?\x13<w\x15\xder\xe3?\x1f\xf6\x1e\x8a\xa8y\xd0?\xba\x89\xea\xcb\x94\x9a\xc2\xbf=F\xd9Y\x90\xac\xc7?}CB\\\x97X\xae?\x8a\xb1\xde\x19fA\xe5?pl3\x08L}\xd1?\xb9\xfe!F1\xfd\xd6\xbf\x8e\xe5\x135\xf6\xdd\xe0?\xb0\xf9)h(?\xda?\xd1\xc2\xc1>L\xc1\xd8\xbf\xdb\xba\r\x96\x85\xf4\xe2?\x05Z\xb3&\xa7\x1a\xdc?\xd9\xb2\xe6\xf6C\xd4\xde?me\xe6\x8e=\x19\xab\xbf\xcd@\x9d\x8eE\x8c\xb9?l\x94\x85\x9c\xd1\\\xdb?\x1f\xf4\xf7\xebuT\xe4?8\xfbF\x1c4\xa5\xde\xbf\x12\xbdpz\xab\xf2\xd3?\x914M!\xea1\xcd\xbf\xbf\xb4.\xf5B\x9e\xcf\xbfY`{V\xf9]\xb7\xbfU\x8f\xee\x0e]i\x90?\x852\xd2\xc7\x1e\xb5\xc9\xbfU\xe9\xbb\xa6L[\xe2\xbf|\x06\x8c\xee\xc5m\xd7\xbf\xd8F\x8a\x9dg\xf3\xe3\xbf[XGe\xda:\xdb\xbfF\xe3\xdf\x8c\x87\x14\xdd\xbf\x1d\x1f\xfcxq\x88\xe3?\n:\xa3\xce\x8e\xe6\xd2\xbf\xf4\xae\xe5L*\x01\xdf?\xe4]\xf9&\x1b\n\xd1\xbfH\xf7Ex\xb5\xcd\xe3\xbf?3\xdeA\xccA\xdf\xbf\xc5&bl\xb0\xeb\xbe?\x98\x94\x1d\xce\xbc@\xda\xbf\x19 \xc7\xed\xdb\xea\xd1?(\x0c\xd3\x08a\xb6\xb1\xbf\xfe\xfc\x0f\xa3)\xdc\xe1?\xa4D\x8c"\x83\x03\xc3\xbf/\'\x85l\xa2\x06\xe2\xbfoC\xab \xdeJ\xc5\xbf\x9a3B\x90\x82\xfd\xad?\xf6\xb37\xb6\x93e\x83?\x01\xa3\x1c8\xbe\xc3\xca\xbf\xe5P/\xdd\x04\xb3\xe0?\x8e\xff\x8a\xcfME\xa4\xbf}\xa0*\xb7#3\xd6\xbfOSB_\xbdL\xd2\xbfk\n\xdf\x19\t\xec\xd1?\x99\x12y6cL\xca\xbf\x9bnICP\xc0\xe3\xbf\xfck&\x1b]\x16\xcb?\r"\x1766\'\xdd\xbf\xc9\xa7LK\xed~\xe2\xbf\x17B\x9dA\x99\xe1\xe2\xbfZu\xd3\xfe^\xd8\xe1\xbf\x7f\x90-+\x8f\xc2\xd1\xbf\xf4\xa6\x0e\xe2\xed\x97\xc8?\xe9\xca\xd1)\xb2D\xe4?X\x8a\x04$Uq\xc5?\x11\xb5\xc4\xe4\xe5\xcf\xbc?\xdc\xc0\xb6x%\x0e\xd5\xbfP\xee\xf9\xec>b\x9d\xbf<-\x18M\x1c\xe0\xb1?\xb4Q\x99=\xae\n\xe2\xbf\x96<\x05D7\xbba?\x98K\x10:\xb78\xdd?\xf4\xdc\rRR\x9a\xdb\xbfz\xc0\xd5\xaeS\x06\xd3\xbfl\xe5\xc07C\xc8\xd7\xbf\xbf\xb3\xfbL\'a\xe2?yq\xdf\xff\x87\xd2\x8d?N\xb6%\x84\x83\xf1\xe3?X\x06\n\xd75\x91\xd2\xbf2\xe1\xffg\xf4w\xa5\xbf.\xd7\xfc\x06Y\x8b\xe2\xbf\t\x0e[A\x93}\xc8?9#{\xaaC\xd8\xd8?r\x8e\x17\x82b\xf6\xd8\xbf\x17\xbb\xecW\xe2\xa5\xe0?\x84\xba[\xbc\xc5\xd6\xa1\xbf\xc0K\xd3\xba\xb3\xcd\xe2?\xeb\x89+\x1e\xaaB\xd0\xbfG\'\xdf\xc4\xd5\xc9\xcf?\'\x1b\x07R\xaf^\xe3?\x89\x96\x94\xcf\x81L\xd0\xbf\xa4\x8c\xf1\xde\xf8a\xd2?\xb1\xab\xb8\xee\x01\xd9\xe0?<\x15\xf7\xb1G\x8a\xd3\xbfj\xfa\x08E\x8c9\xd9?\x07\xff\x7f\x89\'\xd4\xba\xbf\xc3z\x81t\xc6\xff\xe2\xbf\xbfE\x0b\xc1{\xb6\xe1\xbf\xf3\xbf\xb2\xac\xb3%\xd9\xbf:|\x18\x13\xfd\xd8\xd4?\xbaY\xc69\x0fO\xb5\xbf\xf3\xb3"h\xd0\x80\xe3?V_0\xfb$h\xd8\xbf\x95:I\xebE]\xc4\xbfs\x18\xd9\xf0\x02F\x88?=T\xe9\xab\xe8\x85\xe3?\xd3M\x83\xf5\xe6s\xd9\xbf\x8a\xad[1`\xe0\xd4\xbf\xcfc\xd8\xcb\xb8\xb3\xd7?\x9a\x1f\x99\xad\x8b\xd2\xbb\xbfj6\xe9\xac\xdc*\xe1\xbf\xb7\x84\x83\xbd\rK\xd4?\x88\xd7&\xf8\xd9\x9b\xb0?\x19ul\xe2?_\xe1\xbf\xbb\xb1\xf7pQJ\xe1?\x1e!\xfbY\x02\xea\xd7\xbfN\xe9|\xa9[t\x91?_;*\xb5\\\xbe\xc6?xh\xff\xf6y\x04\xb9\xbf\x1es\xc8-\x15R\x96\xbf\x86\x12$\xee\xef\xe8\xd2?\xf2\x88\x9e\xcbc\x07\xe1?\xfd\x00O\xb1\xc1\xa8\xe3?0[\xcetz\x1d\xd7?gC\x98\x8b\xafp\xd4\xbf\xea\xadz{{\x9b\xc3?\x9e1\x01\x1dmw\xe2?\xbaW%p\x88\xcd\xce?\xf0\xb6.\xb0\xa9\xee\xb7?__\xef\xa2\xc3#\xe0\xbf\xffzQ\xb79\x8c\xc2?>os\xec\xb4\xbf\xe1?M\xf0\x05\x06\xcbM\xe4\xbf\x86\xf6`a\x8c\xaa\xe3\xbf(foSE\x02\xe0?\xa8\x7fr\x07s\xb6\xe3\xbf}\x1f\x18\x8f-\xe6\xd1\xbf\xea\x02\xbd\xe2\x11\x13\xe0?>\xae\x8bS\xfa\xd9\xb0\xbf\xef\xe4q#\xd8\x1f\xe1?}\xc98\xceH7\xc1?\x1bn\xf1\x1d\xf3\x11\xe0?-+\xefR[\xa1\xe2?\xd1E\xed\xb6\x13\x1e\xdd?7\xbb\xd6\xb6\xdf\x1f\xe0\xbf,\xab~.\xc2]\xd7?\xf8\xd6l\xbe\x01z\xa5\xbf\xef`(\x83\xe41\xe0?#\xae\xe4\x1b\x0cS\xc1\xbfr\xa3\xbd\xe6\xd1\xd4\xad?#\x00\x00<c\xdf\x81?\xbc\xa1,-3\xda\xe2?\xfe,\x0b\'\x06^\xd0\xbf\xe7QceK \xd8?\x910\x9a\x1aS}\xe2?\xc7-\x1c-\xb6\xad\xd6\xbf\x1av\xe5\xbbG\xb3\xd4?\xces+\xacyH\xd4?\xcf\xbe6\xb6\xd6\x87\xe4?\x06\'\x15\x1c\xb9\xca\xc9\xbf\x8b(\x18\x90"\xa2\xe0?\xf3\x9f\\\x80\xad\xd8\xe4\xbf\x87\xbf5\x08\xa9O\xe2?\xec\x93\x97\xbb5<\xb2\xbf\xf5\x17\x8b\xb4\x04[\xd0\xbf\xe5\xc6Y\x03\xf1\xd3\xc8\xbf\xef\x89\xebpY4\xe1?t\xc1xdp\x06\xbe?\x84\xda#\xecQ\xe4\xbb\xbf\xac\x05XY\x852\xd8?\xf9\xb3w\x85\xefu\xc5\xbf\x9e8\x10\xf1g \xcf\xbfDRe\x19\x94\xe0\x8f\xbfl\xd7\xb9%\xb1?\x87?\xceP9\xb8\xfd\xc1\xc1?\x12\x97(\xf97\xdb\xe1?fpof"\x10\xbe\xbf5 \xf07l\x02\xde?x\xc9\x12fyn\xc9\xbf\x1f[\x05\x8f\xee\x94\xc5\xbf\x85\xd2tmw\xe5\x94\xbf\x9c\xbfNx\x0ce\xd5?\xe6(\x8d\xa2\x02W\xe0\xbf\x1f\xf0\xa2\xd4\xb2I\xcc?\xa3\x0e\x8d\x02\n8\xd5?\x17\xc5U)\xc8\x14\xd4?c?e\x90;\x89\xd1?|fG\xa4\x91N\xd2\xbfzq\xc7\xb3\xe1y\xb2\xbf\xeb{r\x06\xe0\xf2\xe0?}W\x08H\xe1u\xd8\xbf\xbd\x98ek\xd4\xc4\xe3?`\xc0\x1e|\xdbm\xd2\xbf\xf9%\xf9\xe4)\x04\xe5?\xd9\xf4\x8f\x14h\xe1\xe2\xbf\'\x84\x01\x1b\xd1\xba\xce?\xa4\x18\xfe\x9d\xe3\xa2\xe3\xbfg\x0c\x8cCR[\xd5?\xaa!U\xccB\x07\xdd\xbfx\xdd\x1b\x87\xc2\x8d\xe3?\xe1\x8b$\xf9\xa3\xaa\xe4\xbf\x13\xea\x07a\xb0\x1f}\xbf\x00\xf5\xa67?\x0ew?\x0c\xec]1r\x86\xe1\xbf\r\x85Y\xd2Q\xc8\xcf?\x98G|\xbc\xe5%\xa9\xbf\x8f\x89\x80\x9e\x95\xef\xe3?\xfd\xa3\xb7f\'\x83\xb0?)f\xb6\xf1\xdd\x84\xd8?\x98q\t&\xdfF\xe2?\xa4\xa5ts\xb7\xf1\xd5\xbf\x86\x80>EE\xb3\xba?\x16\xdf\x1f%:"\xae\xbf\x9d\xc1\x8a\xbc\x14\xc8\xd8?]\xb1\xe4\xc4\x84I\xc0\xbf\xdc|\x1a\x17\x83\xf3\xe0\xbf\xf3]R\xf7\xe0\xb0\xda?\xb9\xe6d\x07\xf9s\xe1\xbf\xba\xf6\x11\xfd\xb6*\xdf\xbf\x8dP\x84\x978E\xe3?\xe9\xe9q\x7f\xa2l\xb1?\xbf\x07\x94R\x88\xf9\xc8\xbfM\x0cE!0\xe6\xd5?\xddEZ%$\x1c\xca\xbf\x9f\x8a\xa4\xf9\xac7\xb3?=.\x82e\x8bQ\xc7\xbfH\xd5`\xf3\xab8\xce\xbfrexQ\x80\xf7\xd6?\xc0}\xd1@\xf3\xc9\xd7?\xc6\x14\x01\xab\xcf5\xd2?\xdd\xce#0\xc0\x13\xac?r\xb1\xda\nE\xe6\xd2\xbf\x80bq{\xd4p\xdc\xbf\x0e\xd2\x87\xe5\x14F\xd4?\xfa\t\x8a#\x80\xa4\xbe\xbf\xb8\x00V{\xe4\xf0\xdd?\x851V\xaf\x07,\xe5\xbfg\xdc\xa66lp\xe0?zrN\xbd\xf4\xae\xd0?\xcb\x04\x86\x15\xa5\x0e\xda?Ay\x00\xb5s\xc4\xa1?\x94*\xdaf\xbd\xca\xa3?\x04\x1b\xc69\x87\xb1\xd5\xbf\xe4\x94\x0e\xd4\x98w\xe0?\xe09+\xb6\x11\x96\xc9?,\x8c\x03\x83(A\xd7\xbfU\xd5\xa4)\xe6\xef\xca?\xecd\x92Y\xe5\xed\xb4\xbf\xf4\xc7\x847PV\xcd?\xecr\xe1Q\x1f\x03\xdf\xbf-\xca\x99\x88G\xe4\xe3\xbfSP\x0chI\xee\xe4?\xc1\xff\x18\xe8\x8d9\xe1\xbf\xdf\x19R\xbd\x032\xb4\xbf\xf9!\xa0\x1dfI\xe4\xbf\x80\xe5G\xf5x]\xbd?E\xa3R/\xbc\x98\xa4?\x11\xcd\xe9F7U\xe1?\xb5g\x85\x0ewH\xca\xbf\xb7\xee$}\xd7\xb5\xd5?\xeeV\x7f\xdchH\xc9?\xde\xcb\xca\xd1\x99\x06\x9d\xbfsf\x90\x96\xfd\xc5\xc1\xbf_\t\xd0\xb0\xa8 \xc1\xbf\xbe3\x05\xc9\tP\xe3?~\xe2\x00\x82\x91\xd0\xdc\xbf\x8c\xd3\x8f\xbe\x9ba\xd0\xbf\xe7r\xb0\x0c\x14.\xe4\xbf\xaa#X\xff\xeb\x96\xc8?S\xeb>\x08\xaf\xb5\xd1?~C\x1a\xf2\x05d\xcb\xbfA\xba\xa0+\xf5 \xd5?\xa5r\xb8N\xeeN\xdb?3\xd8\xa99\x0f\xca\xc7\xbf\x1c\x94~p^\t\xdf\xbf`\xfa\xff\xad\xbc$\xde\xbfY\x832\x8a\xdf\xd5\xc1?\x94\xfd\xb5w3*\xd0\xbf\xa7\x0c0\x17=p\xce\xbf\xb5e\x1cF\x81c\xd7\xbf\xbb\xcf\x01\xce\xe1\xcb\xe2?\x07\xcd7\x8d~S\xc5\xbf\x1e\x8d\xe6\x12L\x02\xd3\xbf\x06/Kh\x032\xe1?B\x12]?\xea\xc9\xd1?\xe9\x13K\xcab\xcc\xb5?\x8f1\xe2\xab\xd6\x1e\xdb\xbff\x8d\xb4\xd7\xed\xc1\xd3?\x03\x81\x8aS\xcfl\xc2\xbf\xfa\x8c\xe2\xfaG\xc3\xe5\xbf\xdb\xeb:\x9a"H\xe5\xbf\xbb"rb\x83l\xde?FI\xfa\xbc\xf1\x13\xe3\xbf\x05\xcd!\xf8\xfa\xe0\xca\xbfC\xe9\xe6/6\x0e\xd2\xbf\x1cai"]y\xde?\x11Ig\x1b\x89\x8c\xe2\xbf\x87a\x11\x1dI]\xda?34.o\xf9\xc1\xd2?\x08.\x9d\x97\x19n\xe5\xbf[f\x13d3O\xb2?$\xe0e\x95\xf8Q\xd1?\xa2\x06\x94\xf7\x9aO\xd5\xbf\xef\xa1.\x9cXT\xa0?)\x1eS\xf1\x9eA\xb1?t\xf9\xd3\xa2\x0c]\xc3?Tm\n\x11\x9f\xae\xda?ji\xc8t\xc5\xd1\xac?9\x9d\x1d\xd2\x10\xbb\xd6\xbf\xc9\xe9`\x87\xc7\x9b\xd7\xbfE&\xd6\xd8\x0c\xe6\xe2\xbfm\xa8n]}:\xd3?\xcc\x8f*\t9\xb1\xd8?\x90\xd1#g\xbd8\xcb?\x97\xb0\x8b\xb2F,\xd2\xbf\xb4\x03\xac\x95o\xeb\xd4\xbf\xbft\xf4\x8c\xf2I\xa5?\xd4\x1e\'\x94\xd1\xbd\xe2\xbf\x16\x81\xa2-\xbd\xb9\xc4\xbfL\x0e%\x1dI\xdc\xdf\xbf\xad\xc7\x92\xc7\xfc\x80\xa6?g\xe0J\xcbE\x07\xca\xbf\xb6\xb7\x8dz\xe9\xc2\xe3?K\xd6\x1d\xdb\xd8\x01\xbe?\xe1\x11u\xdb@g\xc1\xbf\xdcn\x8f_\xeeR\xe2\xbf\xbe\xe8\x9e\xf2\x9el\xe3?@\xdd\xd3\xc2\xcf\xea\xda?\xd8&!l\x02\xf4\xbe?\x8c\x95\xd1\x0eON\xce\xbf\xa6N^\x05u\\\xcd?mz\xb7\xd0\xfbx\xa0?\xe9L\xaa\xb9tf\xe2?\x8a\xd2\xddn\xcf\xe8\xd0?\x1d\rCDV\xb3\xcc?\x1ax\xaa&\xc0.\xcb?\xf8\xf2\xc7\x07\x84{\xe0\xbf>\xdf\x9d\x0b\x93\x1d\xd3?\x8b2g\xac\xc7.\xb9?{\xedy\xb4\x14\xfd\xa7?\xfa\x84\x14\xdbrl\xe2?\x02\xa3~\xf8i\xa9\xa8?\xa2\x9a\x99\xf1\xad\xc3\xc9\xbf\x8f^\xf9\r~n\xdf\xbf\xb5\xc84\xb8\x10\xc9\xb0?EG\xa2j+A\xe4?\xe3\xb9\x9d\xc8\xce\x90\xe1\xbf4`\xa3\xd0\xb0\x84o\xbf\xc7\xdd\x99j\xeaA\x87\xbf~\xe4%\x99\t\xd5\xba?\x19\xa5\xbde\x0c$\xd5\xbf\xe4\xb4[\xee\x1e\xee\xdd\xbf@\xa5y\r.B\xdb?\x90\x99\xc3R\rt\xb3?\x82D\xb5G4\xca\xd6\xbfi8\x03\x07\x1a\x00\xe2?\xef|S\xf8!\xb4\xc6?7\x0fH\xf3\x80\x17\xe0?\xd5\xac\x17@\x13\xe4\xde?y\xad\x13\x07\xa4,\xb4?\r\x8f\xbf\xa1U\xac\xb0?i\x98\x93\xde\xc5\xf8\xe3\xbf\x8b4\xaaO\x18\xec\xe3\xbf\xda\rIX\xdd\xdf\xe3\xbf+\xea\x1f\xa0\xef\x94\xd7\xbf\x1b\xb2l]U!\xe0?\xa6\x97>\xe5($\xe5?/\x1e\xf2\xaa\x0c\xbc\xcc?\xeb\xb9=f~k\xaa\xbfu\xcf\xc6\x14\xa34\xe0?\xfeW\x16\xbe\x81\xf7\xdc\xbf\xd0\x96\x1fA&Y\xc6\xbfw&a\xfd\xd2N\xd7?=\xac\xcc[e\x9d\xbb?6\xc3\xea\xfc\x90~\xde\xbf7\xeba\x86V\x04\xe1?\xcd\xc9G?\x85\xbe\xd4?\xc9\xe8\x99\xb8Rs\xc6?3.\xed\x1b\xdc\x14\xe5?\x050\x9e\xd0\xbc\x07\xe1?\xbb\x10+\xea\xe1\xa0\x9e\xbfH\xb8A\xbc\x8a\xee\xb3?k\x8c\x1b\xda\xb7\x8e\xc7\xbfU\xc7fg\xa5c\xcf?/\xd1K\x04\x9e)\xe2\xbfRu\xb0s\xecj\xe3?\xd6z\x0b\x87\xa0\xb7\xe3\xbf\x1d\xf8f\xe7e\x8b\xd7\xbf[j\x15\xf7\\0\xd7?\x0c\xe2\xed\x9e+;\xdb\xbf\x7f\xf7G\x0b\xd9\xbe\xe3\xbf<\xc2\xf4\xeaU\xd8\xdf?\x8b\x1c\x85R\xba\n\xdb?\xc7Ah\x7f\xd7\xf4\xbd\xbfh\xd781E\xb0\xdb?\x908"&\xa6T\xcb?lZ\xa9a\xdf\x19\xdb\xbf?)\x10\xaf\t\xd2\xa9?r\xca\xcb\n\xf1\x7f\xcb\xbf\xa0\xda\x94\t\xde\xef\xce?\x0cjd\x1a\x1f\xb7\xe3?\xf3\xffws\x08\xe6\xb5?\xe3n\xe8\ts\xc6\xba\xbf\xb1\xef\xa0@J8\xe0?\xd5\xf8uc.y\xe0\xbf\x10\x83\xc6\x16\x922\xc9?ub1|\xadx\xd6?\x9d Q\x11\xdet\xd9\xbf\xb6\x1a\xaaE\x8a\xfd\xd2\xbf\x9d-\xd3\xe8(K\xd3?\xe6\xed\x80Y\x1b\x1c\xe2?T,\x89\xbe\xafC\x94?4\x99\xf4\xefC\x1b\xd1\xbf\xef4p8@ \xd7?\x93\xbc\xf6?\xb9\x83\xd3\xbfd~\x1d\r"\xf4\xce\xbf\xfbG\xfe\x94\x1d\x04\xc9?K)H\xf8\xbb\xf4\xdd?\xd1\xf2\xa33yJ\xe5\xbf%\x95e\x07@N\xcf?\x18.\xe8\xf3\xa7I\xe3\xbfl \xd8-\x9f\x8e\xe1\xbf\xaa\xf3\xc7\x97\xb1\x0e\xd1\xbf\xc5AZ\x02F\r\xe0?\xe6\x8cS:O\xc8\xbe\xbf\xad\x9d\xef\x1b\xb7\x8d\xcc\xbf%qKw:f\x95?\xde\x8c+\xd5u%\xd8\xbfp\x8f\xac\x83\xc0\xa1\xdb\xbf\xfdA\x02\xb4(\xe6\xb4?\xe3\x981:1}\xd0?\xde\xfds\xb8\x9ci\xd7?\xbctw\xd5\xef\xc6\xc5?\x8f\xeco\xc1\x92-\xb5?\xbe\x95\xa1\xd6x\x07\xe4?\xb7\xe4#\xfd\xb1\xb1\xc7?\x1byx\xd8\xb5T\xe1\xbf\x96\xcc\xbf\xe6\xe6\xc9\xb1\xbf\x83\xbc\xa0\xfdJ\xc4\xe2\xbf\xa4|\x18j\xce\x7f\xd9\xbf\xfb\xf6\xd8\xd2bD\xd3?\x8bW\x99\xda\x0f\x1d\xd6\xbf\xe6\xe9\x1d\x8eG~\xd0\xbfu\xbaZ\xf0\x1c\xd4\xa8?\xd5\xfbS/\xde\xec\xc7\xbf\x1b\xec\xce\x9d\x81[\xd3?\x10w\xa2\xd4\x08P\xe4?m_\xde\x19\xeb\xb2\xc3\xbf@\xf1\xaf\x9c\xba\xac\xd9\xbfX\xcbw[Gj\xe6\xbf{/.:G\x03\xda\xbf_\xe2\xa7\xa2\xa4\xb4\xe0\xbf1\x90\xf9\xde\x17\x88\xd3?\xa8\xb9\xc3\xa0g\x91\xe2?QX\xfbj\xe9\xdc\xa7\xbf1\x08\xc9;q\xac\x8e\xbf\xd1;\x18\xbf%\xc0\xcf?\xcd3\x95\x13\xf0\x0c\xe2\xbf\xdfc\tJ48\xb7?!$\xb2\xce\xec\xc3\xd9?\xa7\x9e\xf2\x08RO\xe0\xbf\xd4c\xc5EH\xd8\xd8\xbf\xe8\x81\xc4M\xfa\xb8\xad\xbf\x17\x7f\xee\xac\xb9\x9f\xa2?\xc5\xe6\xf6\xc2\xb0\x8b\xda\xbf\xd0\x06r5>\xe1\xe5\xbf\x04\x964\xe9/\xb7\xe4?\x8d(\xa1Yv\xd6\xe0?\x895\xcf\xc1\x97_\xbb?\x91N\x91\x1b\'(\xde?:;\xa4\xe3Q\x82\xcd\xbf&EH?\xf9a\xdf?\x02"\x03\x89\x1b\x88\xe3\xbfv\xc6\xa8\xe9\xd9\xb5\xcb?\xf7G6\xd5w~U\xbf\xb1a\xe2\xcdWY\xd9\xbf\x1dU0E\x81I\xc2?I|\x0c\xee\x98\xbc\xe3\xbfC\xab7[\xf5\x14\xcd?\xf1\xfcT%eD\xdf?\xac\x8f\x12@\x17\xb4\xd4?\xc7<\x10\x1f\xddC\xa9?`\xef\xe8\xf5\xc1z\xc9?&\xb8\xc1\x8b\xba\x89\xca\xbf\xe8X|\x1al]\xe2\xbf:\xe7\x05D\xc0\xf7\xa0?\xaak\x9a\r9\xa4\xd6\xbf\xd9\xec\xddX\xa6\r\xe2?\xd5a\x93=\xc7o\xda?[v]L\x12\xd2\xe3\xbf\xe5\x13\x9d\xf3U\x91\xa8?m\xaa0j1\xca\xb8?\xa4\xde\x02NEc\xc0\xbfB\x95R$\xc8\xbc\x82?\xd3\xdc\xf9\x91\xaa\x1a\xe0?\xff\xf7[\x06\xc3s\xe2?r\xca\x0e1+\xec\xdb?{\xbd\x1a\xa2\x0f1\xb8?\xff\x90\xe3\xf0\x00m\xd3?\x11DA\xb4\x80\xa0\xb2?Sr\xb3f\x13\x05\xe2?"\x1a1\xe9\xb0\x13\xcd?}\x04\xc7&j\x01\xcd?7x\x84^\x13\xe9\xe0\xbf\x9d\xa0\xe4\x81\x05\xf0\xd7?\xdb4\xa0\xb7\xab7\xd2?\x820%\x06m\x9e\xd2?\xb2T\r\xd36\xc7\xd4\xbf(\xba\xe4\xd1\xe5U\xd8?\x91yZ.Wl\xb7\xbf\xfd\x8a\x1a`\xf8u\xe1?M\xc3}~\x84\xf9\xde\xbf\xe5\xf8Q\x83\xcc\x06\xd7\xbf\xe8`\xd5\x85\x9f@\xc5?\x9d\x87\x17GH\xc2\xc7\xbfJ0\x9c\xd1\xdf\xd5\xe2\xbf\xdb\xd8\xf3W\x0e~\xe2?{HQ()\xad\xc5?;T\xe0\x04\xc5\xc3\xc8?5\xb5\x88>cC\xd5?,\xfe\x0c\xcb{\x1f\xc9?u\x80\xd1\x14\xb0\xf9\xe3\xbf\xf9\xe3\xf0\xb2\xe0C\xe3\xbf.\xb5\xeeX\'\xb5\xd0?|\xd7\x97\xb4\x0f\xba\xbc?\x86tqM\x1e-\xd7\xbfnpC}\'T\xa1?\xae\xdc\xbe\x0f\xaex\xdb?~\xab\xb7\x0b\xb2M\xda\xbfx\xa4\xae\x1d\xbf \xd6\xbf\xc7\xe1\x13\xe6\x0e\x97\xd8?1\xf9\x93\xf7r\x0b\xb8?\xc5\xa3\xcf\x07\x01)\xde\xbfq\xfd\x152.\xc1\xd6\xbf\xd44\x95\xdf\xdd\x16\xe4?;Y\xc7\x04\xe9n\xe3\xbf\xb2\xd8#\xdb#\x19\xdd\xbfm\x91i\xa3\x95\xe4\xdc?Ot\xd2z\xc6%\xd5\xbf\xa8&~\x9f\x92c\xba\xbf\tu\xb7\x8f\xc5\x06\xdc?#\x0f&\xf4\x92o\xda?\x83\x0c\x92:cU\xca\xbf\xc2Y\xca\xeajw\xe2?\xf7\xb0\xaco\xb4Z\xb2?Lb\x13\x9d\xb2v\xe1?\xa2\xdaj\xfb\x86\x14\xc9?\x82\xce\xa4\x8f\x8f\xe1\xe1?\x9cQ\x83\x86\xfc\x85\xbc\xbf\xdbt\x06\xbfky\xe0\xbf^\x98\xb0\xb4r2\xd5?\xdc\xdcw\xa0\x0b5\xe2?\x1c\xe7X$&\x03\xe2?E~@sUB\xd7\xbf\x00\x13\xc0\xb8\x00~\xc1?\xb1\xb6\xf4\x90\xe6\xa7\xdd\xbf\x11\xe2\x97^\xd1\xc9\xdd\xbf\xba\x1c\x8f\xee\xa4\xc9\xc6?\x10(\xbd\xe6\xb1\x93\xdf?\x00\xa8N\xefj\x8b\xd3\xbf\x97(\x85|gc\xde\xbf\xc7\x08.\xb6\x98n\xcc?\x9a\xa4\xce\xac\x16y\xe2?[M\xc03Z9\xc6?\xa2\x1d/\x93\xd4\xfd\xd6?\xb6Z\x16 \xe3#\xdf?\x1am\xbd\xdf\xdb\x04\xe0?\x83\x80@\xfeQ\x84\xd0?\x1f\xd7A\x8c\xeer\xe2?\xb2~\xda:\xf3!\xd7?\x12\xf1\x1b*\x82\xa0\xd6\xbfrI\xa3\xaet\xf2\xdd\xbf\x1e\xf5\xf1.\xd7{\xc9\xbfA\xdf\x11\x13g\x98\xab\xbfe\\\xb9\xb0\xdb\xb0\xb1?\xbb\x0f\xb5l`\xf0\xe2?@\x87\xde\t\x079\xd2\xbf\xe3A\xb2,\x8b\x9d\x91?\x17*\xe9O\xfdD\xdf?\xa8\xe8\xa65L\xc1\xe1?9\xe7\xa1\x82\xabF\xbd?\xc7S\x9a\x0f7N\xb8?\xe2\xbb\xd7\xd6_7\xcb?=\x0e\x1d\xf0e\xa9\xdc\xbfI\xd2\xec\xec\x05\xed\xe0?\x06K\xbb\x17kl\xd8?\xf1\xdf\xac>"\x86\xa4\xbf\xff5\xb1\xf8n\x12\xab?#\x91\xc8\xa9\x01\x14\xd8\xbf[\xafQ\\\x150\xc7?`\xe6/\xbdM\xc5\xb6\xbf}E\xb1\t\x8bc\xdf?\x11\x03\xe5dg\xda\xdf\xbf\x97\x98(\xe2e\xcb\xdd\xbf8\x93%\x02~t\xe1?\t\t=\xfb\xd8\x8e\xe1\xbf$\xb7\xe5\xfc<\x82\xc6?0\xed\xb3\xbf@&\xd0\xbfl#j\xaf\xf6E\xe2\xbfN\x81Ws>0\xd1\xbfU\xe9\xb6o.\xa5\xd5?\xd2\x17(\xea|H\xd4\xbfa\xc4\xd1x\x83\xf5\xce\xbf\xe6\\g\xd9\xd5\x01\xd2\xbf\x17</\x1b34\xde?\xf5+\x8d\x85;!\xc5\xbf\x18\xd8r@\xf5u\xdc?\xe6\xa0\x02h\xe4\xb9\xe4?\x0c{\x89\xa5 b\xad?\xb6\xca\r\xc2\xd5\t\xcf\xbfd2\xdb)\xc1<\xdf?\x1b\xf6\x8c_\xc3E\xb8?\xbe>\x8c(\xe6\xae\xe3?V\x84&\xbe\xc0\xa5\xd8\xbfy\x1co=\xa7\x16\xd1\xbfU\x88\x8a\xf5\xd7\x8b\x98\xbf\x06\xfb;\x1b\xce\x8e\xdb\xbf1\x94j\x9bL\x90\xc7\xbf\x88\xcd\xf8TO\xa9\xdd\xbf\xc1\xc4g\x96\xb3T\xc5?\xc8\x1a\xdb\xf2\xa5\x15\xe1\xbf/\x02v-\xf1\x1a\xda?vvz\x03\xc8/\xc3\xbf\xa2J#\x95\x8c\xe5\xb3?\xcaO\xc2"\xf9\xf6\xe6\xbf\xa9\x08j_\xb3\xaf\xd8?.\xd1\x89aLq\xca\xbf\xdf\x1fH\xa5\x0b\xb4\xb2?\x08/aD\xb13\xe4?.^)z\xad(\xe6?\xa9\xabt\xc0q\x0e\x03?\xef\xb7\x93\x19\x99\xc6\xd4?N\xae \xc1\x80\x8a\xd4\xbfw\x93\xb3\xcc9\x98\xa2?\xda\x9a\xe3\xfd\xe1\x96\xdd\xbf\xcf\xb36\x8b\xfc\xe4\xd2?\x9d\xa6{\xcc\xb7\x85\xb4\xbf\x0e\xcd\xe8\x88ks\xe0??I\x114Xt\xcf?\xbf:;\xb3\xee*\xc8\xbf\x83s\xd6Q\x9e\xb1\xe3\xbf\x8cz\x8c\xa1\xd4\xb4\xc1\xbf\xb3\xc4\x1f?\xee\xfc\xc0?\x1b\xa1\x86\xfa\x92\xc9\xd4\xbf\x99\xfa{\xf2\xe2\xdd\xe6?qKb\x04\x1c>\xbb\xbf\xef\xaa\xdd\xb5\x86\xb5\xb7\xbf\xdax\xdd\xeb\x9d\xe2\xe4?\x81@\xc8\xb7\xab\x1a\x80\xbf\xc4J~\xee\xf7V\xd1\xbf\x9d\xba>rX\xd4\xd1?\x98y\xb4iL\x14\xd2\xbfL\xd7\xcf\x90*1\xe1\xbf\xb6\x91C\xe7\x1f~\xa0\xbf\xd6\xc0\x9f\xafDW\xc7?\xbdoG\xe4\x0c>\xd5?R\x8d\xac\xd8\x0e\xa8\xdc?\x96\rZ\x12U:\xd5?\xa2})\xb1\xa0\x1e\xd5\xbf\xf9\xce\xfeD\xe8\xbf\xe4?\xf0k\x84%\xd2\xb3\xd4?\x93b\xa2\x00.\x8d\xd2?\x8fK&w\x13h\xe3?\x96\xf7\xdf\x83\xe8\xb2\xdd?T\xafu/\x84\xbc\xdd?.l\x80\xdb!\x15\xd7\xbfl\xfe\x1daX\x85\xdb\xbf\x08H\xff\xe2ec\xc4\xbf\xd1.;\x10\xee@\xcc\xbf\x9d\x04\xb9\xaeRW\xd8?\x14\x95\xa3\xaa\x95\xd4\xe0\xbf\x84\xcd\x1f\x0f\xe48\xdd\xbf*8\x1d.\x94r\xdf?\xf2\x02P\xa8\xe8P\xd5?t\x1c\xfb\xffU\xf7\xb7\xbf\xbf\xdd1a\x19#\xdd?a\r\xa7\xafJ;\xc2?\xd8l\xf8\x85\xc21\xe3? `-\xff\x07\x08\xe4?\t\xca\xfd\xb2\xb0~\xe2?\xaa.\x0ex\xc2\x1a\xb8?\xff.S\x93\x03[\xc6?\xef\xfcL\x16;\xa8\x9c?a\x0eK@\x97\x07\xe6\xbf\x01\x1cd\xc6\xf3\x8e\xcf?\xcc+O5g\xa4\xdb\xbf#\x0cTX\xf1{\xe0?\t\xd8\xac\xc0\xd0\xa3\xc2?\x8e\xd1\x97\xc6\x9b(\xe1?;{\xe3\xcc\x00$\xcd?,\xf4*\x84h\x07\xba\xbf\x146\x97\xa2\xe6\xde\xe2\xbf\xf4\xe6\x9c\x90O\x01\xd3?\\.\x15\xa3\x86\xa9\xb0\xbf\xf7\x84S\xc3\xc1\xec\xe4?\x05\xa3\xb6P6\x9a\xd7?\xc2\x1c4\x00C\xc7\xd5\xbf:\xe1\x86>\xe4\xc0\xd4\xbf\xec\\\xa4\x03\x8f\x81\xd2\xbf\x87`S\xfe\xffF\xc0?\xf28\x06\xc6\xff/\xd5\xbf\xd1r\x03|\xb7\xce\xb9?\xc1\xd0\xae\xad6\\\xd6\xbf\n\xf8\xefy\x86;\xd8?\xd6\x0e9\xa7a\xc1\xbe?S-\x85a\xde}\xdf\xbf\x04\x13\xba\x03\xe5\xc8\xc3\xbf\x04\xee\x1dY\xe5\xcc\xc8?\x83bc\x18j\x91\xcc?\xa1\xcf\x0f\xa2yw\xc3\xbf\x08\xc1\xfb.\xba\x18\xe5\xbf\xc2S(*\x1b.\xcb?A\x1eD\xc6\xd5[\xc9?d\x86\xa8\xc8+\x1c\xd9?\'\xad\xac\n\xd3\n\xe4?\x8b\xf8\x9e\xf7\x05"\xae?\xb2.$W2}\xd7\xbf\x0b\x13\x846{ \xdc\xbfVl\x10\xf2\x15\x12\xc2\xbf\xd1\xa1\xbao=\x08\xe3?\xb2In(\x15\x16\xe2\xbf/*CS!T\x9a?-\x12\xa9*i\xd2\xe0\xbf\xfd\x9f\xcc\x91\x93i\xce\xbf\xb50\x14\x02z\x12\xdd\xbf\x98\x0bl\xfcs\xe1\xd1\xbf\xcd\xf5\xc49\x1a\x12\xe1?\x91D\xab,\xe9s\xbe?\xcc\xa2\xb3&I\'\xdd\xbf\x9e\xca\x8a2\xbc\x01\xd3?\xd3\xadX\xd4\x161\xd1\xbf\xbc\xbcO0\xf1Y\xb4?k\xd5\xee\xe4\x08o\xd5?\x8d\xef6\x86c?\x83\xbf\xef@`K;\x1f\xca?\xb4c2AI\x8b\xe1\xbf\xed\x15\xa4`\xd0$\xde?\xf7\xc5\xe2\xc1M\xa5\xdc\xbfH\x8aSY\xc6\n\xd8?\xbdP\x8e\xda\xd7v\xc0?c\x12X\x8e\xc1\x04\x92?\xb7\x0e\xf69\xf9\tt\xbfx\xdc\x062\x8d\xef\xa0\xbfk$\xf4\xc6\xea\xeb\xe2\xbf `\x99\xaa\x9b\xb8\xe2?/\xd5c\x84kR\xd8\xbf5\xab\xec\x16\x9d+\xda\xbfS\xb2\xe3<\xccf\xdd?\xbe\xc0kHB\xd8\xcf?\x11\x95\x97\xdcK\xdf\xce\xbf=fK\xfd\xc4^\xdf\xbf\xd9\xf0\t5w8\xe0\xbf\xe0\xa3\xc95\x8b\xfe\xae\xbfd\xf20\xc1\x19[\xe0\xbf\x82\xe7\xa2N\xd4\xea\xe3?b\xfc\xc3\xedf\xfe\xd2\xbf\xec}\xf1S\x0e\xd9\xc7?\xb3\x16\xe2\x8a|\x90\xd4?\xec\xf1\xe39\xcdx\xd6\xbf2\x14\x80\xdd\xf8\xc0\xe2\xbf_\xb5\xf8\xff\x94\xbc\xe2??LH\xe6:\xae\xcf?\xf62\xda>\'Y\xca?v\xde\xfc\xbb\xef\r\xd5?)l\x0c\r\xae\x86\xde?\x93\xb33\xc9\n\x8d\xe1\xbf\x14\xd6E\xcf\x0c\'\xc0?\xdcO\xae\xf1\x04\x0f\xd7\xbf\xc3\x80W^\xda\xac\xb7\xbf\xe4\xfa\xbf3V@\xd3?\xa5\x0c\x96\xad\x03\xfe\xa4\xbf\xe8\xa3\xcc\xf2"\xa4\xbe\xbf\x133K\x15\xf0\xc7\xc0?d\x08\x9f\xc3B\xf7\xc8?t\xf1\xa3P\xba\xc0\xe1?J"\x05^,\xc8\xcc?\x0e\x90#\x92O\xb5\xe0\xbf\x87x\xae\xfb\xe8\xc4\xe3\xbf\xc9\xbc\x05F\x12\xd7\xe1?G\x01\x13\x92\xbc\xa2\xe3?\xfd\x98\xa9\xdeA\xb3\xdc?P\x89\xd2\x86\x9b\xf9\x86\xbf\x95Q\x94$\x93\xd6\xa2\xbf;\xbbE\xbaG\x15\xd1\xbft\xc2"2\xfb\xd4\xcf\xbf2\xdc\t\xb9\xa8Z\xad?\xa9\x992F\x06\xf4\xd2\xbf\x9fGf\x05\xda\xc5\xbe?\xdc8n\xcf\xc2o\xd1\xbf\xdcC\xae\x02\xc9"\xde?\xc2\x83Y\xce\xbeB\xdd?W\x90\x86\xe7\xb2\xab\xd4?\xf4\xa1\xaed\xa9\xae\xa9\xbf\xfe\x00r^\x92k\xc0\xbfv\x80\xd3\xd3G~\xe1?\xfc\xa6\xa7}_+\xd5?:\xc0P\xb1\xac\x95\xdb?%\xee\x00c\xe5\x17\xe1?L\xf9\x1b\x19\xc1\xe4\xd2\xbfJ\xe3\x1a\x1d\xfa\xca\xd6\xbf\xcd\x13\xea\xe9T\x02\xdc?iu\xee\x04v\xd8\xd3?\xd8\xe5\xce\x86\x03\xe8\xc7?\xe5\xa6\xac&n8\xe1?\xd7\xae\xe3\x17\x8bO\xd6?\r\xa0\x04\xfe\x8e\xa6\xd3\xbfQ\x8e\xcf\x9d\x05=\xdc\xbfI\x13\xaa]\xd5u\xb3?\xb8j\x8a\xc8\x1c\x99\xe2\xbf\x89I<\xc8\x0f\x00\xc8\xbf\x9cN\x89\xe4\x9e\xe8\xa4?L\x1f\x8d\xd5\xaf\xed\xd0?@q`\xc4$s\xe1\xbf\x0cwAA\xach\xde\xbf\xc55\x98\xc8f/\xd1?)\xc1G\xceX\t\xe1\xbf\xa6\x86O\xe6\xca\xe9\xde?\x16)%\xa4\xf1\xad\xe5?DV\xbf\xdcW\x81\xc6?\x92\x10\xb3\xa0\x94\xba\xc4\xbf\xe6?\xbdI4Q\xde\xbf\xb9\xf5\\|\xd0R\xdb?\xa9c5\x97n\xf3\xd2\xbf\xb7\xe7\xb3m\x93\r\xc9\xbf\x8c\xc3\x8b \xdb\xa6\xe5?=?I\xff\xe5\xaa\xda\xbf\xe5\x05\xf7\xa0\xc9i\xdb\xbfX\x06f\xf4\x90[\xe0\xbf\x19\r\xf4\x81\x1d\xf4\xcf?\x19\xe80\xd3\xf7T\xca\xbf\xc6j{\x89\xb3C\xc3?Z\x89ja\x12\x94\xdf\xbf~\xad\xb4\x16<\xda\xe0\xbf\xcf\xfa\xe1\xc5\x13\xd1\xe5\xbf\x97\xc1\x04\x9c\xbbo\xe2?4f1\xbd\xe0r\xad\xbf\x95B\x94\xd7VJ\xe5\xbfe\x18\x98aT\x16\xdf\xbf\x07\xc4X\xebt\xce\xd7\xbfS\xc9o\xf0\xb1\xf9\x9e?\x077\xddI\xa8\r\xe4?h\x88\xe5,fc\xd0\xbf\xd5#\xf1O\x13\xba\xc2?\xee\xf1`\xcd\x9d\xa0\xd6\xbf\x88\xa3\xe0\x06%\xb1\xb1\xbf?\x95[\xed87\xe6\xbf\x7fH\x93O5F\xc1\xbf\x9b\xd6\x80`\xe9\xd7\xba?RN\xbc_\x07\xf7\xd1\xbf\x8e\x1c6\xafF\x07\xcd?\xfa/\xeek\xa68\xd3?tJ\xa8;\x17\xbc\xc3?\xc7\x89\\W)\x12\xd0?I_!\x00\x89\x14\xc1\xbf\xdc:b)*\x85\xdf\xbf\xb72\xb1\xb1h\n\xde?\n\xa4\x1d\xc7\x91\xf6\xe0?q\x87g_\x1a/\xd4?\x8a\xaa\xe3\x96\x03\x87\xb8?\xae3\x1e\xe6\x0c\x86\xd8\xbf\xa5\xac\xdcc\x91;\xe0?qp"015\xc8?[\xbeu\xbf&\x1b\xd3\xbf\xfa\x1b\x9a73-\xe0\xbfI\x9aYt\xf4\xf7w?\xbc\xd9-\xbc\x96=\xe5\xbft\xe0@\x14\xf9\xd2\xd2\xbfo\x11n>\x11Q\xae\xbf\x7f\x15\xbe\x7fZ\xc4\xe5\xbfV\xeb%\xfd\x13|\xde\xbf\x0b\xe8+[\xdd\x81\x9f?\x98\xa9\xcdD\xefg\xcc?z\x0e\xe5\xa7\x86*\xe0\xbf`A\xae\xd3Vm\xc0?O\x1f\xbd\xd8t:\xdf\xbf\x83\x8f\x17zeY\xcc\xbfx\xae\xdb\xda\x89\xab\xc7\xbf\t[\xc8p\x13\x1c\xdc?\xb2pZ\x93\tv\xc8\xbf\x8f\xbdN\xda\x99\xe4\xe4?n\x10_h\x1e\x9f\xe3\xbfB\x08\xed\xd3M\x11\x93\xbf7\xdcbdd\xdd\xe4?\xcb\xdb\x06\xa1\xc6L\xc1?\xafi\')e3\xd9\xbf\xc3V\xda.\x85\xd6\xd6?\xe9\xd2y-\x95d\xd4\xbf\xe39a\xdf](\xd9\xbf\xaac\x92{\x05\xd5\xd5\xbf\'\xcda\x9b\xfe-\xe2?\xf7V\xeb\xbcv\xe6\xdb?\x84\x12Q\xed\xa2X\xc1\xbf\x00\x86`\xc1<}\xc9?d\x03+w\xf2m\xd7\xbf\x896\x1e\xdf\x85\xe6\xce?\xafE\\\r\xd6\x02\xe4?\r\xb9ku\xe7\xd7\xd8?\xd6AF\xef1\x11\xe5?w\xbf]\xde\x14\xe5\xd7\xbfR\xfe\x1f\x16OY\xcd?a\xd4\xc7Qd1\xd1\xbfs\x13\xc9\xb5U\x16\xbd?\x06I\x97\x94\x1f}\xab?\'\xce\xb3\x91k\x9c\xc0?$\x1b\x8f:ly\xcd\xbf\x0b\xc83\x9b-"\xe2\xbf1\xc4\x07\xe5>\xfc\xd8?_\x80\xfc\xc5\xb52\xe4\xbf[\x08\xe64M7\xd3\xbf#\xca\xf2H_\x1e\x95\xbf\xb9Q\x91v\xacG\xe1\xbf\x0c\xd8\x1a"=\xde\xe2\xbf\x90\x89fr5\xc1\xd7\xbf\xaa\x97\xc5\xbf\xe6\x99\xe2\xbf\xc0\x1d\xb7:\x9d\xd6\xd1?\x10\xf5"\x04?\xfe\xb4?\xbbD\xa8\x81\x8b\xc3\xc2?\x90WT@\xbc\x87\x9d?\xef\x9e\xd1]_M\xa7?U\x99\x0b\xad8\xbc\xa1?\xb8\n$\xd3\x90\x7f\xda?\xe7JR\x0cJO\xe1?\xfe\x07\xb6\xac\x97\xd9\xdc\xbf\x92eM\x99\\\x89\xd5?s\xc7\xec.;\xb3\xe0\xbf\x0b[\x04\x88y\xfb\xe1\xbf\xfa_`\xf7\xb4\xf2\xdf?(\x90\x07\x93m%\xe1?\xa5\xdc\r\xb8\xcfP\xc6\xbf3?\x0e\xf0\x00\xfar\xbf\x92\xb5\x96\xcf4\x9b\xe1\xbf\xff\xfe\xfb;)\xad\xe1?\xac\x93f\x08\xd7z\xd7\xbf$\xe1\x15\xa6\xdaJ\x9e\xbf\xb3=\xb3a\x82R\xe1\xbf\xd7\xfe\x02H\n\x07\xd4?\xdd\xcd\xe8]Q\xaa\xb4\xbf$\xfcRYI\xf4\xd8\xbf\xdbh%kS\xa0\xc4\xbf\x19\xc4\xb4\xaaF\x00\xc0?\xfcn\x83\x10<"\xd4?{\x8e\x9eH3\x1f\xcc\xbfD\xf9\xf4T\xb4\xd0\xe0?\xcb\xb6\x9d\xe2S\t\xe0?V\xf5\xc1V\xd0\x8d\xb8\xbf\xaf\xf1r\xe1m\x90\xe4\xbfx\xef\xea\xda_\xdb\xde?\x9c\xf4\xb5\xeb\x1d\xcb\xe0\xbf\x10\xb9`\xc9\xcd\xa6\xe3?\r\xeb\x83"\xfa4\xd9\xbf6W\xaaI\x94\x8c\xd1?\xec;\x1b\xaf)\xb7\xd5\xbf\xde\x88\xbd\xaa\xe3^\xa2\xbf7)\x0bL\xffD\xe3\xbfY\xcb\t\n}\\\xbd\xbf\xeaqq\x18\xf9\xb4\xd0?\xe8\x95\x9dl\xdf\x03\xdf\xbfgHM\x9c\xc3\xfd\xd3?eh\xd7\x95\x81&\xc3\xbfL\xb5\xda\xb8\xe8\x14\xe4\xbf\'\n\x12\xdd\x8e\xc6\xc6\xbf\xf7\xe7\xdc!:\xff\xd5\xbf\xb1\xd1\xe1yL\xae\xcf\xbfw\xbf\'\x00\x96\xd7\xd8\xbf\x0c\xde\xc1[\xdf\xa9\xe4?\x85\x00\x9b\x95\x15\x12\xe1?c\xbc\xae\x84\xbd\x7f\xd3\xbf\xe3\x84|c\xa5\x8a\xbb\xbfJuG&\xefG\xca?\xe0\x9f2\xc4\xdeY\x97?t\xdb\xf9\x1ah\'\xdd?\xb1\xa4\'\x0f\x04\xd8\xbf\xbfn\x82o\x9e\xddm\xbb?\xa4\xce\x9e,n\x0c\xc4\xbf\xd8\x13\x107\x12\x1c\xd0\xbf\x14\x17\xe61\x00\x92\xd6?\xb2\xed\x19\xb6\xf2$\xcd?\xed\xd6\xdf\xa9\xacy\xe2\xbf\x01\x12QZ\xf3y\xcf?\x1a\x08O\x10c\x9b\xbe\xbf\x9a\xa9%\x98V\xb4\xa3\xbf\xc2F]\x98\xa58\xaf?\xa4\x0b\x16X\xcc@\xe0\xbft\xd0\xcc\xcbs\xf6\xc8\xbf\x06\xb6\xfc}e\xe0\xe3?"\x04\x92\'\xcf\xd5\x96?\r\xdc\x1aI\xae\x96\xe3?\xc2E\x12\xdf\x94k\xe0?]\xb3%\x90\xcb\x08\xe4\xbf7-\xf0r\xb2V\xe4\xbf\x97\xd6\xa7\t7\x90\xdc\xbf\xa7\x93\xa9{\xec\x06\xb6?S\xe0!\x81G3\xe4?\xf7\x11\xd4v=\xf0\xe2?\x9b\xb3\xa6\xde\x88\x0f\xc5\xbf\x81\x04\xde\x02\x89\xba\xdd?\x90j\x8c>\xcf\x1c\xde?\x196\x8av\x14\xf6\xe2\xbf\x19\xca\xda\xde<S\xba?\xe8\x07\xbc\xbb\x90\x11\xc7?\xd3)\xf0k\xa4*\xd6\xbf\x8f\xc4\xc7%\xc2.\xc9?\xe80\x9e\x86\xdb\xb9\xe1\xbf\xf25\xd4\xf7\x9a\xeb\xd0\xbf[L\x9f\x81\xb4\x07s?\xe5<\xef_%\xa3\xda?\xd5\x92P\xe659\xda?\xe7\xd2A\xc3\xca\x0f\xc5?\xe2\x9d\x06-\xb4\x14\xd0\xbf$D\xc6j\xb2\x98\xe2?y\x0e\x86\x17g\xc3\xd3\xbfP\x8fX\x8f\xa7\x8e\xdc\xbf\xa6\xb02\xe8"\xe7\xd1?=\x90\xb8=j&\xe3?\x1f?\xe5-\x0f\xee\xbd\xbf\xa4\xc1\x08S\x13\xfa\xd2?)\xcb\\sH\x8a\xc7\xbf\x95\xf2B\xfb\xc5\x1c\xe6?\xd8\x91\xcda\x06>\xd5?\xaa\x95K\x15\xc6A\xe3?\xee\x06\xf0\xbd\x82\xa6\xd7\xbf\x8cQ\\L\x8bd\xc7\xbfT:\xed\xa2j\xda\xe1\xbf\x14\x17=x\xccZ\xdf\xbf\x87N\xfc1\x87P\xd6\xbf-\xa87\x9b\xfe2\xc3\xbf\x08\xdf\x94\x82 9\xe5\xbfT\xa3)\xd1\x01\xc4\xdd?8\x9bc\xf9&\xe5\xca\xbfg\x1b\x7f\x1e\x1a\x1b\xce?\xff\xe6E\x1b\x87I\xdd\xbfZ\x039p+\x83\xd4\xbfL\xeci\x17\xcf\xe0\xcd?\xa4\xbf=\x14\x04k\xc3\xbfw\x90 \xea\xc0\x85\x99\xbf>\xb6\xc7\x10_\x8b\xd2\xbf9\xe7\xdfs\xb0\xe7\xbd\xbf~\xcd\x91GG\xc1\xd6\xbf\x12\xc6H\x11A\xba\xc2?\x90\x8d\x12]\xd9\x14\xde\xbfQ\xadyjE\x15\xdb?;\x04m\x85\xb3\x1b\xb4\xbf3\x85TQ\x8b\x95\xa2\xbf\xcc\xb3C\x1f\xf6\xc7\xe3?\\v\xb3c\xbe6\xd3\xbf\xbc\xdf6\xf0\xb7\x91\xe1?\xca\xb2\x9c\xb2\xee\xbb\xe3\xbfo\xe2\xa0\xcdJO\xdf\xbf4\xde\\xD\xf2\xe3?\x88y\x12\x92o\xa6\xd3\xbf*\xbfz\xad+\x15\xca?\xf6\x08h\xd2\x8f\xda\xcd?>>\xd0\x1e\xb1\xda\xc1?\x0fS\xb8\x02@f\xaa\xbf/\x0f-y\xe9\x93\xc5?\x02y|\xbd\tY\xe4?\xb0\x1c}6\t6\xe6?\x05\xa3\x05\xae7\xd0\xb8\xbf\xc8\xd8h\x06f\xb8\xdb?0\x8c,\xe1\xf6\xbe\xcd?D\x19\x98\xb5J@\x92?\x07#\xdaj\xf2\x1d\xcd?:.\x15\x07Lk\x16?2\x14\xfe9Hh\xe0\xbf\xf7:\n|\x01\xd5\xbf\xbf\xbb\x17\xc8&?\xae\xdd?\xb2y_\xa2\xe2T\xc0?\x86\xce\xcfj*\xad\xe6?9\xf9\xff\x04\xb5>/\xbf\n\xa8j\xaa\xe8\xf1\xe0\xbf\xe8\xb6\x0fMS\x0e\xd3\xbf\x88\x0b\x8b\x9b\xdb\xaa\xd5\xbf\xe8\x89\xe5\xcf\xd1N\xc8?+\x8c\xb6\x16{\xb8\xb9?\xf3\x05\xbb\xee\xc7p\xd0?\x98\xbd\x17\x9c:\x9b\xe3?#\xe9\xea1\xff\x8b\xaa?\xf2\xcdoyP\x1b\x98\xbf\xe2\xc8\xb5?\xc3\xef\xc6?:\x1d\x93\xd6*B\xcb\xbf\x04\xe02\x10\x1a\x8f\xd0?\x85oz\x04\x94V\xe2?%^\x89_\xbf\x99\xda\xbf\x1f!>\xfc\xa2<\xb3?\x83y^\x882\xdf\xd2?\xed\xc38\xbf\xdb\xe2\xc6\xbf\x12R\xd8\x84\xbb$\xd7?\x89\xa3\x04\xe64\x16\xb1?\x95\xd3\xbb\x96y\xb6\xe3?x\x80\x9f)\x17\x18\xa2\xbftt\x9f\xc1\xa0\xc9\xda?\x85LH\xdd\xe0\x8e\xe0?2\t\xe9={\xc0\xd4?\xd9\xa9\x85\x0e\x85\xee\xcc\xbf\x1eMfn\xc3\xe8\xda?_\x80\xa4\x81N\xe6\xda?y<#\xf1\xf1\xdc\xcc?\xb8:\xab\xbc\xbb5\xe4?wE\xb4I\x93\xff\xd4?#\xa4\xf7\x16lE\xdc?\x1f\xba.;7\n\xe4\xbfju\xc9I\xbb\xba\xe3?\x8e\x1b/\xf8\xd5\x98\xad\xbfW\x9a\xca\xd2VU\xda?\x96\x81\xcd\x03va\xa6\xbf\xb3\x18$\xdd\x0b\xac\xde\xbf\xb6\xf2\xca\xcf\x8c*\xe1?e\xda\x1eJ>J\xe0?2\xb0\x16\xeav\xc4\xe3?\xe7\xbd6\xd8%\x9e\xb0?\x8dXP\x9a\xeb\x8a\xd8\xbf\xa6\x14\x008fE\xd3?]O\x17b\xb9\x18\xd7\xbf\x04\t\xb8\xc1\x191\xdc\xbf\x9d\xf3\x14\xe7\x8d_\xd4?N{\xdc\xb6\xd3\xf2\xe0?\xe8\xba\x94|L\xba\xd2\xbf\x82\xc9@K\xd37\xb2?\x00\x0e@k\x01^\xd6\xbf\x93<A\xb8\x0f\x07\xd8?\t\x95Fwz\xe6\xde?fL\x90\x07\xdc\t\xc5?qH\xee\xbf^<\xc7?.\'\xe1\x08\x80\x15\xe1?\xcc"\xd3\x04\xb0\x85\xe2\xbf\xb0\xe7\x0f\x93\xee\x99\xe0?\x19\rQ\xfe)\'\xd4?\xf5\x16\xd6\x9e\xe7v\xe1?\xa0\x06@\x0f\xc2\xaf\xdb?\xf4\xf6\xb9\r\xc84\xcc\xbf\xb4%\xfdJ]\x0c\xd3\xbf\xac\\\x07\xb3\xae\xea\xcd?X\xdf\xec,\xb9\x83\xe0?rl\xdd\x9b\xea\xa2\xbb\xbf\x99Ri\x9d\t\xa2\xd9\xbfya\xf1\xd1\x98\xa4\x9b\xbf\x05cw\xdc\xaf\x9b\xd0?D\xdbA\xe3\xe8\x98~?\x91~G\n\xc2S\xe1?\x92$\x11\xb8bB\xdf\xbfke\x1d\x88\xad\xca\xd2?,\xa9\x06\xaf\x8f\x0c\xd4?e\xfb\xbfO\xb3\xa9\xe0\xbf\xee\xbe\xac\'o\x84\xb7\xbf`h\xbf\xc2\x044\xe2\xbf\xdc\x83$\x12\x9e\x05\xe2?C\xb7\x8c\xa3\x06\xe7\xd8?\xa2\xa0^\x0c\xee\x7f\xe5?\xb7\x12\x1d0\\\xb1\xcf?=h\xbe\x87\x9c8\xdd?\xde\x92]\x11\xfe<\xe3\xbf\x05\xc3!m\x1d\xa9\xd7\xbfq\x98\x86\x95\x8e\xc7\xdf\xbf\x95x\xc6#\x88\xde\xda\xbf\x92\xe0Q:\xc4\xb3\xe1?\x8f#\x88sW\x99\xe1?\xe3L\xac\xde\x04\x02\xe5\xbfX\xd0\xad\x18c#\xc8\xbfa\xb2\x0cx\xe6#\xa2\xbf\xbb}\x9b/\x97-\xda\xbf[a\xeb\x044\xb4\xdf?\xf5\x92B\xb0\x12U\xd7\xbf\x1c\xdd\xa4\xf2\x81\x8e\xbf\xbf\x0e\x16(\xed\x04\xb7\x9f?\\<\xe2\x94\xc1.\xc5?\xf7(\xc9\xef\xc2\x08\xa4?\xd2A55\x13\r\xe2?\xf7M\xa2\xe0q\x1b\xd2?\x03\xdd\x0c\xc9\xdc\x15\xda\xbf\xeaD\xaa\xa0\xd1&\xa8?\xcd!\xc5H}\t\xde\xbf\x9dI\x95\x92\x01\xca\xc6?\x9c\x00s\x9f\t\x08\xd6\xbf~cc\xdf\x10}\xdc\xbf\xb8$\xe5\x17\x1a\xef\xc6?\x91%\xe5\xc1\xcf\xe6\xac\xbf\x85@\xb4\t\x9a\xfc\xc1\xbf\xe3\xad\xcb\xc1\x80s\xce?\xf2\xa3voj\x84\xdf?\xce\xca\r\xfa\xe3O\xe0\xbf\xa5\xcc\x1b1\xfd\x18\xdf?\x90GjO\xa8Q\xc3?}g\xd2A\x15\xa4\xe4\xbf\xf7\xd0\xce\x9e(+\x83?\x08n\x02\xaca/\xb4\xbf\xd64\'z\xe5k\xcc\xbf!ha\xd0\x82\x8a\xe0?q\xbcJ\xfb\x86\xbf\xd6\xbfj\x14\xea\xa8N\xf2\xda?\x9bqo|.\xb6\xe5\xbf\xe34\xa5\xe0\x97\xc9\xd4\xbf\xbf\xb2D=\xe4\x1f\xb5?){\xe4JI\xf4v\xbf\xf1i\x03\x04Q\xe6\x93?\xac\x0c\x9d\xcfZ\xdf\xe3\xbfX\xab\x91.AI\xcc\xbf\'\x13\xefx=\xdb\xba\xbf\x17{@)U2\xd6\xbf\x8fvG;\x05\xd0\xd2?\xd6\x96,\x03x\x81\xd6?\xc0:q\x8d\x05\xc4\xe1\xbf\x0bt\x9f\xbb\xeaq\xe1?\n\x86\xea\r\x84\xc4\xd6\xbf\xbfj\x7fM\x86\xa2\xc2?44\xb6_\x04^\xda?\x8a L\xe6\x86\x17\xda?\x91i2\x81)\xdd\xe1?\xd3\xaf\x86Z\x97\x03\xe5?E\xbf\xbf\x9d8{\xe7?F\x8e\\\x13\xd0\xa3\xda?J\xd2\xe4\x8c\xbf\x90\xe0?\xd6R\xb3\x85\xef\xf5\xe3\xbf{bs\xe2\x05\xd6\xdc\xbfQ<8aa\xc5\xe5\xbf\x14\rJ\rk-\xb8?k\xb4\xbe\\\x07\x83\xe7\xbf\x83A0\xbd\xb7:\xd3?\x1e&\xceT\x11(\xd1\xbf\xda\x92\xc9\xa0W\xbb\xd8\xbf\xadPh\x00\xaf\xc5\x9d?\xd5U\xc9\xbc\x90B\xe7?\xa9"\xc8,\xe2\x95\xc0\xbf>0\x03\xce&3\xba?\x9b!\xed}\x97\xf6\xd2\xbf\xb3!WS5Z\xd9?\xdc\xbd\x96\xe9\\\xd2\xcf?\x0c\x83\xbb8\xbc\x9a\xa5\xbf\x9fq\xdaF\xee\x99\xd9?c \xed\x85\x90z\xd7?H\xb6\xfb8\x9b,\xcc?\xcb\x97\x7f\x96lw\xc1\xbf\xb3\xfd\xd1\xb4\xfeO\xa9?x\xc6g\xb3<F\xbe?\xe8\xf83\xbf\x8e\x84\xd9\xbf\xc3\x80x\x87\x98\x0f\xd0? \x8a\x88\x08\x1c\xfa\xd9?\xfa\xe9\xe6j\x0c\xf4\xd7?\x12\x1d\xb7\xa5\xf7\x15\xda?\xfb\x9b\xc3l&e\xcc?l\x99\x81hc\xb6\xd7\xbf\xaaU\xbduxj\xbf\xbf\xb7\xfbr\xdf\xac\r\xb6?epU\xd2d\x97\xd7\xbf\x9dXo\xc9\xf1\x9c\xdd?\xa4\x9d\xe5\x10Pv\xd0?\xa68\x8d\xf4\x11\xf2\xbe?\xfe\xf7\xa06\x0b\x13\xd4\xbf\x9d\x1a^c\xe2\xb5\xd6\xbf\xc7\xed\xd2\x9f9\xa6\xe1?z\xefK\xdc\x91\xad\xa8?]\xddK\xe6\xa50\xc3?\xda\\\xad\xa2L(\xd9\xbfS\x8a\xb23Q\x06\xb7?\xf9=\xb1,\xbd\xa8\xd8\xbfw\xe2O\x06\xb6Q\x8c\xbfk"T\xf5}z\xd8\xbf\x9f\x95\xf8\xda\xa1\x85\xe5?b\xb8c\x1b\xd8*\xe1\xbf\x8c\xd7\x89\xb8\xb0\xd1\xd7\xbf\xcdE<Ies\xd0?\x9cBR\xa8s\x92\xb8\xbf\xd2\r\xb7\xee\x97\xa2\xe5\xbf\xe4\x99\xf7\xac,0\xd5\xbf\xafB\xa6\xac\xf8E\xc2?L\\\xc1\x9e\x80\x1d\xe2\xbfpQ\x0edGI\xc1\xbf\xea\x07z5\x17-\xcd?eb\x03\xe8\xf0\x0f\xe0\xbf\x91\x00/\xb5Q!\xd0?ufm\xf8\xd4\xe6\xdb\xbfx\xe2\xc7\x93]p\xe2?\xb3\xfd\x034?#\xe5?\x97\x8f\xff}\xa6\xe1\xdf?\x9bL\x89\xbf\x0cR\xd0?\xe4\xcb\x0buD\x9d\xc3?\x9f\xb8\x8c\x8a\xb9\xc0\xb2\xbf\xb7pX#\xe1\xaf\xbf?\x87~R\xfe[\x8d\xd2?W\xd1\x83\x9d\x96\x0e\xcb\xbf\x9flU\xb3\\\xbb\xe3?\x9eMfm\x84\xb4\xc7\xbfm\x0c\x94\xac\xac\xf2\xd3?]\xc3\xb2\x1c[\x88\xc2?T\x89\xd4\x8e+!\x92\xbf\xfaY]!\xac\x9d\xaa?_\xb3\xb5\xe2\x81\xf3\xe1?\x98`\xe7q\xd7\x95\xe2\xbfiOf\x0b\xebY\x9e\xbf\xb8\xcek\x82L2\xe3?\x0b\xafn~\xe9\xc1\xd4\xbf4\xf7e\x17\xe5`\xc4\xbf\x8aU\x8eu;\x15\xe6?\xea\xc4\xc3\x07\xcd3\xd3\xbf\xc1e\xddo\xb7\xd4\xa7\xbf\x9d\xb5Y\xe5\x04\xe1\xd5?\x8d\xfb/"U\x1c\xd3?\xa6\x8f\xfc8\xfc\xf3\xde?\xe6\x14\xc2]\x17\\\xd3?\x00\x97b8\x9d\xa9\xe0\xbf\xc0\n~7\x14p\xd9\xbf\xeb\xeb\x9c)\xf4\xe8\xe0?\xc6\x97o\xfe\xd8\xa0\xc6\xbfKt\x1a\xcf\xf9O\xd4?\xb0G\r\x8c\x83#\x93?_\xc6G\xc0\xe6\x1a\xe1?m\xce\xe4\xfb74\xe1?I\x80Q\xb4\xd1\xfb\xc4?\xc5\xeb!\x91b\xc6\xbd\xbf\xe6z\xd1\x9a\x03`\xe2?\xa6,\x89w\xd2\xe8\xc9?\'\xf2\xd0j\xdd\x9e\xd4?~\xf7\t\x97\x1ci\xd4\xbf7\x8f\xe8uQ\xfc\xdd\xbf_E\x13V\x1c\xa4\xe4?C`j\xc4$\xbd\xde\xbf\xa5\xec\x86\xa10N\xe1?\xb2\x12\x133\xe0\xc3\xd7\xbf\x181\x1c\xf0AR\xd0?\xd2b\xdd\x8d(%\xca\xbf\x96\xb7I\xc1\xbcG\xb5\xbf\xfdDWzH\x14\xdb?\xa2b\x19#Q\x03\xe1?\xdb\xf1\xdf\x1d\x7f\xca\xb1\xbf\x87\xfc\xff\xfc\xb8n\xd4?V\xb7\x17\x95\xeak\xd8\xbf\x99\xb1a~i\xfc\xe3\xbf\xd84,\x10\xd9*\xa0?\x088h\xb2\x84\xee\xd0\xbf\xbd\xf7Z\xe0\xe4\x15\xdf\xbfcm\xaeI\xbd\xec\xdc\xbf\xa2\xb1g\x03k\xd5\xe2\xbf\x90=8\xe9\x00?\xdc?\xfeW\xbf\xbe\xca\\\xe0?\xd5\x14#\x11\xfa\xc9\xe2\xbf\x80j\xad\xd5H\xe5\xd7?\x8f#\x9b\xef\xe73\x96\xbf(9\xffr{8\xc2\xbf\xeb/\xb4xX\x16\xd3?M\xf5\xa4\x86]\xe7\xde?M\x82\x87\xa1v\x8a\xcd\xbfZ\xf63\xa5y\x19\xda\xbf\x9e\x11\xd3\x95\xdaj\xe5\xbf\xc8\x12\xd1r\x1b\x14\xe1?M\xcf\xb3\xe3\xd8\xe1\xc5\xbf\xe2S)E\xbc`\xb7?Q\xd2~\x90\x04\xe1\xda\xbf\xfd\xb0|\xa1Tt\xc2\xbf|c\xb1L\r\x16\xe4\xbf\x91:Z1\xc4L\xdf?\xd0He\x10,K\xcf\xbf\xff\xf1\x806\xf2\xca\xc5\xbf\x94\xdaYe\xae\x19\xd5\xbfy\xe5\xcb2\xfa\x0f\xc3\xbf\xc7\xf1<\xfe\xfe1\xd7?\xe1~\xc9\xcf\xeb{\x8f\xbfm\x11\xb9\xfa\x06\xce\xc5?\xfe4NH\xb5\x12\xb5\xbf\xf6\x8b\xeb<\xd5d\xe2\xbf\x9f\x94q\xd1\xdc]\xb3\xbf\x02\x85|_z,\xb9?3\xa3d:\x0f\x9c\xda?2\x02Sh\xb4M\x95\xbf=\x8fE\x10\t0\xd7?j\xd6jS*G\xdf?\xee\xbb$\xa2\xec\xc7\xd2?\xda\xe2p\x8a\xab\xd3\xdc?\x00RC*>\x86\xb6\xbfpS\xa2\x0c\x15\x1a\xaf\xbf\xe3\xda\x9fr\xf8\xf9\xe1\xbf5U\xf5"\x07<\xe4\xbf\xae\xad\\\xba\x01S\xd0?\xc5\xaf\x8f\xf4\xd6^\xd4?\x1b\xa0]\xbb`\xb4\x8e\xbf\xb5\xe2\x9cM\x1ax\xbe\xbf\xb4!\x9a\x9d\xffu\xce\xbf,\xc2\x12Jz3\xd8?{\xaeSL\xc28\xa5?\xcd,\xfd\xccAN\xc1\xbfa\xb9\xb6\x00\xaf?\xe1\xbfC\xed%A\xb9R\xd2?\xbb\x8e\xf3\xf0\x0b\x96\xe2?50\xa1\xb3\xa5\xc6\xc6?\x0c\xb2E\x99\x10v\xe3\xbf\x96\x9a[\xed\xd2\x0f\xde?\x1e\xd1\xc6kJ\xa6\xcf?7\x94C\x0e\x93\'\xe2\xbf\x9cH\t~\x97\xdf\xdb?,U\xd8\xf5\x91\xc1\xc5?u\xb5\xa5\xbf\xa7\x1f\xdc\xbf8\xd8>L\x97\x13\xc0\xbfS\xc5\xb3q\x95_\xd2\xbfZ\xb0a\xcc\xc0\xd3\xdd?\xac\xb3N\xc80F\xdf\xbf\xfa_\xc0\t\xbd\x00\xe3\xbf\xd4\xc47#\x99\x1ae\xbf\xb3\xb1d\x9d\xe49\xce?\xc8\xb5D\x1b:z\xe3\xbf;HjN\xa3\xfb\xc5?}\x03\x9a\x05\xad\xf5\xdf?\xe8}$\xb7\x8d\xad\xd6\xbf\x8d\xa4s\xa7\xd2=\xba?\xd3\xdc\x9f;\xef\xdf\xe4?Y \xa0\xcf\xc4\x9a\xd2?\x15 s\x80;\xe5\xd0\xbf\xbc_\x9ep\x02\xf9\xa2\xbf\x9fU\x1d\xfd]\xc4\xd5?\xf0\xef\x8e\xe3\x8f\xb9\xce\xbf\xd1\xb2\xfe]\x97\xf7\xe0\xbf\x99\xe2\xf7o\xb1,\xd4?\xbd\xe4\xd4\xb1\xaa\xd1\xd7\xbf/\x88\x08F\xe3$\xc1?Q0\x9e*\xc5\xe1\xe5?HH\x06\x8c>\x11\xd8\xbf\x8fX\x01\x05Z\x1e\xd9?H\x9e\xb9\tw\x17\xe5\xbf.\xfb!\xfe3\xaf\xa7?w\xe9\x82"\xc9e\xe3\xbf\xc2\xeb5\xa3\xa6\x0f\xc3\xbf\xca,\xbc\x8c\xc8\xae\xd3\xbf\xe7\xbd\x86\xd6\x8b\xf5\xb7?\x01\r});\xfc\xcc?R\xdf[\xc5\x19\xae\xe1?R\xac\xe4\x80\x9f\x8e\xd5\xbf6\xc3:\nw\xdd\xe0\xbfP\x81\x11\xbb\xac1\xd2?\x04\xf7\xed\xcd\xf7e\xde?U\xdd\x1d\xc6\xdc\xc1\xd7?\x0f\xd3\x87t7#\xe0?\xa9\xecy$\xe0\x8a\xd2?hE\xd2\x11\\\xb3\xc0\xbf\xfc\x1a\x90\'\xd5\x1c\xdf?\xfb8\xd9w\xa0-\xd4\xbf\x8f\x92\xd5\x90\xa8m\xe3?\xa7\xef4\xc71\x12\xc1\xbf\\4\xdf\xca\xd1\xa1\xb3\xbf"\xbc_G\xaaP\xe0?\x15\xa4\x0fO\xac\x8c\xa6?\x91\xdbE\xbb\xc7\xa7\xcc?\x9fN\x86m@\x0b\x96?\x14M(\xb0\x1a.\xc7\xbf\x9c?\x83\xc9\x88\xd5\xcc?\xa5;]"zu\xda\xbf\xba\xb0\x99\xd8\x80\x1c\xde?\xf7\x93*@\xa0\xa5\xcc\xbf\x82\x1e-\xca\xde3\xdf\xbf\xc2\x81\t]\xbc\xcf\xcb\xbfht \x16\xe1d\xd5\xbf\xd1\xdb\xe5\xf1\xb5\xd7\xe3?\xaf3\xd21\x15,\xd0\xbf4\x10Y\xa4\'\x7f\xc1?\xa2\xc2\xabo\xcb\x81\xa8?R\x91\x02\xaa\x8a\x88\xdc\xbf\x06\'\xd4\xe6^\xfa\xd5?H\x8f=Yq2\xe3?\xcf=\xe0\xfb\xee"\xd4?\x8f\xb0\xdb\xdb\xad\xb4\xd4?b\x7f`f\xbb\xfc\xc4\xbf\x82\x95\xc8\x84\xa5\x03\xb1?E\x9e\xb4\xde\xde-\xe3\xbf\\n\x17VGq\xe2?"\xd8\xfb\xbe\xb82\xe4?\xa5\xf6\xe4\xe1\xc1\xcb\xc4\xbfL\x92\xe4\x8e\xa7P\xe1\xbf\x14\xa0V\xd2\xe0\xef\xe2\xbf\\\xb5\x17\x8f}\x0e\xd8?\x95\x04s\x85\x10I\xc8?\xee)}\xf3\xae\xb4\xe3?b\xba\x8e\x89\x94\xc0\xce?\xf5\x10E\xab=H\xba?\xc31\x11\xb4\xf67\xd3?$\xba.o\'\x1e\xdc\xbf\x90&\'\xafG\xb5\xe1\xbf\xff\xa4JA\xcb3\xe2?pH\x87\xa5\xd8\x1b\xe2\xbf\xa0\xe5\xf1\x0e\x8e\x87\xa1?$\xed\xfb\xb2j\xd3\xd8\xbfV\x02b\x9f/F\xab\xbf\x8a\xf5\x9f}\xbe\x17\xb6\xbf\x97\xea\x0e\xf8\x7f\x86\xe4?\xe21\x81\x8c3x\xe2\xbf\xa2"\xd2\xc7X2\xcb\xbf\xf6\'\x81\x90\xf9p\xc3\xbf\xb4Y\x97c\xa2\xab\xd4\xbfA5\x8e)8\x9c\xa1\xbf~:t~\xd8\x81\xaf?\xac;\x92\x02\x05N\xbc\xbf\xf4\xf9\x04\x8e\n/\xae\xbf\x83\x96\xf8\x97\x03\xfc\xe0?t\xe1\xcd\xd3D\x1f\xc6?\xe2\xd5\xadS\xce\xce\xc6\xbf\xc6lG\xa1\x7f\x16\xae?\xceh\x0f\xf0-{\xd8\xbf\xc4\xf16\xbd\x85\xe3E?@\xa4x\xc4\x17\xbb\x89?\xf8h\x1e\xf9\x12\xdd\xb2?W\xfcWjZ\x16\xd5\xbf9\x17\x95\xad\x06\xb7\xe1\xbfI\xa6d\rG\xf5\xac\xbfm`\\\x85\x8fW\x96\xbf?\x83Z\xf9\x93\x1d\xe2\xbfE\x1f\xe0b[\xff\x93\xbfNC\xa3\xa1\xf0\x8b\xe1?\xbe\xed@\xb6,0\xd5?:\x8f\xb8\xb2\xef\x95\xc7\xbf{V\x1b\xc3\x8c\xa1\xd2\xbf\xb8W\x1a|\xfe\xd3\xcb\xbf\x00&\'hw\xbd\xa1?A\x8d\x95PL\x86\xe4?\xcd\xdaE;c7\xd9?\x1a:\xb6q6\x97\xbf?6\x16\x8a\xa7\xe8\x80\xd4\xbf \xef\x8edD\x9e\xc9\xbf\xd5h\xf0\xc5\xc2\x9f\xe3?\xb3\xf8s\x8b{\xa2\xde?<\xc0\xe2#a\xaa\xe3?\xa2:v_I{\xde?\xeeSZA#\xdd\xb8\xbf\xe4F5\xe8\x0b\xb3\xc9\xbf\xcb\xf74\xc3\xd7-\xcb?\xf4y0z\x00"\xd0\xbfr_\xc7Q\x97X\xd5?\x94\x11+\x1b\x88 \xda?G?0\x86\xf9q\xe3?u\x9bu\x87I\xad\xe6?\x08\x84|\xd8r\x9e\xdd\xbfs\x11\x94q\xa3\x1e\xe5?\x87\x80\xbc\xb5\xb4\x81\xcd?\xce\x94\xe0j\x01J\xe6\xbf7@\x17Id\x16\xda\xbf\xd8\xd3\xaa\x98\xa8\x97\xd4\xbf\xd080r\x10p\xc8?Y\xba\xd1ldR\xa8\xbf\xc5\xa5\x9d\xc9L\xe3\xd7\xbf\x93\xf9\xab\x19\x8a\x01\xe4?\x0f\x0f>\xd8\xc4>\xe2?\x08\xdaP|@Q\xb8?\xee\xd11J\xe1\xae\xba?\xf5\xee\xda\xd6\xc7f\xe0?\x1e\xb18\xf2\xcb\xf8\xd7?\x9f<\xff\x1a\xeb\xab\xbb?\xf8\xefE\x9c-\n\xc7\xbf\x85U\x85\xdb\xf5f\xcc\xbf4\x1dy\xf1\xad\xf5\xdb?\x1cC\x97\xa1\xb0\xa9\xe3?\xb6\xc8\x94O6\x8c\xc7?\xe0^rn+\xa5\xd9\xbf9\xdc\xe5[\x82\xed\xe2?\x81Z\xa0\xe6ti\xd1?"q\xc5J\xdc\xd5\xdd\xbf\xda\x04\rTV\\\xda?\x7f.\x18\xb7\xa9\x9c\xe5\xbf\xef\xe2\xf98s%\x9b\xbfTaKb\xa4\xdf\xd1\xbfuc:m\xa0\xb0\xc5\xbf\xc4\xf1\x84\x1ak3\xe2\xbf1\xe5\xc4;K{P\xbf\xda\xae\x9a\x16d\x00\xbd\xbfO\xe4\xef~\xa81\xdd\xbf7\xb9.\x1d\x0e\xa5\xe3\xbf\x99Mk\xc1&\xfa\xcb??\x9d\x08\x08(\xaf\xde\xbf\xabG\xd8(\xf0\xf8\xd3?j\xe8\x82c\x1e\x7f\xa2\xbfH\xd8\xe8\xb3>\x9f\xd7\xbf\xacpEo\xaa\xa9\xe2\xbf\xb7\xd4\xc4\x9fV,\xd4?|\xe9=\xd5\xd0\x1b\xc4?}\xa9\x02\xa3\xd82\xd7\xbf\xa2\'\xc3\xd4\x8c*\xe1?dX\x05\x11Z\x84\xd0?#\x94`\xcb\xa7Z\xda?\t\x0f\xb4S\xa8\x19\xb4\xbft\xcc\xca>l>\xe2\xbf\x8dS\x92b\xfe\xfc\xd5?\xdeE\x86\xdd\xe0<\xc0?+\xcbW\xbf\xae@\xaa\xbfc\xefjX\xbb\xd8\xbb?`\x0b\x0c%\xc8\xc4\xa4\xbf\x0b[\xaax\xbaL\xce?\x1a\x956\x99kM\xd5?\xf5u\xc7$\x97\xbb\xe3?@\x18\xd2\xab\xa60\xb7\xbf\x89x\xe3\x7f1\xca\xa1?4\x83\x9bNC\xe7\xe4?\xf0\xfc\xdax\x9d\xbf\xe2\xbf\x16\xde\x04\xfa\xb1\x87\xd6\xbf6\x07\x1aw\x04\xd4\xa4?6\xac\xb8\xf1+s\xe2?\xb0!\xb6\xaf6\xe8\xe2\xbf\xad\x91\xad\x1f\x18\x18\xd7\xbf\xe8\x07,&\x8c\x97\xbc?(\xcc\xf7~!\x04\xd5\xbf\xe0(U{\xe1\x8f\xd8\xbf9U\x0c\xb1\x93C\xb5?\xfb\xd0a\x0c\xec\x18\xc7?5C\xbb\xbb\x1c\x14\xdb\xbf\x12\xed\x94\x05\x07S\xaa?\xee\xbd(\xbf\xf0n\xdf?\x1c\xa7\xaf\xcd\xac\x0b\xe1?\x8f\x19\x0c\xa4\xc4r\xc9\xbfs\xee\'\x16H\x94\xe2\xbf`\xe2\x1a\x8f\xcd\xc6\xe4\xbf\xaf~\n\x92\xa2*\xda\xbfh\xbc\xf75\x1d\xf4\xdc?\xff\xee\x19\x0f\xc7c\xd7\xbf\x81\xc3\xd8\xe0\xacj\xde\xbfU\x7f\xde\xe7\x9d\x95\xc5\xbf\xcfD\xe5dm\xb5\xe2\xbf\xd7P\xcf\x1c\xcaj\xda?\xcd\xde\xde>\xdbf\xe0\xbf\xc2.k\x8b\x93\xdf\xe3\xbf\xe1q\t\xfd\xc4\x86\xcf\xbf(\x9a^+\xb3\xe2\xd3\xbf\x9a\x13qf{\x14\xcb\xbf\x936\x9dq\xd0\x9f\xd7\xbfy\xca\xa1\x06\x84\x19\xd9?O^\x89\xc1\x1d\x03\xd5?\xbd}^\xc6J[\xb3?4\x85\xc3X\x05\xd2\xe0\xbf\xa5\xcd\xb6L5\x04\xe2?N^\xb1\xf0\xe4\x16\xd7\xbf\xaeK\xa3\x9d\xb6\xec\xde\xbf\n}\xbbR\xf3\xf1\xdc?8\x04\x86\xbd\xec\t\xbb\xbf\xfe\xc1d~\x83\x94\xd2\xbfJ\x01\xdc\xe2\xc0n\xdc\xbf\xb1\xf5\'\x90\xf1\x04b?I\x8cp\xec\x86\x80\xe0\xbf\x1eV\xda\x01\x8eZ\xe3\xbf\x9d$\x83\x9e\xdc\xe7\xcb?\xfc\x9b\xe72\xc7\xb1\xdd?\xb2\xda\x99PvX\xda?\xc8G\xd9\xca\x03\xed\xc5\xbfOjM\xfc\x9a\x15\xe6\xbf\xd6\xe5\nxd\xb8\xa7\xbf\xe0\xff=\xdd@(\xe6?\xd1*\x9f\xdaSI\xc0?\x0fiK\x178J\xd4\xbf-bE\n\xb6\x04\xa6\xbf"\x84\xe6\x8c\xc0\r\xd3?E\xf3\xe3\x97\x98\xff\xca\xbf\'g\xdd<#6\xcc\xbfL\x07U\x90a\x84\xda?\x87\x11]\x0ck\xb9\xe0?:\xd6M.\xe5A\xd5?\xdfqrS(\x98\xe1\xbf\xf4)iBf\x18\xd6\xbf\xc8\xbe\x1bL1\x04\xd4?\xc2x\x16\xd0d{\xd6\xbf\x87\xb1\xd4\x15\xfe\xa2\xcc?c_G\xcbO\xff\xdb\xbf\xb5\x8f\x99\x81G\xc8\xd0\xbfa5C\xe40\xee\xd4\xbf\xd5\xa1\x8b\x97\xba\x0c\xc4?\xf9\x93\x0c<\xde\xf5\xe2\xbf\xb2\xcc\x1b\tBL\xd1?\xfb\xb3L\xb2\x9dB\xd2?\x00{\xfd\xe4\xfa\xd7\xd2?\xfd`\xae\xc4}A\xe5\xbf\xab\xa3\xf7\xa8\x84r\xd9\xbf\x19hF\xcahu\xc8?`\x9c\xe4\x86,\xd1\xcf\xbf]0\xe5\x08\x1d\x07\xe0?B<\xcc\xf4%\x84\xcc\xbf,S\x89g{\xf2\xd0\xbfr\xf8\xca:\\\xc0\xd3?\xaa4\x94\x87 \x0b\xd5?\xc7?\x1av\xa4~\xe2?QUv\xef\x8dO\xbd\xbfo\xf0\xce\xc1\xab8\xe1?\x80aR\xc3\x96\xd6\xd6?\x83s\xc0<\xe2\x0b\xd1?\x04\x87>\x90a\xfa\xe0?\xf7\xc6`\x9a\xc5\xfc\xc9?\xb2\x12\xd5\xe3E\n\xd9\xbf\xb1:\xa5\x91L\x91\xe3\xbf\x89\x00\xdd\x07lC\xd8\xbf\xee\xe1\x18\xa7E1\xd7?:>\n\xdf\xec\xc9\xe1\xbf1\xb0\xd1\xe0d\xb1\xcf\xbf\xe2\x03eKa\xfc\xda\xbf\n\x1a1\x82/\xd6\xe5\xbf6\xd9\x8d\xf1j6\xdb\xbf\xc6L\x0c\x9fOv\x93\xbf\xdf\xf6\x92\xe3a3\xe0\xbf\xc1D\xcd\xce\xc5\x95\x8b\xbf\xaeJ\xa2\xdcO>\xde\xbftT\x86W\x9e\xa9\xd5?a`\xf6\x85\xf7\x93\xd8?\\\x97E9\x0btt\xbfb\x9d\xb8\xcf\x04\x9dT\xbf\x1f\xe6K\x8dlQ\xd6?\xaa4?W\r;\xd4?\x13\xf4\x81\xe9\xac\x9d\xdf\xbfJC"D7\xb4\xc7?\r\x1d?z\xacX\xdb\xbf\xb9\x872\xd3J \xdd?\xf2nH\xc9\x90e\xd8?\xed\xb7\xff\x01\x1c\x9f\xe2?D\x15\x9bJ\xdb\x90\xe5\xbf.\xf9]<\xfc\x17\xe2\xbf\x1d\xc3@3`Z\xcf\xbf\x92^y#t,\xe2?t4\xb6T\x14\xf6\xdd\xbf\xa2`(,\x1c\x9b\xde\xbfu6C=Dv\xe1?\x04\xcb\x7f\xb1\xbe\xc9\xd1\xbf\xe1\x9c\'\x11\xbe\xe8y?\xef\x98\xffe\x8d\xeb\xe2?\xf2\xf5\xbf\x87\x0f\xb4\xb5\xbf\xec\xa4F\x94\x8aJ\xc4\xbfq\xf6\xaa\x9e@ \x9d\xbf\xa3\xf5\xaaF\xe2T\xd3?\xacP\x99\xc1o\xda\xdb?C\x13\xa8\xdf\xf2\xc6\xe3?\x80e\x12\xcc\x91\x91\xc0\xbf\x86\x89\x16\x88Im\xa2?\x8ftA\xee\xc2\xeb\xd6\xbf\xf4\x04\x02B\xf3\x00\xd5\xbf\x1e\x8a\xaf\xc3%\x9b\xd0\xbf\x95\xe2\xa4)j\xb8\xd1?\xc2S\xa6\x95\xe9;\xd7?i\xf4\x88C\xc3\xa9\xd4?%\x8f+UT\x1e\xcb\xbf\xa0\xd7\x01\xccO\x80~\xbf'
p60
tp61
bssS'transf'
p62
(ineurolab.trans
TanSig
p63
(dp64
bsS'out_minmax'
p65
g18
(g19
(I0
tp66
g21
tp67
Rp68
(I1
(I30
I2
tp69
g28
I00
S'\x00\x00\x00\x00\x00\x00\xf0\xbf\x00\x00\x00\x00\x00\x00\xf0?\x00\x00\x00\x00\x00\x00\xf0\xbf\x00\x00\x00\x00\x00\x00\xf0?\x00\x00\x00\x00\x00\x00\xf0\xbf\x00\x00\x00\x00\x00\x00\xf0?\x00\x00\x00\x00\x00\x00\xf0\xbf\x00\x00\x00\x00\x00\x00\xf0?\x00\x00\x00\x00\x00\x00\xf0\xbf\x00\x00\x00\x00\x00\x00\xf0?\x00\x00\x00\x00\x00\x00\xf0\xbf\x00\x00\x00\x00\x00\x00\xf0?\x00\x00\x00\x00\x00\x00\xf0\xbf\x00\x00\x00\x00\x00\x00\xf0?\x00\x00\x00\x00\x00\x00\xf0\xbf\x00\x00\x00\x00\x00\x00\xf0?\x00\x00\x00\x00\x00\x00\xf0\xbf\x00\x00\x00\x00\x00\x00\xf0?\x00\x00\x00\x00\x00\x00\xf0\xbf\x00\x00\x00\x00\x00\x00\xf0?\x00\x00\x00\x00\x00\x00\xf0\xbf\x00\x00\x00\x00\x00\x00\xf0?\x00\x00\x00\x00\x00\x00\xf0\xbf\x00\x00\x00\x00\x00\x00\xf0?\x00\x00\x00\x00\x00\x00\xf0\xbf\x00\x00\x00\x00\x00\x00\xf0?\x00\x00\x00\x00\x00\x00\xf0\xbf\x00\x00\x00\x00\x00\x00\xf0?\x00\x00\x00\x00\x00\x00\xf0\xbf\x00\x00\x00\x00\x00\x00\xf0?\x00\x00\x00\x00\x00\x00\xf0\xbf\x00\x00\x00\x00\x00\x00\xf0?\x00\x00\x00\x00\x00\x00\xf0\xbf\x00\x00\x00\x00\x00\x00\xf0?\x00\x00\x00\x00\x00\x00\xf0\xbf\x00\x00\x00\x00\x00\x00\xf0?\x00\x00\x00\x00\x00\x00\xf0\xbf\x00\x00\x00\x00\x00\x00\xf0?\x00\x00\x00\x00\x00\x00\xf0\xbf\x00\x00\x00\x00\x00\x00\xf0?\x00\x00\x00\x00\x00\x00\xf0\xbf\x00\x00\x00\x00\x00\x00\xf0?\x00\x00\x00\x00\x00\x00\xf0\xbf\x00\x00\x00\x00\x00\x00\xf0?\x00\x00\x00\x00\x00\x00\xf0\xbf\x00\x00\x00\x00\x00\x00\xf0?\x00\x00\x00\x00\x00\x00\xf0\xbf\x00\x00\x00\x00\x00\x00\xf0?\x00\x00\x00\x00\x00\x00\xf0\xbf\x00\x00\x00\x00\x00\x00\xf0?\x00\x00\x00\x00\x00\x00\xf0\xbf\x00\x00\x00\x00\x00\x00\xf0?\x00\x00\x00\x00\x00\x00\xf0\xbf\x00\x00\x00\x00\x00\x00\xf0?\x00\x00\x00\x00\x00\x00\xf0\xbf\x00\x00\x00\x00\x00\x00\xf0?\x00\x00\x00\x00\x00\x00\xf0\xbf\x00\x00\x00\x00\x00\x00\xf0?\x00\x00\x00\x00\x00\x00\xf0\xbf\x00\x00\x00\x00\x00\x00\xf0?'
p70
tp71
bsS'out'
p72
g18
(g19
(I0
tp73
g21
tp74
Rp75
(I1
(I30
tp76
g28
I00
S"\xc7\x0b\\\xa3\xc9\xff\xef\xbfu\x9eR\xe2\xab\xd1\xef?k\xcc\xc8\x8a%:\xe1\xbf\xcd\xd2Hk*\xe0\xef\xbf\xe1\x1e\x94\xdc\xd0\xe9\xef\xbf[\xfbc\xdaH\xeb\xef?\xe5\xc2\x83\xcbN:\xa8?[\x9d\xd0\x0b\x96q\xc8\xbf\xf7\x84\xf1l\xa6\xe4\xee?;t=\x16\xfar\xee\xbf\x91q\xe7x\xd0\xde\xef\xbf\xf3W'\xfb\xfd\xfb\xef\xbf\xc1M\xa2\x04\x98\xe0\xef\xbf\xdc\x87\xdb\xb6,\x0c\xc9\xbf\xbf\x9aq\x9ai'\xea?m\x92\xb8\xab\xa5\xce\xb2\xbf\xb2\xaf\xc8\x87u\xc3\xef?s\xbc\xe1x\xcd\xcc\xee\xbf\x06\xe7G7\x8e\xbd\xea\xbf\xca$\xa6\xd9\xf4\xff\xef\xbfK?\x90\xa1\x80\x82\xdb?\x9eQ\x80'\xf5b\xef\xbf\x9d#\xe0\x02\xf9\xf9\xef\xbf\x82\xaa\xb63\xa7\x89\xdd\xbf\xa2\xe9i\x15)\xe4\xed?v\xbb\xea\xf9<<\xef?t\xb2\x0e\xb1\xc9\xff\xef\xbfEP\\\xa6:\x01\xe8?v\xb5\xdf\x87\xac\x0e\xe1?\x82\xa1R\xcf\xbcL\xe1?"
p77
tp78
bsbag0
(g8
g2
Ntp79
Rp80
(dp81
g12
g13
sg14
I30
sg15
I1
sg16
I1
sg17
g18
(g19
(I0
tp82
g21
tp83
Rp84
(I1
(I30
I2
tp85
g28
I00
S'\x00\x00\x00\x00\x00\x00\xf0\xbf\x00\x00\x00\x00\x00\x00\xf0?\x00\x00\x00\x00\x00\x00\xf0\xbf\x00\x00\x00\x00\x00\x00\xf0?\x00\x00\x00\x00\x00\x00\xf0\xbf\x00\x00\x00\x00\x00\x00\xf0?\x00\x00\x00\x00\x00\x00\xf0\xbf\x00\x00\x00\x00\x00\x00\xf0?\x00\x00\x00\x00\x00\x00\xf0\xbf\x00\x00\x00\x00\x00\x00\xf0?\x00\x00\x00\x00\x00\x00\xf0\xbf\x00\x00\x00\x00\x00\x00\xf0?\x00\x00\x00\x00\x00\x00\xf0\xbf\x00\x00\x00\x00\x00\x00\xf0?\x00\x00\x00\x00\x00\x00\xf0\xbf\x00\x00\x00\x00\x00\x00\xf0?\x00\x00\x00\x00\x00\x00\xf0\xbf\x00\x00\x00\x00\x00\x00\xf0?\x00\x00\x00\x00\x00\x00\xf0\xbf\x00\x00\x00\x00\x00\x00\xf0?\x00\x00\x00\x00\x00\x00\xf0\xbf\x00\x00\x00\x00\x00\x00\xf0?\x00\x00\x00\x00\x00\x00\xf0\xbf\x00\x00\x00\x00\x00\x00\xf0?\x00\x00\x00\x00\x00\x00\xf0\xbf\x00\x00\x00\x00\x00\x00\xf0?\x00\x00\x00\x00\x00\x00\xf0\xbf\x00\x00\x00\x00\x00\x00\xf0?\x00\x00\x00\x00\x00\x00\xf0\xbf\x00\x00\x00\x00\x00\x00\xf0?\x00\x00\x00\x00\x00\x00\xf0\xbf\x00\x00\x00\x00\x00\x00\xf0?\x00\x00\x00\x00\x00\x00\xf0\xbf\x00\x00\x00\x00\x00\x00\xf0?\x00\x00\x00\x00\x00\x00\xf0\xbf\x00\x00\x00\x00\x00\x00\xf0?\x00\x00\x00\x00\x00\x00\xf0\xbf\x00\x00\x00\x00\x00\x00\xf0?\x00\x00\x00\x00\x00\x00\xf0\xbf\x00\x00\x00\x00\x00\x00\xf0?\x00\x00\x00\x00\x00\x00\xf0\xbf\x00\x00\x00\x00\x00\x00\xf0?\x00\x00\x00\x00\x00\x00\xf0\xbf\x00\x00\x00\x00\x00\x00\xf0?\x00\x00\x00\x00\x00\x00\xf0\xbf\x00\x00\x00\x00\x00\x00\xf0?\x00\x00\x00\x00\x00\x00\xf0\xbf\x00\x00\x00\x00\x00\x00\xf0?\x00\x00\x00\x00\x00\x00\xf0\xbf\x00\x00\x00\x00\x00\x00\xf0?\x00\x00\x00\x00\x00\x00\xf0\xbf\x00\x00\x00\x00\x00\x00\xf0?\x00\x00\x00\x00\x00\x00\xf0\xbf\x00\x00\x00\x00\x00\x00\xf0?\x00\x00\x00\x00\x00\x00\xf0\xbf\x00\x00\x00\x00\x00\x00\xf0?\x00\x00\x00\x00\x00\x00\xf0\xbf\x00\x00\x00\x00\x00\x00\xf0?\x00\x00\x00\x00\x00\x00\xf0\xbf\x00\x00\x00\x00\x00\x00\xf0?'
p86
tp87
bsg33
g75
sg40
g18
(g19
(I0
tp88
g21
tp89
Rp90
(I1
(I1
tp91
g28
I00
S'\xd4#\xa5<\x1c\xa0\xc5?'
p92
tp93
bsg47
(dp94
g21
g18
(g19
(I0
tp95
g21
tp96
Rp97
(I1
(I1
tp98
g28
I00
S'\x19|\xdf,\x18\xe6\xb7\xbf'
p99
tp100
bsg55
g18
(g19
(I0
tp101
g21
tp102
Rp103
(I1
(I1
I30
tp104
g28
I00
S"(Wl\xb7w<\xc6?cb\xe78\xa7q\xc7?&\xb2`\xc1\xea\x82\xa6?n\xe6\x8b\x05\x14\x1f\xd4?ECv\xc7\xa8\x00\xd1\xbf\xed2\xb4e`\xac\xd1\xbf\xbf\r\x1d\xde\x96\x9d\xa5?DL\xa0\xbc\xf4&z\xbf\xff\xab\x80D)\x11\xb8\xbflIuJ'W\xba\xbf\xd5NK\x9f\xd0l\xd3?&\x1e\xdeE:\x81\xcd\xbf\r\xdf\xf7\xde\xf6\xa7\xba\xbf\x89\x01\xf3\xc8z5\x9d\xbf\x17q\x87?\x17\x02\xb2\xbfZ\xffd\xf4\x10r\x96?a\xd2\x8eM\xe8\xe8\xb0?\x87\x0b\xa0\xc0\x887\xba\xbf|\xd5'\xf7l\xfc\x96?\xe1|`\xd0\x94Z\xcf\xbf\xbci`:$\xa6\x8f\xbf\xe7&\x04\xd5\x01\x04\xd2\xbf\xa3\x12\xfa\xed\xe0q\xb3?\xbf\xb9.?e\x06\xc8?\xa8\xed\xdaG\x0b\xb5\xc6?v\xf3\xc6\xd3W\xdc\xd1\xbf\xa5\xd6@a\xc3\xa6\xd5\xbf\x18\x17Y\xff\x8b\x98\xbb\xbf\xb1F\x8c\x97\xd0\x8c\xb2\xbf\x9b\xcb\x82\xd4IGx?"
p105
tp106
bssg62
g63
sg65
g18
(g19
(I0
tp107
g21
tp108
Rp109
(I1
(I1
I2
tp110
g28
I00
S'\x00\x00\x00\x00\x00\x00\xf0\xbf\x00\x00\x00\x00\x00\x00\xf0?'
p111
tp112
bsg72
g18
(g19
(I0
tp113
g21
tp114
Rp115
(I1
(I1
tp116
g28
I00
S'"\x9e\x1d\xfe\x07l\xc5?'
p117
tp118
bsbasg14
I59
sg15
I1
sg17
g18
(g19
(I0
tp119
g21
tp120
Rp121
(I1
(I59
I2
tp122
g28
I00
S'\x00\x00\x00\x00\x00\x00\x00\x00\x00\x00\x00\x00\x00\x00\xf0?\x00\x00\x00\x00\x00\x00\x00\x00\x00\x00\x00\x00\x00\x00\xf0?\x00\x00\x00\x00\x00\x00\x00\x00\x00\x00\x00\x00\x00\x00\xf0?\x00\x00\x00\x00\x00\x00\x00\x00\x00\x00\x00\x00\x00\x00\xf0?\x00\x00\x00\x00\x00\x00\x00\x00\x00\x00\x00\x00\x00\x00\xf0?\x00\x00\x00\x00\x00\x00\x00\x00\x00\x00\x00\x00\x00\x00\xf0?\x00\x00\x00\x00\x00\x00\x00\x00\x00\x00\x00\x00\x00\x00\xf0?\x00\x00\x00\x00\x00\x00\x00\x00\x00\x00\x00\x00\x00\x00\xf0?\x00\x00\x00\x00\x00\x00\x00\x00\x00\x00\x00\x00\x00\x00\xf0?\x00\x00\x00\x00\x00\x00\x00\x00\x00\x00\x00\x00\x00\x00\xf0?\x00\x00\x00\x00\x00\x00\x00\x00\x00\x00\x00\x00\x00\x00\xf0?\x00\x00\x00\x00\x00\x00\x00\x00\x00\x00\x00\x00\x00\x00\xf0?\x00\x00\x00\x00\x00\x00\x00\x00\x00\x00\x00\x00\x00\x00\xf0?\x00\x00\x00\x00\x00\x00\x00\x00\x00\x00\x00\x00\x00\x00\xf0?\x00\x00\x00\x00\x00\x00\x00\x00\x00\x00\x00\x00\x00\x00\xf0?\x00\x00\x00\x00\x00\x00\x00\x00\x00\x00\x00\x00\x00\x00\xf0?\x00\x00\x00\x00\x00\x00\x00\x00\x00\x00\x00\x00\x00\x00\xf0?\x00\x00\x00\x00\x00\x00\x00\x00\x00\x00\x00\x00\x00\x00\xf0?\x00\x00\x00\x00\x00\x00\x00\x00\x00\x00\x00\x00\x00\x00\xf0?\x00\x00\x00\x00\x00\x00\x00\x00\x00\x00\x00\x00\x00\x00\xf0?\x00\x00\x00\x00\x00\x00\x00\x00\x00\x00\x00\x00\x00\x00\xf0?\x00\x00\x00\x00\x00\x00\x00\x00\x00\x00\x00\x00\x00\x00\xf0?\x00\x00\x00\x00\x00\x00\x00\x00\x00\x00\x00\x00\x00\x00\xf0?\x00\x00\x00\x00\x00\x00\x00\x00\x00\x00\x00\x00\x00\x00\xf0?\x00\x00\x00\x00\x00\x00\x00\x00\x00\x00\x00\x00\x00\x00\xf0?\x00\x00\x00\x00\x00\x00\x00\x00\x00\x00\x00\x00\x00\x00\xf0?\x00\x00\x00\x00\x00\x00\x00\x00\x00\x00\x00\x00\x00\x00\xf0?\x00\x00\x00\x00\x00\x00\x00\x00\x00\x00\x00\x00\x00\x00\xf0?\x00\x00\x00\x00\x00\x00\x00\x00\x00\x00\x00\x00\x00\x00\xf0?\x00\x00\x00\x00\x00\x00\x00\x00\x00\x00\x00\x00\x00\x00\xf0?\x00\x00\x00\x00\x00\x00\x00\x00\x00\x00\x00\x00\x00\x00\xf0?\x00\x00\x00\x00\x00\x00\x00\x00\x00\x00\x00\x00\x00\x00\xf0?\x00\x00\x00\x00\x00\x00\x00\x00\x00\x00\x00\x00\x00\x00\xf0?\x00\x00\x00\x00\x00\x00\x00\x00\x00\x00\x00\x00\x00\x00\xf0?\x00\x00\x00\x00\x00\x00\x00\x00\x00\x00\x00\x00\x00\x00\xf0?\x00\x00\x00\x00\x00\x00\x00\x00\x00\x00\x00\x00\x00\x00\xf0?\x00\x00\x00\x00\x00\x00\x00\x00\x00\x00\x00\x00\x00\x00\xf0?\x00\x00\x00\x00\x00\x00\x00\x00\x00\x00\x00\x00\x00\x00\xf0?\x00\x00\x00\x00\x00\x00\x00\x00\x00\x00\x00\x00\x00\x00\xf0?\x00\x00\x00\x00\x00\x00\x00\x00\x00\x00\x00\x00\x00\x00\xf0?\x00\x00\x00\x00\x00\x00\x00\x00\x00\x00\x00\x00\x00\x00\xf0?\x00\x00\x00\x00\x00\x00\x00\x00\x00\x00\x00\x00\x00\x00\xf0?\x00\x00\x00\x00\x00\x00\x00\x00\x00\x00\x00\x00\x00\x00\xf0?\x00\x00\x00\x00\x00\x00\x00\x00\x00\x00\x00\x00\x00\x00\xf0?\x00\x00\x00\x00\x00\x00\x00\x00\x00\x00\x00\x00\x00\x00\xf0?\x00\x00\x00\x00\x00\x00\x00\x00\x00\x00\x00\x00\x00\x00\xf0?\x00\x00\x00\x00\x00\x00\x00\x00\x00\x00\x00\x00\x00\x00\xf0?\x00\x00\x00\x00\x00\x00\x00\x00\x00\x00\x00\x00\x00\x00\xf0?\x00\x00\x00\x00\x00\x00\x00\x00\x00\x00\x00\x00\x00\x00\xf0?\x00\x00\x00\x00\x00\x00\x00\x00\x00\x00\x00\x00\x00\x00\xf0?\x00\x00\x00\x00\x00\x00\x00\x00\x00\x00\x00\x00\x00\x00\xf0?\x00\x00\x00\x00\x00\x00\x00\x00\x00\x00\x00\x00\x00\x00\xf0?\x00\x00\x00\x00\x00\x00\x00\x00\x00\x00\x00\x00\x00\x00\xf0?\x00\x00\x00\x00\x00\x00\x00\x00\x00\x00\x00\x00\x00\x00\xf0?\x00\x00\x00\x00\x00\x00\x00\x00\x00\x00\x00\x00\x00\x00\xf0?\x00\x00\x00\x00\x00\x00\x00\x00\x00\x00\x00\x00\x00\x00\xf0?\x00\x00\x00\x00\x00\x00\x00\x00\x00\x00\x00\x00\x00\x00\xf0?\x00\x00\x00\x00\x00\x00\x00\x00\x00\x00\x00\x00\x00\x00\xf0?\x00\x00\x00\x00\x00\x00\x00\x00\x00\x00\x00\x00\x00\x00\xf0?'
p123
tp124
bsg33
g36
sS'trainf'
p125
g0
(cneurolab.core
Trainer
p126
g2
Ntp127
Rp128
(dp129
S'_train_class'
p130
cneurolab.train.spo
TrainNCG
p131
sS'__module__'
p132
S'neurolab.train.spo'
p133
sS'params'
p134
(dp135
S'epochs'
p136
I10000
sS'train'
p137
(dp138
S'rr'
p139
I0
ssS'goal'
p140
F2e-05
sS'show'
p141
I0
ssS'defaults'
p142
(dp143
g136
I500
sg137
(dp144
g139
I0
ssg140
F0.01
sg141
I100
ssS'error'
p145
(lp146
cnumpy.core.multiarray
scalar
p147
(g28
S'\x82A\xedO\x98\x8aD@'
p148
tp149
Rp150
ag147
(g28
S'\x9d#q{\xc3BC@'
p151
tp152
Rp153
ag147
(g28
S'\x9e\x1b\xe6%\xebp3@'
p154
tp155
Rp156
ag147
(g28
S'A\xe8\xda\xd1H\x932@'
p157
tp158
Rp159
ag147
(g28
S'\x91.=m\x0c\xbe&@'
p160
tp161
Rp162
ag147
(g28
S'_q0N\xd9\x9c!@'
p163
tp164
Rp165
ag147
(g28
S'\xa4~c\x02\xfc\x82!@'
p166
tp167
Rp168
ag147
(g28
S'\xed(\xe4\xb4\xe5\x90 @'
p169
tp170
Rp171
ag147
(g28
S'2\xb6|[\x8c\xfc\x1d@'
p172
tp173
Rp174
ag147
(g28
S'\xd7\x16\xad\x11\x0f\x07\x1b@'
p175
tp176
Rp177
ag147
(g28
S'\xab$\xccY\xbc\xd1\x1a@'
p178
tp179
Rp180
ag147
(g28
S'\x88za\xe1\x89\x06\x19@'
p181
tp182
Rp183
ag147
(g28
S'wes\\z\xbb\x18@'
p184
tp185
Rp186
ag147
(g28
S'\x1c[i\xd2\xba-\x18@'
p187
tp188
Rp189
ag147
(g28
S'\xb6\xcb\xc07\x070\x17@'
p190
tp191
Rp192
ag147
(g28
S'C\x1a\xdd6\xea\xe0\x16@'
p193
tp194
Rp195
ag147
(g28
S'\xaf\xd5\x98\x97\xe7P\x16@'
p196
tp197
Rp198
ag147
(g28
S'\xcf-\xc0$\x08B\x16@'
p199
tp200
Rp201
asS'__name__'
p202
S'TrainNCG'
p203
sS'__doc__'
p204
S'\n    Conjugate gradient algorithm\n    Using scipy.optimize.fmin_ncg\n\n    :Support networks:\n        newff (multi-layers perceptron)\n    :Parameters:\n        input: array like (l x net.ci)\n            train input patterns\n        target: array like (l x net.co)\n            train target patterns\n        epochs: int (default 500)\n            Number of train epochs\n        show: int (default 100)\n            Print period\n        goal: float (default 0.01)\n            The goal of train\n        rr float (defaults 0.0)\n            Regularization ratio\n            Must be between {0, 1}\n        \n    '
p205
sbsS'connect'
p206
(lp207
(lp208
I-1
aa(lp209
I0
aa(lp210
I1
aasS'errorf'
p211
(ineurolab.error
SSE
p212
(dp213
bsg65
g18
(g19
(I0
tp214
g21
tp215
Rp216
(I1
(I1
I2
tp217
g28
I00
S'\x00\x00\x00\x00\x00\x00\xf0\xbf\x00\x00\x00\x00\x00\x00\xf0?'
p218
tp219
bsg72
g115
sb.