ccopy_reg
_reconstructor
p0
(cneurolab.core
Net
p1
c__builtin__
object
p2
Ntp3
Rp4
(dp5
S'layers'
p6
(lp7
g0
(cneurolab.layer
Perceptron
p8
g2
Ntp9
Rp10
(dp11
S'initf'
p12
cneurolab.init
initnw
p13
sS'ci'
p14
I33
sS'co'
p15
I30
sS'cn'
p16
I30
sS'inp_minmax'
p17
cnumpy.core.multiarray
_reconstruct
p18
(cnumpy
ndarray
p19
(I0
tp20
S'b'
p21
tp22
Rp23
(I1
(I33
I2
tp24
cnumpy
dtype
p25
(S'f8'
p26
I0
I1
tp27
Rp28
(I3
S'<'
p29
NNNI-1
I-1
I0
tp30
bI00
S'\x00\x00\x00\x00\x00\x00\x00\x00\x00\x00\x00\x00\x00\x00\xf0?\x00\x00\x00\x00\x00\x00\x00\x00\x00\x00\x00\x00\x00\x00\xf0?\x00\x00\x00\x00\x00\x00\x00\x00\x00\x00\x00\x00\x00\x00\xf0?\x00\x00\x00\x00\x00\x00\x00\x00\x00\x00\x00\x00\x00\x00\xf0?\x00\x00\x00\x00\x00\x00\x00\x00\x00\x00\x00\x00\x00\x00\xf0?\x00\x00\x00\x00\x00\x00\x00\x00\x00\x00\x00\x00\x00\x00\xf0?\x00\x00\x00\x00\x00\x00\x00\x00\x00\x00\x00\x00\x00\x00\xf0?\x00\x00\x00\x00\x00\x00\x00\x00\x00\x00\x00\x00\x00\x00\xf0?\x00\x00\x00\x00\x00\x00\x00\x00\x00\x00\x00\x00\x00\x00\xf0?\x00\x00\x00\x00\x00\x00\x00\x00\x00\x00\x00\x00\x00\x00\xf0?\x00\x00\x00\x00\x00\x00\x00\x00\x00\x00\x00\x00\x00\x00\xf0?\x00\x00\x00\x00\x00\x00\x00\x00\x00\x00\x00\x00\x00\x00\xf0?\x00\x00\x00\x00\x00\x00\x00\x00\x00\x00\x00\x00\x00\x00\xf0?\x00\x00\x00\x00\x00\x00\x00\x00\x00\x00\x00\x00\x00\x00\xf0?\x00\x00\x00\x00\x00\x00\x00\x00\x00\x00\x00\x00\x00\x00\xf0?\x00\x00\x00\x00\x00\x00\x00\x00\x00\x00\x00\x00\x00\x00\xf0?\x00\x00\x00\x00\x00\x00\x00\x00\x00\x00\x00\x00\x00\x00\xf0?\x00\x00\x00\x00\x00\x00\x00\x00\x00\x00\x00\x00\x00\x00\xf0?\x00\x00\x00\x00\x00\x00\x00\x00\x00\x00\x00\x00\x00\x00\xf0?\x00\x00\x00\x00\x00\x00\x00\x00\x00\x00\x00\x00\x00\x00\xf0?\x00\x00\x00\x00\x00\x00\x00\x00\x00\x00\x00\x00\x00\x00\xf0?\x00\x00\x00\x00\x00\x00\x00\x00\x00\x00\x00\x00\x00\x00\xf0?\x00\x00\x00\x00\x00\x00\x00\x00\x00\x00\x00\x00\x00\x00\xf0?\x00\x00\x00\x00\x00\x00\x00\x00\x00\x00\x00\x00\x00\x00\xf0?\x00\x00\x00\x00\x00\x00\x00\x00\x00\x00\x00\x00\x00\x00\xf0?\x00\x00\x00\x00\x00\x00\x00\x00\x00\x00\x00\x00\x00\x00\xf0?\x00\x00\x00\x00\x00\x00\x00\x00\x00\x00\x00\x00\x00\x00\xf0?\x00\x00\x00\x00\x00\x00\x00\x00\x00\x00\x00\x00\x00\x00\xf0?\x00\x00\x00\x00\x00\x00\x00\x00\x00\x00\x00\x00\x00\x00\xf0?\x00\x00\x00\x00\x00\x00\x00\x00\x00\x00\x00\x00\x00\x00\xf0?\x00\x00\x00\x00\x00\x00\x00\x00\x00\x00\x00\x00\x00\x00\xf0?\x00\x00\x00\x00\x00\x00\x00\x00\x00\x00\x00\x00\x00\x00\xf0?\x00\x00\x00\x00\x00\x00\x00\x00\x00\x00\x00\x00\x00\x00\xf0?'
p31
tp32
bsS'inp'
p33
g18
(g19
(I0
tp34
g21
tp35
Rp36
(I1
(I33
tp37
g28
I00
S'\xd1*0\xf6\x94\x87\xc8?7\xdd\xf8\xf7\xd6\x11\xc4?\xb1\xa7<\xc4\\h\xc5?\xda\x95\xa8]\x89\xda\xd5?\xee\x8c^\xaa\x9f\x13\xd6?_\xcbd\x91\x03\x84\xd4?\xfb\x18\x9c\x8f\xc1\xf9\xa8?\r\xef\x8c^\xaa\x9f\xa3?\x0e\xef\x8c^\xaa\x9f\xc3?\xbb\x12\xb5+Q\xbb\xb2?\x04\x84\x14\xf7\xb5L\xb6?\x0e\xef\x8c^\xaa\x9f\xc3?8\x1f\x83\xf318\xbf?\xbb\x12\xb5+Q\xbb\xb2?\x9e\xd1K\xf5s\xc2\xca?\xa6\x1b\xff\xde:\x82\xd2?\xda\x95\xa8]\x89\xda\xd5?B\x8a\xfbZ&\x8b\xcc?L\xf5s\xc2\x1a\xde\xc9?-r\x80\x90\xe2\xbe\xc6?i6\xdd\xf8\xf7\xd6\xc1?C\x8a\xfbZ&\x8b\x9c?\xc5}-\x93E\x0e\xb0?\xe6B\xab\xc0\xd8S\xae?M\xf5s\xc2\x1a\xde\xb9?\x0e\xef\x8c^\xaa\x9f\xb3?\xbc\x12\xb5+Q\xbb\xc2?M\xf5s\xc2\x1a\xde\xb9?\xb1\xa7<\xc4\\h\xa5?\xf1\xad#(\xcd\xa6\xbb?\x04\x84\x14\xf7\xb5L\xb6?\x94f\xd3\x8d\x7fo\xbd?\x17Z\x05\xc6\x9e\xf2\xc0?'
p38
tp39
bsS's'
p40
g18
(g19
(I0
tp41
g21
tp42
Rp43
(I1
(I30
tp44
g28
I00
S'6\xc3\x07J\\\xcd\x10@YW\x7f@\xc3\x93\xcf?2\x8e\xd7\x08\xd0 \x11\xc0V\xeb\xee<\x0cJ\x0e\xc0\xce\xa5\n\xad\x8fF\xf2?\x00\x99$9\xcc$\x01\xc0p@\xa0\xc0\x01x\xfc?\xc6\xe7C|\x04\xb8\x11@\xa1\x80\x04\xb8\xa9C\xe0\xbf\xc0\xebV\x95\x9di\xcd\xbf\xc8pS\xf4\x97l\xeb?\xba\x9b\x12H\xc8\x88\xe1?\xf9N\x1c\x8cS\x13\r@\xac\xbao\x86J\xb8\n@\x8a7\xb7/\xc5\xe6\x10@\x18\xfb)\xf7]\x83\x08\xc0x\x882\xab\xc2x\xed\xbf&\x8d\x14\x85\xa1}\xf3?s\xf5\x90\xecM!\x01\xc0\xa4\x01\xa7\x10\xc8N\x13\xc0\xd8\xdcB\xba\xf1v\x15\xc0\xac\x05O\xb2\x8f\x8e\xc2?5g\x07\xa1\xbe\xa8\xd7?\x97\t\xdb\x11\x03\xeb\t\xc0\x92\xf5*d\x00B\x0b\xc0\x9elbE\xf5;\xc7?t\t(\xf4\xcc\x05\xfd\xbf\x1e\xc1GK\xa0t\xf4\xbf\x1a\xa5\x83`pO\xe3\xbf%B\xc1u\x8f\xa7\xf1\xbf'
p45
tp46
bsS'np'
p47
(dp48
g21
g18
(g19
(I0
tp49
g21
tp50
Rp51
(I1
(I30
tp52
g28
I00
S"u\xc4\xc6\xf1\x0f\xf1\x0f@\x85\x87%8\xe9]\xcc?\xf8\x7f\xf7bj\xf8\x13\xc0\xe9{p'\x1d\xf6\x11\xc0\x91\xfdj\x8b\x83\x7f\xf4?\r\xcev\x07\xa0\xbe\n\xc0\x189\xd9w\x11O\xfd?\xb2K\x18\x14}M\x11@\xc7\xa0U\xd6qg\xe1\xbf\x97T\xad\xd3\x1fY\xe0?\xa5\xf1\x91\xd5\x1aA\xf3?\xc0%\xcaIx\xfd\xdd?V\xd2\xa0\\\xfc\x13\x12@\xdd\xfa\xd7c\x9e1\x0f@\x86_\xb3z'F\x14@\x9e\x9c\xf6\xc4EH\x10\xc0\xb7\xc9\xadX'T\xff\xbf\x12\xac\xca'|l\x00@\xd3\\bI_`\x04\xc0%\xa6\x1e\x87\xe8\xf1\x14\xc0\x9b*\x87gW\xb6\x19\xc0\xa9\xfb\x15\xb9P%\xe9?7\xb3\xa4\xa8zY\xad?v\xb9\xc3Q\xd1\xb3\x10\xc0\xdc\x90\xa3\xbe\x1cJ\x11\xc0%\xc4E\xd5yh\xe3?p\x07a\xe3u`\xf8\xbfS2\xb3\x92\xc2}\xf8\xbf\xb1u\x8c\x92\xedP\xdd\xbfy\xa86K\xde#\xf1\xbf"
p53
tp54
bsS'w'
p55
g18
(g19
(I0
tp56
g21
tp57
Rp58
(I1
(I30
I33
tp59
g28
I00
S'\x90\x9dp]\xa9z\xe6\xbf\xd5\xb7[\xdc\xbf\x81\xe4\xbf\xa6v\xdf\xb9\x98\xad\xe9?7\x16\xbc:n\xe9\xbc?pu` \xa3+\xe8?5\xa35\\\x9a\x9e\xc0\xbf\xba\xa1\xc3\xe6\x8e\xb3\xd1\xbf\xe3\xfd\xb0\xf0\x13.\xe9\xbf\xc6\x0f2\xc6NM\xbf\xbf \xf2\x9fg\xe3\xee\xe2\xbf\xac\xecgH\x00\xe0\xe9\xbf{\x9a\x88\xc6\xa1\xfb\xd7?+p\xaf\x83\x07\xf8\xcd?1\n\xa1\xea\xf6\x7f\xc2?t\xf7\xb2\xc4\x84\xee\xe5?\xb2\xed\xab\xa1\xb1\xf7\xde?\x15h\x0c\xc8\xc2\xab\xe5?SC\xec\xa4e\x84\xcc\xbf1\xd9\x95+\x96\xf9\xdc\xbf\x10\x81\xed2>\xc3\xd5?\x1f\x1b\x0b\x90D\x1c\xdc\xbf \xbf\xcfC\xe3\xa9\xe4\xbf\x0e\xcamde\xf1\xe5\xbf\x05X\x80\xdfk\xce\xe8?\x02\xccMW-\x81\xdb\xbf_$\'\xa0|"\xe4\xbf\xad\xb8r\x1cxn\xe2\xbf,\xcdoj\xa2\xa9\xd5\xbf\xe0\x96f<\xb8d\xe2?\xcdm\xa6\x02\x96\xa8\xe1\xbf\x17\xf0MS\xaa\xe2\xe6\xbf\xd8\xd1;\xddm\xbe\xe4?\xce\xbd\x16nU\x8b\xaa?\xf1\xf8*\x87;\x0b\xea?Lso\xbe\x05\x9d\xde\xbf\\\x0c\x1d\x0e\x13]\xe4?\xcf+\x16\xa2@\xc9\xe1?\xa0%\x87\x9bm5\xdf\xbf\x12\x08\x1a>V.\xe4\xbf\x97\x16),A+\xd7?$\xcam!K\xaf\xd4?\xc7\xfd\xd7}\xa63\xcc?\\o;\xf6\xb43\xc8?\xd8\x91\xcb\xc3\xbc\x08\xe5\xbf\xd0\x84@q\xdc\xd0\xc2?<>\x05\x88\xa83\xdf\xbf\xb0\xe9`\x86\x1c_\xb4\xbf\x11\r\xd7L\xda5\xe6\xbf\x93\x85r\xfb-z\xd6\xbf\xf5\xfam\x1dh\xc6\xe1?x\x81\xbd\x01\xc76\xe6?D\xe6$\x10\x1aA\xc9\xbf\xc1\xc7\x92I\xb4\xc0\xb4?\xc6\xc2\x18\xc4E8\xdf?rM\xf6\x91_3\xe4\xbf\x94 +\xfb\x10z\xee?\x84E\xa8\xa2\xf6\xa8\xe3\xbf\x1c\x84:{\xaa}\xe6?o\x01\x91\xbd\xe5\x8c\xe6?Q\xbb"9\xf0\x1f\xdc?\x90B\xc0\xf4\xe1Z\xe4\xbf\xac\xc59\xffv\x80\xc6?\xfc\xf5\x14\xdc\xf9G\xde\xbfk7c\xfdK\xf6\xd5\xbf(21pd1\xe0\xbf\xf1\xabx\xdc$\xdb\xe7\xbf\xd8\xda\xe1\x8c-k\xe8?\xbe\x81\x11\xc5\x8f\xe6\xe8\xbf\x00{\xd0\x15\x06\x87\xd5?\xc0\xf3\x17l\xedk\xdd?Z\xfe\xa9\x98>d\xef?\xdb\x99\xca\xc8\x9a\x8a\xef\xbf:4\xbd\x00a\x92\xd6?\xb6\xd4\x003\x15\xf1\xdf?\xbdx|)?4\xe0?8\xab\xbeC\x9b*\xd9?\x17s\xb4\x14\xf8\xcd\xe6\xbf$f\x01\x83[\x80\xce\xbf\x9f\x8f\xa6\x9bp\'\xe1\xbf\xe4\xf0,K\xa7:\xcf?\x0c]\xd4\x19\xad|\xe0?:6VM\xa1\xe3\xe3?YyD\xfa\x15~\x84\xbf\xe60x\xab\xce\x90\xe6?\xfb4\xcbV\x1f"\xeb\xbf\xf7\x04\xb6\xffq}\xd9?\x8d\xc2\xdf\xbd\x1f\xc7\xe1\xbf\x86\x9cN\xef1\n\xd2?v\x83\x7f\x96\x87i\xc4\xbfEA!2i\xbb\xbf?\x8ax\xe5\r\xc54\xe3?\x89\xda\xfa\xc4\xab1\xe3?\xc9\x84/\xf0\xeeA\xb2?V7\xba\xc6#;\xd6?l\xe9\x15\xc9l\xe2\xea\xbf\x8e\xe06*o\xac\xd1\xbf\x1a\xfb\xceI\'c\xa7\xbf\x86\xe2W\xce\xca\xa7\xca?\n\xedx,\x1d\xf3\xe2?Q3\xd2V\x9d\x97\xdc\xbfP\x92\xf9g\xd4Q\xeb?i\x0c\x82q\x0cg\xdd\xbf\xabn>\xd5\x84\x1d\xe6\xbfc.],\xbeU\xc6\xbfYC^t\xfb\xfe\xcf?wU\x98\xbb41\xcf\xbf\x9f\x99\xcc\x10T\xcb\xed?\x86\xd5\xe5\xe7A\x87\xe5?y\xb2l\xa4\xd1K\xea?\xfc\x9b5\x19Q9\xea?x\x1f2\xbau\x0c\xd6?<\x87&\xab\x16{\xea?!\x15\xbf\xbe^\xcc\xd2?I\x9fsd\x81\xb3\xd3?\x8cE\xfbb\x7f\xea\xdd\xbfcoF\xf4\xd5\x92\xe2?]\x80E\xe3\xb8f\xc5\xbfM\x8b\x81\xaf}\xf0\xd8?\x03\xf8\x0f\xc5Q\xab\xcd?\x99J\xee\xcf9\xc0\xdb?\xa3\x0f4\xaez\xd4\xe2\xbf<w\xffJV\x98\x93\xbf\xd3\xe9E\xeeBD\xe3?\x7f/t\x0c"d\xe1?\x15R\xd78\n\xf8\xc9?N\xcb\xf3}%\xb7\xd2\xbf\x91\xee\x03\xb3\xa0\xa1\xe9?\x94L\xc6E\xfd%\xe8\xbf\x90k\x18\x14\x93\xe9\xe9?\x1e\xdb\xd1\x97\x18\xa8\xdb\xbf\xac\x8e\xa0\x9a\xef\xd3\xe8?:\x1a\xcdI\x99a\xb4?\xbb\xe7?\x93B@\xd0\xbf\x110\xb4v\xc8\xa3\x86?\xac#6F\xeaS\xb2?\x0c\xaaF\xee\xb8(\xd1?\x1a2m\x9f\x17\xc4\xe0?8\x0e\x13I\x84\xaa\xdf\xbf\x10\xa82\xad/9\xdf\xbfH\xb7\x04""\xed\xea?f~r\xc1\x9eJ\xca\xbfJ\xc7`\xa2T\x1a\xe4?\xe1\'\\\x9e+\xaf\xf0?\x9ex\x00CY\xee\xa3?!\x96J\xfc\xe0F\xd9?-\x89\xae@\xc8\x15\xf1\xbf|\xbf"\x93\xf6\x1f\xce?\xea\xb9\x05E5,\xc1\xbf\x80`\xedirD\xe3\xbf\xb5\xe2\xe6\xcdZ=\xe1?\xc9N\x17\x99\t\x19\xec\xbf\xd3\xd5!\xf8v\x86\xac\xbf\xec\xcf\x82{P\xc2\xd1?&\xbb\xcd\x8d3\xa0\xe0?\xde\x87$\x7f\x9b\xbb\xd3?E&L\x12\xc5\xfa\xcf?\xea\xc3\xe5\xb3\xd26\xe4\xbfp\xf7\xa8\xb7\x9c\xdd\xd8?\xd4\xe7\xa5\xc2JI\xd9\xbf\x1dN\xc7{q\x1d\xe9\xbf~F\xa0i\xa5\xfd\xe6\xbf~\x9eg\xcf\xa9C\xa8?\xb65\xac\xfe-D\xe3\xbf\xb4\xe6\xb3\xf4]\x8b\xc0\xbf\xb6lj\x92\xcf\xb0\xef?\xc0<\x8b\xea]p\xe2\xbf|\xab\xef<\xa62\xe2\xbf\xc2\x89ZOf\xd6\xdb?\xc7F\x03g\x10\'\xd2?f]Cj\xde0\xdf?\xd0"R\xffvj\xe7?x\rq\xc5K\xaf\xe4?\x16?@\xae~N\xa0\xbf\xcct\x06\x16\xad!\xe4?\x99\xd0d\x88W\x85\xd6\xbfn@u\xe9\x05\x84\xd3?\xde\xf4S \x0e\xcb\xb1?\x9eW\tz\x19\xf1\xe7?C\x83\xf7\xcaS\xe8\x90?\xf0\x1b\x1eY\xd3J\xcd\xbf\x85\xfb\x13/\xf4L\xe7?<\x0f\xa7\x81\xf7"\xe9?\\\xc6\xc8\xa5\xe2\rf?\xad\x97\xb2\xeb$\xc8\xe7?\xf9\xf9\xe8h\x0c^\xdb?S\x87\xd6I\xeb\t\xb1?\xed\xad\x0e@\xdf\xd2\xe1\xbfd\xae\xe1\xbb\xa9I\xaf\xbfH\xa6\x88\xeb\x06\xa5\xef?\xfb_Ya\x0c\xab\xd2?\xcc\x06\xc5\r\xb7\x95\xee?Q;\xa4\xd68\xd5\xea\xbf\xadClw\xc1S\xd0\xbf:t\x90\xceo!\xe7\xbf\xdeAe\x86 \xaf\xe6?\xc5\x14\x05\xf415\xeb\xbf\x88~\xe3y\xd7\x11\xb7\xbff\x85:\x80\xd3\xcd\xc8\xbfh\xadk7\xbd\xd5\xe0?\xff\xac\xdaZ\x1a^\xb7\xbf\xc7\x11\xa0\x067\xc0\xe5?\xf6\x88\xd2\xd9\x8f\x8a\xc2\xbf\xaf\x8b]\x17\x0b\x80\xe8?\x1b\xd6d\x9ct;\xb5\xbf\x93_\xeb0U\x18\xdc\xbf\x11\xef\x13\xdbwx\xe9\xbf%P\xbe0\xb1\xb1\xdc\xbf\xd2\x84\x9dhhi\xe6?\xc3\xa3u\xeb\xcca\xe1\xbf*L,9\\\xc4\xe6\xbf\x89L~\xde\x1f\x82\xe8\xbf\xc0\x95Y\x8fI"\xc7?\xfc\xf0\xf9,J\xee\xdf?b\x8a\xee\xd4\xf1\xb0\xd8\xbf%\x9e\x1dE\x0c\xcd\xc3?\xd7\xd0\t\xf1\x08x\xe6?w\x06u)N1\xc6\xbf\xcc\x8f[\xcfpI\xea\xbfI\xa4\xe9\xea\xfdj\xe3\xbf\xaa\x07\xa8\x06)y\xd7\xbf\xae\x1f\x1f\xa5z\x88\xd5\xbf/\x96p\x0e\xc8\x98\xcc\xbf\xb6@\x1a\x82\x84\x17\xc6\xbf\x12E\x17l{\xd3\xde\xbf\xed:\x8f\xf2\'\x0e\xd5\xbf:\xc1\x12\x99\x81\xaf\xe7\xbf3\x9a\xaf\xa1\xb5R\xeb?\xb0\x8e \xb1\xcf\xa7\xe0?\xe8?\n\xbc\xfc\xb7\xe7\xbf\'1\xba\xb2\x03\xc6\xe6?#.no\xae\xfd\xd3?^\xf3\xf9\x177d\xdb\xbf\xbf\x07\xd0\x87*\xd6\xe7\xbf\x97c\xbf\xd5\xb7\xcb\xe6\xbf\xe0\x10PN\xea4\xeb?\xc8Q\x97FZ\xa6\xe2?\xf9\xdd_\xac\xa0\xfa\xe1?\xc6\n\xb7tB|\xec\xbf\xff\x81\xbcM\x0bf\xe5?\xf3\x99\x9e\x07\xee\'\xdd\xbf\x98\xaa\x8e\x91\x03T\xe1?@\xe4\xb1\x0f\xaf|\xed\xbf\x02OR0\x9a\xa7\xc5?\xcd0\xbf\xfa\xbbT\xb9\xbf\xd3\r"\x9c\xb3\x90\xe5\xbf\x8e\xfa\x99\x80\xb1\xed\xc5\xbf\xf1l\x86]\xe3\x84\xdd?1\xee\xab\xbc:Z\xd4?\xb4\xcdc\x92\xab\xc5\x9b?\x00x\x00\\\xbd;\xe6?>k\x14\x83\xda\xf4\xd4\xbfu\xd2\xff\xf9\xb0\x01\xd7\xbft\xa4\xae\xcdY\x17\xd5?v\xa8\x9d\xee\xc0/\xdb\xbfJ\xd5.\xb2\xa0\xbc\xe5?\xe7?\xb0Y\xeb=\xe4\xbf\xd4\xd9Z\x92ip\xe6\xbfv\xfe\xd0#\xf6\xed\xe5\xbf\xaa\xbc\x83\xb0"\xc0\xdf\xbf\xa5x>*\xab\xc7\xb5?\xe3g\xa5\xd1)0\xe1\xbf\xe2>\x03|`z\xd3?\xeb\xf9\x1a\xcf\x92M\xca\xbf0\xc9H\xa7\xb6\x0b\xd0\xbf4v\x8b\xde\x80\xa8\xb3?.s\xa5\xdbu%\xd4?\x1ez\xb9\xe6/\x89\xdb?\xf6\xce\xfd:\xbc{\xe4\xbf\xa1\xa8\x1a\xb08\x1b\xc1?\xa3\xe4\x8c\xd2\x91u\xe3\xbf[\xc2\xe1?Oh\xc0?Jy&\xf6\x1c\xaf\xc8\xbf\x8a"F\xe7c\xf6\xe5\xbf\xa4h%x6\xeb\xde?\xbcZ\xf2/\x88#\xea?B\x97j`I`\xf0?\xd4<\x90\xa5\x1f\xf4\xbb\xbf\xf4\xb6\x86\xf4\xc7B\xa0?[\xc0\xbf\xeb\x99\xc8\xdf\xbf\xde}\x81z\x1f\xc1\xdc\xbf|%pX8\xb7\xed? \x84J\t\xcf\x04\xe4\xbf4\x11\xb7\x12\xba$\xb5\xbf\xd2^*\xf5t\x05\xe4?\xc8p\xc8k\xed\xa4\xb4\xbf\xa0qo\xd4\x1c\xdc\xeb\xbfWCj\x04\xee\xcd\xc1?\xc4\x1a\xa2\xb5d\xb9\xda?\xa9\x85\xbe\xc3\xc1\xaf\xd6?\xd9\x19C\x14g\xae\xd3\xbf\x1d\xc8#A\xb4\x02\xe0?\x93\xaaRP]j\xe9\xbf\xba\xee<\x07\xd1\x1c\xa1\xbf\xaa\x14C_DB\xc1\xbf\x01\xbf\xff\x7f[\xa6\xea\xbf\x83 \xe4\xfa\xfe\xea\xb0?C\xd5\xb7\x9f\xa3`\xf3?i0\x8e\xea\xe7\xa1\xe2\xbf\xf7or0\xf4\xf1\xdf\xbf&<\xc8\x89\x01\xdc\xec\xbf]\xaf\xe0\x04Y$\xd7\xbf\x0b{r\xfb\x80V\xd3\xbf\xc11\xe0\x11\xfa+\xe7\xbf\x93\xd8\xf7\xbe^d\xeb??hi\x9dS\xa3\xeb?q.5\x15J?\xea?\xa9s\r\xf2\xde\xf7\xd0?\x1d\xe7;\xc5i\xc7\xe0\xbf\x06J\x8e\x0b\x184\xe4?r\xd6\xce\xf8x\xf8\xe2\xbf>\xb6\x8bN~;\xd0?\xd8m\xee\x9e\xa5\n\xe9\xbf\xa3\xd2\x0f\x96\x84\x93\xce\xbfc\xd4-\xcaG(\xe0\xbf\x87<6\x06\xb3\xf0\xd6\xbfZ}\r\x8f\xda\x8a\x81?<\xf5\n\xebL\x80\xe2?\x94\xc8\x9a\xaep+\xe6?A\xb2\x14b\x94i\xe1\xbf>\xde\xef6f\x14\xe0\xbf]d\xd1\xeaCh\xe4?:\xab\xcc\xc8\x81\x87\xd5?\x9e\x08\\4\rk\xcd?\xd0\xed\x131<\xb0\xdb?\x15\x89\xdcm\x16b\xd5?\x88\'AL\xfc\xda\xe6?h\t\xdb\x88b\x97\xbc?p.\xb2\xd74\x8e\xde\xbfN\x9e)\xb8Mr\xd6\xbf\xdd\xa7\xbc\xe0\x06\xc5\xc9?>\x19\x96\x02\xab\xa2\xe9\xbfA\xad|-\xc3\'\xcc?\xdb\x03\\\x86\x8b\x1b\xdd?Cm\xab\xab:\x93\xd4\xbf\xd6-\xa7/\x13\x84\xdf?\x15\x9d\xa3<\r\xe6\xe9\xbf\x0e\xf6dm\xa4\xc1\xef?v\xa7]iJ\x07\xcb?\x9f|;]EA\xc8?:\xe0\x17:\x81\x12\xd6?J\xb1\xd0mV{\x8e\xbf\x9ce\xdf\xe5\xeb\xdb\xd8?G=].\xfe\xf0\xdf\xbf\x9f\xdb\xcfH\xae\xbb\xed?1\xbb\x04r\xf8\xb5\xdb\xbf\x1a\xae\xc2\x92G%\xe1\xbf\x96\xd8\xa4\xea`\xfe\xc2?\x1e\xce\xd6\x87HV\xd6\xbf*$&1\xe5f\xe3?]\x13\xf3\xb1v\x88\xf0\xbf\x0c\x866\xe8\xc0x\xd9?\xad\xf0\xf0r\x01\x97\xe4?\r\x91\xbd\x93\xd5V\xd1?\x89b\x98\xc3L\xbb\xd1\xbfJ\xb6\x1f\xfdA\xca\xca\xbf#DZ\x1b6\xba\xae?F\xb1\xc2\xc0\x15\xf6\xec?\x87\x1c\xc3\x82\xcfk\xd4?\x9a\xc8n\x08\xd8\xa7\xbf\xbf\x0f\\\x19jq\xbc\xe0\xbfs?k\xda\xbaY\xe7?\xd2!`\xb2\xd45\xe4\xbf\x1c\x02}ma\xaa\xe7\xbf\xc1\xbc\xafY\xf4\xdd\xef\xbf\xacJm$\xb4\xdd\xc6\xbf,6\xc8(\x16\xef\xe0?\xcdJ\xc1\x94\xb9 \xe9?.cZ\xf7\xfe<\xd0\xbf\x1a5\xb2\xff\xe9\xd7\x97?\xd7\x8f\xe7\xd8\xce\xf8\xde\xbfOd\x06\x93gf\xc3\xbf \xfa\xdf\x80\x1e{\xef?\x1d\xae\xc3W-*\xed\xbf\x95\x8f[\x81cO\xdb\xbf\x1e\t\xbb^]\x84\xce\xbfC\x8f\xf6\x88fe\xec?\n`\xca\xc3U/\xd0\xbf\xb2\xcay\xa0\xacD\xc4?\xd8I\xea\x1b\xc1\x1f\xc0?\xcd\n\x10\xd0\x80<\xe4\xbf\xbe`\xa0\x99 \xfd\xcd?bG]\x1b\x9c\xf7\xd3?\x80\x94,\x16\x8d\xc7\xa0\xbf\xf4\x1e\xbePJj\xed\xbf\x8aX\xea\x98)\xf1\xe9?4r\xcf\xfe\x04\xf0\xea?/\x06\xf9\x19U\'\xed\xbf\xb1\xb9\xac\xe1\xce\x8e\xa3\xbfZ_\x00\x9c*\x98v?\xdfr\x91\xc0-\x83\xd1\xbf\xdc\x89\x9c\x07Au\xcd?\x00\x01\xbc\xf7\\\xc4\xca\xbf\xc5\xb5\xb1\x17\x04\xa3\xaf?\xfc(\x11\xd1\x90h\xbf?\xb9\xdaSot\x16\xdb?P\xc7qV\xb3\xc7\xdb?\xa3\xb6lp\x81\xc2\xc8\xbf\\\x93a)\xac\xf9\xe5\xbfp\xa5\xd9\x0c\xb0\x91\xe5\xbfg\xdf\xa0\x9f\\9\xd8\xbfG\xee\xe8\x9d1n\xe1?\x1b\xb3N\xf8\x02\x8f\xdb\xbf\xebcE\xd4\xe7\x8b\xd6\xbf\x19\xfc\x1c_~\xea\xe3?\xd0\xf6\xd2Pu9\xe4\xbf\x86\xc68\xf7\x89V\xe1?\xbd\xc2\xc7\xaa\x8b\xef\xe8?|BT\xec\xdfz\xe5\xbf\xc1R\xdf\x1fW:\xeb?\xe9\xe7a\x82+%\xe6\xbf\xfa\xf6\x88\x05k_\xd9\xbfH\x8e\x80\xfe\xd6?r\xbf\xcf\xc3\xa6\xe38\x89\xdb\xbf\xebL\xdd\x8c\x9d\x98\xe1\xbfh@\xae\xc1VR\xe3\xbfiW\x93\xea\x03\xb2\xe0\xbfT\x88\xb4g.\x9f\xdb?\xe5d\xe3`\xb6L\xbc\xbf\xbb\xcdrY\x9a\xff\x9e?\x0cq\xfa\x1b\xf2\x7f\xe7\xbf\x83\x15\xd3\x13\x0c\x89\xe4\xbf\xd9\x18\x0c\xad\x9f\xc8\xe4?x\xcdD\xd4\xbeq\xb4\xbf\x8c;\x89Vv}\x92\xbf,\x91\xa4H\xeb\xc7\xc3\xbf\xa2],t\xdag\xe5?^\x1f\x12\x01xf\xe3\xbfhM\xf5\x9e\xc7\x96\xe9?-\x9c\xdc\x15\xd5\xe9\xd2\xbf\xf4\xf7M\xfe\x8f\x93\xb6\xbf\xf90F(W0k?\xe7\xf14\xe7\xdem\xda\xbf\x84\xe7\xe7\xa9\x1fH\xd3?%}P\xe8\x1b\xd6\xe0\xbf\x98>\x89\xaf|\x08\xdf\xbf\x99\xd9\xe6?\xf1f\xd9?\xd68\n\xc9\x8a%\xe8\xbf!3H\x96Qq\xe3?\xff\x10\x03\xd04;\xad?wF_\x194\x04\xda?\xebB\xa9\xddj\xa0\xe5?\xd5\x05\x8fX\xf5\xf3\xd5?\xfd2\x8a\xcf\xac\x1c\x84?\x9c\x07\x16K\xbfa\xed?\xf4\x96#=\x99!\xec\xbfO\x81\x7fl]Q\xb2?\x13\xc8C\x9b\x98u\x94?\xdd\x87\xcb\xd5\xb9J\xe1\xbf\xa9u\\+\x19b\xad?aY8o`Z\xcd\xbf%\xfd\xa8ng:\xe7\xbf\xe7M\x02v \x1a\xe2?\xb0>\xc2\xcd\xa5\x1a\xe8\xbfR\xd8E\xcf\x0cr\xe5\xbf\x0c\xe3\xb2i\xd0\x88\xce?Z\xff\xca\x1a 5\xe9\xbf\nY\x1a8\x998\xdd?\xb3.\xbc\x12\x82\xb7\xec?G\x98[\x98\xc5<\xe2\xbfR|X\xf8.\xc1\xdf\xbf\x02w\xf8\xd5\xdf\xc4\xcc\xbf\xf0\xe9X\xcc\x97\x0e\xe9\xbf\x94NR+\x0c\xe1\xe1\xbf3H!\x86\xbd>\xea?\x081\xa7I\x89\xe3\xe8\xbf0&\x01\xf2\xf5\xd0\xc8\xbf\xddkgj\xc9\xc7\xbc\xbf\xb56\xecIH_\xe6\xbf]\xa4\x8e\x8a;\xac\xe8\xbfX\xd4\xd4!\xbe\x8c\xcf?8\x07\xc4\xb6\x14+\xe0\xbf\xce\x9d\xe1\x1e\x1fa\xe8\xbf\x02M\xd4fEy\xe5\xbf\xb6\xa7\x9d\x97\xee\x00\xe8?=\xd0e\x0c(\xe8\xcd\xbf\xfb\x8a!\xdc\xd0\r\xc6?\xf6\xc0\xbc\xd5\x1e\x14\xdc?\x84\x14\xc8n\xe82\xc8?\xe4S\xab\xa8\xc9\xfb\xe6\xbf\xed\x10\x02mW\xf0\xd1?\xae]\x96\xf6\xed<\xe2\xbf\x1a\xc0|\x04\xe7Y\xc2?\xe3\xb01Bk\x11\xe7\xbf\xdd\xdf<-\xf8"\xd4?\xd5zw\r\xc8L\xc6\xbf\xf2I*\x8a\xc80\xe3\xbf\xf8\xf5\xa6\x96\x85\xa3\xd2?]\xc1\x81\x90\x8ct\xc9\xbf\xa2\xfe#E\x00\x0f\xcd\xbf\x8e1\xcd\x86\xf1\xf6\xe7\xbf~\xd4\xbb\x90Hi\xe4\xbf\xdd#\xa5\x8cg6\xe7?\x10\x01\xce1\xa5\x99\xdf?\xc5\xadC?>\xb8\xe3?\x1fA\x91\xe1B\x18\xe6\xbf\xa8(p\x04\x1e\xfa\xbc?\xd2\xdb\x84\x03\xe6\xe2\xe9?\xf5\xfd\x94\xa0Z#\xde\xbfa\x07\xae\xf64\x98\xd7\xbf(\x7f\xe0*(K\xd3?\x05\xe9Y\x02\x06\x8f\xea?\x82I\xde]\no\xe3?\xf2\x14D\xeb1#\xd6?t\x19\x9f\x1a\x07\xeb\xe3?\x0b\xaeLZI\x9b\xe8?\xb7\xe6\xd1n\x89\x08\xe2?`\x98\xe0\xd8\x93e\xdc?\xb1\xca\xf6\x87\xfa \xe6?\xe8\xf5\xa0\x957\xfb\xd1\xbfX`\x8e\x98\x8e\xb7\xd2?\xf4Mk\xd7\x1e4\xe9?\xb2\xc2\'\x9e\xfa\xb6\xdc?\xaa\x9d\xec\x05\xa2H\xe4?\xea\xb7\'\x18\x1e4\xe5\xbf\x8eGe\xd7\xe4D\xd2\xbfC\xb3\xd0J)5\xa7\xbf\xb5\x8b_\xdf\x0fX\xe5\xbf\xed&%*E*\x89?W\xfcS\xf0\x06r\xd8\xbf\x1e\xdb3eX,\xab\xbf\x07\xd7\xf3\xbe\xf90\xea\xbf\xa3\x86\xc9j\xb9 \xe2\xbf\xf0\xd8\xd6~\x1b\x19\xe6\xbf\xd1\x87o\x87~Y\xcb?j\xf9=\xb6f\xc9\xe6?\x99\nQ\xb4a%\xe3\xbf\xe2W\xabu\x11\x18\xe6?\xc8\xaf\xa2\x9fM\x8e\xe1?\xb5`mh\x84#\xd3\xbf\xa7\xe7%z\xd4A\xde\xbft\xa5\x0f\x0032\xd6?}&\xce\xd3\x05\x03\xda?\xb3\xd4\xc0\x87M\xa9\xe3??!\xcf\x0b\x16a\xe9?\xd9\xf5\xd8\x91\xd1\x92\xd9\xbf\xee\xd9\x96\xcbc\x91\xd7\xbf\xfd\xf8\xbc+m\xd7\xec?\x8c\x88\xd9\xa3\x1d\x85\xe8\xbf\xe8~\xddM\x81\xc5\xe9\xbf\xb8\xb7(x\xdaP\xba?\xacv&\x1d\xe7M\xeb?\x01\'\xda\xa6%x\xe4\xbf\x01\xed\x15\xd1\xa7\xeb\xc3?"]{\xe7<\x13\xe3?\x0fjp\xfa?\x9b\xe5?\n\xb7\xc6\xf3M\xd6\xe9\xbf\x1d\xa0/\x14`L\xcb?\x01\xe0h\x83U\xa7\xe0?N\xc0g&\xda\xfb\xc0\xbf5\xc07b\x9c\xdf\xd6\xbf\\\xbf\xf7\x07\xc7\xc5\xa7?\x8d\xf0\xa1,u\xa0\xd5?A\x07b\x8f\xb1\xc8\xe6\xbf\x10\xe9\xba}]\x07\xe6?\xcdP\x8a6\xa3\xfd\xe4?\xfa\xadi{\x12\xa8\xe0?\x0f\x06\x045\xc9O\xc4\xbf\xe4\xc6\xc4\xe5\xaet\xe4\xbfp\xa2\xde\xb7\x8d\xf1\xb5?\x13\x0c\x86\xaf\xde:\xd6\xbf\xdb\xb4\xc6Q}\xeb\xd6?1[\x84\xf4\x95\x81\xe3\xbf\xae\xae\x9a\x8d2\x87\xe1?\xe9J\xef$2\x9c\xb1\xbf\xb9\x8at\x01\x07\xcf\xce\xbfZA\x95y\x85\x12\xe9\xbf\x85i\xba\xd2|\xa6\xb8\xbf\xf5\x97\xde\x08v2\xde?\x15\x81\xe0\nC\xc6\xdb\xbf\x06<8I\xed\x7f\xe1\xbf1\x0c\xb9\xf3\xf2\xe5\xc6?\x93\xcf\x03\xbc\x13\xd7\xd0\xbf\xb2\xce\xbd\xd8\x11\xb4\xea\xbf\xa0\nb8hH\xe3\xbfQ95\xfe(\x03\xd7?\xe8|\x95\x99&\xa5\xc0?\xc2&5L\xc1\x1a\xec\xbf\x9cuR|\x1a\xfe\xe5\xbf\xe5\xf8\xc1\xfe\xf5e\xd1?;2\xb2\x8e\x05\x13\xbf?\xb7\xc8\xc0+\xc9\xcc\xbc?Z\xb8\xd1\r\xd6_\xdd?\xea\x9fP\x16\xed&\xe9?I\x1d\x8b<\x93:\xe9\xbf\xd7\xce}2\xc1\xfc\xe8\xbf\x9a\xf5\xbf\xb65B\xcf\xbfZ+\xff_N\xc8\xe3?\xbaQv\x14v\x82\xbd\xbf\xca\x02v\x84"H\xe2?\x9177\x1e\xe7\xa0\xe1\xbfY\x18\x18\xd9\x1a\x00\xe6?\x845y\\*\xd5\xe4\xbfRq\\\x9d\x7f-\xe0?uA\xeb\xea\x91\xf7\xe8?\xd2<c\xd1##\xe4?h\x94\xb1\xfaW\x05\xdc\xbf\xab\x97\xbe(\x9e\x1f\xc0?rI\xd4\xd3\xc8\x96\xed\xbf~\x08\x8d\xb2\x05&\xe3\xbf\x1dUwbDp\xe7?\x92A4\xa6\xc6\xbc\xd6?\x8c\xb2c\x9a\x01\xba\x85\xbfS\x9e-\xd6\xf2\xbb\xd5?+\xef\x0bJ\xf5\x94\xe9?\x01e=\xf1\xd9\x8f\xda?F^<JPm\xe7\xbf\x93\xec\x16\x01\xc4\xcb{\xbfN\xb8{\x90\xab\xea\xee\xbf\x93\xce\xe8t\xdaG\xbc\xbfl\xa2\xe6B\x16M\xbd?\xae|qp\x85&\xe7?\xc2\xe4W\x19\x17\xa7\xdf?\xec\xfeT\xc8k\x01\xd9\xbf<\xc5\xe8\x13\xac\xd8\xe9?\xb8$\xb0\x8c7m\xd9?\xe3t\xc6\xa9\xb57\xe4?)\xea\xa9gWL\xdc?\x10\xddm\xf9Ex\xc7\xbf\xa2n\xde\x1f+\xa0\xc3?\xa5\x9b\xb3\xadmT\xc6?\xe1\xe9\xf0Z\xc7\x9b\xd2\xbf]\xa0K4\xfa8\xd8\xbf\x1b\xa6\x06i\x0c\x88\xd4\xbfv\xceBi)\xe6\xdf\xbfg\xec_\xd1\x07i\xec?\xd3\x9e\xc5\xe2\xd3\x9f\xd1?\xb2h\x19\x91+\x1a\xef?\x9c\x19\x7f\xd9\xb2&\xa9\xbf\xbeg\xca&\xf5\x86\xcb?\n\xc1\x0f5u\xd2\xe1?\xab\x9d\x13\x07\xe5C\xe2\xbf[\xb4j\xee\x82R\xd2?\xcd\xf8X\x8c\x93\x9e\xe6\xbf\x8d\xad\x18\x05\x19\xbc\xe8?D\xb1\xd7\x03m\x18\xab?\x0c0\xe0\xfc\x9fV\xec\xbf<|\xdf/\x82\x07\x93\xbf\x98\xb8\xfd\x85\x8aP\xd7?\x94\x06\xea\x8e\xab\x91\xdd\xbf\xc6,\xe5(\x9ak\xe9\xbfHI\xda\x05\xf7,\xc5?\xd0\xd5\xd4?\x9a\xf8\xd2?\xcf\xb0\xdf\xa1P\xed\xe7\xbf\x06r\xfa\x14;S\xec?2\xdd\xd2\x10^\xa6\xe0?\xb1\xe9\x83KN\xa6\xe8?IY\xec\xc93\xdc\xdb?ff\x90\xa7\xc9]\xe5\xbf\x12\xc5\xb2\xd0\xdc\xbc\xc9?\xfa\xd8\x1c\xd7XG\xe5?\x81\xd2\xe7\xe6\x9c\\\xe7?\xe3\xde\x02\x1fv\xd7\xc7\xbfM\xeb\xcdbh\xf1\xe5?\xaa\xb8L\xa7\xa7\xc6\xe9?\x05N^U\xf2\xb7\xab\xbfq\x0fD;m\xb5\xb1?\x14d\xd0)\x12\t\xe9?\x0e\xed\x1d!\x90v\xc2?\xe8#9\x81F\xf6\xc2?\x01v\xa7\xa1\xf6\xe4\xe2?\xc5kIH\xbf\xb8\xd7\xbf\xcc\xad\t!@ \xeb?*\xb3\x92{\x83\xed\xe1\xbf\r%\xba!?t\xdb?\xc1\x00n\xd7\xdf+\xea\xbf\x81sG*\xe5+\xd2?vh\x92\xd2\x12\xe1\xd2?\x08\x01*\xc9\xa4)\xc7?\xdb\t\xebRuC\xea?\xea\xf3\xf9\xa3v\x1a\xe1\xbfI$J\xf7\xe9D\xda\xbf"U\x00\xedb;\xe0?"\xd8\xd0\x0c\xef\x06\xe1?30\x0brA#\xd7?\xbc\xb9t\xc5Oc\xe3?\x83\xbe"\xd0\x1a,\xdb?1\x8b\x06\xa2\x91\\\xe7?xe\x9e)#\x9c\xd8?\xcdlL\xc36\x83\xd7?\x9bV\xdaE Q\xd8?\x9c=\xb0b\xac\xfa\xd7?\xac\'\xc4\x9d\xc3\xf8\xc0?\xc5\xfd7\xe2\xe8\xca\xe1?\x9b\x08v\xfd\xe3@\xe4\xbf\x89\xcd\xe0\xfc\x90\xcc\xe8?\xf7\r\x0cs\xfd\xe8\xde\xbf\x8d:\xd2\xe7H]\xe7\xbf\xad\t8\xfbZ\xb0\xe4\xbfB\xb7\x7f\xabP\xa4\xd0\xbf@\xac\xde!,\xf3\xd8?\xfa\xd7\x05K\xe6\x04\xe3?0\x9bp}\x12:\xe5?\n\x95\x03/\x03\x84\xe5?\xc3\xabwG\xef\x0e\xe5\xbf\xb2\xba\x7f\x18vt\xd6?\x04\x10G\xd4\xa7L\xcf?B\xa7\x10\xa6\xe9\x07\xd4?\xf0\xbd\xff\x9d\x81\xf7\xdb\xbfD\xce"\x18\t\xa9\xcc?g\x17\xcf|\t\xbd\xed\xbf\x9c#\x000\xe12\xe3?\xd4c\xd83\x08\x82\xa1\xbfL\xd1f\x13\xd6\xea\xed\xbf\x9cD\x8b\xc5\xe4\xe6\xa4?w\x02xCAz\xd3?,%=fQ\xb8\xe3\xbf\xf1\xb1\x93\x93\xa6&\xd3?\xf6H\xb6\xc3z\xdf\xeb\xbfG\xc1w8\x03\xde\xe1\xbf\xf8\xcf\xcd>\xcc_\xb6?Q)\xce\'\x8ey\xea\xbfa\xb9\xf94\x88\r\xb6\xbfb\xaa\xc2\x9f\x18=\xe4?\x95\xa6a:\xd9\x96\xc1\xbf\x84\xb9y\x144\x91\xab?\xc8s\xa3IH\x0e\xe1?\xe6\x12?\x83V\x07\xe5\xbfN\xc3/\x92xS\xd7?\xae\xcf\x95}\xa2e\xe7?\xd2!/}?P\xea\xbf\xcb\xcdM\xf4i_\xdb\xbf\x9af#H\xb7\xa4\xe6\xbf(4\xb2\xd1\xdfy\xdd?\x81\xfeG\xd5\xd5\xbb\xd6?\xdd\xf1\xbeN\xe4\xbc\xbc?\xcbt\x04\xb9!\xba\xe9\xbf\xa57H\xf3P\x94\xd1?\xe6\xb7\x89\xd0\xb3\x93\xc1\xbfb\xc6\xd5:\x96\xca\xbb?\xdc\xb7\xed\x99\xf2\x1f\xcd?\xf4\xfcM~\xefe\xe3\xbfm\xd0\xdf(\xd1,\xf1?]oU\x8c\xa2\\\xd3?\x82\x189\xef\x05\xc8\xb4\xbf5{v\xdf\x9b\xfa\xb2\xbf\xc8\xc4\xa0\xcf\x00[\xce?\x05\xf5R\x9c\x9fY\xe6\xbf\x84W\xff)\xceg\xf1?\x11\x94\x85\xc0\x11\xb5\xb3?!\xfeN\xbc\x98\xd3\xe4?7\xfe\xb0\xf9\xa6\x82\xe7\xbf=\x17s\x0c\xbam\xc0?\xfe4\xc0J\xcb+\xc6?\t*\x9e\xe6\xe8\xb4\xb2?$\xe7\xd6@\x8a^\xeb\xbf\xd9\x01\xe4\xc3W1\xd4?\x96\x0e \xc0\x9d\x13\xb0?]}O\x00b3\xe3\xbf\xd5\xbax\xd6\x83n\xf1\xbfl\xd1Za\xe5\xa6\xee?\xa9EB\x15t\x19\xb2?\x1d)3\xf3\x93\r\xc1?\xe5\xecQfA\xec\xe0\xbf\x0bS\x85\x0bM\xf7\xab\xbf\x81\x968\x04"y\xcb\xbf\n\xa1\x03\xa8\xaf\xfa\xc7?P\xf5\xed\x9ewL\xea?j\x85\x9b+\x13\xee\xe6?[lcd7_\xd9\xbf\xbaAfR\xfa\x98\xb3?x\xd1\xdd\x9ekn\xda?y\x99\xb5\xcd\x17\x96\xe5\xbfu\x95\xb1q4\x0e\xe7?\xf5w\x08\xff\xf0\x02\xe7?\x82\xb5I\xee\xc54\xe9\xbf\x82\x16\xc8\xe2\xa0Y\xeb?\x82\x11\x9c.\xf3+\xe0\xbfGp\x94\x8f=\xbe\xe9?>\x81\x8aD\xfc4\xe1?\x14\x8c\xd2\x01\xcbr\xbc\xbf\x11\xfay\xb1\xc6\xbe\xe1?\x8b)\xf1\x11\xc7I\xc9?\xbef\xbfsc,\xe1\xbf,j\xca\x8d/-\xcb\xbf\x1c\xbc\xf4\xed\xd9[\xc3\xbf\xca\x9d\xe0O\xf2k\xd3?\xf3U\xb8\x14\xa1\xf7\xe8?\xa0a\x88\x0e\xad<\xe1?g\\\xadj.\x93\xe1?\xa8\xde\xe3\xa6c\xb3\xce?XK\xcew\xec\xff\xd9\xbfi\xd9o\xc9\x198\xc3?\xcc\xb0\xf8{~<\xe9?\x97\xf3\xefZ%\xf3\xd5\xbf\x01\x07#K\xb8\x0b\xe9\xbf\xa5\xa0\xed\xd1\xb0;\xe8\xbf0\x8d\xa3\x144\xba\xca\xbfHog\xb0Ew\xce?\x8c\xeb\x04\x96\xfcF\xdc?6[\xa6\x1e\x7f\xda\xd9?t\xd5\x12\xff&\x8c\xe4?O\x0c\xbe\x15\x86|\xe0?\xb8>\x07\xe6n\xa5\xab\xbf\xbb\r\xb2\xb8Te\xae\xbf\xde\x7f\xbb\x052\xcc\xe1?\xc7\x93\x8fj\xae\xcd\xe2?7bfH\x05*\xe1?P\xac\x00\x1e\xac2\xc0?\'\xee\x9d\xdb\x0f$\xe0?\xc3\xf52%J\x80\xe7\xbfv\xc8R\x15u\x89\xd7\xbf\xc1@\x1e\xa4\xd8$\xe6?E+\x12\x91\x9b\x15\xe9?9\xf9\x8eE\xca\x7f\xe6?\xad\xe0\x17>\x90\xcc\xe1?d\x0b@\xc9{M\xd5\xbf\xd5?B\x0f\x8b\t\xe4\xbf\xf8\xb5i\xad,\x9b\xe4?\x08\xba\xf0\xf4{\xf9\xe9?\\\xef\x1d\xda\xb8\xa5\xe4?b\xe7\x00\xc6\xbd\xf7\xde\xbf\xfc\x16}X\xbcd\xe0\xbfv\'\x98\x04\xc3\x16\xcd?\x8b\xfd[\xbc\xcc\xa1\xdf?\xac\x1a\xd8\x93\xfcb\xd3?\xa2\xe7\xd7\xbdho\xe7\xbf\xa5\x97}\xe3\xcd\x07\xb3\xbfp\xbe\x03\xa1V\xf9\xe9\xbf\x0c8\x8c:\\x\x91?\xd4L\xeb\x8f\x80\x85\xdd\xbf\xe7E\xd8\xcbE\x1b\xd5\xbf\xebl\xc2\x9b\xd6b\xe4\xbf\x85\x8d\'kP\x07\xe6?qY\x04\xb9\xd7\xd4\xe2?\x1f\xfb--\x10\xaf\xd0\xbf\xaa\x0b\x15\xc6\x9c\xa7\xe2\xbf$YBd\x08\t\xea?\xf0\x17\xfd\xc1U\xb2\xe6\xbf\xc1\xdfV8\xdc\xbb\xe8?\x1b\nN\xf7\xd0\xa3\xeb\xbf&\xe9>\xd8n\x06\xe9\xbf\xa1.\xfcd{\xf8\xe2?h\x9f\xdb\xd0\x8a\xff\xcf\xbf&[m\x82\x00C\xe9? K\x9aB$\xcd\xcc?\x1a\x07Ji\xb2L\xdc\xbf.\xff}^\xff\x8e\xcd\xbf\x00g\xa8\xcf\xbd\t\xe6\xbf7\xf9t<\xce\xdf\xe1?\x81\x8c$\xce*1\xc4?ME\xfe\x03\xdf\x90\xc3?`\x19&\xbbQ\xf0\xce?s\xbd\xd9\x94rO\xd3\xbf\xae\x82U\xda\xd9\x02\xcb\xbf\xfa(\xf1\x87\xda\xa7\xba\xbf\xa54P\x95\xcbJ\xdb\xbf\xd0b\xa0\r\x0f\x9b\xe9\xbf\x1bF\xd2I\xb1\xb0\xaf?>\xbfV\xf5\xa8\x8e\xe5\xbfd\xdd\x1eU\xf7\xb9\xbc?\xf8$\x17\xdbBf\xe3?\xbf\x157aO2\xe4\xbf\xf4g\xa4\xf3\xd8\x16\xd5\xbfo%\xf0\x1aj\xa2\xd3?B\xe32\xabic\xd7?\x9e\xe5\x85\x13\x00\xa8\xeb?\x8f\xa7v!K\xe5\xda?\xb7\xbb\xb9P\x03\xe6\xe7\xbfh\x8b2\xf8v\xa9\xa0\xbfh\thp\xad\xac\x90?`\x87S\xf3\xf3=\xe6?\x1b\x85\x1dL\xbb\xe3\xa9\xbf\xba\x19\xe8y\xf5\x1c\xe0\xbf\x92b\xe6\xdc$R\xe2\xbf\xc4-\xda\xa1\xeem\xeb\xbf\xc87s;<\xd3\xb2\xbf\xc8\x8d\xcdb\x9f\xca\xe2?89L\n\xa4y\xdc\xbf z]\x93\xc03\xe9?=&\x15\x83\x99&\xe4\xbf/\x04\xd5\x8a9\x19\xe2\xbf\xd8\x8c\'f\x13\xba\xe8\xbf\xf3\xc0\xbc\xc2\xb8\\\xec\xbf\x14\xba\x1f\xa8+\xf8\xd2?V%\x91\x18\xaa5\xca\xbf\x0f\x9e\x8c\x1f\x88t\xd0?\xf2in\xb0\x0cA\xce?\'\x0c\x0e@\x05\x1a\xe9\xbf\xa3\x7f#\x1f\x8c\xeb\xe4?p5^\x11i\xdf\xd4?\xf0\xf11\x14\x86n\xe6?@7\x0b0\xd1\xe1\xeb\xbf{\x84\xca\xb7f2\xd2\xbf\x00\x08\xa0\xfe)C\xb1?\xbc3Y8\x85\x85\xd5?\x86\xe1</K-\xce?\xd4\x9d\x94\xdcD\xd7\xe9?\xac\xe8\xcb\x9b\xd41\xe7?\'i\x9a\xa6P\x10\xe2?L\x06\xe6\xbdK\x84\xda?\xb8\xad\xc4\x88\x94\xe4\xd0\xbfX\x8e\xb8H\xe2j\xd8\xbf>\xddT\xb7\xea\x11\xbd?mE+;\x12>\xe4?!\xbb\x06j\xc4\xf3\xd1?\xbb6g\xea\xcd9\xa4\xbf\xd6\x94\x93\x08l\xea\xd2\xbf\xbe\x88\xfa\nb\x03\xe2\xbf\x91~\xea\xee\x81\x81\xeb\xbf\xb65]v\xa1?\xed\xbf\xb0\xa5|ggx\xd5?\xbeN\xc5\xb4\x9e\x03\xe0\xbf8\x9ds\x15\xcbX0?s\xca\x1d\x8f\x86\xbc\xd3\xbf\x12X\x0e\xbar\x97\xe6\xbf\x87,g\xb1\x10\x12\xe8?\xb8l\xfaLI\xc0\xc9?\x87\r]\xdc\x04\xf3\xe9\xbfYd_\x94\x12l\xe1?\xf4\xa5*\x97\xac]\xe7?2\xa5\xae\xfe\xec\xb3\xd3?7Fa\xcdA6\xeb?\xf9\xfb\xa5O\x99\x9a\xb6?\x00H_\x99\x92\xff\xda\xbf\xfcs\xb2\xa1\x97[\xbc\xbfO\x1dt\x84\nX\xe5?.O\xa0\r\xb1\xd9\xec\xbf\x92%\xee\x19-?\xe1?\xe4\xb4Kz\xc1\xf9\xe8?Lv\xea\xdd\xb9\x08\xdd\xbf~\x9a\xf5\xf5\xa3\xbc\xcf?\x02.W\xd6\x84\x15\xc9?9J\\\xcdpN\xe1\xbfS\xfe6\x9f,7\xda?.\xe4\x00\xe3\xe7o\xef?;\xe4\xe7\x86\xff\xf2\xdf\xbf\x83\xf6\x171b$\xc0?UYI\xfc\xc60\xe4\xbffz\xae\x98\xfc\x99\xdf\xbf?0\xb3\x81\x11\xd4m?\xee\x07\x8f\x1dt\x16\xdf\xbf\xeb\xe32\x84\x07\xf9\xdc?\xef!gT\xb5\x84\xca?\xbby\xe5\x93\x18\x83\xaf\xbf\xedv\x9d\xb3c:\xea?\xb3{\xd4\x8744\xe0\xbfr\x9e\x88y\xf1Y\xed?3\xb3\xcc3O\xb0\xc8\xbf=\xe9Q\x1f\x12\x10\xc1\xbfG6}\xef\xba\xa5\xe3?\x86\x19\x9eW\x12\xcf\xeb\xbf3\x13\xcc\xfc?\x02\xd8?\x0eh\x14\xb7 \xe2\xd5\xbf\xe0\x03\xa05\x0f\x15\xd7\xbf\xc8R\xa2\xda\x15\xc2\xe6\xbf\xe3EK\t\x96\xd5\xc8\xbf\x1aV\xbc1F\xfd\xc4\xbf\x88\xf0\xc9\xb5L\x96\xd3?0\x83\x1c\x18\x99\x1b\xe7?\x8eR\xb8\x08\xe9\xf4\xeb?K\xd9) \x1f\xa3\xe0\xbf\xc6\x1b\xb9\x82\xdcV\xda?\x99\x17\xae\x93\xaa}\xc9\xbf\xfc\xe1\xe5\x8a\x8dn\xe2?\xbc\xadc""\xcb\xea?\x8b\xbf\x8a\x03\x03\xf0\xe4?\xc2\xd6\xd0\x0f\x19\xe5\xc1\xbf\xee\x83\x85\x99sN\xe5\xbf\xd2a_Di\x15\xd1?\xff~\xba+V5\xed\xbf\xa8\x91\xf1\x87u&\xe4?\x15\xd3\x0bG\ri\xd5?\x05\xc8\x15\x90\x11\xa3\xa4?\xf4N\x8e\xca\xc8`\xe5\xbf[\x17r\xbe\\\x9c\xe7?o!\xcb\xb6\xc3/\xdf\xbf\x05Q\x0e\x7f\x9a\xa1\xe8?z#\xfa\x9d\xb1\x93\xb8\xbf\xe6\x82X\x92C\x1b\xa8\xbfM\xe3yK\xb8\xc4\xe1?n\x82\x07\x89\x1c\xce\xea?}D\xa3Fw\xbc\xe5?\x8a\x0c\x94\xa8+\'\xb7\xbf\xf2\x04\x02\xeaRx\xe6\xbf\xa9Ts\xbc\x1d{\xe0?\xd6\x1f\xa1%{\x8a\xd5?\x05Yi}v\xd3\xbc\xbf\xdcy\xe0\x85\xd3*\xe4?\xd7\xc0\xa2\x1b\xa3\x0f\xe3?\xf0N#]\x99\xf2\xe5\xbf\xe3\xec\t\xf5P\x14\xdb?\r\xfd\xaf\xcc\x84\x83\xe6\xbfM\xefG\xf8\x03E\xe6\xbf\x0b\xab\xeaU\xe0v\xe0\xbf\xe3P7\x0eZ/\xe2\xbf\xb8\xda\xa4\xfc\xc0\x17\xe4\xbf\xde\xa2n\xcct-\xa8?BZ\xc1\x94\xd6\x05\xe1\xbfF\x86\xedV\xd7\xa1\xd8\xbfO\xb7\xd1\x1c@E\xbe?'
p60
tp61
bssS'transf'
p62
(ineurolab.trans
TanSig
p63
(dp64
bsS'out_minmax'
p65
g18
(g19
(I0
tp66
g21
tp67
Rp68
(I1
(I30
I2
tp69
g28
I00
S'\x00\x00\x00\x00\x00\x00\xf0\xbf\x00\x00\x00\x00\x00\x00\xf0?\x00\x00\x00\x00\x00\x00\xf0\xbf\x00\x00\x00\x00\x00\x00\xf0?\x00\x00\x00\x00\x00\x00\xf0\xbf\x00\x00\x00\x00\x00\x00\xf0?\x00\x00\x00\x00\x00\x00\xf0\xbf\x00\x00\x00\x00\x00\x00\xf0?\x00\x00\x00\x00\x00\x00\xf0\xbf\x00\x00\x00\x00\x00\x00\xf0?\x00\x00\x00\x00\x00\x00\xf0\xbf\x00\x00\x00\x00\x00\x00\xf0?\x00\x00\x00\x00\x00\x00\xf0\xbf\x00\x00\x00\x00\x00\x00\xf0?\x00\x00\x00\x00\x00\x00\xf0\xbf\x00\x00\x00\x00\x00\x00\xf0?\x00\x00\x00\x00\x00\x00\xf0\xbf\x00\x00\x00\x00\x00\x00\xf0?\x00\x00\x00\x00\x00\x00\xf0\xbf\x00\x00\x00\x00\x00\x00\xf0?\x00\x00\x00\x00\x00\x00\xf0\xbf\x00\x00\x00\x00\x00\x00\xf0?\x00\x00\x00\x00\x00\x00\xf0\xbf\x00\x00\x00\x00\x00\x00\xf0?\x00\x00\x00\x00\x00\x00\xf0\xbf\x00\x00\x00\x00\x00\x00\xf0?\x00\x00\x00\x00\x00\x00\xf0\xbf\x00\x00\x00\x00\x00\x00\xf0?\x00\x00\x00\x00\x00\x00\xf0\xbf\x00\x00\x00\x00\x00\x00\xf0?\x00\x00\x00\x00\x00\x00\xf0\xbf\x00\x00\x00\x00\x00\x00\xf0?\x00\x00\x00\x00\x00\x00\xf0\xbf\x00\x00\x00\x00\x00\x00\xf0?\x00\x00\x00\x00\x00\x00\xf0\xbf\x00\x00\x00\x00\x00\x00\xf0?\x00\x00\x00\x00\x00\x00\xf0\xbf\x00\x00\x00\x00\x00\x00\xf0?\x00\x00\x00\x00\x00\x00\xf0\xbf\x00\x00\x00\x00\x00\x00\xf0?\x00\x00\x00\x00\x00\x00\xf0\xbf\x00\x00\x00\x00\x00\x00\xf0?\x00\x00\x00\x00\x00\x00\xf0\xbf\x00\x00\x00\x00\x00\x00\xf0?\x00\x00\x00\x00\x00\x00\xf0\xbf\x00\x00\x00\x00\x00\x00\xf0?\x00\x00\x00\x00\x00\x00\xf0\xbf\x00\x00\x00\x00\x00\x00\xf0?\x00\x00\x00\x00\x00\x00\xf0\xbf\x00\x00\x00\x00\x00\x00\xf0?\x00\x00\x00\x00\x00\x00\xf0\xbf\x00\x00\x00\x00\x00\x00\xf0?\x00\x00\x00\x00\x00\x00\xf0\xbf\x00\x00\x00\x00\x00\x00\xf0?\x00\x00\x00\x00\x00\x00\xf0\xbf\x00\x00\x00\x00\x00\x00\xf0?\x00\x00\x00\x00\x00\x00\xf0\xbf\x00\x00\x00\x00\x00\x00\xf0?\x00\x00\x00\x00\x00\x00\xf0\xbf\x00\x00\x00\x00\x00\x00\xf0?'
p70
tp71
bsS'out'
p72
g18
(g19
(I0
tp73
g21
tp74
Rp75
(I1
(I30
tp76
g28
I00
S'\xae\x1a\xe4\x14R\xfc\xef?\xe81\xb2\x05\xab\xf3\xce?;\x9e\xaa\xb8\xdf\xfc\xef\xbf\xe8\xf1m"\x93\xf7\xef\xbf\x0c\x1f\x17\xd9\xcf\x15\xea?\xb7\xdbP\xb2\x9a!\xef\xbfk\x8e\x19\x04S:\xee?N\xc8~T\xac\xfd\xef?l]\xba\xe1X\xfd\xdd\xbf\xa9@\x91\xc6\xd4\xe7\xcc\xbf\x8d\x10\xbeq\x14;\xe6?\xb7*\x86\xccI\xef\xdf?\x91,\x01\n\x97\xf4\xef?\xa1\x07\xdfWs\xeb\xef?\xfaTA\xad\x7f\xfc\xef?\x90\x9a\xfd\x02[\xdc\xef\xbfq\xf3\r\xf2c>\xe7\xbf?\x10\x08\x9f\x05\xda\xea?\xe2u\xb0\xc9\xda \xef\xbf\\D3\xd7\xf2\xfe\xef\xbfl\xdf\xc7r\xa4\xff\xef\xbfM\x0b\xcfr\x8em\xc2?\xbcs\x9b\x05"\xa3\xd6?%\xf5\xc5f\xe5\xe6\xef\xbf\x89\xa8\xae\x93\x08\xee\xef\xbf\xeb\xb3\xccs{\xfb\xc6?\xbaF\xd0\xe8\xe2W\xee\xbf\xfe\xaf\xfd\xd2\xfcd\xeb\xbf2\'P+\x91C\xe1\xbf\x0bYa\x99\xb0\xa7\xe9\xbf'
p77
tp78
bsbag0
(g8
g2
Ntp79
Rp80
(dp81
g12
g13
sg14
I30
sg15
I1
sg16
I1
sg17
g18
(g19
(I0
tp82
g21
tp83
Rp84
(I1
(I30
I2
tp85
g28
I00
S'\x00\x00\x00\x00\x00\x00\xf0\xbf\x00\x00\x00\x00\x00\x00\xf0?\x00\x00\x00\x00\x00\x00\xf0\xbf\x00\x00\x00\x00\x00\x00\xf0?\x00\x00\x00\x00\x00\x00\xf0\xbf\x00\x00\x00\x00\x00\x00\xf0?\x00\x00\x00\x00\x00\x00\xf0\xbf\x00\x00\x00\x00\x00\x00\xf0?\x00\x00\x00\x00\x00\x00\xf0\xbf\x00\x00\x00\x00\x00\x00\xf0?\x00\x00\x00\x00\x00\x00\xf0\xbf\x00\x00\x00\x00\x00\x00\xf0?\x00\x00\x00\x00\x00\x00\xf0\xbf\x00\x00\x00\x00\x00\x00\xf0?\x00\x00\x00\x00\x00\x00\xf0\xbf\x00\x00\x00\x00\x00\x00\xf0?\x00\x00\x00\x00\x00\x00\xf0\xbf\x00\x00\x00\x00\x00\x00\xf0?\x00\x00\x00\x00\x00\x00\xf0\xbf\x00\x00\x00\x00\x00\x00\xf0?\x00\x00\x00\x00\x00\x00\xf0\xbf\x00\x00\x00\x00\x00\x00\xf0?\x00\x00\x00\x00\x00\x00\xf0\xbf\x00\x00\x00\x00\x00\x00\xf0?\x00\x00\x00\x00\x00\x00\xf0\xbf\x00\x00\x00\x00\x00\x00\xf0?\x00\x00\x00\x00\x00\x00\xf0\xbf\x00\x00\x00\x00\x00\x00\xf0?\x00\x00\x00\x00\x00\x00\xf0\xbf\x00\x00\x00\x00\x00\x00\xf0?\x00\x00\x00\x00\x00\x00\xf0\xbf\x00\x00\x00\x00\x00\x00\xf0?\x00\x00\x00\x00\x00\x00\xf0\xbf\x00\x00\x00\x00\x00\x00\xf0?\x00\x00\x00\x00\x00\x00\xf0\xbf\x00\x00\x00\x00\x00\x00\xf0?\x00\x00\x00\x00\x00\x00\xf0\xbf\x00\x00\x00\x00\x00\x00\xf0?\x00\x00\x00\x00\x00\x00\xf0\xbf\x00\x00\x00\x00\x00\x00\xf0?\x00\x00\x00\x00\x00\x00\xf0\xbf\x00\x00\x00\x00\x00\x00\xf0?\x00\x00\x00\x00\x00\x00\xf0\xbf\x00\x00\x00\x00\x00\x00\xf0?\x00\x00\x00\x00\x00\x00\xf0\xbf\x00\x00\x00\x00\x00\x00\xf0?\x00\x00\x00\x00\x00\x00\xf0\xbf\x00\x00\x00\x00\x00\x00\xf0?\x00\x00\x00\x00\x00\x00\xf0\xbf\x00\x00\x00\x00\x00\x00\xf0?\x00\x00\x00\x00\x00\x00\xf0\xbf\x00\x00\x00\x00\x00\x00\xf0?\x00\x00\x00\x00\x00\x00\xf0\xbf\x00\x00\x00\x00\x00\x00\xf0?\x00\x00\x00\x00\x00\x00\xf0\xbf\x00\x00\x00\x00\x00\x00\xf0?\x00\x00\x00\x00\x00\x00\xf0\xbf\x00\x00\x00\x00\x00\x00\xf0?\x00\x00\x00\x00\x00\x00\xf0\xbf\x00\x00\x00\x00\x00\x00\xf0?'
p86
tp87
bsg33
g75
sg40
g18
(g19
(I0
tp88
g21
tp89
Rp90
(I1
(I1
tp91
g28
I00
S'ckp\xe5\xd86\xc8?'
p92
tp93
bsg47
(dp94
g21
g18
(g19
(I0
tp95
g21
tp96
Rp97
(I1
(I1
tp98
g28
I00
S'\xebYu\xbf\xda\x90~?'
p99
tp100
bsg55
g18
(g19
(I0
tp101
g21
tp102
Rp103
(I1
(I1
I30
tp104
g28
I00
S'\x1c\x033\x14`x\xd5\xbf\xb9\xf2\xd7]\xf3\xbf\xab\xbfLj\x0c\xb9\x8e\x92\xc7\xbf\xee1\xbd\x13xw\xe0\xbf=\xb4J\xaf,9\xb6\xbf\xefw\r\xcar\xbf\xd1?\xce`P<@x\xa4\xbf\xc2\x80\x8e\xc2\x10\xb4\xdb?\x88\xffIW\xfez\xc4?\x03\xeb\x96\xd7\x0c\xad\xa8\xbf\xbe\xdf\x12\xe4\xc4c\xca?V\xdc\xff\xb2\xddw\xb7?\x18\xf7\xc2\x1c\xa6\x9c\xd3\xbf\xce\xec\xb7\'\xedq\xcd?\x96A\xfdx\xbf\x05\xd6?6\x83f\x13"\xad\xdd?\xed\xc4\xcd\x842\'\xc5?\xfcE\xe5\xc4}\xb3\xb3?b\xa0\xc2\xca\x93^\xc2?\'\x16\x8c\xca\xa7\xd6\xc8?3\xd1\x8c?\'g\xd1?p\xd7j\x95pN\xac\xbf>\x84\xd5\xd3!\x81\xa1?jp\xd0\xf4_Y\xd1\xbfhjD\xb5\x95\xa1\xd8\xbf\x85\xcf|\xc4=,\xa0?{^=\x07\x80\x05\xb7?$\xeb\xc3l\x97\xdd\xb8\xbf\x8f\x1d\xbb,K#\x91?\xdf\xfb:\x1cJ%\xc7?'
p105
tp106
bssg62
g63
sg65
g18
(g19
(I0
tp107
g21
tp108
Rp109
(I1
(I1
I2
tp110
g28
I00
S'\x00\x00\x00\x00\x00\x00\xf0\xbf\x00\x00\x00\x00\x00\x00\xf0?'
p111
tp112
bsg72
g18
(g19
(I0
tp113
g21
tp114
Rp115
(I1
(I1
tp116
g28
I00
S'\xa0\xf0\xc3\xf5\xf1\xed\xc7?'
p117
tp118
bsbasg14
I33
sg15
I1
sg17
g18
(g19
(I0
tp119
g21
tp120
Rp121
(I1
(I33
I2
tp122
g28
I00
S'\x00\x00\x00\x00\x00\x00\x00\x00\x00\x00\x00\x00\x00\x00\xf0?\x00\x00\x00\x00\x00\x00\x00\x00\x00\x00\x00\x00\x00\x00\xf0?\x00\x00\x00\x00\x00\x00\x00\x00\x00\x00\x00\x00\x00\x00\xf0?\x00\x00\x00\x00\x00\x00\x00\x00\x00\x00\x00\x00\x00\x00\xf0?\x00\x00\x00\x00\x00\x00\x00\x00\x00\x00\x00\x00\x00\x00\xf0?\x00\x00\x00\x00\x00\x00\x00\x00\x00\x00\x00\x00\x00\x00\xf0?\x00\x00\x00\x00\x00\x00\x00\x00\x00\x00\x00\x00\x00\x00\xf0?\x00\x00\x00\x00\x00\x00\x00\x00\x00\x00\x00\x00\x00\x00\xf0?\x00\x00\x00\x00\x00\x00\x00\x00\x00\x00\x00\x00\x00\x00\xf0?\x00\x00\x00\x00\x00\x00\x00\x00\x00\x00\x00\x00\x00\x00\xf0?\x00\x00\x00\x00\x00\x00\x00\x00\x00\x00\x00\x00\x00\x00\xf0?\x00\x00\x00\x00\x00\x00\x00\x00\x00\x00\x00\x00\x00\x00\xf0?\x00\x00\x00\x00\x00\x00\x00\x00\x00\x00\x00\x00\x00\x00\xf0?\x00\x00\x00\x00\x00\x00\x00\x00\x00\x00\x00\x00\x00\x00\xf0?\x00\x00\x00\x00\x00\x00\x00\x00\x00\x00\x00\x00\x00\x00\xf0?\x00\x00\x00\x00\x00\x00\x00\x00\x00\x00\x00\x00\x00\x00\xf0?\x00\x00\x00\x00\x00\x00\x00\x00\x00\x00\x00\x00\x00\x00\xf0?\x00\x00\x00\x00\x00\x00\x00\x00\x00\x00\x00\x00\x00\x00\xf0?\x00\x00\x00\x00\x00\x00\x00\x00\x00\x00\x00\x00\x00\x00\xf0?\x00\x00\x00\x00\x00\x00\x00\x00\x00\x00\x00\x00\x00\x00\xf0?\x00\x00\x00\x00\x00\x00\x00\x00\x00\x00\x00\x00\x00\x00\xf0?\x00\x00\x00\x00\x00\x00\x00\x00\x00\x00\x00\x00\x00\x00\xf0?\x00\x00\x00\x00\x00\x00\x00\x00\x00\x00\x00\x00\x00\x00\xf0?\x00\x00\x00\x00\x00\x00\x00\x00\x00\x00\x00\x00\x00\x00\xf0?\x00\x00\x00\x00\x00\x00\x00\x00\x00\x00\x00\x00\x00\x00\xf0?\x00\x00\x00\x00\x00\x00\x00\x00\x00\x00\x00\x00\x00\x00\xf0?\x00\x00\x00\x00\x00\x00\x00\x00\x00\x00\x00\x00\x00\x00\xf0?\x00\x00\x00\x00\x00\x00\x00\x00\x00\x00\x00\x00\x00\x00\xf0?\x00\x00\x00\x00\x00\x00\x00\x00\x00\x00\x00\x00\x00\x00\xf0?\x00\x00\x00\x00\x00\x00\x00\x00\x00\x00\x00\x00\x00\x00\xf0?\x00\x00\x00\x00\x00\x00\x00\x00\x00\x00\x00\x00\x00\x00\xf0?\x00\x00\x00\x00\x00\x00\x00\x00\x00\x00\x00\x00\x00\x00\xf0?\x00\x00\x00\x00\x00\x00\x00\x00\x00\x00\x00\x00\x00\x00\xf0?'
p123
tp124
bsg33
g36
sS'trainf'
p125
g0
(cneurolab.core
Trainer
p126
g2
Ntp127
Rp128
(dp129
S'_train_class'
p130
cneurolab.train.spo
TrainCG
p131
sS'__module__'
p132
S'neurolab.train.spo'
p133
sS'params'
p134
(dp135
S'epochs'
p136
I2000
sS'train'
p137
(dp138
S'rr'
p139
I0
ssS'goal'
p140
F2e-05
sS'show'
p141
I500
ssS'defaults'
p142
(dp143
g136
I500
sg137
(dp144
g139
I0
ssg140
F0.01
sg141
I100
ssS'error'
p145
(lp146
cnumpy.core.multiarray
scalar
p147
(g28
S'\xa4!y\xf0&\x8e7@'
p148
tp149
Rp150
asS'__name__'
p151
S'TrainCG'
p152
sS'__doc__'
p153
S'\n    Newton-CG method\n    Using scipy.optimize.fmin_ncg\n\n    :Support networks:\n        newff (multi-layers perceptron)\n    :Parameters:\n        input: array like (l x net.ci)\n            train input patterns\n        target: array like (l x net.co)\n            train target patterns\n        epochs: int (default 500)\n            Number of train epochs\n        show: int (default 100)\n            Print period\n        goal: float (default 0.01)\n            The goal of train\n        rr float (defaults 0.0)\n            Regularization ratio\n            Must be between {0, 1}\n        \n    '
p154
sbsS'connect'
p155
(lp156
(lp157
I-1
aa(lp158
I0
aa(lp159
I1
aasS'errorf'
p160
(ineurolab.error
SSE
p161
(dp162
bsg65
g18
(g19
(I0
tp163
g21
tp164
Rp165
(I1
(I1
I2
tp166
g28
I00
S'\x00\x00\x00\x00\x00\x00\xf0\xbf\x00\x00\x00\x00\x00\x00\xf0?'
p167
tp168
bsg72
g115
sb.