ccopy_reg
_reconstructor
p0
(cneurolab.core
Net
p1
c__builtin__
object
p2
Ntp3
Rp4
(dp5
S'layers'
p6
(lp7
g0
(cneurolab.layer
Perceptron
p8
g2
Ntp9
Rp10
(dp11
S'initf'
p12
cneurolab.init
initnw
p13
sS'ci'
p14
I40
sS'co'
p15
I33
sS'cn'
p16
I33
sS'inp_minmax'
p17
cnumpy.core.multiarray
_reconstruct
p18
(cnumpy
ndarray
p19
(I0
tp20
S'b'
p21
tp22
Rp23
(I1
(I40
I2
tp24
cnumpy
dtype
p25
(S'f8'
p26
I0
I1
tp27
Rp28
(I3
S'<'
p29
NNNI-1
I-1
I0
tp30
bI00
S'\x00\x00\x00\x00\x00\x00\x00\x00\x00\x00\x00\x00\x00\x00\xf0?\x00\x00\x00\x00\x00\x00\x00\x00\x00\x00\x00\x00\x00\x00\xf0?\x00\x00\x00\x00\x00\x00\x00\x00\x00\x00\x00\x00\x00\x00\xf0?\x00\x00\x00\x00\x00\x00\x00\x00\x00\x00\x00\x00\x00\x00\xf0?\x00\x00\x00\x00\x00\x00\x00\x00\x00\x00\x00\x00\x00\x00\xf0?\x00\x00\x00\x00\x00\x00\x00\x00\x00\x00\x00\x00\x00\x00\xf0?\x00\x00\x00\x00\x00\x00\x00\x00\x00\x00\x00\x00\x00\x00\xf0?\x00\x00\x00\x00\x00\x00\x00\x00\x00\x00\x00\x00\x00\x00\xf0?\x00\x00\x00\x00\x00\x00\x00\x00\x00\x00\x00\x00\x00\x00\xf0?\x00\x00\x00\x00\x00\x00\x00\x00\x00\x00\x00\x00\x00\x00\xf0?\x00\x00\x00\x00\x00\x00\x00\x00\x00\x00\x00\x00\x00\x00\xf0?\x00\x00\x00\x00\x00\x00\x00\x00\x00\x00\x00\x00\x00\x00\xf0?\x00\x00\x00\x00\x00\x00\x00\x00\x00\x00\x00\x00\x00\x00\xf0?\x00\x00\x00\x00\x00\x00\x00\x00\x00\x00\x00\x00\x00\x00\xf0?\x00\x00\x00\x00\x00\x00\x00\x00\x00\x00\x00\x00\x00\x00\xf0?\x00\x00\x00\x00\x00\x00\x00\x00\x00\x00\x00\x00\x00\x00\xf0?\x00\x00\x00\x00\x00\x00\x00\x00\x00\x00\x00\x00\x00\x00\xf0?\x00\x00\x00\x00\x00\x00\x00\x00\x00\x00\x00\x00\x00\x00\xf0?\x00\x00\x00\x00\x00\x00\x00\x00\x00\x00\x00\x00\x00\x00\xf0?\x00\x00\x00\x00\x00\x00\x00\x00\x00\x00\x00\x00\x00\x00\xf0?\x00\x00\x00\x00\x00\x00\x00\x00\x00\x00\x00\x00\x00\x00\xf0?\x00\x00\x00\x00\x00\x00\x00\x00\x00\x00\x00\x00\x00\x00\xf0?\x00\x00\x00\x00\x00\x00\x00\x00\x00\x00\x00\x00\x00\x00\xf0?\x00\x00\x00\x00\x00\x00\x00\x00\x00\x00\x00\x00\x00\x00\xf0?\x00\x00\x00\x00\x00\x00\x00\x00\x00\x00\x00\x00\x00\x00\xf0?\x00\x00\x00\x00\x00\x00\x00\x00\x00\x00\x00\x00\x00\x00\xf0?\x00\x00\x00\x00\x00\x00\x00\x00\x00\x00\x00\x00\x00\x00\xf0?\x00\x00\x00\x00\x00\x00\x00\x00\x00\x00\x00\x00\x00\x00\xf0?\x00\x00\x00\x00\x00\x00\x00\x00\x00\x00\x00\x00\x00\x00\xf0?\x00\x00\x00\x00\x00\x00\x00\x00\x00\x00\x00\x00\x00\x00\xf0?\x00\x00\x00\x00\x00\x00\x00\x00\x00\x00\x00\x00\x00\x00\xf0?\x00\x00\x00\x00\x00\x00\x00\x00\x00\x00\x00\x00\x00\x00\xf0?\x00\x00\x00\x00\x00\x00\x00\x00\x00\x00\x00\x00\x00\x00\xf0?\x00\x00\x00\x00\x00\x00\x00\x00\x00\x00\x00\x00\x00\x00\xf0?\x00\x00\x00\x00\x00\x00\x00\x00\x00\x00\x00\x00\x00\x00\xf0?\x00\x00\x00\x00\x00\x00\x00\x00\x00\x00\x00\x00\x00\x00\xf0?\x00\x00\x00\x00\x00\x00\x00\x00\x00\x00\x00\x00\x00\x00\xf0?\x00\x00\x00\x00\x00\x00\x00\x00\x00\x00\x00\x00\x00\x00\xf0?\x00\x00\x00\x00\x00\x00\x00\x00\x00\x00\x00\x00\x00\x00\xf0?\x00\x00\x00\x00\x00\x00\x00\x00\x00\x00\x00\x00\x00\x00\xf0?'
p31
tp32
bsS'inp'
p33
g18
(g19
(I0
tp34
g21
tp35
Rp36
(I1
(I40
tp37
g28
I00
S"u\xe3\xdf[GP\xca?\xdb\xb6m\xdb\xb6m\xdb?\xeek\x99,r\x80\xe0?\x7fNX\xc3;\xa3\xc7?\xf9\xf7\xd6\x11\x94f\xd3?U?'\xac\xe1\x9d\xd1?\xf0\xad#(\xcd\xa6\xcb?lxg\xf4R\xfd\xcc?L\xf5s\xc2\x1a\xde\xc9?\xf9\x18\x9c\x8f\xc1\xf9\x98?i6\xdd\xf8\xf7\xd6\xb1?\xd1*0\xf6\x94\x87\xc8?7\xdd\xf8\xf7\xd6\x11\xc4?\xb1\xa7<\xc4\\h\xc5?\xda\x95\xa8]\x89\xda\xd5?\xee\x8c^\xaa\x9f\x13\xd6?_\xcbd\x91\x03\x84\xd4?\xfb\x18\x9c\x8f\xc1\xf9\xa8?\r\xef\x8c^\xaa\x9f\xa3?\x0e\xef\x8c^\xaa\x9f\xc3?\xbb\x12\xb5+Q\xbb\xb2?\x04\x84\x14\xf7\xb5L\xb6?\x0e\xef\x8c^\xaa\x9f\xc3?8\x1f\x83\xf318\xbf?\xbb\x12\xb5+Q\xbb\xb2?\x9e\xd1K\xf5s\xc2\xca?\xa6\x1b\xff\xde:\x82\xd2?\xda\x95\xa8]\x89\xda\xd5?B\x8a\xfbZ&\x8b\xcc?L\xf5s\xc2\x1a\xde\xc9?-r\x80\x90\xe2\xbe\xc6?i6\xdd\xf8\xf7\xd6\xc1?C\x8a\xfbZ&\x8b\x9c?\xc5}-\x93E\x0e\xb0?\xe6B\xab\xc0\xd8S\xae?M\xf5s\xc2\x1a\xde\xb9?\x0e\xef\x8c^\xaa\x9f\xb3?\xbc\x12\xb5+Q\xbb\xc2?M\xf5s\xc2\x1a\xde\xb9?\xb1\xa7<\xc4\\h\xa5?"
p38
tp39
bsS's'
p40
g18
(g19
(I0
tp41
g21
tp42
Rp43
(I1
(I33
tp44
g28
I00
S'c\x11\x8d\xc7\xa7\x1f\x00@\xda\xcc"\x99\xd3\xb0\x01@\xb2\x0e\xb0,\xca\x91\x01@\xdd"\x81\xb5\x93+\x03@\xca]\xce\x8d>\xe6\xfa?\x10<\x15\xb1\xa0\x8d\xf9\xbf<\xec\x05k-v\xd0?\x80\xd1hR\xba\xbb\x91\xbf \xc1ye"\xfe\xfe?\xddU?\x07\xc5\x9e\xec?\xf36\x94\x95\x83b\xdd\xbf\xb6\xdbb\xdd3\x99\xf8?\x85_\xb7\x06\xaf\xaa\x03\xc0\x15 \xfc\xd3\x12\x9b\xf9\xbf\xcc\xc4\xc9eF\xb7\x14@?\x87=~h\xfa\x04@\x80\x84\xfd(0\xe6}?n\xde\x14\xc8\xder\x03\xc0\xd4\xc3\xe9\x13Y\xc9\xf7?\x1b\xd0$\xe9\xc3\xd8\xf7\xbf3c\xdd\x8a\xf0\x18\xf4\xbf\xfa\x8c\x83^\xd4c\xf7?\xe9\xb1\x90\x02\x03\xaf\xf7\xbf\xf0E`\xe7:f\x0e@r\xe7F1\x88B\xd5?,\xd9\xd7_\xb3\x84\x10@\xe1)\x85J\xd8\x9d\x03@n\xbe\xfbE=\x16\xee?d\x10U/\x97F\r\xc0\xd8\x02\xb6V\xe3S\x0b@\x1bz\x90\xc2\xc7h\x01@\xe88*\x9f\xd6\xbc\xfc\xbfZ\xc6\xb7\x9d\x97\xc7\x12\xc0'
p45
tp46
bsS'np'
p47
(dp48
g21
g18
(g19
(I0
tp49
g21
tp50
Rp51
(I1
(I33
tp52
g28
I00
S'\xcaOI\x0c\xb1\xa2\x02@;\xa7\x83\x81\xf8\xf4\t@9\xa1\x88\xf8\x8d\x16\x07@\x98\x00-\xb4\xd9\xbf\x04@\x03\x96\x18\xd1\xc8\xc4\xc1?@\xa0\xbf\xdemf\x0b\xc0T\xc7\xc0\x04\x8f\xcb\xed?\xee\x0f\x17\xce\xb6\x7f\xf4?\x96\x18kl\xb2\xe6\xfe?\xcf\x85*\xba \xcb\xe2\xbfpU\xb8[F?\xc5\xbfs\xb7*(\x11@\xf6?lo\r\xe1\xc9\xfd\x02\xc0@\x0b\x08\xaa\xa7,\xfa\xbfJ\xc0\xaf7y\xa5\x17@\x86\xc3TJ\xf6\xf5\x10@\xca4S@N\xf6\xe4\xbf\xccN\xd6jM\xd4\xff\xbf\x98\xb8\xefx\xc9K\xe8?\x08EU\x92\xd8\x87\x01\xc0\xae\x06\xb2\xc1\xd0\x88\xf6\xbf\x90\x8b\xd7\xdc\xb0.\xd5?g\xe4=0\xaf\x15\x05\xc0\nC\x11J+\xcb\x12@G\x05<\xf3\x1e\x1f\xe9?\xf7-\xe1\xa9/\xd3\x12@\xa9P#lSV\x05@\x15a\xa1\x1e\x99\x16\xee?\x0cH#0H\x83\x10\xc0\xf1\xf0a\x12\xe3\x83\x10@"\x11\xfb\xe4\xc74\x02@\xf4$5A5\xca\x04\xc05\xd5)\xe6@\x0c\x18\xc0'
p53
tp54
bsS'w'
p55
g18
(g19
(I0
tp56
g21
tp57
Rp58
(I1
(I33
I40
tp59
g28
I00
S'dE\xe2\x97\xb6>\xe6\xbft\xb1\x12\x83\x894\xe6?\xcc\x96 \x7fn\x87|?\x89\x12BkU\xf6\xca?]q\xb7\xbf\x93\xf1\xcb\xbf{=\x1b\xe4\xe3C\xdd?\x11\xa3\xdb\x90g\x18\xed?\x8c\xad\x0f:\xa7\xb6\xbc?\x1a}#|\xfe\xe7\xde\xbf\xd9\xc4\x00\x99YV\xd0\xbf\x86\x8c\xa6h\xec\r\xc9\xbf\xbe\xa7\xcc\x8f\xa4\x94\xe8\xbf\xf3\xdfJ\xbc\xfbe\xb7\xbf& \xaf\xf6v\x05\xca\xbf\x99|\xdbO9\xc4\xe4?3\xcb\xbe\xf2\xf9\xa9\xd6\xbf\x9c\xb3\xf1\xa8qf\xd3\xbf\xa4\x08#\xef;\xf9\xb8?\xff:s\x1c\x93\xdd\xe8?\xb6<\xce|^\xff\xe4?\x91\x02G\xf4\xedY\xe9?\x13it\xd2\xeb\xc0\xe9?/\xa4\xb5\xc0m\xa6\xdc\xbf\xaf6\xdc\xa4\xf0\xb7\xda\xbfc\xc6c}\x02 \xc7\xbf\xe1\x98 \xb0\xfb\x91\xee\xbf\x1bw\xeaz\x81\xd9\xe4\xbf\xfd\xd8\x11R\xc1\xc2\xea\xbf\x05\xf5\xd4\xd3\x1b\xa5\xb4?i\x02\xff\x0b7\xab\xd3\xbf\x96(?Ej\x99\xb5\xbf\xe4U\xfb\xbf0\x11\xde\xbf\xd8\xd2\t\xae\x87P\xcc?\xb25/5?8\xe5?D\x90\x8eJ\xfc\x91\xd3\xbfB\x17\xad}\x93g\xe2?m\xc6[\xb9U\x92\xb4\xbf\x81P\x0c\xb3\xd4\x08\xba?\xd6\x94\x9b,\r\xb4\xec?\x1ar\xbd\xc6y\xd6\x98\xbf\xf7\xe2O\xd3\xf0\xdd\xc0?\xf9V\xe1\x03}(\xc8?mWTYQ\xf2\xde\xbf\xf9q$\xaa\xa0\xee\xd4?\x06\xfb\xb5\\\xe5C\xcf?G/\x1dwBn\xcc\xbf;\xbe\xd6\x1c\x19\xd5\xe0\xbf_*3-z\xf7\xdf\xbf\xe9\xce\xec\xdc\xd1\xb5\xed\xbf\x06\x12,,M\t\xd8\xbfz\xc5"\xfb\x95E\xea\xbf7VE\xc4e\xbb\xd8\xbfa4\xd0"$Q\xde\xbf\xc7\xe2\xc8\x82\x8c\x81\xe8?\xfd\xbf\xb4F\xf1]\xe2?\x9c\xd4\x987\x82\x03\xd1?m\xff\xfbq\x8b\x0c\xd5?\xeey\xfcG)z\xcf?R\xca\xe6K\x11\xde\xd8\xbf*\x9d\xc7\xda\x80+\xeb\xbfSv\xfb\xa7,h\xe5\xbf7+9\xfc\xca\xa0\xdb?\x82\x94\xdcU\xbb_\xcc\xbf\x1f\x9a\xb6}\xceM\xc3\xbf\xff\x95V8\x1d\xb9\xd4?<&6\x82\x18\xa3\xf0\xbf\xdc\xfa\x84\x08\xdc\xd1\xea\xbf\xb5g\xba>:;\xe6\xbf\x9a\xee\x98{\x98\xd3\xd0\xbf4\xa5\xdc\xde\x8d\x1a\xeb\xbfD\xea\x866\xbfq\xd2\xbfQ$\xd0\x88\x01\x83\xcc\xbfj\xb1i\xba\x87^\xc2?\x7ff+\x19S\xc7\xf1?\x7f\xf4\xb4\xdca\\\xa9\xbf\x80\xb4x\xa55R\xc7?\x97\xd0V\xa4=\xe8\xc9\xbf<\xd6ZZ\x9c\x92\xe9?1\xf3I\xcb\xe0\xf5\xf0?f\x18\x93zm\xc1\xe4?\xc8/\x9d`|\xd4P\xbfM\x0eC\xba\x8d\xa3\xb5?\xb46\xce\xe7N\x7f\xdc\xbf2\xa5W\xcci\x1e\xe8\xbfQ\xc2\xcco\xe8o\x7f\xbf\xa23\xb0\xe6\xf1\xad[\xbf8\x9d\xe1v\x8a|\xc1?i\x88Bk\x10\xc9\xd8\xbfI[\xce#O}\xe3?x\xcdu\xe0\xc3\xb0\xe2\xbf\x8e\x8f\xec\xb4RiZ?\x89|\xcaY\xe9z\x9d\xbfz&\xa01>\xa4\xb0\xbfA\xf9>\xf0{\x93\xeb?A 3\xaeGH\xec\xbfPB`\x185}\xdd?\xc8\xa0\xa8\xee\x00\xbb\xe1?\x93!\x9f\x97\x00H\xd8\xbf_\xb5+\xf4\xbc\x17\xdc\xbf\xb0\x97\xa6\xd6\xcc\xc4\xe9??j\\\tR\'\xee\xbf.\xe4\xaa\xf4?\xa8\xbc\xbf\x81\x9e\xc5\xaba.\xe1\xbfw\xe9#\xb4\x04\xd3\xe5\xbf\x94\x0c\xc4c\xa4\xa6\xc8?X6\x7f\xc1\x1d\x05\xe8\xbf\xf6V)i\x94\xe5\xbe?\xf9/\x8c\xc0\x88\xa6\xa5\xbf\x85\x81\xd5j;\xb4\xdb\xbf\xd3S\xa3\x82a\xde\xc6\xbftF\xa7\xe8\xbc,\xe6\xbfW\xa5\x08\x90C\x03\xd1?\r\x1d-\x7f\xac[\xc1?\xc3=h\xbbzY\xd5\xbf\xf2C\x07\xd2\xdb=\xf4?$!\xb9>\xed\xa6\xc5?/\n\x1b=\xe4\xbd\xe3\xbf/\x1a\xd7W\x8e \xd7\xbf\xff5\xbbx\xc8s\xd8\xbf$\xd2}\xbb\x97\xd1\xc5\xbf\xd4\xdc\xd7\xcdw\xac\xdf?J@\xcd\x82\x99\xde\xb3\xbf\x87\n\x97\xa9\xc5\x00\xd5\xbfLx\x00xCQ\xe3\xbfe9\xdc\x8eP~\xe3?\x8a\xba\xbf\xf2.-\xd0\xbf3%\xd0 f\xb0\xdb\xbf@8\xde\xcbF5\xc7?\xa6\xe7wJ\xbcw\xd5\xbf\\.\x0e1\xacj\xcc\xbf{\xdf\x95s\x9d\r\xe0?+i]\xe8\xce\x10\xc8?JgA\xb8t\xd1\xd0?\x93Meo\xbdN\xce\xbf\xbc\xd1\xdc\x12o\xcd\xdf?Dk\x91\x01^\xe3\xb4?\xb5\xb5\x86\xee1\x8c\xe1\xbf\x10\xae0\xcb\xbb\x96\xf0\xbf\xdfb\x89\xfb\xb3f\xe0\xbf\xbc\xaf\xec\x15\xbcs\xdc\xbf\x1c\x0f?\xb4\x83\x8f\xed\xbf\x8fo\x10\xdb\xee3\xc5\xbf\x9b\x8c\xdc,\xdaf\xe2?\xceO\xae@x\xed\xe2?=\xff8\xb7;C\xf2?p\x07\xdb\x18\te\xe5?\xa3_>\xca\x16s\xae\xbf0\x1b^\xa0L\x86\xc1\xbfi\xbe?\xe1\x1d\xc4\xb9\xbf\xf1\x10\xd1Pn\x1f\xa4?>c=y\xad\rQ\xbf\x14l\xe9\xba\xd6\xe1\xe3?\xe2i+\xd2D/\xf0?1\xb0\xbd}\xc4>\xcc?\xdc\xf6\xa7\xc52\xeb\xc5\xbf\xd5\x0c\xaf\xacz\x82\xb0?D\xd4\xe11_\xd6\xdb\xbf\x8c ,`\xcc\x15\xdd\xbf\xf7\xa7\xfd\\\xe8\xec\xf7\xbf\x93\xd4x\x13IY\xe5\xbfg)\xda\x8d\x9dK\xf1?*\xfb\x0cg\x8f\xd3\xf5?!~\'\xf7\x15\xc7\xda?-O\xbc\xa1<J\xe1?,\x81\xeb\t\x12w\xe2?\x91\xdc\xd29|z\xcc?\x18H\xe0\x1bx\x04\xed?\'+\xf5\x07\x9d\xfa\xe4?H"Rt\n\x08\xc7\xbf\xa8^\xef\n4P\xe0??nE\xb8\x02K\xd6\xbfe\\\xf7\xf0\xc9:\xcf?8E\x12\x0f9,\xe8\xbfs\xd8G\'\xda(\xce\xbf\x99\xe8\xbcX,\xed\xf1\xbf\xb9\xdd\x03\x04c\x11\xd2\xbf\xfb}\xe5\x11!\x96\xab?\x84>\x10D6\x04\xe5?\r\xa94La\xec\xe6?\xde\x17\x15/\x8f@\xc0?\xcfJ\xed\xb22\xf5\xc3?\xbe\x00\x9d`\xe4\xfe\xed?\x85\xe4UE~\x9e\xb3\xbf\xa0\x08s\xac\x8a\xc1\x90\xbf\x1eW\x97\x0c\x18\xa4\xbd?J\xd1&\x01\x84?\xca\xbf(2{Z\x8b\xae\xd1\xbf\xe9\xd8\xf0`\xe8\x19\xd9?`\xf2)\xabG~\xe1\xbf\xee\xe3\xed\x1bi\xe9\xd8?\xdc\xe1=N&\xa9\xe4?\x13\x9f\xf2\xda=I\xe1?\x9de\x12\x11\xfc\x98\xed\xbf\xcc\xc5?\xcch2\xe4?U\x15\x1c\xa0\xe1\x99m?\xf4\xc6\xda\xbd\x9dp\xe7?U\xaf\x926\xeby\xce?z4\xbc\xdf\x04\x07\xb6\xbf\xb2\xd4Zm\x00\x91\xe2?F>S/\xd5\xcc\xd7\xbf\xd8a\x00\xe8v\xe4\xe2?Y\r\xcf\xd3\x83\xc8\xdc?\xb2\xa0\xa8\xb2\x8c\x13\xe7?VO#$\x9f\x95\xe2\xbfjW\xc19\xe01\xdf\xbf\xcaF\xfd\x0c\xbd\xf8\xe8?%\xfc\x0c\x13\xf77\xe9\xbf\xc8q\x8c\x17JZ\xc4\xbfi\x83\xafW\xf4\xdd\xe0?a8\x8dqzz\xda\xbf\x9a\x1a\xfb\\m4\xe3?\x8d\x7f\xc1\x80*\xc2\xbd\xbft\xb7\xab\xb3\xa7\n\x91\xbf\xb4)\xec\x1e#+\xea?\x16\x8a\x85\xe7\x1b\r\xe9?\x84\xb7\xc1\xb2Q\xf9\xe1?\xd9\xc2\x97X\xdf\x16\xec?aIN\x10\xe7\xd9\xda\xbfvL%\xcf.4\x9a\xbfo\x98\xe4\xb5\xb9\xfe\xcf?\x97\x81\xa2\xedO\x8b\xd6\xbf7|;\x99\xc9\xfa\xe0\xbf\xfd\x8ai\x13\xcbp\xe2?^|*\x8eV\xb7\xe1?P\x95\xa1>\xcc$\xac?zmr\xbf\x01\x10\xea?\x86\xe8\xa6]U\x0c\xe4\xbfvl\xbaWo\xa9\xd0?\xe6\xb5\xc6\x9b\xf5@\xe1?/\xae\xaa5\xda\xe0\xd5\xbf`f?\x11\xf1\xec\xed?<\xe5\x11+Ow\xd9\xbf\xbc"E<?w\xe0\xbff\x02\x1e\xc0@\x15\xde?\x0e\xe8M\xd8\x8c\xa4\xe4\xbf\x1em ~\xa5\x11\xd3\xbf{\x05.^\xbf:\xd0?\xc04\xe09\x01\xde\xd7?\xd5\x91Q\xacBX\xa7?\nZ\x81\xd55\xb7\xe3?&pXG\xaf\xd9\xe7?d\xf3J\xef\x9d\xee\xd5?\x8dcz4\t\x03\xe8\xbf\xf4\xf7\x18\x9fDx\xd5?;\xde\xa6\xb3\x0c\xf5\xce?\xc8q8C\'K\xaa?\x82.J]\xc5\x06\xd3\xbf\x96A\x9a\xe6\x17\x11\xd8\xbfo\x04\x12\xbb\xf9\xfc\xcf?_\xe0\xee\xcf\x960\xf0?\xe5#\xa2Ec\xb0\xd0?\x12\xe3\xb0/\xc4v\x86?^M\xc0\xa8\xd8q\xe1\xbf\xd9\xa9,\x82\x00&\xd9?]\xa3[c\x8b\xde\xe3?\x00\xc2\\\xf6R+e?\xf0\xb3\x17\xd7\x10\xbe\xee\xbf\x0b2\\\xe0\x88\x18\xb4?\xfc<F\xffk*P?\x06\xbb\xe7m\xa1\xd4\xdf\xbf#\xe7\xbb23\xd7\xc1\xbf\x9b<S\xeb\x06\xf8\xea\xbf\x7fv\x1a\xa0\xd1\x15\xd9\xbf\x06\x0bv\x1f1\x98\xdc\xbf\xeb*\x91\x7f\x87I\xd2\xbf\x11\x98\x13\x9esI\xcd\xbf[|\x8f]\'\x89\xea\xbfj\xb2\\\xe3\xa3\xb9\xc9?\x9b\xb79\xd3w\xdd\xd2?\xce\x85b\xb426\xcc\xbf\xf7\xdbz\xf0\x16R\xe2\xbf8{s4D\x9d\xb4?f\xbdr\x16\xc0\xfc\xe6?\x89\x91Z\xbd5\x16\xe1\xbfN\x13m\xe1-s\xe4?\x0fd\xb9\xbb\xa6,\xd0?\x91\x17\x88#l\x84\xd7\xbf\xe7i\xfe\x95\xb7\xf1\xc6?L\xbbT\x00\x1b\x9d\xdf\xbfv\xed\xf7\x0e\xc1\x86\xd5?7/\x02L<T\xd2\xbf\xa8\x14\xc2\xadm\x7f\xb6\xbf(_\xd7\x03\x89E\xc9\xbf \xaaO*g\xe5\xdf?{\xfe\xdfG\xbc\xf5z?\x9d\xb1g\xe0\xb9\x88\xd7\xbf\xf0\x05%\x04\xf0T\xce?\xb2\xd56\xc5\xeb!\xe6\xbf\xa9\xa6\xd6\x99\x13-\x95\xbf\x12\xafm\xdeT\xf4\xe2?\xa5\x87\x06\xdd\xbf\xb6\xaf?\xff\xc9\xa1\x16\xe3\x8f\xd3\xbf\x8d>\x1d\xfd\x0fF\xd3\xbf\x8b\x15\x0cV\xf8\x18\xee\xbf\xbe\x08\n\xdaB\xbb\xed\xbf\x97\x9e\xf6I\xe4\xaf\xef\xbf\x17|u\xc7H\xd0\xf8\xbf;Ry\x98\xd1\xe2\xf0\xbf\x13S+\x87\x965\xbc?x\xc4Fl\xe0\x7f\xee?d\xb4\'\x07\xe9\xab\xd5?\x9b\x0e2q\xc7f\xa8?^\xf5\x99D]Z\xce\xbfZP]\x9d\xae\xf9\xd2\xbf\x0e5e"!u\xde?\x80\xbb\x9aC\x03I\x96?\xee\x8eR\xc8\xc6U\xdf\xbf"\xe4\x84\x1c\x96}\xc6?G\xdc D\x95Z\xe5?\x15\xdc\xfc\xad>x\xe0?\xb2{\xf8.\xefp\xd4?w\xa5\xa9%\x96i\xd4?(\x16bwT\r\xe8?\xff\x01\xad\xe0\xabh\xe9\xbf\x94\xa4lV\x9d]\xd7?\xd8\x80\x8670\xbe\xbd?\x1czmU\xa3\xd1t?\x96\x14\x1fVG\xe0\xe3\xbf\x10\x97|0\x8bC\xf0?\xcdyj\x13\xadc\xe9?\xfb\rM\xd2\x8f1\xd4\xbf\xd4\xeb\'\x9a#D\xe0\xbf\xa2\x1d\xa9\xfd\x95\xb7\xea?\xf2\x15\xc0\xddt\x07\xec?\xf9m\x17\x8dkc\xd8?\xc8%c\xd2T\x08\xe0\xbf\x1b\x1c\xe2\x02(H\xee?C\xf5\xbbRez\xc0?\xba\xba\xcb+\xf4\xf3\xbd\xbfBSN\xdfu\x9e\xb8\xbf\xad\x95N\xcdQ\r\xc3\xbf\x04\x96\xebW\x86\xc6\xc4\xbfE\x02Z\xaa\xbf\xaa\xd8\xbf \xe0\xc4\x9d\x0f\xcb\xe0\xbf@\xde/*\xcdT\xe4\xbf\x9a\x11\x0e\r\x05\xde\xe1?\xd7\xe5\'\xde\xab;\xd8\xbf\xa1\x88)LJf\xed\xbf\xf8\xff\xcb\xcc\xbf\x8e\xa7?\xf0f\xc2-\x85b\xc9?\xd4>\xe7\x0f\xf2\xc5\xde?\xd3ui\xa0\xb4\x98\x97?\xaf=\x11\x19N1\xe7?jM\x8b{\xaa\t\xc5\xbf\x15\xe3\xbc{\x1d\xc5\xe6?\xdc\x10\xd1\x90C:\xe3\xbfJ3\xd4\xc4\x01i\xd4\xbf]\x0eA\x9fN^\xe9\xbf\xe9e\xa3\xeeI\xc0\xd3\xbf\x91Xr\x13\xc0\x0b\xeb?\xadn\xcd\x02\xaf\xc0\xe5?7\xf5y\xf3\x0f\x99h\xbf\x1db<\xd4\xe0\xba\xe1?C,7\xe9{7\xb6?c\xe5;\xf8}\xf8\xdb?\x1f\x1erkVE\xec?c\xc5M\xa47\x1a\xf0\xbf\xad\x83y\x05\x8fz\xe2\xbf\xb9b\xd7\xbb$\x9c\xa0?\xc5v\xa7#\x98\x1f\xe9\xbf\xfen\x03oW$\xd4\xbf\x1f\xce\xa2dW!\xf0?]x\xdb\x0f\x9c\x87\xb0?q\x00\x83\xed\x82\\\xc2?\xe9,u\xe6\x0f&\xe1?s;a\x8f\xf3\x95\xa7?G\x1cgR!\xf7\xd5??\x13\xaf\xe1\x15{\xe0?Y[\x1fK_b\xec?\xea\xd8Y\x86\xe1\xfc\xc4\xbf\x1c\xb1\x06\xd5,\x04\xc1\xbft\xecS\xd1\xde\x0b\xde?a\xa3\xa6\xf9\xc4\x03\xe4?gq\xfe\xc7\xef\xb6\x92?\xf9I)l\xd8\x15\xc7\xbf \xde1x\xfb\x00\xe8?\x03N\xb2*\xf1O\xe6?\x9d>\xf9\xc6\xe8\x13\xa5\xbf\xfb)I\xbc\x8e\xfc\xd2\xbf\x06Y$\x84\xf54\xc5\xbf\x1e\x88\x05\xce\xc9Z\xec\xbf\xfa\xba\x87\xd8\x8d\xdb\xf3\xbf\xd6\x94\x8b\x08\xcbh\xa7?\xefk\xf4\x1a\x1c\xb8\xed\xbf\xdbJE\xe4\x80\x12\xe3\xbf\xa0{I\xb4\x9e\x88\xf0\xbf2\xb4\xb4\xbd\x08a\xdd?\x1eC\xda\x91s\x04\xd5\xbf\xe2\x1cb\xe69\xaa\xca?\xf7}\xea\xc8b\xaf\xe5?\xef\xc4\x1c?\xd2?\xe4\xbf\x04qP\x8a\xa3\xa5\xcd\xbf\xad\xba\xc8\xcf\xb1\xcb\xd5?A\xe6\x93\xdeF{\xe5?\xf3\xec\x1ajv\x1b\xf1?\x19\xca\ndH\x04\xea?x\x1fn7\xfa*\xd5?\'\xb7\x91"6\x04\xf5?\xf8\x9a\xa6Z;\'\xd2?\xb0\xc1j\x1d6\xa9\xd5\xbf \x0e\xcb\xc3\xfe\x88\xe4\xbf5\x96\xd0[\x91\xb0\xc0\xbfm\xfb\xee|\xd8\x87\xe3\xbf\xcf#\x0f)(\x7f\xe1?\xa8\xaf\x17\xf9\xa2\xd1\xdf\xbf]B\xc7H&\xb4\xd9?\xfb\xef\x02\x8a`q\xd7?\xa8\x935\xc4\xd9\xb4\xd5\xbfR\xb6M\xcb\xa5\x96\xda\xbff\x15\xed\xb5|\xbf\xda?8\xc02Y\x86\x88\xd6?\x8e\xd9/\x83)\xdf\xe9\xbfA\x83\xd7\x1f\\\x06\xc4\xbfz,\xcd\xda{\x80\xea?O\xed\xa0\x1b\r\\\xe0?\x11\xca\x8a\x93<\xce\xd2\xbf1\x9e@\xe1\xcd\t\xdf?\x82tq\xb5f\x83\xbc?\xef\xaa\xa4\xd1\x86\xbb\xe8\xbfW3\x85\xc3\x1a\x84\xdc\xbf\xa4B\x81\x04l@\xd4?\xb3\xb4\xec\x97\x00~\xe7?\xab"o\xf5\xb1\xbf\xb6?.0s*\xaej\xc0?\xd2\xb90J\xf64\xe8?Md\x17Y\xa9\x88\xe8\xbfC\xde\x025\x84\xae\xe5\xbf%\x8b\x1f9\xbd\xfc\xc8?\x95\x13V#\xa9\xf2\x98\xbf\'\xfb\xcc\xd7:\x80\xd2\xbf\xa1\x14\xef]b*\xd9?\xe4\xf9\xc1\xf3K\x8c\xd3?\xdd\xb8Q\xe3\x12\xf4\xd6\xbf\xe4\x88\xcc\x86`\x03\xd8?\x0f\xbd0\x8f\x88\x9a\xe4\xbfQ\xacZ\xd676\xdb?\xd0\xbc!\xd9\x9a\x9c\xe0?)\x03\xf2j\\\xde\xdb?\xf8>\x07/\x90\x94\xe0?\xb2-\x98\x06\x88\xb9\xbc\xbf\x00\x1cJqL\xc3\xd0?U\x05\xc4\xbd\xb2\xde\xca\xbf%\xbcO_\xb5v\xe1?\xc3\xe5\xd9\x9cZ\r\xba?\x7f\x80\xc2\x1dw#\xe1\xbfX\xddf\xfe\xc6\xd8\xcb\xbfu\x13\xa0\xf7\xd8\xed\xd2?\x83\x91\xca\xa0%\xed\xd6\xbf\xda>\x85\x01\xf75\xea?\xbf\x15\xd1\xb6\xed}\xe4\xbf\x1f@5O\x97\x93\xcb\xbf\x85z\xc5\x7f\xb4O\xcd?9r\xc1\x81y\xc4\xdd\xbf\x92\x85\x9d\x84\x88\xba\xc0\xbf\xe5S?\x1a\xa2\xdb\xdb\xbf\x13w\xd4\xb6x\x06\xe3?\x93\x9d[x@\xaf\xbf\xbf\xbaSs\x95\xef\xff\x81\xbf\x10\n\x02ll(\xcd\xbf\xec\xd7\x06\xea>\xde\xce\xbf\xc5\xd6bY\x8c\x10\xde?M\xdd\xc9\xab\x19\x04\xd0?\x86.\xd7U\x9d(\xe1?\x90\x0b\x0c\xd2\xb7\x89\xe8?\x8a$no\xc1\xbe\xe2?\x91#\x863L\x1e\xc5?\'\r+\x81\xbf\x96\xe3\xbf\xe9\xf7\xfd[\xa0\xe0\x97\xbfw\x9a0^c^\xdb\xbf}\x8aH\x03\xef\x96\xd0\xbf\xd6\xf7\xb1Y,"\xe7?C\x1a:\x14\xeeE\xd7?\xf8\xecCK4[\xe2\xbf&\xd1*\xc4\xc1\x94\xe1\xbf\xa8\xe2\xed\x06\xe47\x9c\xbf\xa63^\xf9b\xad\xcd?\xdb,\x8e\x0b\xeer\xe9\xbf\xeb\x03\xa4\x1a?"\xea\xbf\xfc\x99885&\xed?\xc4>\xa2\xdc\x1e$\xe6?\xb2^)\xfeP\x15\xb5?\xc3\x8c\x19\x9dL2\xe2\xbf\x91\x9e\x8e\x19\xa7\xc8\x99?K\x1d7i\xece\xe1\xbf\x10\xdc\xd8>Q\xed\xdf?\xd9\x82\xd3\xee\xfa/\xa3\xbf\x88\x1d\xa7F\xa1\x01\xdb\xbfN\x07\xc7\xcfdy\xe9?\xd7\xa1hl\x18\x87\xdb\xbf*-\xd0l\xb2 \xe8?\xde\x07\x9a@\xea\x8f\xc4\xbf\x0f\xf2\x18U\x00\x93\xdb\xbfp\xfe\xfd\xd1>\xad\xc4?a\xea\xdd:\xc8t\xde\xbf=v\x01\xf0J\xab\xc7?\xf0\x84\xb6\x1f\xd7\x9a\xd9\xbf`\xde\x13\xc9G\x8d\xed?\x1aP\x9e~-j\xe5?,\xe7\xa1\xe2!+\xd9\xbf:\x1a;\xe3\x020\xe3?\xf8\x82\t\x1c.\x08\xe3?\xe8]\xa3\xf2\xe7\xde\xbb\xbf\x1e{\x0c\x1fA\x92\xdb\xbf\t>\x08\x88\xb5\xcc\xe9?\x04\r8\x8e5V\xd4?\x1d\xef\'\x12\x10\x9a\xb1?\xa3H\x1b\xccXz\xcc\xbf\xd8*(\x81\xa9\xe0\xc9?\xc0Q\x9a\xf4\xbe\x92\xe0\xbf\xba\xe7\xb7Z\x9d\x8b\xe6?\xad\x90\xc5R\xfd\xd3\xc2\xbf\'\x95~\x8c\xf3<\xe8\xbf\xe0\xbc\xf5\x93\x14d\xc6\xbf\\p\r\xb3n\xf8\xde?\xd7\xad\x8c\x82\xbe\xa4\xe7\xbf\xaft/-\x89<\xb8\xbf\xaf5\xcf\x19|\xb1\xe1?\xe8:\x8ahax\xcf\xbfJ\x9d\xe1\xf1\xa9\xba\xea\xbfN\xfc]\x0c\xad\xe3\xd2\xbf\xef\x0b\xf5|\x97,\xd0\xbf09zH8|\xdc\xbf\'\xd2U%\x11p\xe2\xbf\xd7\xcb\xdb\x81\x04\xe4\xe5\xbfS\xf12\xae\xfe\xad\xd4?\xc4\xa0\x1bq\x84^\xe0?\x03\x1b\xca|tD\xe5?&\x8b^\xd6\xc9hi?\x0ce\xc2K\xd9\x82\xd9\xbf{/\xef\x1c\xa1H\xe5\xbf\xf8\x01X\x12\xd90\xe9?\x82\\,\x1a"\xb5\xd2\xbf\x183\xfc;@\x96\xb3\xbf\x10Q8\xd9\xa8\x94\xe7?\xbdh\xd0uh\x95\xe5\xbf\\U<\xf6\xd5$\xdc?\xb8\x96\x8cB\xcdB\xe3?B<\xf0\xda\xb0\xa8\xe9\xbf\x80\xac\x97\x1bh\xcf\xda?\x81\xa5\x1a \xfan\xbb\xbf\r\x00\xf8y\x06.r\xbf\xd3\xd43px_\xa2?V\xbcz\xe8\x9aW\xd7?*\x94\x1e|\xd5V\xde?\x1a\xda\x1d\x18\x89\x01\xe0?\xe3V\xcf\x99\xef\xfa\xd4\xbf\x9e\xe4:\xbc\x17!\xdf?\x8e\x1a\xa9\x08\xe8\x8c\xe4?\x87\xf6\xe3\xad\xa3\t\xdd\xbf\xa0\xfe\x03u|\x04\xe0\xbf\x17\xe5G\xb9\xf6\xd8\xbf?g7P\xb0\xe8/\xe2?\'\\\x1b\xfe\xc0\xec\xeb\xbfP\x13\x0f`I\x00\xd6\xbfS\xf7z\xf1X\xe4\xe5?5 R\x9a6H\xdf\xbf\xf09e\xcd\xb8\x80\xba?\xc8\xc7\xbf\xe0\xff\xb5\xb2?%\xbdH(\xb4\xe6\xe3\xbf\xb5\xe6n\x0c\x01\x82\xd5\xbf\xc0\xf8Q\xae\x1eI\xe6\xbf\x1b\xc9\xb5\x12M\x02\xe5?+\xa2*\xad\x9d\x07\xa8?\xc3~n\xf6\x8b\x02\xea\xbf\xf2\x96\xad\x1byU\xe4\xbf\xe4e\x12@\xa2\xc6\xda?\x06\x0f\xe2\t{\x10\xd5?\x8e\x9e\xee\xc9\x0c\xd0\xd4\xbf\x1c\xfe\x1b\x02]\xc6\xb2\xbf\xbd\x0f\x99?(?\xd9\xbf\xecx\x12j\xd4\xb1\xe9\xbf\x9c\x1d\n\xbc\x9e?\xb5\xbf\xa4\x98\xcd?\x17k\xe1\xbfG\xff\xf67\xc2%\xc2\xbf\x07\x951$\x0b\x8c\xd4?\xcfb\xf1\xab\xbb.\xe4\xbfU\nt\xd06E\xe5?\x92\xd8\x07/\x11G\x94\xbf`\xdf\xeeO\x1d\xcb\xe1\xbf\xe3\xdf\xaf\xb7\xe0\xa9\xd4\xbf\xf9;\x1d\xe8\xa1&\xb2\xbf\x10\x80L\x93\x825\xca?c\xe1\xe7\x0f[\x0b\xe5\xbfV*\x8e\xb6\x92:\xd7\xbfH5qRK\xa6\xd5?\xb1\xb8b\xb9\x99q\xe7\xbf\x99\xcek\xd9\x1a%\xb8?~4\xca\t\xae8\xe7\xbf\x1d\xa3\x94\xb4w\x17\xde?\xf3\xe6\x8f*\x8e\x9e\xe8\xbf\x96\nZ/\x9a\xd6\xe5?\x81\xcf\xa23\xed\xd6\xe5\xbf\xca8q[\xb32\x8d\xbf\xa8~ \xb5e\xa0\xe7?H\xa5)Z\x87\xee\xd1\xbf\x87mP\xc4\x1b\x13\xb8\xbf\x05\x88a\xfe}!\xd1?\xdc&Y\xc0K\x8a\xa1\xbf\xe4J{\\\xb3\xc6\x93\xbf\x00\x80%\xd5\xdaG\xdf\xbf\xd3S\xe5\xbd\xb0\x82\xe1?_\x07VI\xb1W\xb2?I\xf0\x14]][\xe3\xbf\xdeZH*\x1c\x97\xe0\xbf\xca\x93\xb2\x16C\xa8\xdc?\xda\x16\x8fx\x06\xec\xee\xbf\xc0\x87\xcb\x91Q\xfb\xe0?\xe3\x13c\x12\x1f\x19\xd5\xbf\xa3,p]\xa5\xed\x99\xbf\xd1\xcf\xb00\x82,\xec?\xfay\xcbmoK\xe7?&\x81|\x14Po\xe0?\x0c\xe3F\x8d5\t\xa3?s\xf1o\xbcfF\xe5\xbf\x83E(\xae\xc6\xe0\xe3\xbf\xae\xae\xbb{C%\xe8\xbf6\xf6\x95\xd9uI\xda\xbf-6o(\x1du\xca\xbf\xaa\xeb\xfb=\xfdl\xb2?\x8f\xe5\xa6g\xb4\xc0\xbd\xbf\x90\xc2oJT)\xd8?W\xb9\n\x8fG\xa5\xe4\xbfx\xcd/w\x81\x1d\xd1?,\x8c,\xeaI\xa5\xc6\xbf\xef\x81\xaaI\xad\xc8\xd2\xbff\x01\xa5P\x10L\xda\xbf\xd9\xddj\xb1D\x13\xe1\xbf\x1d)\xfb\xa6\xce\x92\xc2\xbf1p\xafj*\xed\xc9\xbf (*\xcf\xf6\xe8\xe7\xbf\'\xa8\xa2f\xe6\xf9\xaf\xbfY\xc7\xa00\xbd\xc8\xe2?t\xa0\x91\xb7\xe5f\xd4\xbfI\x99\x88\x1b\x06\xfb\xc8\xbf\xe5\x1d\x91k\x0f]\xf1\xbfE\xb2\xecw\x1b\xa5\xe5\xbf3y6\xaf\xbb\xbf\xc0\xbf\xf9\xa0\x84~\xf6g\xc4\xbf\xc4\x81\r\x89\xbe\xb0\xcc\xbf:G\x9a\xd48y\xed\xbf\xa0\x08f-\xaf\xb8\xd5\xbf\xcd\x9c\xdfX\x16w\xe2?I@&-\xeep\xba?\x94z-\xa6\xcfA\xe6?9\x83t@4l\xd2?\xb3\x15\xb9U\x13\x81\xd1\xbfY\xe2e\x8d%m\xe1?O\x8e\x83f\xc5\xe5\xd1\xbfH\xe5\n\xefPM\xd7\xbf {\xce\xb0\x17\x02\xea?e\x83\xed\x88\xc6\xf2\xe0?\xb9\x8aC\xd3\x1c0\xb3?\x8b\xc6\xd6>h\xc8\xdf\xbf\xe6.\xc1\x13J\x06\xd9?\xba\xd4`b_\x81\xdf\xbf\x9e\xech\r\xfc\xac\xf2\xbf\xea\xe2`s[\xf1\xdb\xbf\xd7\x8e.\xd9\xf8\xc6\xe6\xbf\xec\xc7\x94uQ\xa8`\xbf\x92Cfn\xd8\xc0\xf5?D\xe1v\x1bl\x15\xc4\xbf\x9e,{\xaf\x1e\xb3\xe3?\x13\x95\xc6\'"U\xae?7\x17\x8a\xb7f\xb4\xc7\xbfR\xe1$\x97=\x95\xb4?$\xcc\xbdZ\x03\x85\xd8\xbf\n\x8a=\xd9W\x8b\xac?:l\xc2\x1b\t\xfd\xf0?\xed\x07q-\x83\x9b\xe7?\xea,J}\x82$\xee?\x96\xb0\x8c6L\x0b\xd8?e\xb5b$\xe9\xe1\xb7?\x10bz\x01\x93\x15\xe4\xbf\x0e<5\xb99\x9f\xd3\xbf\xe7\xefxj\xe7\xcc\xe1?\xfa \xe7\x1aj+\xb4\xbf\x17\xb3\xea\xc8,\xd7\xdf?\xb5g\x9d\xd9\xb1\xcf\xd5\xbf\x89xtW\x878\xc4?WZ\xbe\x1d\xd2\xe5\xe5?\x81\xb8\xab\\\x02`\xd4\xbf\x96\xf9\xa3a\x0f\x01\xdd?\x8b]C\x1e/u\xd5?\xad\x9c\xfd>\xc2l\xd2\xbfN\x8b0\xee:Z\xdd\xbf\x1f\x00\xa0\xe8;\xdc\xbf?l\xb1A\xdb\x84\xaa\xe0\xbf\xd2Z\r\xc21\xb2\xb9?\xe9T\x9aI\x85\xad\xe2\xbf\xb6v\xc6(?\xbe\xf0\xbf\x1d\xea\xb0\xa5\xf8\xb6\xf1\xbf&\xa7t\xf9(\xbb\xe8\xbf\xedvO\xd4\xc0{\xef\xbff\xdb +vt\xe0\xbf\xa1\x8d86;V\xc4?\xb2\xba(\xc5\xff\n\xec\xbfj\xd9\x0en\xb9x\xe9\xbf\xca\x10\xef\xb3\x8e\x00\xc7\xbfc|7\xbe\xd5x\xdc?\xf4\xd4^%\x9c\xa2\xe1\xbf\xa7\xcf\xd9\xa1\xe6\x83\xfa\xbf\x1e\x81R\xa0\xb6d\xa1?\xe1\x97\xf9\xb9\x1aU\xec?\x1b\xfdq\xd4e!\xf2?z#\x8c\xd2\xb6\x0c\xed?\xa7\xee=\x8d\xceh\xbf?\x1cyL\xc8\xe2\x00\xee\xbf\xac\x9d\xa0KI\x80\xf0?\xfeu\x96w\xd5\xb3\xdd\xbf7\xb2?<L\xe3\xd6?\xd3\xde3\x8a3\xf6\xd0\xbfl{\xd4\x81\x97h\xc1\xbf)v>\xc1B2\xba\xbf\xcb\x04\xc40<d\xe3?\xc4-\xc8z\xf4\xe5\xdd?\x01\x83b)\xd8\xfd\xf0?\x13\x7f0U\r.\xe7?\xcc\xcf\xff\xe7\x98%\xf4?yr\xbbV\x18\r\xe6?\xca\xec\xe9\x13W\x04\xdc\xbf\x99\xcd\xf8JNg\xc7\xbf\xacrO\x0b\x922\xd5?%\x9c\xa4,\x8c\xc0\xb2?\x83\xe9\xf3QL`\xa6\xbf?\xe1\xa3 \xd9\xed\xe4?>1\xdajf\x08\xe5?\xe5\xb0\xb6\xc08{\xb2\xbf\xa6\x12\xc1Hc\xfb\xd2\xbf m<\n\xc2\xa0\xe1\xbf\x02\xb6N\x81\x16\xbd\xc4?!,\xd5\xd2\xa2\xa4\xc7\xbf*H\x93\xc2\x0f\xaf\xea\xbfxan]\xe9\x9d\xd3\xbfH\xd9\xd2\x14\xbdo\xe6?\x8b\xb4\xa4@\x1b.\xdf?[\xf7\xc8\xfc\xa6\xa8\xce\xbf\x95\xad.\xc4\xcd\x17\xe6\xbf\xaaLA\x1a\xc2\x84\xe8\xbf]S\x95\x810W\xd5?\x00\x1e\xea\xfa?\xfe\xdc?\xe3=\x1e\xd3\x92\xd4\xca?\\"\xf7\x9e\xe7Q\xe4\xbf~3\xce\xb1j\x1b\x9c?\x14\x11\xc3\xdfs\xe6\xdb\xbf\x8aU\xaa\xbdi\xa6\xc0\xbf\x9aT\x94\xb7\x86\x0b\xd1?\x13\x89\x99\xfd\r\x0f\xe1?\x11R(\xafa5\xe6?\xa1zL8\xb6\xef\xe8?os\xe8CH\xff\xe3?i\xfc\x1b\xce=)\xe8\xbf\xb5=k\xe4\x8d\xf7\xce\xbfY\xf2,,V\x1a\xe3\xbf\x9a3\x99\xab\xde]\xe1?\x1b\xd2\xd9$\xf9\xf8\xd8\xbf\x97\xa7\x98zm\xf0\xa2\xbf\xa7^\xbf\xc3\xfcL\xc9?\xeb\x97$!\t\x84\xe8?\x12yRoI\xb9\xb7?\xcbw\xc5\xe0\xb2&\xc6\xbfd\xf1\x11\xf4\x9e\xb6\xcb?\xa8\x19\x00\xcd\x8e\x1d\xe7\xbfx\xff}V\x18d\xee?\xf1\xa5\x90\r\xab\xce\xe9\xbf\xdd\x8fo\x1a\xd1\xe2\xe1\xbf\xf2\x1e\xa0\xa8\xb6\xcf\xbf\xbf\x00\xe4B\x0e\xc5\x18\xcf?\x8f\xcbC\xaem\xcf\xed?\xf2wq\xd7\xcf|\xd9?\xf8\x02[\x16\xe2Z\xcd\xbf\xa1\xd9\xbd\xb4\xd1\x90\xc5\xbfH>\x83\xbd3\x99\xa1\xbf\x97nZ&\x82\xed\xc1\xbf*\n\xdb\xd2\x15\xb3\xca\xbf\x12\xae\xbd\r\xfb\xf3\xde?\x90\n\x9cZ\x82\x8b\x92\xbf\x86\xd3\xa5\x0c\x99\x0b\xc0?\x82\xa0Q\xb9\xea#\xe9?\xdb\x06f\xc8\xfa\xde\xd7?k\x83\x99\xc6\x05\x00\xea?\xe0\x86\x91\xd5\xdcx\xc6?5>z\xe1\xd1\x08\xb4?\xf5\xa1vU\xd4\x99\xe3?i\x90\x02\xc8\xb1\xc3\xdc?\x15\xc7\xb0\xff\xa7\x97\xe9\xbf\xe8\xe0s\x04\x82\xa3\xd9\xbf@\xe0\x8e\xb1\x00^\x9b?I5\xe6\xaf%$\xa9\xbfn>Mye\\\xd8?I\x91FA\xcb\x1c\xbd\xbfP^\rD\xeb\x7f\xe4?z\xc0\xa7\xc8Ij\xd6\xbfLKM\xe2H\xb5\x7f?\xd5\x8f\xb6Q\xf6 \xc0\xbfW\xb7\xf1\x9a"4\xee?I\xb6\x8aj\x0b\x0e\xb6?\rRZ\xc4\x12?\xdb\xbf}\xf2M\xee\x05^\xe1?\xd7\xd6\x99\xac\xae\x0e\xe9\xbf\xcfR\xbb\x81^\xca\xdf?\x13\xdcc\x83\xc2\'\xd7?\xd60\xd08\'\xaa\xe6\xbf\x88P\xd8\xbd\xfe\x96\xb3\xbf(\xe8\x95\x81\xb28\xe3\xbf\xa5Q\xec\xd6\xdd\n\xe7?\xa2m/\xdb[\x85\xe1?\xffR&\xd7E\xc7\xe0?\xc7\xb2\xff\x83!\x10\xe7?\xb5\xc5Q\xaaxW\xc4?\x17O\x84\xb7\xf2\x7f\xe3?\xc2x8\xd9$\x92\xde\xbfI\x89\xe9\xd82p\xd0\xbf\x12\x9c&\xdd&\xf1\xe6\xbf/\x00\x8a\nE\xd9\xb0?\xad\x8f\x80\x10qm\xbd?\xe8\xe8\xf2\x1b\x18\xd1\xd6?63\x0f&\x15k\x9e\xbfN\xbd\x1e\xf5\x960\xe5\xbfE\x9adr\xaaq\xbd\xbf$%\xffO\rN\xd0?\xb5\x89\x04\xec\x01+\xe4\xbf\xa4\xbe\x93\xf8\xe6\xfd\xd1\xbf\x0e\xc4\x00H\x1d\xa4\xe7?\xdd4\xc6\xbf<\xc1\xcc\xbf4/\x88\xb23#\xe6\xbf\x97\xd03\x00\xc2g\xe3\xbf_h\x85:\x0e\xbc\xea\xbfK\xb5\x18\xe0\xde\x9b\xdb?\xa7\xeb\x175\xfb\xff\xc3?U\x99V\ru\x13\xe0\xbf\x825\xd5\xb7a8\xb0\xbf\x93\xech\xa9\x92\x9f\xe3?\x85\xf0\xae\x1c\xb1\x98\xcc\xbfS\x7f!jd:\xb5?\x11r.\xe0vJ\xc4\xbf\x1f\xe5\xf9L\x85~\xd7?\x7f\xe4\xf5\xe5\xcc\xac\xdb?\x81\x92.\xc4\xe2&\x97?\x1a\x04\xbbL\xb7\x8a\xe8?e\\\xd1\xb6\n\xf4\xe1\xbf4\rsg\x17\xc7\xc5?K\x15\x1f\x1fl8\xdb\xbf\xc9\xbe\x1d\x1ep\x1f\xef?\xa4\xec\x07\xd0\x88\xda\xeb?\xb3\x94k[\x01\x95\xe7\xbfLAT\x94\xc3\xe1\xb5?\xbd\xd89NK\xe9\xba?\xb1\x03\x95,`;\xd5\xbf,\xf6\xd8+\xe3\xb4\xab\xbf8U7\x89\xdeu\xe8?\xc3\xf5{e\xfc7\xda?q}\x81\xbe8\r\xe5?|n3\x8d\x808\xed?\x7f\xc2&\x8c\xb8\x10\xdd\xbf\xe3l\x8f\xdc\x91\xdb\xd5?\x19\n92\xfd\x95\xde?:\xde\xf2F\x12\xe8\xc8?\xe9\xb6f\x03/\x1c\xe6?H\x19\xf5\xdd*7\xde?i\x83h\x8bG\x8b\xcc?\xf0nS]8U\xf0\xbf\xfb\x08\xaf\xc0\xf9\x99\xd5\xbf\xf6\xd3\xf5)\xc3S\xd4\xbf\xa8\x1c\xffY=\x7f\xcc?\xc7\x0b\xb4\xf06T\xc7?\x8dFA\xf6\t\xba\xf0?\x00``Rn\xf3\xc7\xbf~\x82r\xe9t\xb3\xc0?\xb9\xf1\x1b_\xb5i\xe1?A\x0c\xe5\x8a%\xe4\xaa\xbf\xbch\x82\xfd\xb9\x0f\xc3\xbf\x9aE\xee\xdf\xd2\x82\xe1\xbf\xb6\xcd\x16\x15\x8dN\xdd\xbfU\x1dw\xaf\xa9 \xdf?\x9ep\xcc\xd1\xd0\xbe\xc5?\xa9,_(v\xb9\xd5?\xad\xa5_\xe75J\xeb?o\xd4\xdd9\x83\xb2\xe0\xbf\x17\xfd\xbe0\xcb/\xe0?\x15z\x8d\xa1)S\xa7?\xbe\x8ai/\x8d\xd3\xea?Q\xc4\xabXU[\xe2\xbfyg$WW9\xe9?\xd2\xf4\x9b.\xd5\x9b\xd2\xbf\xd6O\xe6\xa84\x1a\xd3?\x85}\t\x88n\xe1\xeb?X\x119\x0c\x8a\xaf\xe0?\xdb\'(\xe8\xdb\x19\xd2\xbf\xee\x96]\rFm\xc3?L\xfc}\xbc{\xd8\xe2?\x03\nq\xcf\xa8\xe3\xd1?m\x1d\xed\xc3sJ\xb0\xbfa{\xd4\xdcat\xe0?l\x8fPCU\xe6\xe5?\xd3r\xcd8\xd0\xab\xe3?g\xb5\xd2\t\x0fG\xe5?\xa2\xb6\x96\xbfk\x8c\xbe\xbf<v\xcf\t\xcd\xe2\xf1?\xdd\xbf\xbdB\xca3\xac\xbf\xef\x85\xbe\xf00\xbf\xe0?\xe2#\x95\t\xcb\x92\xc3?\xf7F\\V\xe3\xb5\xc9?de)\xf50u\xe3?w)\x912\x96\xde\xa8\xbfj\xf2\x1el"\x80\xdb?u\xbd-\x11\x98\x16\xd2?:L\xe0\xe5\x15V\xec?xm\x97\xd5\x94\xd0\xa0\xbf\x13Lj\x08\xb3e\xe0\xbf\xf8\xd3\x1an8\x8f\xf1\xbf\xf9\xb3\x81\xe7\x13\xbc\xdc\xbf.I\xd8W\x12]\xbc\xbf\x15\xfaE\xe6\xaa\xd8\xf0\xbf\x135\x1aA3\x02\xe4\xbfaK\xde\x19\xf5\x96\xc5\xbf[\xa8q%9A\xe9\xbf\xdf7\x0b\x07\x851\xdc\xbfo\x04U6\x13$\xd8\xbf\x98r\xed-\xbd\xf1\xe1\xbf\x96c\x00\xf8\x14\xbbU\xbf\xbf\x957\xb5\xcb\xady?\x8b@\x0cg\x15O\xd2?\xf0\xc9+0\xb3\xfd\xd2\xbf\xc8R\xb6+\xaa\xf9\xd4\xbf`\xc8\xcd\xc0^S\xe5\xbf\xe2\xc5\x0c\xec\xe1\x92\xd4\xbf\xc6\x97\xd2\xf9\x07A\xe7\xbf1xx\xcb\xc1\xf6\xe2\xbf+\x03)\xccG\xa5\xce\xbfEuC\xa1\xfd\x9b\xb9\xbf\x81\xba\x1d\x9f\xf0\xdc\xb2?\x1b\xa8\xb1\xf5{%i\xbfO\x1c\xe3\xfbG\xa1\xe3\xbf*\x01M\xcc\xec\xef\xd2?\xc6\x80%\xaa1\x0f\xe0?\xf0\x98\xef\x11\xb3\xcd\xd7\xbf\xc3\x81\xd0\x7f\xdd4\xe6\xbf;\xaaU\xf1\xd4I\xe6?\x82M\xfa\x165\x1d\xe7?>\xfaY8\xa3\xc7\xd7\xbf\x84\x9f\xff\xbd\n\xdd\xd9\xbf\xc0\x07\xa2\xeb\x80\x80\xe5\xbf\n\xffY\x96\xa6\xfc\xe1\xbf~{\xa1p\xe5G\xea?\xf33\x12\xd0\x133\xc3?>uv\x17\xffp\xe3?<u\xa6\xf6\xc1\xf6\xc0?A\x9dn\xe0B)\xc2\xbf\xefS7)\xa4|\xd6?\xe7\x16\xb0\x03\xb9\x97\xc6\xbf\xbbFN\x84\xbc\x95\xb0\xbf#\x89(\x00\x91\xc0m\xbf;\xc5"V\xce\x96\xa4\xbf-\x97Y\xbeg\xc5\xe3\xbf\xfd%\rb\xcc\x97\xea?4\x94E\x15g\xe4\xbc?\xdc\x93\x8eA\x1f\xa5\xe2\xbfCr\x8a]j\xcd\xe2?t\x05\x9b[h\xa0\xe7\xbf3\x9fK\xb9<\x00\xe8\xbfX\xec\x96wT\xdc\xd3\xbf8\x0e,\x00\x08_\xdf\xbf\x11M\xe3\x1e\xbc$\xea\xbf\x01pI\xa6Yv\xe7\xbf\x9d\x8b\xd4|\xe9\\\xd7?\xef\x02\xac[\xd8\x90\xd1\xbfj#T\xb3\xe9\xf4\xd3\xbf\xae\r\xaa\x9dq\xf5\xbe\xbf\xf5\xdb\xa9\x0c\xcec\xd5\xbf\xe7\x886h\x9f\xf4\xee\xbfK\n\x98x\x84*\xb2?\x92\\,\xa9\xfdM\xe6?ATW1\x00\xbc\xe8?$\x05\xe4F\xb8\xa5\xd5?9w\xbbh\xf8v\xe8\xbf-\t\x88\x13\xee\xd9\xd8?\xfa\x958\xb1q(\xe4?\x9b\x06\xdaj\xf5\xcf\xba\xbf\xd4\x92n\xcd\x12\x13\xd2\xbfi\\k\xb4\xda\xc9\xca\xbf\x93\xe9\xff\xb6Q\x05\xe4?\xfa\xdf6x1x\xf1\xbfa\\\xdd\xd5\x87\xb4\xc3?\xef\xf5\x1e=\xef7\xe1?\xb7\x13\x84tBB\xd1\xbf]r\xb8\xbf\xfd\xa0\xe4\xbft"\xfa\x01\xc1T\xc2\xbf\x92\xedA\xe9f\xbc\xd0\xbf\x9ci\xdb\x98sV\xda?\xc0\xb1\x84\xd9\xd5\xc5\xe3\xbf\x06\xe1\\\xa50\xdd\xdf?q\x00\x93P\x1cF\xe6?7+\xa0\x18\xcb\xc7\xd0?t\x8d\t\xd4\xbf\xe6\xce?\x8f.\xfb\xe6\xad\x03\xe0?,\x10\xcdy\xbf\xf9\xcb\xbf\xe2\x87\xd6\xd3\xd7"\xcc?:\xc9\x9c\x8f\xa4\x9d\xef?,\x9e\x03N\xed.\xea?\x19S\xf3\xc1\x16\xd6\xb9?\x81\x0e\x1c\xa2^S\xe6\xbff\xd8\x95\xff\xa1\xd1\xd4?\x9b\xec^\xc4\xc5\x88\xd8?/\xa4\xabQ5\x82\xdd?\xa3\xdf\x1a\x9a\x13C\xcc?k\x89T\xaf-\xe0\xea?\xe3\x87\x82\r\xe1j\xcc\xbf\x13,}\x1a\x1e\xd4\xd3? \r\xe7\xb8\x1a\xbf\xe9\xbf|\xb7Q\xf9\xe7\xf7\xd6\xbf\xd5`\x98\xe6\x07u\xbd?\xd8~\xb7x\xf0\x9a\xe4\xbf\x8dQw\x00\xd2t\xbf\xbf\xae\xb5?\x8f5\x96\xdf\xbfT\xc2\xa1\x9c\xd1[\x91\xbfI\xf0\x97\xe6\x84\x1c\xa3?\x08\x1c75\xae\xea\xe5\xbf|\x10\xa0\x93\x1bG\xd3?N\xf3\xd0\xb1\x02\xd0\xe6\xbfZ\x1e-\xc7\xacL\xbe?&q\n\xf3\x14\xb3\xc1?\x15\x03\x93\x11.7\xd6\xbf\x08\xe1\x976\xe6\x98\xe3?\x18a\xd7\xf4\xfcg\xe5?\x0b>\x84\xf9m\x9a\xdd\xbf$\n\x05\x05\xb4n\xce\xbfgh\x8f\x86\xf4\xa4\xe9\xbf\xf2\xec=;\x8c\x88\xa7?G5*\x14\xcb\x99\xd3\xbfy\x96\x1cU\xc1O\xd5\xbfU\x7f\xf37\x045\xe0\xbfH\x18\x80S\x90\x0e\xd6\xbf\xd2\x94\x86T\t\xa5\xe5\xbf\xccv\x9c\xf8(\x7f\x9f\xbf5\xac\xd3\xd8g\\\xd8\xbfxKv`\xe9{\xe1\xbf\xa0\xaa2\xf9Z.\xe6?\x08#p\x12+\xbb\x92\xbf\xf1<7\x89\x05\x1d\xe9\xbf\xd2\xc4Q\x9f\x06\xcf\xea\xbfX\x8a\t.\x8a\x0f\xef?\x92v;\xb5\xf6\xe1\xda?\x19@\xfb\xe8\xb6\x92\xec\xbf\xe8;p\xb0\xa0\xe3\xd4?\xef_\x8d^\xdf#\xc7\xbf\xec\xc4\x92\xfc2\x8e\xb0?@Sv\xd2|<\xe2?\x0e\t.\x8b$n\xe2?S\xbeUk^\xb2\xc8\xbf\r +{L\xca\xd6?\\#\\/\x84\x85\xd9?5tw\x9c\x82\x02\xf3?\x84\x83f,\xd9\x1c\xb1\xbf\xf4\x9e\xf7\x19k\x80\xe5?\xc9\xe3\xc1\xb0\xe9\xc7\xa3?\x80bDp\xb3J\xf1\xbf\x01\xd4\xb3\xd9m-\xe2\xbf5>\xfb\x01\xac\n\xde\xbf[\xe0\xed\xd9\xa0\xf8\xa6?\xb6\x19\xd9\xf7h\xb7\xeb?|P\xa4\xdc\xa4T\xc5\xbfm\x07\xd6$D\x04\xd0\xbf+\xc6\xb5\xe3\xeb\x89\xc5?\xb7F\x99P\xcb\xe3\xd3\xbfS\xb6\x85c\x14\xe4\xe5\xbf\xef\x84\x0f\x91\xc1\x0e\xf2\xbf\x1eN\xdb\x03\xf2z\xe8\xbf\x85L<5\xc4.\xf3?;\xf6\xed\xee\x1d\n\xc5?N\x99\xe0\xd0\x96y\xc9?\x0e3\x8fW@\x1b\xf1\xbf\xd3\xa7\x9a\xaf\xe1d\xbf\xbf\xe0*(@\xc5\x12\xf3\xbf\x85\x0e\xd8\x14\xc7\xdd\xf1\xbfY\x0e\xcbt\x0f*\xcc?Z\xd5\x18\x9e^\xdb\xe1\xbf"\xc7`O\xc7\x80\xdd?!\xa4\xb0G3\xef\xe3?\xf5tG\xfc>\xad\xa9\xbfi\xb4\xe4\xd1I{\xca\xbf?\xc8\x1f\xc5\xd2\xb2\xe0?%\x9c\x04r>\xbd\xd0\xbfL\xe8IM\x9c\x8c|?$\xbe\'B\xedT\xaf?\x1d\x18\xf6`.\x1b\xb9?K\xe2\x96+?3\xc5?\x9df\xf3\x15\xd6\xdc\xe4?|r\xe0\x06k!\xac?C\x1e\xa5/\x8f\xfc\xb7?AG\xab\xf8\x85w\x86\xbf\xeb,\x7f[\xcf\xfb\xeb\xbf4aF\r\xf2\xaa\xe8\xbf\xadJ\'-*~\xdf?\xc9\x882G\xed\xbd\xf3\xbf7\x8d\xa8\x1d\x06\xff\xb2\xbfM\xb48w \xc2\xe1?\xa1\x0f\xc8%\xa5F\xe1\xbf\xcf\xfa.\x1d\xc4\xfa\xe8?V\xb0\xa4\xa4\xd6T\xb0\xbfU.C\xd6\xe5\xe4\xe2\xbfuX\xf7\xf6\xd8\xc5\xd9\xbf\x8e\xc7\xf0\xc4\xad\x17\xe6?O\xe9\xa4G\xc0&\xaf?\x17\xc6\x9ch\xa2w\xeb?\xceCr\x10F>\xe5?d\xe1o\x8b\x1dC$\xbf\xeb\x95\\\x01\x06z\xe1\xbf+|I\x19y\xcf\xa4?\x80$\xb4l\xf7+\xe8\xbf\x82\xa0\x02\xbfn;\xc0?\x07\xa0\xaa\xd65\xae\xc7\xbf\xa4!vhU"\xc0?yC\x08R\xf7o\xe7?#f\x90\xcck-\xa8?\x8en|\x83\x86\xf5|\xbf\x9d\xf1\x16\x8e\x13\x1a\xe0?\xb4@w\xd65\xd2\xd9\xbf*\x00\x02\xe4\'\x10\xf0?1\xafa8\x86\xc0\xe8?\x04$\xa2\x83\'z\xd9\xbf\x04\xd3z$\x11{\xd0\xbfI\x00\xa7}\xd9\xd0\xc0?\xae&\xcf)\xca\xc2\xe0\xbf\x04\xb9\xff>\xd5\xbf\xac\xbf\xd9\x18\x8d3/&\xd0?F\xb9;M\x1d\xf0\xd4?\xc1\x8a\xbb\xfa\x83\xe5\xe0?;\'\x10"\x879\xe7\xbf\xab\xe0\xa8\xec\x9f\xb9\xe2\xbfB\x0e}\xf9\xa0i\xc7\xbf\xfd\x10\xafo6\x07\xe3\xbf\xc3N\xa3W\x94 \xc4\xbf\xbd"R\xa1\xe1\xf7\xe9?|\xdc\xca^:\xda\xba?\x13z_\xd8<M\xd0?\\\x8f\x91\x05\xdfg\xeb?\xfd\xe3\x0c\x8a\x8f\x07\xd8?!\xf5I\xd0\xc7\xb7\xe5\xbfW\x9eU\xd0\xe4\xa7\xb1\xbf\x89C\xc3 \x80\xdd\xb4?\x9b\xe4\xa6\xc4\x8ct\xb3\xbf\x0e\xedH\x9a\xbai\xae?\x01a\xf4l\x18\xc9\xe6\xbf:\x95\xf9\xcc\xb2g\xc0\xbf]\xeb\xdb%\x02\xc7\xdb?\xd0:\x9b\x9a\xcf\x0f\xdf?\xceC\\\x8do\x9a\xea?\x81LV\x197\x9b\xe8\xbfc\x93\xe0~2\xff\xb6?\xf2\xdc\xbd\x13\xb4L\xba?Xt\x02>\xd8\x01\xe0\xbf\xad\xe8\xe3\xe7\xe2mp\xbf\x81\x0f\x8dc\xd8\xd1\xea?\x05\'\xb7\xf5\xbb\x01\xe1?k!\xf1\xb6\x1cp\xec?\x12\xfc\x96\x83\x15\x15\xc9?=\xd0O/D\x82|\xbfm\xb58}U.\xde?\x87/|R0j\xd6?\x1fc\x018\x00y\xe6?\r\xf4o\x84\x9c\xba\xd1?x\xc0\xb6\xd6m\x96\xd3\xbfJ\x15\x96c\x19;\xe4\xbf\x13O\xa4K\xe3\xab\xd9\xbf\xb4\xf1\xd1@\xba\xca\xe1\xbfCpy\x8f\x8a\x8d\xe2?\x12O\xb8e6\x96\xb6?(N(\x87\xc8$\xe2\xbf\x04J\x82\xad7\x8b\xce\xbftDk"5\xce\xc5?\xa3 \xc9\x0b\xde\xdf\xd3?\xc6?0E\x05\x8d\xea\xbfOm\xf1\xb2T\xf6\xe1?[\xbfs1\xadb\xd7\xbfg$*"\xd6\xcf\xe9? \xc5=\xdc\xf8\x10\xe5\xbf\xb1\x83\xff\xef\xd2n\xd4?nc\x8c\x8a:]\xca?\xb3\xc0\xbe\x1e\r\x93\xac?\x08`\x07\xf6)\x83\xd9\xbf\xdf\x81\xec\x8c-\xdd\xe6\xbfZ\x0f\xcd\xd1\x05.\xe9?\\U}\xe2#\x83\x9b?\x128\xacZ\xd1\xf8\xe0?\x88z\xfe,Y\x16\xbc?\x1au\xb68\x08U\xe5\xbf\xbaG\x03_K0\xe3?I\xdbY#\xa9w\xaa\xbf\x01\x88UN^\x12\xce\xbfM\xc1\xef\xaa\x84\xd9\xd1\xbf\xd8\xfez\x02\x8ab\xe4?\xa8+Z\x1e\xdd\xd8\xe8\xbf3\x81Y\xb4\x9e8\xd6\xbf\xc6,(2Y\xb5\xd1\xbf\xc5i\x83q\x80\xba\xd1\xbf\xc9\xfa\x04\x12\xd2\xb7\xe2\xbf\xea\xfe\xa0\x17\xaf\xf7\xc1?\x96G\x17\xa7\xa2u\xbe?\x03\xd58D\x19\xb7\xd4\xbf\x9bs\xcf\x9c\x83\xf5\xe9?\xe1\x97\xc7\xcax\xed\xdb\xbf`\x8f7\xf6\xa5\x9b\xe0\xbf\xe2{A\x1a\xe2=\xe4\xbfn5F{\x94\x82\xd2?\xe2KV\x8f\xffX\xce\xbfO\xc3\xc7\xe9#`\xd8\xbf3a+\xf3\x83\xa1\xf1?\xc5\x94\xde\x903I\xf2?\x82\xb0\x1c\x1aue\xe9?p\x04.\x10\x82?\x93?\x1c\xb7p\xc5jE\xd9?\xac\xe1LbT1\xb5\xbf\x89\x0b\x88S\xd0\x0e\xe2?\xfd>\xb0\x11\xd9\t\xf5\xbfF\xd3v\x1bp\xd5\xea\xbf\xa8\xe8\xc0\x0f\x188\xd8\xbf\x0c\xa3\x88M08\xa1\xbf\x81!\x807r\r\xec\xbf>\xf0\xe4\t\xb9\xbc\xe4\xbfs\x86\x0e`l\xe7\xe6\xbf)\x18\x15\xe2\xd4\xdb\xc0\xbfy\xdfL\x8a:\x1a\xda\xbfY\x13#=[5\xdb?[\xa01\x10\x9bM\xd4?5\xba\xf2K\xe1>\xb3\xbfk0\x84\xb5\xb7\xd1\xdd?\\\xd8\x1cu\x93\xbc\xd7?,\xb1\x1c\xf7]<\xd9?\x92\xe3\x8b\xf6 /\xe0?\xa8\x91\xa0\xe3k%\xc6\xbf\xcen\xf7\x1b\x97\xb9\xe4?\x9e\xea\x8c\x91\x92\x81\xdf?\x874\xf8\xafN\xf0\xe9?\xf2V\x9c\xfa\x9c?\xda?\xb75\x03\xd9\xdcd\xd8\xbf\x99\xb7d\xc0\xfd\xe5\xd4\xbf\xe8\x8b;\xbc\x8aQ\xd3?\n3\xcb\xcdO\'\xe1?\x90IU\xb2\xdc\xbe\xca?u\x87\x1b\xc5D\xed\xee\xbf\x82\xcdo\xafG\x04\xe2\xbf}\xde~\x0fx\xaa\xda?hN\xc1\xc9\x04i\xef?(\xbdS\xa7n\xf8\xd0\xbf\x87\x89\xa1l[\x8e\xde\xbf\xc13G\x94|k\xe6?\xb1\x9fl\x14\xd5\xc9\xe1?\xc1y=a\xd5;\xe1?\xdc\xa7p-++\xd1?BWA\xee\xe0\x0b\xe1\xbf`\xc9\xe0\xb0T\xe5\xd6\xbf\xec\xa3v\x95\x12>\xd1?\x1b\xf6\xc1`g\x87\xda?\xe2C\xb6\xb6\xbd!\xdb\xbf\x06\x80\xebr7\x81\xee\xbf\xca\x8d\xee\x16\xd2>\xdb?\xbf\x0f4|J\x9f\xc5?\xc2<\x90\xa8V\xbe\xc2?u\xad\x89\xc5{\xa4\xe5\xbf\xef\xa4\x81$\xba\x9d\xc0\xbf\x02\x9bx(\xe2\xfd\xdc\xbf\xf7\x03<\x00\xe1(\xe0\xbf\x9e\xe2\n\x9b)\xa6\xd5\xbfA\x95/\xfbZ\xdc\xe1?Tz\xed\x1f#\xff\xce\xbf\xe9\xf1\xb5c\xf8\xf5\xe0\xbfu\x15\xd5r\xa7\x8e\xc7?c\xd1\xf9C\x96U\xe7?\x87\x87\x1bW\x94\xff\xd6?\xd2\xe6\x89\xfc3l\xb6?\x15&\xcb\xf1\x94\x0b\xd7?\xa5\xdf\xdd s\x9a\xcd\xbf\xd8\xc6\x9f"\xad\x8e\xe0?9\xf7\x8d{\xd3\xd2\xef\xbf\x8fxZ\xf4\x0ev\xdb\xbf1\xd5\x90\xf5\x8b\x8c\xd1?M\xe7z\xb0F9\xd6\xbf/\xdf\xb0\xb8!M\xe9\xbf\xfe\xef\xd1;\xb1F\xd7?\xeb\xff\x00\xc1XV\xae?I\\o\xc9\x91\xba\xe6?q\x05hF\xd9\xb1\xdd\xbf\xf0\xee\x15\x84H\xf9\xd1?dR\x16\x14\x7f\xf0\xe5?\xf9\xa3\xd2f\xfe\xb3\xd2?<\xf5 \xa7\xad\xc2\xe2?Dg(\xb3\x1e\xaa\xcc?(\xb1\x1c@\x82\xc1\xe3?\xc2\xcf\xfb\x84\x02\x02\xe2\xbfIK\x99+\x19\xa3\xc4?\t\x9c\xcdp\xbf\xba\xd9?\xdc\xa0Z\xc6fv\xe0?\xc3g064\xcc\xe5\xbf\xb3\xd0_\xd8\xb0\xd9\xdb\xbf*;6sJ\xa3\xe1?\x01^\xc5\x03\x1d\xae\xca?\x00aTA\xa4\xcd\xd8\xbf8\x12\x86\xf4\xc3\xdd\xe9?\x80\x96?e\x87F\xd9?OP\x9a~l\xf5\xe8?a\x18+\x80\xaf\xcf\xaa?\xbc\x8f\xbe\xf2[C\xea?\xbe\xbfK\xfc\x86{\x89?\xc4N\r\x1a]\x9b\x9e\xbf\xd4\xe1C\xd5\x93\x91\xcd\xbf\xfc\xd0U\xd7V\x88\xbb\xbfJ\x80\xe3\x82\xef\xd2\xc7?\xef\x0f\x86\xb6\x0b\x0b\xe0?\xe8\xd7\x12Rz\xba\xe1\xbf\xc6\x1a\xd4\x80\x92\xdd\xea?\x07f\'\x90,\x93\xc8\xbf~=1\xc0\xad\xa9\xca?\xd7Nrq\x98\r\xe1\xbf\xdc\\\xa7\xeb\xcc$\xe5?\xbe0Ml1N\xa3\xbf\x0b>*\xea\xed\x12\xe7?s\x0c{\xba\x8f\xa7\xb0\xbfY<\x9b2\xfa\xde\xe5?\xb9+\x80\xa9\xb9@\xd2?\xecu\x99\xe6\xe8T\xc9\xbf'
p60
tp61
bssS'transf'
p62
(ineurolab.trans
TanSig
p63
(dp64
bsS'out_minmax'
p65
g18
(g19
(I0
tp66
g21
tp67
Rp68
(I1
(I33
I2
tp69
g28
I00
S'\x00\x00\x00\x00\x00\x00\xf0\xbf\x00\x00\x00\x00\x00\x00\xf0?\x00\x00\x00\x00\x00\x00\xf0\xbf\x00\x00\x00\x00\x00\x00\xf0?\x00\x00\x00\x00\x00\x00\xf0\xbf\x00\x00\x00\x00\x00\x00\xf0?\x00\x00\x00\x00\x00\x00\xf0\xbf\x00\x00\x00\x00\x00\x00\xf0?\x00\x00\x00\x00\x00\x00\xf0\xbf\x00\x00\x00\x00\x00\x00\xf0?\x00\x00\x00\x00\x00\x00\xf0\xbf\x00\x00\x00\x00\x00\x00\xf0?\x00\x00\x00\x00\x00\x00\xf0\xbf\x00\x00\x00\x00\x00\x00\xf0?\x00\x00\x00\x00\x00\x00\xf0\xbf\x00\x00\x00\x00\x00\x00\xf0?\x00\x00\x00\x00\x00\x00\xf0\xbf\x00\x00\x00\x00\x00\x00\xf0?\x00\x00\x00\x00\x00\x00\xf0\xbf\x00\x00\x00\x00\x00\x00\xf0?\x00\x00\x00\x00\x00\x00\xf0\xbf\x00\x00\x00\x00\x00\x00\xf0?\x00\x00\x00\x00\x00\x00\xf0\xbf\x00\x00\x00\x00\x00\x00\xf0?\x00\x00\x00\x00\x00\x00\xf0\xbf\x00\x00\x00\x00\x00\x00\xf0?\x00\x00\x00\x00\x00\x00\xf0\xbf\x00\x00\x00\x00\x00\x00\xf0?\x00\x00\x00\x00\x00\x00\xf0\xbf\x00\x00\x00\x00\x00\x00\xf0?\x00\x00\x00\x00\x00\x00\xf0\xbf\x00\x00\x00\x00\x00\x00\xf0?\x00\x00\x00\x00\x00\x00\xf0\xbf\x00\x00\x00\x00\x00\x00\xf0?\x00\x00\x00\x00\x00\x00\xf0\xbf\x00\x00\x00\x00\x00\x00\xf0?\x00\x00\x00\x00\x00\x00\xf0\xbf\x00\x00\x00\x00\x00\x00\xf0?\x00\x00\x00\x00\x00\x00\xf0\xbf\x00\x00\x00\x00\x00\x00\xf0?\x00\x00\x00\x00\x00\x00\xf0\xbf\x00\x00\x00\x00\x00\x00\xf0?\x00\x00\x00\x00\x00\x00\xf0\xbf\x00\x00\x00\x00\x00\x00\xf0?\x00\x00\x00\x00\x00\x00\xf0\xbf\x00\x00\x00\x00\x00\x00\xf0?\x00\x00\x00\x00\x00\x00\xf0\xbf\x00\x00\x00\x00\x00\x00\xf0?\x00\x00\x00\x00\x00\x00\xf0\xbf\x00\x00\x00\x00\x00\x00\xf0?\x00\x00\x00\x00\x00\x00\xf0\xbf\x00\x00\x00\x00\x00\x00\xf0?\x00\x00\x00\x00\x00\x00\xf0\xbf\x00\x00\x00\x00\x00\x00\xf0?\x00\x00\x00\x00\x00\x00\xf0\xbf\x00\x00\x00\x00\x00\x00\xf0?\x00\x00\x00\x00\x00\x00\xf0\xbf\x00\x00\x00\x00\x00\x00\xf0?\x00\x00\x00\x00\x00\x00\xf0\xbf\x00\x00\x00\x00\x00\x00\xf0?\x00\x00\x00\x00\x00\x00\xf0\xbf\x00\x00\x00\x00\x00\x00\xf0?\x00\x00\x00\x00\x00\x00\xf0\xbf\x00\x00\x00\x00\x00\x00\xf0?\x00\x00\x00\x00\x00\x00\xf0\xbf\x00\x00\x00\x00\x00\x00\xf0?'
p70
tp71
bsS'out'
p72
g18
(g19
(I0
tp73
g21
tp74
Rp75
(I1
(I33
tp76
g28
I00
S'\x8d\x8a\xb1\xb8 \xe2\xee?\xea\xb8A\xfd\xb0=\xef?i7.\xef\xc87\xef?b\x0e\x16\xfbEy\xef?\xb5\x89\xd4\xf0I\xdb\xed?\xbds\xea\xdb\xb1z\xed\xbf\xc8\x1b`X\xa3\x1b\xd0?L;\x1b(F\xbb\x91\xbf\x19o\xf4\xc9\x93\xb2\xee?\x0c\xf0\x87\xa9h\xd5\xe6?\x01\xd0\xce|\xfbz\xdb\xbf\xb3~D\xb3\x81,\xed?\xb6I\xa7\xd4\xe2\x88\xef\xbf\xb9\xb3\xa4\x94\xc0~\xed\xbf\xf0\nh\xe1z\xff\xef?6U\x1f\xf2\x01\xaa\xef?\xec\xd3\x9e[\r\xe6}?\x9b"(\xc5C\x82\xef\xbfY\x0b5u\xfb\xe2\xec?\xd8:t\xc4\xab\xe8\xec\xbf&;7\xee\r3\xeb\xbf/5\xacS\x8b\xbc\xec?_\x18N\xc1,\xd9\xec\xbf\x80t\x12\xa8\xcd\xf7\xef?B">\xf7\xcc\x82\xd4?\x82\xa4h\x7f\xc2\xfb\xef?\xae\xee\x85\xefd\x87\xef?M\\\xc9\xb7\xbf\x87\xe7?\x9b\x1ce\x93%\xf5\xef\xbf\xa9\x10\n"X\xee\xef?\xf8\x13\xc59\xb5/\xef?5\x17}\xad\xeaH\xee\xbfg\xfb!\x83\xa1\xfe\xef\xbf'
p77
tp78
bsbag0
(g8
g2
Ntp79
Rp80
(dp81
g12
g13
sg14
I33
sg15
I1
sg16
I1
sg17
g18
(g19
(I0
tp82
g21
tp83
Rp84
(I1
(I33
I2
tp85
g28
I00
S'\x00\x00\x00\x00\x00\x00\xf0\xbf\x00\x00\x00\x00\x00\x00\xf0?\x00\x00\x00\x00\x00\x00\xf0\xbf\x00\x00\x00\x00\x00\x00\xf0?\x00\x00\x00\x00\x00\x00\xf0\xbf\x00\x00\x00\x00\x00\x00\xf0?\x00\x00\x00\x00\x00\x00\xf0\xbf\x00\x00\x00\x00\x00\x00\xf0?\x00\x00\x00\x00\x00\x00\xf0\xbf\x00\x00\x00\x00\x00\x00\xf0?\x00\x00\x00\x00\x00\x00\xf0\xbf\x00\x00\x00\x00\x00\x00\xf0?\x00\x00\x00\x00\x00\x00\xf0\xbf\x00\x00\x00\x00\x00\x00\xf0?\x00\x00\x00\x00\x00\x00\xf0\xbf\x00\x00\x00\x00\x00\x00\xf0?\x00\x00\x00\x00\x00\x00\xf0\xbf\x00\x00\x00\x00\x00\x00\xf0?\x00\x00\x00\x00\x00\x00\xf0\xbf\x00\x00\x00\x00\x00\x00\xf0?\x00\x00\x00\x00\x00\x00\xf0\xbf\x00\x00\x00\x00\x00\x00\xf0?\x00\x00\x00\x00\x00\x00\xf0\xbf\x00\x00\x00\x00\x00\x00\xf0?\x00\x00\x00\x00\x00\x00\xf0\xbf\x00\x00\x00\x00\x00\x00\xf0?\x00\x00\x00\x00\x00\x00\xf0\xbf\x00\x00\x00\x00\x00\x00\xf0?\x00\x00\x00\x00\x00\x00\xf0\xbf\x00\x00\x00\x00\x00\x00\xf0?\x00\x00\x00\x00\x00\x00\xf0\xbf\x00\x00\x00\x00\x00\x00\xf0?\x00\x00\x00\x00\x00\x00\xf0\xbf\x00\x00\x00\x00\x00\x00\xf0?\x00\x00\x00\x00\x00\x00\xf0\xbf\x00\x00\x00\x00\x00\x00\xf0?\x00\x00\x00\x00\x00\x00\xf0\xbf\x00\x00\x00\x00\x00\x00\xf0?\x00\x00\x00\x00\x00\x00\xf0\xbf\x00\x00\x00\x00\x00\x00\xf0?\x00\x00\x00\x00\x00\x00\xf0\xbf\x00\x00\x00\x00\x00\x00\xf0?\x00\x00\x00\x00\x00\x00\xf0\xbf\x00\x00\x00\x00\x00\x00\xf0?\x00\x00\x00\x00\x00\x00\xf0\xbf\x00\x00\x00\x00\x00\x00\xf0?\x00\x00\x00\x00\x00\x00\xf0\xbf\x00\x00\x00\x00\x00\x00\xf0?\x00\x00\x00\x00\x00\x00\xf0\xbf\x00\x00\x00\x00\x00\x00\xf0?\x00\x00\x00\x00\x00\x00\xf0\xbf\x00\x00\x00\x00\x00\x00\xf0?\x00\x00\x00\x00\x00\x00\xf0\xbf\x00\x00\x00\x00\x00\x00\xf0?\x00\x00\x00\x00\x00\x00\xf0\xbf\x00\x00\x00\x00\x00\x00\xf0?\x00\x00\x00\x00\x00\x00\xf0\xbf\x00\x00\x00\x00\x00\x00\xf0?\x00\x00\x00\x00\x00\x00\xf0\xbf\x00\x00\x00\x00\x00\x00\xf0?\x00\x00\x00\x00\x00\x00\xf0\xbf\x00\x00\x00\x00\x00\x00\xf0?\x00\x00\x00\x00\x00\x00\xf0\xbf\x00\x00\x00\x00\x00\x00\xf0?\x00\x00\x00\x00\x00\x00\xf0\xbf\x00\x00\x00\x00\x00\x00\xf0?'
p86
tp87
bsg33
g75
sg40
g18
(g19
(I0
tp88
g21
tp89
Rp90
(I1
(I1
tp91
g28
I00
S'9\xb4s\x9a\xf7\xd6\xbf?'
p92
tp93
bsg47
(dp94
g21
g18
(g19
(I0
tp95
g21
tp96
Rp97
(I1
(I1
tp98
g28
I00
S'\x06\x92T\xfaM<\xc5?'
p99
tp100
bsg55
g18
(g19
(I0
tp101
g21
tp102
Rp103
(I1
(I1
I33
tp104
g28
I00
S'\xcaO\x98\xa1\xb7-\xeb?\xe9\xca\xfe\xfe\xc1C\xe9\xbf\xef\xe5\xe6-\xaa\xb6\xe2?\xf4\x98\x13K\xfeX\xee\xbf\x97\xe1\xf2\x05\x8cp\xec\xbf\xe9Q\xc1_}\r\xe2?\xdd\xafk\xa1\x91\xcb\xc6?\xd4;n\x9a\xcbS\xdb\xbf:\xd5u\x81hY\xeb?\xc2\xa3^\xdd\xa5<\xd2\xbf\x88kS]\xef\x8f\xb2\xbf\xb8sRb\xd7\xa1\xca\xbfQ]\x00}\n\x1f\xdc?\x804\x92\x81\xbe\xb1\xe8\xbf}#9\xb7|\xcf\xbf?\xda\x18nu\xf5\x11\xe6?m\xc1\xfc\xec\xf6m\xda?\xd0\xde\\@\xf6\x19\xf4?\xd3\xf7\x8c\x10\xe9M\xb5\xbf\x89\xc2\x963\xef\xe4\xd3\xbf\x8e\xffm\xb1\xc7_\xc6\xbf\xfa\xcbn\xa0Ve\xda\xbf\xd8\xc8\x8ai\xa2\xc7\xdd?\xef\x8f~\xf6\xdc\x7f\xcc?\xfbz"\xd41\xcc\xce?]\x9b\x18o\x00\xe2\xd0?\xd7\x1e\x1at\x85\xfe\xf0\xbfR\x94\xbd\xc4)\x0c\xdc?\x1a\x8b)\xcb\xb4\x17\xdf\xbf\x181\x18\xb6\xb0C\xa9?\\B\x92\xbeT\xef\xec?\xf2\xeaC\x83\xf2\xe4\xdc\xbfZ\xec0\xf5\xd9D\x8b\xbf'
p105
tp106
bssg62
g63
sg65
g18
(g19
(I0
tp107
g21
tp108
Rp109
(I1
(I1
I2
tp110
g28
I00
S'\x00\x00\x00\x00\x00\x00\xf0\xbf\x00\x00\x00\x00\x00\x00\xf0?'
p111
tp112
bsg72
g18
(g19
(I0
tp113
g21
tp114
Rp115
(I1
(I1
tp116
g28
I00
S'O\xde)h2\xad\xbf?'
p117
tp118
bsbasg14
I40
sg15
I1
sg17
g18
(g19
(I0
tp119
g21
tp120
Rp121
(I1
(I40
I2
tp122
g28
I00
S'\x00\x00\x00\x00\x00\x00\x00\x00\x00\x00\x00\x00\x00\x00\xf0?\x00\x00\x00\x00\x00\x00\x00\x00\x00\x00\x00\x00\x00\x00\xf0?\x00\x00\x00\x00\x00\x00\x00\x00\x00\x00\x00\x00\x00\x00\xf0?\x00\x00\x00\x00\x00\x00\x00\x00\x00\x00\x00\x00\x00\x00\xf0?\x00\x00\x00\x00\x00\x00\x00\x00\x00\x00\x00\x00\x00\x00\xf0?\x00\x00\x00\x00\x00\x00\x00\x00\x00\x00\x00\x00\x00\x00\xf0?\x00\x00\x00\x00\x00\x00\x00\x00\x00\x00\x00\x00\x00\x00\xf0?\x00\x00\x00\x00\x00\x00\x00\x00\x00\x00\x00\x00\x00\x00\xf0?\x00\x00\x00\x00\x00\x00\x00\x00\x00\x00\x00\x00\x00\x00\xf0?\x00\x00\x00\x00\x00\x00\x00\x00\x00\x00\x00\x00\x00\x00\xf0?\x00\x00\x00\x00\x00\x00\x00\x00\x00\x00\x00\x00\x00\x00\xf0?\x00\x00\x00\x00\x00\x00\x00\x00\x00\x00\x00\x00\x00\x00\xf0?\x00\x00\x00\x00\x00\x00\x00\x00\x00\x00\x00\x00\x00\x00\xf0?\x00\x00\x00\x00\x00\x00\x00\x00\x00\x00\x00\x00\x00\x00\xf0?\x00\x00\x00\x00\x00\x00\x00\x00\x00\x00\x00\x00\x00\x00\xf0?\x00\x00\x00\x00\x00\x00\x00\x00\x00\x00\x00\x00\x00\x00\xf0?\x00\x00\x00\x00\x00\x00\x00\x00\x00\x00\x00\x00\x00\x00\xf0?\x00\x00\x00\x00\x00\x00\x00\x00\x00\x00\x00\x00\x00\x00\xf0?\x00\x00\x00\x00\x00\x00\x00\x00\x00\x00\x00\x00\x00\x00\xf0?\x00\x00\x00\x00\x00\x00\x00\x00\x00\x00\x00\x00\x00\x00\xf0?\x00\x00\x00\x00\x00\x00\x00\x00\x00\x00\x00\x00\x00\x00\xf0?\x00\x00\x00\x00\x00\x00\x00\x00\x00\x00\x00\x00\x00\x00\xf0?\x00\x00\x00\x00\x00\x00\x00\x00\x00\x00\x00\x00\x00\x00\xf0?\x00\x00\x00\x00\x00\x00\x00\x00\x00\x00\x00\x00\x00\x00\xf0?\x00\x00\x00\x00\x00\x00\x00\x00\x00\x00\x00\x00\x00\x00\xf0?\x00\x00\x00\x00\x00\x00\x00\x00\x00\x00\x00\x00\x00\x00\xf0?\x00\x00\x00\x00\x00\x00\x00\x00\x00\x00\x00\x00\x00\x00\xf0?\x00\x00\x00\x00\x00\x00\x00\x00\x00\x00\x00\x00\x00\x00\xf0?\x00\x00\x00\x00\x00\x00\x00\x00\x00\x00\x00\x00\x00\x00\xf0?\x00\x00\x00\x00\x00\x00\x00\x00\x00\x00\x00\x00\x00\x00\xf0?\x00\x00\x00\x00\x00\x00\x00\x00\x00\x00\x00\x00\x00\x00\xf0?\x00\x00\x00\x00\x00\x00\x00\x00\x00\x00\x00\x00\x00\x00\xf0?\x00\x00\x00\x00\x00\x00\x00\x00\x00\x00\x00\x00\x00\x00\xf0?\x00\x00\x00\x00\x00\x00\x00\x00\x00\x00\x00\x00\x00\x00\xf0?\x00\x00\x00\x00\x00\x00\x00\x00\x00\x00\x00\x00\x00\x00\xf0?\x00\x00\x00\x00\x00\x00\x00\x00\x00\x00\x00\x00\x00\x00\xf0?\x00\x00\x00\x00\x00\x00\x00\x00\x00\x00\x00\x00\x00\x00\xf0?\x00\x00\x00\x00\x00\x00\x00\x00\x00\x00\x00\x00\x00\x00\xf0?\x00\x00\x00\x00\x00\x00\x00\x00\x00\x00\x00\x00\x00\x00\xf0?\x00\x00\x00\x00\x00\x00\x00\x00\x00\x00\x00\x00\x00\x00\xf0?'
p123
tp124
bsg33
g36
sS'trainf'
p125
g0
(cneurolab.core
Trainer
p126
g2
Ntp127
Rp128
(dp129
S'_train_class'
p130
cneurolab.train.spo
TrainCG
p131
sS'__module__'
p132
S'neurolab.train.spo'
p133
sS'params'
p134
(dp135
S'epochs'
p136
I5000
sS'train'
p137
(dp138
S'rr'
p139
I0
ssS'goal'
p140
F2e-05
sS'show'
p141
I500
ssS'defaults'
p142
(dp143
g136
I500
sg137
(dp144
g139
I0
ssg140
F0.01
sg141
I100
ssS'error'
p145
(lp146
cnumpy.core.multiarray
scalar
p147
(g28
S'\x99\xfeV\x9d-\x93?@'
p148
tp149
Rp150
ag147
(g28
S'X\x0b\x89n2?<@'
p151
tp152
Rp153
ag147
(g28
S'\x08,\x0c>\xe1r+@'
p154
tp155
Rp156
ag147
(g28
S'\x0e\xef\x1f\t\xba\xb6*@'
p157
tp158
Rp159
ag147
(g28
S'\x8c\xae"\x89\xd6\xa7(@'
p160
tp161
Rp162
ag147
(g28
S'\x8a\xf5[J<`(@'
p163
tp164
Rp165
ag147
(g28
S'\xe7b\x10\xe7\xd9\xf7#@'
p166
tp167
Rp168
ag147
(g28
S'\xb2\x12\x84\x9eT\xe0#@'
p169
tp170
Rp171
ag147
(g28
S'[\x0cqVN%"@'
p172
tp173
Rp174
ag147
(g28
S'*w\xbe^\xe0\x8f!@'
p175
tp176
Rp177
ag147
(g28
S'"\x8b\xaee\xf0\x19!@'
p178
tp179
Rp180
ag147
(g28
S'T=E\x12\xb0\x00!@'
p181
tp182
Rp183
ag147
(g28
S'\xfdP\x84\xb6\xa8\xf2 @'
p184
tp185
Rp186
ag147
(g28
S'V\xcb\x9aX~#\x1f@'
p187
tp188
Rp189
ag147
(g28
S'\xfe\xecx\xef`\x14\x1f@'
p190
tp191
Rp192
ag147
(g28
S'(\xa9D\xbcS\xad\x1e@'
p193
tp194
Rp195
ag147
(g28
S'W\xcd\x86O\xe6\xa3\x1e@'
p196
tp197
Rp198
ag147
(g28
S':rk+\xec\x9d\x1e@'
p199
tp200
Rp201
ag147
(g28
S'\xd2\xea2\xe6\x8b}\x1e@'
p202
tp203
Rp204
ag147
(g28
S'\x96\xee\xb2\xefbw\x1e@'
p205
tp206
Rp207
ag147
(g28
S'\xd4\xa2\xb5\xc8w>\x1e@'
p208
tp209
Rp210
ag147
(g28
S'^\xad\x1a\x81\x8e8\x1e@'
p211
tp212
Rp213
ag147
(g28
S'\x01\xb6s\x1b\x7f\x10\x1e@'
p214
tp215
Rp216
ag147
(g28
S'\xbe\x19\x03\x17\xdd\xb4\x1d@'
p217
tp218
Rp219
ag147
(g28
S'\xb7\xebC\xd4\xe2\xa1\x1d@'
p220
tp221
Rp222
ag147
(g28
S's`Q\x86$\xa0\x1d@'
p223
tp224
Rp225
ag147
(g28
S'\x89\x8d+O\x81\x86\x1d@'
p226
tp227
Rp228
ag147
(g28
S'+\r\xd1\x8a\x1e\x84\x1d@'
p229
tp230
Rp231
ag147
(g28
S'4\x8c\xdce\x1ek\x1d@'
p232
tp233
Rp234
ag147
(g28
S'\xcf\xa2*\xf8\xa5g\x1d@'
p235
tp236
Rp237
ag147
(g28
S'FX\x8a!FW\x1d@'
p238
tp239
Rp240
ag147
(g28
S'\xd4\x8a-\x12\x95T\x1d@'
p241
tp242
Rp243
ag147
(g28
S'\x10\x02g\xcd\x9cJ\x1d@'
p244
tp245
Rp246
ag147
(g28
S'\xdc5\xc4\xf1\x07G\x1d@'
p247
tp248
Rp249
ag147
(g28
S't\xce\xe8g\x12:\x1d@'
p250
tp251
Rp252
ag147
(g28
S'\xcb\x92~5\xfb0\x1d@'
p253
tp254
Rp255
ag147
(g28
S'j\xceXj\xfc\x11\x1d@'
p256
tp257
Rp258
ag147
(g28
S'A)T\x08\x18\xfd\x1c@'
p259
tp260
Rp261
ag147
(g28
S'\xf7\x9d\xf3\x8e\xf5\xc7\x1c@'
p262
tp263
Rp264
ag147
(g28
S'Rr\x98\xb2\xae\xc0\x1c@'
p265
tp266
Rp267
ag147
(g28
S'?\x04\xfb\x17k\xaf\x1c@'
p268
tp269
Rp270
ag147
(g28
S'\xe4\xea&\xacz\xab\x1c@'
p271
tp272
Rp273
ag147
(g28
S'\x1a\x81;\xd7\xfb\xa5\x1c@'
p274
tp275
Rp276
ag147
(g28
S'\xc8v\xb7\xc0\xd6\x9b\x1c@'
p277
tp278
Rp279
ag147
(g28
S'ln\x01\xcb\xa2|\x1c@'
p280
tp281
Rp282
ag147
(g28
S'\xcdb\xa9e\\z\x1c@'
p283
tp284
Rp285
ag147
(g28
S'&\xb6\xec\xfd\xf8I\x1c@'
p286
tp287
Rp288
ag147
(g28
S'C\x0e\x9b\xc4KA\x1c@'
p289
tp290
Rp291
ag147
(g28
S'R\x1f\xa00\x0c\x10\x1c@'
p292
tp293
Rp294
ag147
(g28
S'=\xd8,\xec\x93\x0f\x1c@'
p295
tp296
Rp297
ag147
(g28
S'W.a\xab\x0f\xfc\x1b@'
p298
tp299
Rp300
ag147
(g28
S'\xa2\xa4N\x00#\xfb\x1b@'
p301
tp302
Rp303
ag147
(g28
S'oC:{\xff\xea\x1b@'
p304
tp305
Rp306
ag147
(g28
S'\xc1s\xc8{\x94\xea\x1b@'
p307
tp308
Rp309
ag147
(g28
S'\xc5\xbfT&I\xd7\x1b@'
p310
tp311
Rp312
ag147
(g28
S'-\x85r%i\xd6\x1b@'
p313
tp314
Rp315
ag147
(g28
S'\xdegj\x99|\xc0\x1b@'
p316
tp317
Rp318
ag147
(g28
S'\xbc\xed\xea;\xff\xbf\x1b@'
p319
tp320
Rp321
ag147
(g28
S'\x88\xf9\xb4rP\xbb\x1b@'
p322
tp323
Rp324
ag147
(g28
S'd0.;\xf7\xb8\x1b@'
p325
tp326
Rp327
ag147
(g28
S'\xcec\xb1\x13\\\xaa\x1b@'
p328
tp329
Rp330
ag147
(g28
S'\x1e\xc3\xcd\xf9\xe4\xa9\x1b@'
p331
tp332
Rp333
ag147
(g28
S'\xd2\xb3\x00*@\x9c\x1b@'
p334
tp335
Rp336
ag147
(g28
S'0J\xad"\xbc\x93\x1b@'
p337
tp338
Rp339
ag147
(g28
S'\xbcc\xc1\xbf\xc4\x8f\x1b@'
p340
tp341
Rp342
ag147
(g28
S'\xa7T\xd5\xa2\x81\x8d\x1b@'
p343
tp344
Rp345
ag147
(g28
S'"\xa7\x8cX\xfa\x83\x1b@'
p346
tp347
Rp348
ag147
(g28
S'<\x85P\xbaz\x83\x1b@'
p349
tp350
Rp351
ag147
(g28
S'zQ9\x85$e\x1b@'
p352
tp353
Rp354
ag147
(g28
S'2\r\xc3\xdb\xbcb\x1b@'
p355
tp356
Rp357
ag147
(g28
S'F[NF\xefA\x1b@'
p358
tp359
Rp360
ag147
(g28
S'\x1f\xaf9\x14\x05=\x1b@'
p361
tp362
Rp363
ag147
(g28
S"\xb8c\xae5n'\x1b@"
p364
tp365
Rp366
ag147
(g28
S'\xbc\xb3yT\x1d#\x1b@'
p367
tp368
Rp369
ag147
(g28
S'4\xa9\xe9\xc5\xfc\x19\x1b@'
p370
tp371
Rp372
ag147
(g28
S'\xc6\xe6\xa9i\xcb\x14\x1b@'
p373
tp374
Rp375
ag147
(g28
S'\xf8\x03\x0f3\xa5\r\x1b@'
p376
tp377
Rp378
ag147
(g28
S'\xf6[%\\h\x0c\x1b@'
p379
tp380
Rp381
ag147
(g28
S'\\\xb1\x8c\x92\xf1\xef\x1a@'
p382
tp383
Rp384
ag147
(g28
S'ZqG%\xc4\xe0\x1a@'
p385
tp386
Rp387
ag147
(g28
S'h\xd9\xd61K\xda\x1a@'
p388
tp389
Rp390
ag147
(g28
S'\x11\x19\x16\n(\xd8\x1a@'
p391
tp392
Rp393
ag147
(g28
S'\xfa\x94\x85hW\xd5\x1a@'
p394
tp395
Rp396
ag147
(g28
S'\xb1A\xbf\x98-\xd5\x1a@'
p397
tp398
Rp399
ag147
(g28
S'KR\x10\x1a\r\xd1\x1a@'
p400
tp401
Rp402
ag147
(g28
S'F\x90\xd0\xe58\xc7\x1a@'
p403
tp404
Rp405
ag147
(g28
S'\xc4\x19\x06\xb5T\xc4\x1a@'
p406
tp407
Rp408
ag147
(g28
S'`\x94\xc6|\xdd\xc3\x1a@'
p409
tp410
Rp411
ag147
(g28
S'\xb9\xec\xd8\xa7\xb3\xc0\x1a@'
p412
tp413
Rp414
ag147
(g28
S'<0gl\xa2\xc0\x1a@'
p415
tp416
Rp417
ag147
(g28
S'@"\xd5\xc9\x12\xbb\x1a@'
p418
tp419
Rp420
ag147
(g28
S'\xd4\xc9\x93\xad\xf6\xba\x1a@'
p421
tp422
Rp423
ag147
(g28
S'\xec\xab\x9cJ.\xb1\x1a@'
p424
tp425
Rp426
ag147
(g28
S'Qt\xb5\xfa\xb7\xb0\x1a@'
p427
tp428
Rp429
ag147
(g28
S'\x1a:\xa5\t;\xa0\x1a@'
p430
tp431
Rp432
ag147
(g28
S'we\xdc,Z\x9f\x1a@'
p433
tp434
Rp435
ag147
(g28
S'\x12R&\x7f}\x87\x1a@'
p436
tp437
Rp438
ag147
(g28
S'\xe4>\xa5Fl\x85\x1a@'
p439
tp440
Rp441
ag147
(g28
S'r\x93\xb4\xee\xf6~\x1a@'
p442
tp443
Rp444
ag147
(g28
S':H#\xb6@o\x1a@'
p445
tp446
Rp447
ag147
(g28
S'z\x8c\xdal8\\\x1a@'
p448
tp449
Rp450
ag147
(g28
S'2\x8c\xedE\xdaT\x1a@'
p451
tp452
Rp453
ag147
(g28
S'\x10T\xa0\xedJL\x1a@'
p454
tp455
Rp456
ag147
(g28
S'\xf4\x8a\xbcX\x88J\x1a@'
p457
tp458
Rp459
ag147
(g28
S'\xa9E\xe0\x1en\x1a\x1a@'
p460
tp461
Rp462
ag147
(g28
S'\xa0F^!k\x19\x1a@'
p463
tp464
Rp465
ag147
(g28
S'R\xf1U@\xc4\x02\x1a@'
p466
tp467
Rp468
ag147
(g28
S'\xcd\x82V\x07N\x02\x1a@'
p469
tp470
Rp471
ag147
(g28
S'^\x07b\xbbo\xf9\x19@'
p472
tp473
Rp474
ag147
(g28
S'<b\xd7\x17\x0c\xf8\x19@'
p475
tp476
Rp477
ag147
(g28
S'E\nP<9\xeb\x19@'
p478
tp479
Rp480
ag147
(g28
S'\xe5\x8ek\xec\x88\xea\x19@'
p481
tp482
Rp483
ag147
(g28
S'\xd0K(\x87a\xe7\x19@'
p484
tp485
Rp486
ag147
(g28
S'\x16\x89\x8d\xc9\t\xe7\x19@'
p487
tp488
Rp489
ag147
(g28
S'\xb0\xb8\xa8\xe4A\xe6\x19@'
p490
tp491
Rp492
ag147
(g28
S'\xa7\x1c\x98\x05\xe4\xe5\x19@'
p493
tp494
Rp495
ag147
(g28
S'\x95](j\x11\xe5\x19@'
p496
tp497
Rp498
ag147
(g28
S'\x9a{\x9e\x0c\xab\xe4\x19@'
p499
tp500
Rp501
ag147
(g28
S'\x8e\xfd{\xbd\xb5\xe3\x19@'
p502
tp503
Rp504
ag147
(g28
S'\xa8\x1c\xc94>\xe3\x19@'
p505
tp506
Rp507
ag147
(g28
S'\x91q\xc88#\xe2\x19@'
p508
tp509
Rp510
ag147
(g28
S'\x0b\xc3\xe5\xb7\xa3\xe1\x19@'
p511
tp512
Rp513
ag147
(g28
S'\xaab/\x8b\x8f\xe0\x19@'
p514
tp515
Rp516
ag147
(g28
S'\x96!g\xb0\x1f\xe0\x19@'
p517
tp518
Rp519
ag147
(g28
S'!\xfdnu6\xdf\x19@'
p520
tp521
Rp522
ag147
(g28
S'\xef\xebj\xd5\xd9\xde\x19@'
p523
tp524
Rp525
ag147
(g28
S'\x8b\x80\\\xa6\x03\xde\x19@'
p526
tp527
Rp528
ag147
(g28
S'\xa0\xab\x8f\xf8\xa5\xdd\x19@'
p529
tp530
Rp531
ag147
(g28
S'\xba%!\xab\xa0\xdc\x19@'
p532
tp533
Rp534
ag147
(g28
S'\xfc\xd0\xccV!\xdc\x19@'
p535
tp536
Rp537
ag147
(g28
S'>\xfb\x9d)\x93\xda\x19@'
p538
tp539
Rp540
ag147
(g28
S'\xd9\x85\xf0w\xcf\xd9\x19@'
p541
tp542
Rp543
ag147
(g28
S'g\xf0\xa9\xaa\x7f\xd7\x19@'
p544
tp545
Rp546
ag147
(g28
S'\xca\x7fW\xb8v\xd6\x19@'
p547
tp548
Rp549
ag147
(g28
S'+D]\xd3\xa9\xd3\x19@'
p550
tp551
Rp552
ag147
(g28
S'\x88I\xbb4\x85\xd2\x19@'
p553
tp554
Rp555
ag147
(g28
S'\x86j\xcdD\xa1\xcf\x19@'
p556
tp557
Rp558
ag147
(g28
S'\x0c\x04\xedJo\xce\x19@'
p559
tp560
Rp561
ag147
(g28
S'\xb0\xc2\x94\x9cd\xcb\x19@'
p562
tp563
Rp564
ag147
(g28
S'$~c\x07\x03\xca\x19@'
p565
tp566
Rp567
ag147
(g28
S'\x84\xa5\x18\xe5\x93\xc6\x19@'
p568
tp569
Rp570
ag147
(g28
S'\x1c\x0c\xb3U\xe3\xc4\x19@'
p571
tp572
Rp573
ag147
(g28
S'*\xb2S\x8fN\xc1\x19@'
p574
tp575
Rp576
ag147
(g28
S'\x15\xee\t\x1aq\xbf\x19@'
p577
tp578
Rp579
ag147
(g28
S'b)\xc9\x1b\xd5\xbc\x19@'
p580
tp581
Rp582
ag147
(g28
S'\t\xcb\xfd\x99\xc3\xb9\x19@'
p583
tp584
Rp585
ag147
(g28
S'\xc2\x1b(1\xf4\xad\x19@'
p586
tp587
Rp588
ag147
(g28
S'f\x0ed\x05\x17\xad\x19@'
p589
tp590
Rp591
ag147
(g28
S'\x0ck\xe0\xf8\xeb\xa9\x19@'
p592
tp593
Rp594
ag147
(g28
S'\xabz\xe17\x15\xa8\x19@'
p595
tp596
Rp597
ag147
(g28
S',c\xe9c]\xa3\x19@'
p598
tp599
Rp600
ag147
(g28
S'\xae\x0e\xa0\xce\x89\xa0\x19@'
p601
tp602
Rp603
ag147
(g28
S'\x1a\xb4\x9e\xbe\xcf\x99\x19@'
p604
tp605
Rp606
ag147
(g28
S'\xc2\xc4\x9b\xd5P\x96\x19@'
p607
tp608
Rp609
ag147
(g28
S'\xe8\xcdK\xcfk\x8d\x19@'
p610
tp611
Rp612
ag147
(g28
S'\xeaK\x10\x94t\x89\x19@'
p613
tp614
Rp615
ag147
(g28
S'n<,H\xe3{\x19@'
p616
tp617
Rp618
ag147
(g28
S'\x01\xb0(q\xfev\x19@'
p619
tp620
Rp621
ag147
(g28
S'\xb6\x11\x83O\x9eW\x19@'
p622
tp623
Rp624
ag147
(g28
S'\x01\xf0\xd9D\x1bP\x19@'
p625
tp626
Rp627
ag147
(g28
S'p\x1f\xa3\xb9\xf6)\x19@'
p628
tp629
Rp630
ag147
(g28
S'\xa4T\x93G\xee\x04\x19@'
p631
tp632
Rp633
ag147
(g28
S'D\xf7\xc4\xa2\x87\xd8\x18@'
p634
tp635
Rp636
ag147
(g28
S'\x16\xc3\x1e\xe8`\xa2\x18@'
p637
tp638
Rp639
ag147
(g28
S'\xf0\xf8\x7f\xd8\xb9\x8f\x18@'
p640
tp641
Rp642
ag147
(g28
S'\x84\x11\xe8\xc0\x9e\x88\x18@'
p643
tp644
Rp645
ag147
(g28
S'\x00%\xc6\x1c\xc2\x83\x18@'
p646
tp647
Rp648
ag147
(g28
S'v\xce\xd6V\xf5|\x18@'
p649
tp650
Rp651
ag147
(g28
S'\x82nP\x9c\x02l\x18@'
p652
tp653
Rp654
ag147
(g28
S'\xd2\xeb3\n\xfdM\x18@'
p655
tp656
Rp657
ag147
(g28
S'\x9cc8\xd6\x1dK\x18@'
p658
tp659
Rp660
ag147
(g28
S'\x8c\xd7\x9f_H"\x18@'
p661
tp662
Rp663
ag147
(g28
S'\xfdJL\xfa\x19\x1c\x18@'
p664
tp665
Rp666
ag147
(g28
S'-\xb8\xf6,o\xdb\x17@'
p667
tp668
Rp669
ag147
(g28
S'\xacZ\x06.\\\xd5\x17@'
p670
tp671
Rp672
ag147
(g28
S'&U-\xf1&\xc1\x17@'
p673
tp674
Rp675
ag147
(g28
S'6O\xda\x17\xc6\xba\x17@'
p676
tp677
Rp678
ag147
(g28
S'X\xf9,\x1ee\xb2\x17@'
p679
tp680
Rp681
ag147
(g28
S'\x8c\x81L>\xd3\xb1\x17@'
p682
tp683
Rp684
ag147
(g28
S'\x13\xcbRG\x16\xa3\x17@'
p685
tp686
Rp687
ag147
(g28
S'k\x1456>\x93\x17@'
p688
tp689
Rp690
ag147
(g28
S'\xf0I@}\x95\x91\x17@'
p691
tp692
Rp693
ag147
(g28
S'\xae\x01\xe7V\xe8\x87\x17@'
p694
tp695
Rp696
ag147
(g28
S')\xedr\\n\x87\x17@'
p697
tp698
Rp699
ag147
(g28
S'V\x15\xa6\x98\xdb\x80\x17@'
p700
tp701
Rp702
ag147
(g28
S'X\x07" p\x80\x17@'
p703
tp704
Rp705
ag147
(g28
S'\xe4n\xa4N\xc8w\x17@'
p706
tp707
Rp708
ag147
(g28
S'x\x98\xdf\x86\x99w\x17@'
p709
tp710
Rp711
ag147
(g28
S'>R\xdb\x95\xedr\x17@'
p712
tp713
Rp714
ag147
(g28
S'C\x86f]En\x17@'
p715
tp716
Rp717
ag147
(g28
S']\x94\xfd\x86\xf7j\x17@'
p718
tp719
Rp720
ag147
(g28
S'\x0c\xb3\x10\t\xa5j\x17@'
p721
tp722
Rp723
ag147
(g28
S'\x84b]\x87/d\x17@'
p724
tp725
Rp726
ag147
(g28
S'\x86Q\xe0\xdf\xd9b\x17@'
p727
tp728
Rp729
ag147
(g28
S"_N\xb6'zb\x17@"
p730
tp731
Rp732
ag147
(g28
S'.N\xef\xb2NM\x17@'
p733
tp734
Rp735
ag147
(g28
S'\x00\xcfM\xd2}K\x17@'
p736
tp737
Rp738
ag147
(g28
S'\xd7\xd4\x11\x81\x0e \x17@'
p739
tp740
Rp741
ag147
(g28
S'W\xd8#\x1eJ\x1e\x17@'
p742
tp743
Rp744
ag147
(g28
S'\x86%R2v\x0c\x17@'
p745
tp746
Rp747
ag147
(g28
S'V\xf9\x99\x119\x0c\x17@'
p748
tp749
Rp750
ag147
(g28
S'\x16]\x1d1\xb9\x08\x17@'
p751
tp752
Rp753
ag147
(g28
S'N\xdfI53\x08\x17@'
p754
tp755
Rp756
ag147
(g28
S'\xb29%\x08\xa1\x03\x17@'
p757
tp758
Rp759
ag147
(g28
S'\xf1\r\xcep\x0b\x03\x17@'
p760
tp761
Rp762
ag147
(g28
S'cf\x91\xc0\x06\x00\x17@'
p763
tp764
Rp765
ag147
(g28
S'T\xd6\xe1\x96N\xff\x16@'
p766
tp767
Rp768
ag147
(g28
S'7\xe1\xe7\xdfc\xfe\x16@'
p769
tp770
Rp771
ag147
(g28
S'\xf0\xc84E\x02\xfe\x16@'
p772
tp773
Rp774
ag147
(g28
S'\n\xe2\x8f=\xa0\xfc\x16@'
p775
tp776
Rp777
ag147
(g28
S'h\xfdVFk\xfc\x16@'
p778
tp779
Rp780
ag147
(g28
S'n\xb9\xc5\xf8Z\xf4\x16@'
p781
tp782
Rp783
ag147
(g28
S'Of\x0cB\x8a\xf0\x16@'
p784
tp785
Rp786
ag147
(g28
S"'\x94\xf6m\x17\xf0\x16@"
p787
tp788
Rp789
ag147
(g28
S'\xbeXxm(\xed\x16@'
p790
tp791
Rp792
ag147
(g28
S'\x06b\xb3c\xe8\xec\x16@'
p793
tp794
Rp795
ag147
(g28
S'\xdd\xda\xef\x1a\x8f\xe9\x16@'
p796
tp797
Rp798
ag147
(g28
S'\xbc\xa9P\x14\xa7\xe3\x16@'
p799
tp800
Rp801
ag147
(g28
S'\x8c-\x88P\x17\xd7\x16@'
p802
tp803
Rp804
ag147
(g28
S'\x9f0\x858\xdd\xcf\x16@'
p805
tp806
Rp807
ag147
(g28
S'\xae\x1e\xe0|\xa9\xc2\x16@'
p808
tp809
Rp810
ag147
(g28
S'\x1a\x020\x1eQ\xbd\x16@'
p811
tp812
Rp813
ag147
(g28
S'\xcc\x055~\xca\xb9\x16@'
p814
tp815
Rp816
ag147
(g28
S'\xf3\xe9\x88g\xf5\xb8\x16@'
p817
tp818
Rp819
ag147
(g28
S'\xca\xf0|9\xa0\xb5\x16@'
p820
tp821
Rp822
ag147
(g28
S'\xb6l7\x16\x88\xb5\x16@'
p823
tp824
Rp825
ag147
(g28
S'\xa9\n\xcb\x8eH\xa6\x16@'
p826
tp827
Rp828
ag147
(g28
S'\xcc\xb73s\xd0\xa5\x16@'
p829
tp830
Rp831
ag147
(g28
S'x\xa1\xd66\xb6\x81\x16@'
p832
tp833
Rp834
ag147
(g28
S'+A7\x18@~\x16@'
p835
tp836
Rp837
ag147
(g28
S'\xc2\xb8\x1fv\x1f:\x16@'
p838
tp839
Rp840
ag147
(g28
S'\x0c\xa7\x9c\x80\xe4!\x16@'
p841
tp842
Rp843
ag147
(g28
S'*\xb5R\xf3 \xdc\x15@'
p844
tp845
Rp846
ag147
(g28
S'~\xb9\x82\xb1\xa3\xd8\x15@'
p847
tp848
Rp849
ag147
(g28
S'\xfe\xe7`;\xfe\xcf\x15@'
p850
tp851
Rp852
ag147
(g28
S'~\xbc\tG\xee\xbf\x15@'
p853
tp854
Rp855
ag147
(g28
S'\xeeN\x1e\x8c\xab\xa4\x15@'
p856
tp857
Rp858
ag147
(g28
S'\xbez\xd5\xa5\xee\x81\x15@'
p859
tp860
Rp861
ag147
(g28
S'\xd06$\x0e\xd6\x7f\x15@'
p862
tp863
Rp864
ag147
(g28
S'w\x81k\xee\xfeA\x15@'
p865
tp866
Rp867
ag147
(g28
S'\xccHe\xdc\xd0=\x15@'
p868
tp869
Rp870
ag147
(g28
S':\x99}\x83/\xff\x14@'
p871
tp872
Rp873
ag147
(g28
S'\xa66\xe38\x13\xf4\x14@'
p874
tp875
Rp876
ag147
(g28
S'\xc5\xc8\x08I\x02\xd4\x14@'
p877
tp878
Rp879
ag147
(g28
S'\xf6f\x14Q\xc0\xd3\x14@'
p880
tp881
Rp882
ag147
(g28
S'\xbc\xc7Z\xddv\xc9\x14@'
p883
tp884
Rp885
ag147
(g28
S'>fm\xb7(\xc9\x14@'
p886
tp887
Rp888
ag147
(g28
S'q\xf2v\x8e\x99\xad\x14@'
p889
tp890
Rp891
ag147
(g28
S'\xfd\x8f!@\x14\xad\x14@'
p892
tp893
Rp894
ag147
(g28
S'P\xe1If;\xa0\x14@'
p895
tp896
Rp897
ag147
(g28
S'2\xe9\xcc\x1e9\x9f\x14@'
p898
tp899
Rp900
ag147
(g28
S'"c\xfeKp\x9b\x14@'
p901
tp902
Rp903
ag147
(g28
S'p\x0c\xf0\x1a\xcf\x98\x14@'
p904
tp905
Rp906
ag147
(g28
S'\xbf_G&\x1f\x94\x14@'
p907
tp908
Rp909
ag147
(g28
S'\xd5Bo\x93Y\x92\x14@'
p910
tp911
Rp912
ag147
(g28
S'\x94S\xe1F)\x8f\x14@'
p913
tp914
Rp915
ag147
(g28
S'\xe1s\xe8\xbf1\x8e\x14@'
p916
tp917
Rp918
ag147
(g28
S'\xd2On\xeb\xad\x8b\x14@'
p919
tp920
Rp921
ag147
(g28
S'1\xab\xa9\x8a\xff\x8a\x14@'
p922
tp923
Rp924
ag147
(g28
S'|\x90\xb4\xb7V\x88\x14@'
p925
tp926
Rp927
ag147
(g28
S'\x808\xb5U\xb6\x87\x14@'
p928
tp929
Rp930
ag147
(g28
S'\x075CR\xd8\x83\x14@'
p931
tp932
Rp933
ag147
(g28
S'b\x97(\xf1\x12\x83\x14@'
p934
tp935
Rp936
ag147
(g28
S'\xfa\xbb$W5\x80\x14@'
p937
tp938
Rp939
ag147
(g28
S'\xfa\xd0\xd9\xf0\x0b\x7f\x14@'
p940
tp941
Rp942
ag147
(g28
S':\xb8\x9afVu\x14@'
p943
tp944
Rp945
ag147
(g28
S'm3\x86\xe1Vt\x14@'
p946
tp947
Rp948
ag147
(g28
S"\xe9Th'\x04s\x14@"
p949
tp950
Rp951
ag147
(g28
S'\xee1\xba\xa4\tn\x14@'
p952
tp953
Rp954
ag147
(g28
S'N\x0b<\x06\xe6i\x14@'
p955
tp956
Rp957
ag147
(g28
S'\xec\xc0-,\xc4h\x14@'
p958
tp959
Rp960
ag147
(g28
S'F\xd6\x80\xf4\xbaa\x14@'
p961
tp962
Rp963
ag147
(g28
S'\x14\xbfl\xc9\xfd_\x14@'
p964
tp965
Rp966
ag147
(g28
S'\xb9\x05\xa3+pO\x14@'
p967
tp968
Rp969
ag147
(g28
S'\xd8$\xc2l\xd4M\x14@'
p970
tp971
Rp972
ag147
(g28
S'(\x8b7\x93\x82D\x14@'
p973
tp974
Rp975
ag147
(g28
S'c\x960\xf3mD\x14@'
p976
tp977
Rp978
ag147
(g28
S'\x11sJ#\x84@\x14@'
p979
tp980
Rp981
ag147
(g28
S'xv\x9e\x9ca@\x14@'
p982
tp983
Rp984
ag147
(g28
S',\xd7A\x0c\x0f7\x14@'
p985
tp986
Rp987
ag147
(g28
S'^\xbc\x06\x03\xa66\x14@'
p988
tp989
Rp990
ag147
(g28
S'\x8b\xc9z\xbb!,\x14@'
p991
tp992
Rp993
ag147
(g28
S'\xc5\xe1\x9d\t\x82+\x14@'
p994
tp995
Rp996
ag147
(g28
S'+\x9a\xc8n\xff$\x14@'
p997
tp998
Rp999
ag147
(g28
S'\x03{\x1ey\x1b!\x14@'
p1000
tp1001
Rp1002
ag147
(g28
S'?\xf5~\xfc]\x1c\x14@'
p1003
tp1004
Rp1005
ag147
(g28
S'\xc2\x93\xd3\x9fR\x18\x14@'
p1006
tp1007
Rp1008
ag147
(g28
S'J\x19\n\xdf\xd6\x17\x14@'
p1009
tp1010
Rp1011
ag147
(g28
S'\xc8\xf4\xe4S5\x17\x14@'
p1012
tp1013
Rp1014
ag147
(g28
S'\xf5*Dn\xf5\x16\x14@'
p1015
tp1016
Rp1017
ag147
(g28
S'4>\xcf\xf0\x97\x12\x14@'
p1018
tp1019
Rp1020
ag147
(g28
S'\x0e\xde\xe0\x17B\x0f\x14@'
p1021
tp1022
Rp1023
ag147
(g28
S'v\xad\xdag,\r\x14@'
p1024
tp1025
Rp1026
ag147
(g28
S'\xc4\xf6\xd6J\x0c\r\x14@'
p1027
tp1028
Rp1029
ag147
(g28
S'\x1e1x\x8b\xea\x07\x14@'
p1030
tp1031
Rp1032
ag147
(g28
S'\xd4\xf3\n\x90X\x07\x14@'
p1033
tp1034
Rp1035
ag147
(g28
S'\xc8\xef}\x91`\x05\x14@'
p1036
tp1037
Rp1038
ag147
(g28
S'\x8b\xf3?!\\\x04\x14@'
p1039
tp1040
Rp1041
ag147
(g28
S'\x02\xa8\x17u\xfc\x02\x14@'
p1042
tp1043
Rp1044
ag147
(g28
S'\x0c\x9e\xfe\\\xe0\x02\x14@'
p1045
tp1046
Rp1047
ag147
(g28
S'\x98Q\x02\xc0V\x00\x14@'
p1048
tp1049
Rp1050
ag147
(g28
S'\x91\xff\xac\xd4=\xfe\x13@'
p1051
tp1052
Rp1053
ag147
(g28
S'J(h0Z\xfd\x13@'
p1054
tp1055
Rp1056
ag147
(g28
S'T\x9f&\x9a6\xfd\x13@'
p1057
tp1058
Rp1059
ag147
(g28
S'\x08\xf1KPp\xfb\x13@'
p1060
tp1061
Rp1062
ag147
(g28
S'\xed\xaa\xb68\xab\xf9\x13@'
p1063
tp1064
Rp1065
ag147
(g28
S'\xe8\x84(j\xc1\xf8\x13@'
p1066
tp1067
Rp1068
ag147
(g28
S'\x1e\xb1\x9f\xdbx\xf5\x13@'
p1069
tp1070
Rp1071
ag147
(g28
S'd\xbe2"g\xf4\x13@'
p1072
tp1073
Rp1074
ag147
(g28
S'\x1a\xf8\xe6b\xe7\xee\x13@'
p1075
tp1076
Rp1077
ag147
(g28
S'\x01y5\x8dG\xee\x13@'
p1078
tp1079
Rp1080
ag147
(g28
S'he\xac\xceY\xde\x13@'
p1081
tp1082
Rp1083
ag147
(g28
S'\x91?3\xb7\xd9\xdd\x13@'
p1084
tp1085
Rp1086
ag147
(g28
S'\xf0#\xfb\xbe`\xd7\x13@'
p1087
tp1088
Rp1089
ag147
(g28
S'5\xc40\x8eY\xc2\x13@'
p1090
tp1091
Rp1092
ag147
(g28
S'\xb0W\xc6\x7f\xce\xc0\x13@'
p1093
tp1094
Rp1095
ag147
(g28
S'\xa4\x9fP1t\xbd\x13@'
p1096
tp1097
Rp1098
ag147
(g28
S'Q{aN\xfd\xb2\x13@'
p1099
tp1100
Rp1101
ag147
(g28
S'K\x17\xce<h\x99\x13@'
p1102
tp1103
Rp1104
ag147
(g28
S'm\xb4\x97\x14\xfd\x8b\x13@'
p1105
tp1106
Rp1107
ag147
(g28
S',\xa1^\xeb\x88\x89\x13@'
p1108
tp1109
Rp1110
ag147
(g28
S'1\x8c\xb1\x1cws\x13@'
p1111
tp1112
Rp1113
ag147
(g28
S'Y\xed<6\xd3r\x13@'
p1114
tp1115
Rp1116
ag147
(g28
S'\xeb\xf7\xd56go\x13@'
p1117
tp1118
Rp1119
ag147
(g28
S'XdM\xc7=n\x13@'
p1120
tp1121
Rp1122
ag147
(g28
S'\xbe\x8d\xd4\x1a0m\x13@'
p1123
tp1124
Rp1125
ag147
(g28
S'\xa7\x97z\x13\xb6l\x13@'
p1126
tp1127
Rp1128
ag147
(g28
S'W\xf6E\xe3vk\x13@'
p1129
tp1130
Rp1131
ag147
(g28
S'\x83Gj\x06\xa4j\x13@'
p1132
tp1133
Rp1134
ag147
(g28
S'y\xafstkj\x13@'
p1135
tp1136
Rp1137
ag147
(g28
S'\xfe\x07W\xdc\xf6i\x13@'
p1138
tp1139
Rp1140
ag147
(g28
S'\x8dX\x9e[\xf5\\\x13@'
p1141
tp1142
Rp1143
ag147
(g28
S'\x18\xbd\xb5\xbb\xd5\\\x13@'
p1144
tp1145
Rp1146
ag147
(g28
S'\xb2\xba+Q\xccU\x13@'
p1147
tp1148
Rp1149
ag147
(g28
S'\x84\xe3\xd0\xce<U\x13@'
p1150
tp1151
Rp1152
ag147
(g28
S't\xaa\x8e\x86\x8fP\x13@'
p1153
tp1154
Rp1155
ag147
(g28
S'P_\xea\xd1\x81P\x13@'
p1156
tp1157
Rp1158
ag147
(g28
S'84_\xc0\xc4O\x13@'
p1159
tp1160
Rp1161
ag147
(g28
S'\xf3\x83\xe0\xb1\x9bK\x13@'
p1162
tp1163
Rp1164
ag147
(g28
S'\xf1jk\xd2+J\x13@'
p1165
tp1166
Rp1167
ag147
(g28
S'\xff8,\xb0eD\x13@'
p1168
tp1169
Rp1170
ag147
(g28
S'\x0f\xf2\x9a=\xbe?\x13@'
p1171
tp1172
Rp1173
ag147
(g28
S'>\xf6\xfb\xef\xbd>\x13@'
p1174
tp1175
Rp1176
ag147
(g28
S'5\x0fb\xad\xa3>\x13@'
p1177
tp1178
Rp1179
ag147
(g28
S'\x9a\xd9\x80J\x0c<\x13@'
p1180
tp1181
Rp1182
ag147
(g28
S'\xaaO\x9c,(:\x13@'
p1183
tp1184
Rp1185
ag147
(g28
S'Q\xf12\xbe\x939\x13@'
p1186
tp1187
Rp1188
ag147
(g28
S'\x13(\xae)N9\x13@'
p1189
tp1190
Rp1191
ag147
(g28
S'\xa3\x06|\x9br7\x13@'
p1192
tp1193
Rp1194
ag147
(g28
S'\xf3c3\xd1S7\x13@'
p1195
tp1196
Rp1197
ag147
(g28
S'n\x10\xeb\xfe&4\x13@'
p1198
tp1199
Rp1200
ag147
(g28
S'\xa9\xf1\xcc!\x194\x13@'
p1201
tp1202
Rp1203
ag147
(g28
S'\x0f\xe7V/\xdd2\x13@'
p1204
tp1205
Rp1206
ag147
(g28
S'(4\x94>\xa42\x13@'
p1207
tp1208
Rp1209
ag147
(g28
S'^\xe3u\x9e//\x13@'
p1210
tp1211
Rp1212
ag147
(g28
S'\xf1\xbai\x1f\x96.\x13@'
p1213
tp1214
Rp1215
ag147
(g28
S"\xccL*\x01\xe0'\x13@"
p1216
tp1217
Rp1218
ag147
(g28
S"x\xd9ZD\xac'\x13@"
p1219
tp1220
Rp1221
ag147
(g28
S'\xf9\xae>\xf8S\x1d\x13@'
p1222
tp1223
Rp1224
ag147
(g28
S'\xb2\x86/&\xaf\x1c\x13@'
p1225
tp1226
Rp1227
ag147
(g28
S'j`\xf6p^\x0c\x13@'
p1228
tp1229
Rp1230
ag147
(g28
S'\xcf\x02H\xca>\x02\x13@'
p1231
tp1232
Rp1233
ag147
(g28
S'n\xde\xdf\xe8\xe4\xff\x12@'
p1234
tp1235
Rp1236
ag147
(g28
S'\xac\x0b?\xbb\x87\xfa\x12@'
p1237
tp1238
Rp1239
ag147
(g28
S'8\xb8\r\x1a\x7f\xf9\x12@'
p1240
tp1241
Rp1242
ag147
(g28
S'\xd9"\x14\xd6\xc3\xf5\x12@'
p1243
tp1244
Rp1245
ag147
(g28
S'@\x8d\xe7\x99\xb6\xf5\x12@'
p1246
tp1247
Rp1248
ag147
(g28
S'\\\x14\xd0%\xc1\xf3\x12@'
p1249
tp1250
Rp1251
ag147
(g28
S':\xc9f\xd0O\xec\x12@'
p1252
tp1253
Rp1254
ag147
(g28
S'\xda\xb4X/\xf4\xdd\x12@'
p1255
tp1256
Rp1257
ag147
(g28
S'\xf5\xb3]\xb4A\xdb\x12@'
p1258
tp1259
Rp1260
ag147
(g28
S'\x8f\x9e\x12\xdf\xf7\xd7\x12@'
p1261
tp1262
Rp1263
ag147
(g28
S'#\xe9\x90Z\xca\xa3\x12@'
p1264
tp1265
Rp1266
ag147
(g28
S'\x1a\xad\x13um\x8c\x12@'
p1267
tp1268
Rp1269
ag147
(g28
S'\x02Y\xd1\x17\x9e\x8a\x12@'
p1270
tp1271
Rp1272
ag147
(g28
S'n\x07\x93v\x9fV\x12@'
p1273
tp1274
Rp1275
ag147
(g28
S'\x80nV\xb2)U\x12@'
p1276
tp1277
Rp1278
ag147
(g28
S'\xb0\xa9\n\xf2\xf9A\x12@'
p1279
tp1280
Rp1281
ag147
(g28
S'\x1a\x8bv\xf2\x92A\x12@'
p1282
tp1283
Rp1284
ag147
(g28
S'\xd7\x1d\xb0\xf6\x94=\x12@'
p1285
tp1286
Rp1287
ag147
(g28
S'\x16\xb7!\xb3\n=\x12@'
p1288
tp1289
Rp1290
ag147
(g28
S'c\xa0\xd4p\xc79\x12@'
p1291
tp1292
Rp1293
ag147
(g28
S'\xba\xd7\x15[\x1a9\x12@'
p1294
tp1295
Rp1296
ag147
(g28
S'.3?d\xd24\x12@'
p1297
tp1298
Rp1299
ag147
(g28
S'\xa6\x0c \x87\xbb3\x12@'
p1300
tp1301
Rp1302
ag147
(g28
S'r\xe0\xdb\xb6\xfd \x12@'
p1303
tp1304
Rp1305
ag147
(g28
S'\xcf\xcb\x1dH8\x1c\x12@'
p1306
tp1307
Rp1308
ag147
(g28
S'F\x874\x94Q\x0c\x12@'
p1309
tp1310
Rp1311
ag147
(g28
S'\x0e\x91l\x19\xec\x0b\x12@'
p1312
tp1313
Rp1314
ag147
(g28
S'.\xc7\xfd\xb8\x00\x06\x12@'
p1315
tp1316
Rp1317
ag147
(g28
S'\x962\x0c\xd7\xf2\x05\x12@'
p1318
tp1319
Rp1320
ag147
(g28
S'j\x83\xd1\x83\xde\x04\x12@'
p1321
tp1322
Rp1323
ag147
(g28
S'\x815y \xba\x04\x12@'
p1324
tp1325
Rp1326
ag147
(g28
S'j>\xf7\x03[\x02\x12@'
p1327
tp1328
Rp1329
ag147
(g28
S'zZ\x12\xc8\x11\x02\x12@'
p1330
tp1331
Rp1332
ag147
(g28
S'\xf6u\xea\xc3%\xff\x11@'
p1333
tp1334
Rp1335
ag147
(g28
S'\xcb5\xd2\xfd\xef\xfe\x11@'
p1336
tp1337
Rp1338
ag147
(g28
S'\xdeW\xd8\x8a \xfd\x11@'
p1339
tp1340
Rp1341
ag147
(g28
S'\x03J\x91\x82\xfe\xfc\x11@'
p1342
tp1343
Rp1344
ag147
(g28
S'X\xe7\x9d\x0b\xeb\xfa\x11@'
p1345
tp1346
Rp1347
ag147
(g28
S'\x84\xc3\nE\xf9\xf9\x11@'
p1348
tp1349
Rp1350
ag147
(g28
S'<\x0c\x9f\xeea\xf6\x11@'
p1351
tp1352
Rp1353
ag147
(g28
S'\x84\xb4\x1b\xb1+\xf5\x11@'
p1354
tp1355
Rp1356
ag147
(g28
S'\x8c\xe0p\x19i\xf0\x11@'
p1357
tp1358
Rp1359
ag147
(g28
S'\x04\xc4\xd8\t\x84\xef\x11@'
p1360
tp1361
Rp1362
ag147
(g28
S"Y'\xec/3\xea\x11@"
p1363
tp1364
Rp1365
ag147
(g28
S'\xfe\r\xde\x9c\x8f\xe9\x11@'
p1366
tp1367
Rp1368
ag147
(g28
S'\x9er\xd3V\x9a\xe6\x11@'
p1369
tp1370
Rp1371
ag147
(g28
S'\x86\xe6\xf5m\xd8\xe5\x11@'
p1372
tp1373
Rp1374
ag147
(g28
S'\xc9\xa0`\xda\xef\xe0\x11@'
p1375
tp1376
Rp1377
ag147
(g28
S'\x8e|\x9f\x1c\x98\xe0\x11@'
p1378
tp1379
Rp1380
ag147
(g28
S'`+\xc7\xf35\xde\x11@'
p1381
tp1382
Rp1383
ag147
(g28
S'\xb2g\x05l\xe1\xda\x11@'
p1384
tp1385
Rp1386
ag147
(g28
S'*\xc8\x0c\xae4\xcb\x11@'
p1387
tp1388
Rp1389
ag147
(g28
S'O5\x83K\xd3\xc9\x11@'
p1390
tp1391
Rp1392
ag147
(g28
S'\xaaN\x15 &\xc4\x11@'
p1393
tp1394
Rp1395
ag147
(g28
S'\x82_\xb4\xd4\xca\xc3\x11@'
p1396
tp1397
Rp1398
ag147
(g28
S'\xfc\xc0\x87 S\xba\x11@'
p1399
tp1400
Rp1401
ag147
(g28
S'l\xd3\xea\x00%\xba\x11@'
p1402
tp1403
Rp1404
ag147
(g28
S'b\x0b45T\xb7\x11@'
p1405
tp1406
Rp1407
ag147
(g28
S'\x1cJ\xfa\x1fp\xa5\x11@'
p1408
tp1409
Rp1410
ag147
(g28
S'o\xec\xf6\x8c\xef\xa4\x11@'
p1411
tp1412
Rp1413
ag147
(g28
S'\xfc\x05\x8b\xa5X\xa0\x11@'
p1414
tp1415
Rp1416
ag147
(g28
S'L.\x18*\x8b\x9e\x11@'
p1417
tp1418
Rp1419
ag147
(g28
S'r\xb3\x04\x1a\xb0\x9c\x11@'
p1420
tp1421
Rp1422
ag147
(g28
S'\xa3\xb7\xc1\x1b-\x9b\x11@'
p1423
tp1424
Rp1425
ag147
(g28
S'q\x0c\xaf\xe1F\x9a\x11@'
p1426
tp1427
Rp1428
ag147
(g28
S't\x17\xe5m\r\x9a\x11@'
p1429
tp1430
Rp1431
ag147
(g28
S'L\xae\x85\x11\xc4\x95\x11@'
p1432
tp1433
Rp1434
ag147
(g28
S'\xe2\xc0\x1d\xae\xa7\x92\x11@'
p1435
tp1436
Rp1437
ag147
(g28
S'd\xe5\x9c\xe8\x94\x92\x11@'
p1438
tp1439
Rp1440
ag147
(g28
S'\x03>\xff9C\x92\x11@'
p1441
tp1442
Rp1443
ag147
(g28
S'8\xc1\x85\x11,\x90\x11@'
p1444
tp1445
Rp1446
ag147
(g28
S'\xd0\x06__"\x90\x11@'
p1447
tp1448
Rp1449
ag147
(g28
S'bd\xe9\xc9u\x8e\x11@'
p1450
tp1451
Rp1452
ag147
(g28
S'\xcf\xb1J\xa8W\x89\x11@'
p1453
tp1454
Rp1455
ag147
(g28
S'\x1ebM\x13\x15\x86\x11@'
p1456
tp1457
Rp1458
ag147
(g28
S'\xb4\xcf\xc2\x8b\r~\x11@'
p1459
tp1460
Rp1461
ag147
(g28
S'\xa0\x8a\xd5\xe0Y{\x11@'
p1462
tp1463
Rp1464
ag147
(g28
S'PKc\xf3nv\x11@'
p1465
tp1466
Rp1467
ag147
(g28
S'\xb0\x1e\n\x05"v\x11@'
p1468
tp1469
Rp1470
ag147
(g28
S'*\xde_\xa1\xa1r\x11@'
p1471
tp1472
Rp1473
ag147
(g28
S'\xea\xa3FM\x94r\x11@'
p1474
tp1475
Rp1476
ag147
(g28
S'\x9d\xd0\xd5d\x92b\x11@'
p1477
tp1478
Rp1479
ag147
(g28
S'/a\xd1\x82\xf6^\x11@'
p1480
tp1481
Rp1482
ag147
(g28
S'\xaa\xbe{\xc3\x18J\x11@'
p1483
tp1484
Rp1485
ag147
(g28
S'\xe2\xec1#\xa7=\x11@'
p1486
tp1487
Rp1488
ag147
(g28
S'\x82\x19\xb2\x1f\xb5.\x11@'
p1489
tp1490
Rp1491
ag147
(g28
S'\x8bW\xb1\x82(.\x11@'
p1492
tp1493
Rp1494
ag147
(g28
S"2\xc8\xd6k='\x11@"
p1495
tp1496
Rp1497
ag147
(g28
S'+\xdf\x9a)\xe0$\x11@'
p1498
tp1499
Rp1500
ag147
(g28
S'\xc0\x8f\xb6\xaa\x17"\x11@'
p1501
tp1502
Rp1503
ag147
(g28
S'A\xcf\x02\xf4\x08"\x11@'
p1504
tp1505
Rp1506
ag147
(g28
S'`\xe7\xa2\xbb\xae\x1f\x11@'
p1507
tp1508
Rp1509
ag147
(g28
S'}\xd3\x97\x7f\x92\x1f\x11@'
p1510
tp1511
Rp1512
ag147
(g28
S'\xdb \x0fr\x1d\x15\x11@'
p1513
tp1514
Rp1515
ag147
(g28
S'\x18\xf4.\xa7\x9b\x12\x11@'
p1516
tp1517
Rp1518
ag147
(g28
S'P\x0ei\xe5\x08\x05\x11@'
p1519
tp1520
Rp1521
ag147
(g28
S'nn\xber\xe7\x03\x11@'
p1522
tp1523
Rp1524
ag147
(g28
S"'\xc6f5\xad\xfd\x10@"
p1525
tp1526
Rp1527
ag147
(g28
S'\xf8$\x14 \x0e\xfa\x10@'
p1528
tp1529
Rp1530
ag147
(g28
S'*\x05\xb9\xa9V\xf9\x10@'
p1531
tp1532
Rp1533
ag147
(g28
S'\x988G.\t\xf8\x10@'
p1534
tp1535
Rp1536
ag147
(g28
S'>\x02\x08\xdd\xd5\xf7\x10@'
p1537
tp1538
Rp1539
ag147
(g28
S'D\xefr\x96\xe7\xf3\x10@'
p1540
tp1541
Rp1542
ag147
(g28
S'V\xc5sQn\xf3\x10@'
p1543
tp1544
Rp1545
ag147
(g28
S'\\\x13\t\xfe\r\xed\x10@'
p1546
tp1547
Rp1548
ag147
(g28
S'\xd4ol5e\xec\x10@'
p1549
tp1550
Rp1551
ag147
(g28
S'\xe5\xdd\x9d\x00\xc5\xe6\x10@'
p1552
tp1553
Rp1554
ag147
(g28
S'\xd0\x8a\x99dl\xe6\x10@'
p1555
tp1556
Rp1557
ag147
(g28
S'\x13H\x91Qq\xe4\x10@'
p1558
tp1559
Rp1560
ag147
(g28
S'\xb9\x005X0\xe3\x10@'
p1561
tp1562
Rp1563
ag147
(g28
S'\xc8\x0bT{X\xe2\x10@'
p1564
tp1565
Rp1566
ag147
(g28
S'\x9e\x13\x86\xcf\x04\xe2\x10@'
p1567
tp1568
Rp1569
ag147
(g28
S'\xddp\xe6g\x11\xe1\x10@'
p1570
tp1571
Rp1572
ag147
(g28
S'?\xf8\xa3\xa7\xcc\xdf\x10@'
p1573
tp1574
Rp1575
ag147
(g28
S'Dq5\xa6\xd3\xdc\x10@'
p1576
tp1577
Rp1578
ag147
(g28
S'a\xe4\xabt\xc8\xbe\x10@'
p1579
tp1580
Rp1581
ag147
(g28
S'\xe4\x1c\xfc\t\xb0\xb1\x10@'
p1582
tp1583
Rp1584
ag147
(g28
S'j\xdeg^\x80\xb1\x10@'
p1585
tp1586
Rp1587
ag147
(g28
S'\x1cr\x11 \xc4\xac\x10@'
p1588
tp1589
Rp1590
ag147
(g28
S'\xf5\xfe\tG\xb1\xac\x10@'
p1591
tp1592
Rp1593
ag147
(g28
S'\xe6\x91I\xc3\xd9\xab\x10@'
p1594
tp1595
Rp1596
ag147
(g28
S'\x9d?\x1cx+\xa9\x10@'
p1597
tp1598
Rp1599
ag147
(g28
S'\x8dos\x18o\xa3\x10@'
p1600
tp1601
Rp1602
ag147
(g28
S'.\t\x15\x15\x88\xa2\x10@'
p1603
tp1604
Rp1605
ag147
(g28
S',\xea#\xc4f\x9d\x10@'
p1606
tp1607
Rp1608
ag147
(g28
S'ko\x8c!1\x9d\x10@'
p1609
tp1610
Rp1611
ag147
(g28
S'\xf5\xf85\xee\xdc\x99\x10@'
p1612
tp1613
Rp1614
ag147
(g28
S'\xf5Q\xd6.\xe1\x95\x10@'
p1615
tp1616
Rp1617
ag147
(g28
S'\x9cJ\tF\xc3\x95\x10@'
p1618
tp1619
Rp1620
ag147
(g28
S'\xc2\xba\x10\xc5\x91\x92\x10@'
p1621
tp1622
Rp1623
ag147
(g28
S'\xc08\x98R\xdf\x90\x10@'
p1624
tp1625
Rp1626
ag147
(g28
S'\xa4\xca\x9e.;\x90\x10@'
p1627
tp1628
Rp1629
ag147
(g28
S'\x7f)\x9ee\x01\x8e\x10@'
p1630
tp1631
Rp1632
ag147
(g28
S'E\xdf\x0e\xc4\x94\x8d\x10@'
p1633
tp1634
Rp1635
ag147
(g28
S',a\xb3\x08\xf1\x89\x10@'
p1636
tp1637
Rp1638
ag147
(g28
S'3\xc3<Kx\x89\x10@'
p1639
tp1640
Rp1641
ag147
(g28
S'\x9b\xde\x90$\x00\x88\x10@'
p1642
tp1643
Rp1644
ag147
(g28
S'\x11g\xcf\xe3\t\x87\x10@'
p1645
tp1646
Rp1647
ag147
(g28
S'\xccy\x0c\x03\x99\x83\x10@'
p1648
tp1649
Rp1650
ag147
(g28
S'\x00\xbbH\xd6>\x83\x10@'
p1651
tp1652
Rp1653
ag147
(g28
S'\x00\xd0\x9d\x87\x9bn\x10@'
p1654
tp1655
Rp1656
ag147
(g28
S'q\xf2\xc0\x89\xb3j\x10@'
p1657
tp1658
Rp1659
ag147
(g28
S'i\x0f\xf1\xcb\xd7E\x10@'
p1660
tp1661
Rp1662
ag147
(g28
S'N\x06X\xbf@E\x10@'
p1663
tp1664
Rp1665
ag147
(g28
S'8\r\x070/?\x10@'
p1666
tp1667
Rp1668
ag147
(g28
S'\x82\xbap\xd4g<\x10@'
p1669
tp1670
Rp1671
ag147
(g28
S'\xdbh\x13\x83\x12.\x10@'
p1672
tp1673
Rp1674
ag147
(g28
S'\xa2\x0c\x8c\xb1\xab&\x10@'
p1675
tp1676
Rp1677
ag147
(g28
S'\xf2\x86\xd1#\xcd\x03\x10@'
p1678
tp1679
Rp1680
ag147
(g28
S'\xbe\x9d\xd0\xf9\x1a\xf9\x0f@'
p1681
tp1682
Rp1683
ag147
(g28
S's\xe0/\x12\x83\xa6\x0e@'
p1684
tp1685
Rp1686
ag147
(g28
S'\x18\xd0A\xc5\x02\x92\x0e@'
p1687
tp1688
Rp1689
ag147
(g28
S"\xd0'L\xdan\xd8\r@"
p1690
tp1691
Rp1692
ag147
(g28
S'\xf1q-\xf2\xc9\xc6\r@'
p1693
tp1694
Rp1695
ag147
(g28
S'\xbf\\&\xd4^\xf4\x0c@'
p1696
tp1697
Rp1698
ag147
(g28
S'\x91\xef\xba\xf2\x92\xee\x0c@'
p1699
tp1700
Rp1701
ag147
(g28
S'\xc5Mc\xfb\xafP\x0c@'
p1702
tp1703
Rp1704
ag147
(g28
S'D\xf3\xae\xcaZJ\x0c@'
p1705
tp1706
Rp1707
ag147
(g28
S'\xae\x9f\x94X\xe91\x0c@'
p1708
tp1709
Rp1710
ag147
(g28
S'\xab\x90\xe4\x80\xc8\xce\x0b@'
p1711
tp1712
Rp1713
ag147
(g28
S'\x84\x1a\xf8CZ\xa1\x0b@'
p1714
tp1715
Rp1716
ag147
(g28
S'\xa0\x07@\x9f\x8c\x86\x0b@'
p1717
tp1718
Rp1719
ag147
(g28
S'\xae\xd52\xe2\x94V\x0b@'
p1720
tp1721
Rp1722
ag147
(g28
S'\x92\x83\xb0jNO\x0b@'
p1723
tp1724
Rp1725
ag147
(g28
S"eta\xc27'\x0b@"
p1726
tp1727
Rp1728
ag147
(g28
S'\x00\xcc\xe1\x07\x93%\x0b@'
p1729
tp1730
Rp1731
ag147
(g28
S'!\x8f-\xacy\xe3\n@'
p1732
tp1733
Rp1734
ag147
(g28
S'\xe8\x9c%\t\xea\xcb\n@'
p1735
tp1736
Rp1737
ag147
(g28
S'\xc5\x17\x03\x90\xe4\xbc\n@'
p1738
tp1739
Rp1740
ag147
(g28
S'\x0f\xe2\x99(\x9a\xbc\n@'
p1741
tp1742
Rp1743
ag147
(g28
S'\xfe4\x12\x0f\x88\xa7\n@'
p1744
tp1745
Rp1746
ag147
(g28
S'\xd7K\x9brD\xa3\n@'
p1747
tp1748
Rp1749
ag147
(g28
S'\xed}\x82U\xd3\x9d\n@'
p1750
tp1751
Rp1752
ag147
(g28
S'l\xcf\xa2,\x8d\x9d\n@'
p1753
tp1754
Rp1755
ag147
(g28
S'\xe9\xec \x15O\x97\n@'
p1756
tp1757
Rp1758
ag147
(g28
S'I\xd9\xca\xf8\xaa\x8e\n@'
p1759
tp1760
Rp1761
ag147
(g28
S'\xe6\xc1\xdd^6\x87\n@'
p1762
tp1763
Rp1764
ag147
(g28
S'\x04\xda\xf6\xd4\xad\x85\n@'
p1765
tp1766
Rp1767
ag147
(g28
S'u\xa9\x81\xfd\xbb\x81\n@'
p1768
tp1769
Rp1770
ag147
(g28
S'F\xa6Kh\xe4q\n@'
p1771
tp1772
Rp1773
ag147
(g28
S'\x8c\xda=\xfflq\n@'
p1774
tp1775
Rp1776
ag147
(g28
S'*mL\x11\x07i\n@'
p1777
tp1778
Rp1779
ag147
(g28
S'\x08cD0Cb\n@'
p1780
tp1781
Rp1782
ag147
(g28
S'\xe9\x99C\xbdJa\n@'
p1783
tp1784
Rp1785
ag147
(g28
S'\x8c\x10\x9a\x12\xbfT\n@'
p1786
tp1787
Rp1788
ag147
(g28
S'D\x03,r\x10:\n@'
p1789
tp1790
Rp1791
ag147
(g28
S'f\xe3\xd9\x04^4\n@'
p1792
tp1793
Rp1794
ag147
(g28
S'r\x97\xefK|&\n@'
p1795
tp1796
Rp1797
ag147
(g28
S'\xe6\xc8\xf9\xe6\xaa"\n@'
p1798
tp1799
Rp1800
ag147
(g28
S'\x90\x9c\x85O\x0e\x1c\n@'
p1801
tp1802
Rp1803
ag147
(g28
S'0\x8d\xd3Zr\x19\n@'
p1804
tp1805
Rp1806
ag147
(g28
S'\xd9H\x11\xd9Z\x16\n@'
p1807
tp1808
Rp1809
ag147
(g28
S'\xea\xc3\xae\x9fh\t\n@'
p1810
tp1811
Rp1812
ag147
(g28
S'"\x0b\xeaF\xd3\xfa\t@'
p1813
tp1814
Rp1815
ag147
(g28
S'\xf7\xab\xec\xac\xaf\xf9\t@'
p1816
tp1817
Rp1818
ag147
(g28
S'\n\xd9\xb9k\x16\xdb\t@'
p1819
tp1820
Rp1821
ag147
(g28
S'\xa3jZ\xces\xd7\t@'
p1822
tp1823
Rp1824
ag147
(g28
S'0\xfb\xe4\xdeL\xb7\t@'
p1825
tp1826
Rp1827
ag147
(g28
S'R?\xa4G5\xb4\t@'
p1828
tp1829
Rp1830
ag147
(g28
S'e\x13/\x9b2\xa0\t@'
p1831
tp1832
Rp1833
ag147
(g28
S',l\xb1\xe7n\x9d\t@'
p1834
tp1835
Rp1836
ag147
(g28
S'\x9a\xb4\xa51v|\t@'
p1837
tp1838
Rp1839
ag147
(g28
S'\xbcC\xb5\xd0\x02a\t@'
p1840
tp1841
Rp1842
ag147
(g28
S'\x82\x00\x83\x01\x16U\t@'
p1843
tp1844
Rp1845
ag147
(g28
S'\xd6(\xbe\xc6"T\t@'
p1846
tp1847
Rp1848
ag147
(g28
S'\xf2\x01\xfe\xf2yC\t@'
p1849
tp1850
Rp1851
ag147
(g28
S'\x04\x1f\x87L B\t@'
p1852
tp1853
Rp1854
ag147
(g28
S'\x8a\xebB\xfc\x85<\t@'
p1855
tp1856
Rp1857
ag147
(g28
S'\xf2\xab)NR5\t@'
p1858
tp1859
Rp1860
ag147
(g28
S'D8x|I2\t@'
p1861
tp1862
Rp1863
ag147
(g28
S'`U\xa0\xe7\xfb0\t@'
p1864
tp1865
Rp1866
ag147
(g28
S'L\xa3\xdal\x7f0\t@'
p1867
tp1868
Rp1869
ag147
(g28
S'\xb6\x9f-}E,\t@'
p1870
tp1871
Rp1872
ag147
(g28
S'N\xad\x9c\xe9t+\t@'
p1873
tp1874
Rp1875
ag147
(g28
S'\x81\x07\xe9d\xa1!\t@'
p1876
tp1877
Rp1878
ag147
(g28
S'*\xbdF\x84) \t@'
p1879
tp1880
Rp1881
ag147
(g28
S'N\xdaUR\x05\x17\t@'
p1882
tp1883
Rp1884
ag147
(g28
S'\xe2\xd8\x9c\xfb\x80\x14\t@'
p1885
tp1886
Rp1887
ag147
(g28
S'\xee\xcdh\xe0V\x0f\t@'
p1888
tp1889
Rp1890
ag147
(g28
S',v\x04\xb3\x8b\r\t@'
p1891
tp1892
Rp1893
ag147
(g28
S'\xb5\xa8\x1d\xa8\xa0\xfe\x08@'
p1894
tp1895
Rp1896
ag147
(g28
S'\xda\xbcRX+\xfe\x08@'
p1897
tp1898
Rp1899
ag147
(g28
S'Z\n\xeb\xdf\xff\xe7\x08@'
p1900
tp1901
Rp1902
ag147
(g28
S'\xdc\xcb\x8dr\x08\xcf\x08@'
p1903
tp1904
Rp1905
ag147
(g28
S'(\n\x8c\x18x\xcd\x08@'
p1906
tp1907
Rp1908
ag147
(g28
S'\x96\xc2\xa2\xcf\xec\xb7\x08@'
p1909
tp1910
Rp1911
ag147
(g28
S'\x06\x15GD\x12\xb3\x08@'
p1912
tp1913
Rp1914
ag147
(g28
S'4\x13}\xce]\xac\x08@'
p1915
tp1916
Rp1917
ag147
(g28
S'\xd9:\x92\x95\xe5\xab\x08@'
p1918
tp1919
Rp1920
ag147
(g28
S'\xb5\x8e\x05,\xd5\xa6\x08@'
p1921
tp1922
Rp1923
ag147
(g28
S'~\xc2xZ\xb9\xa3\x08@'
p1924
tp1925
Rp1926
ag147
(g28
S':\xec\xae_\xd9\xa0\x08@'
p1927
tp1928
Rp1929
ag147
(g28
S'\xe4\xea96\x88\x9e\x08@'
p1930
tp1931
Rp1932
ag147
(g28
S'\xc6\x1a\xd0t\xe0\x9c\x08@'
p1933
tp1934
Rp1935
ag147
(g28
S'\x99\xd9\xbe S\x99\x08@'
p1936
tp1937
Rp1938
ag147
(g28
S'&e\xb5\x8d\xb0\x97\x08@'
p1939
tp1940
Rp1941
ag147
(g28
S'\xbaWDs\x0f\x96\x08@'
p1942
tp1943
Rp1944
ag147
(g28
S'\x8b\xc7\xa6L\xee\x94\x08@'
p1945
tp1946
Rp1947
ag147
(g28
S"\x96\x9b\x14}'\x90\x08@"
p1948
tp1949
Rp1950
ag147
(g28
S'\xeb\x82\x9b\xfd\xc1\x8e\x08@'
p1951
tp1952
Rp1953
ag147
(g28
S':\xe1gZ\x9e\x87\x08@'
p1954
tp1955
Rp1956
ag147
(g28
S'\xd0B\x8c\x82\n\x87\x08@'
p1957
tp1958
Rp1959
ag147
(g28
S'\xa1\x83$YJv\x08@'
p1960
tp1961
Rp1962
ag147
(g28
S'\x96$_\xf7\xf0u\x08@'
p1963
tp1964
Rp1965
ag147
(g28
S'\xb4\xbe!c\xadr\x08@'
p1966
tp1967
Rp1968
ag147
(g28
S'!P\x82D\xa8k\x08@'
p1969
tp1970
Rp1971
ag147
(g28
S'\xfe*\xf9\xe6\xa8j\x08@'
p1972
tp1973
Rp1974
ag147
(g28
S'\x06:\xb3X\rg\x08@'
p1975
tp1976
Rp1977
ag147
(g28
S'\xfa\x1b\xb3\xed\x93d\x08@'
p1978
tp1979
Rp1980
ag147
(g28
S'\x01s\x1a%&d\x08@'
p1981
tp1982
Rp1983
ag147
(g28
S'\x94\x8eQ\xff\xeec\x08@'
p1984
tp1985
Rp1986
ag147
(g28
S'\xcdje\x13\xdf_\x08@'
p1987
tp1988
Rp1989
ag147
(g28
S'\xe0\xdfJ\xa8b\\\x08@'
p1990
tp1991
Rp1992
ag147
(g28
S'\x8c\xd2\x8a\xd2DV\x08@'
p1993
tp1994
Rp1995
ag147
(g28
S'F\x13r\xa9`U\x08@'
p1996
tp1997
Rp1998
ag147
(g28
S'\x10\x0e\xba\xa3\xd8L\x08@'
p1999
tp2000
Rp2001
ag147
(g28
S'w\xbd\xf2\xaa\xb6I\x08@'
p2002
tp2003
Rp2004
ag147
(g28
S'H\x98/\xe7\xbfH\x08@'
p2005
tp2006
Rp2007
ag147
(g28
S'\xbaAeM4?\x08@'
p2008
tp2009
Rp2010
ag147
(g28
S'0e\x1b\xcf\xa3>\x08@'
p2011
tp2012
Rp2013
ag147
(g28
S'\x8dm\x81\xe7\xa2.\x08@'
p2014
tp2015
Rp2016
ag147
(g28
S'\xfa\x92 \xd4-.\x08@'
p2017
tp2018
Rp2019
ag147
(g28
S'\xb0Y4\xed\xaa#\x08@'
p2020
tp2021
Rp2022
ag147
(g28
S'\xea\x114s0"\x08@'
p2023
tp2024
Rp2025
ag147
(g28
S'\x12\x04A\xb6\xb9\x1b\x08@'
p2026
tp2027
Rp2028
ag147
(g28
S'\xc2\xd5\x10\x11]\x1b\x08@'
p2029
tp2030
Rp2031
ag147
(g28
S'\xb2\x80\x82\xbf\x0e\x19\x08@'
p2032
tp2033
Rp2034
ag147
(g28
S'A\x0cx(l\x16\x08@'
p2035
tp2036
Rp2037
ag147
(g28
S'\xbc\xe9\xe6\xf9\x99\x14\x08@'
p2038
tp2039
Rp2040
ag147
(g28
S'NYF\x1b$\x14\x08@'
p2041
tp2042
Rp2043
ag147
(g28
S'\xf4\x1d\xa9\x91\xc6\x13\x08@'
p2044
tp2045
Rp2046
ag147
(g28
S',\xedUq\xbd\x12\x08@'
p2047
tp2048
Rp2049
ag147
(g28
S'pg\xba^T\x12\x08@'
p2050
tp2051
Rp2052
ag147
(g28
S'R\x9f\x13ST\x0c\x08@'
p2053
tp2054
Rp2055
ag147
(g28
S'\xbf\xde\xfb\x9f"\x08\x08@'
p2056
tp2057
Rp2058
ag147
(g28
S'8M\xc3\x19\xeb\x07\x08@'
p2059
tp2060
Rp2061
ag147
(g28
S'\x04\x08\xe1\xe6C\x04\x08@'
p2062
tp2063
Rp2064
ag147
(g28
S'6\x05\x94\x16\xe6\x01\x08@'
p2065
tp2066
Rp2067
ag147
(g28
S'\n5M\xd5\xe3\xf4\x07@'
p2068
tp2069
Rp2070
ag147
(g28
S'bow\xdeo\xf4\x07@'
p2071
tp2072
Rp2073
ag147
(g28
S"\xe4\x16'R1\xed\x07@"
p2074
tp2075
Rp2076
ag147
(g28
S'\xa8$\x08\xa4k\xe6\x07@'
p2077
tp2078
Rp2079
ag147
(g28
S'2\n?\x1bP\xe5\x07@'
p2080
tp2081
Rp2082
ag147
(g28
S'@\x19$A=\xe5\x07@'
p2083
tp2084
Rp2085
ag147
(g28
S'r\xff\xf4M$\xe2\x07@'
p2086
tp2087
Rp2088
ag147
(g28
S'\x91\xcf\xb9\x91\x04\xe1\x07@'
p2089
tp2090
Rp2091
ag147
(g28
S'\x91\x86/rv\xde\x07@'
p2092
tp2093
Rp2094
ag147
(g28
S'\xf6a\xc3\x9cs\x7f\x07@'
p2095
tp2096
Rp2097
ag147
(g28
S'\xed_\xd6\xaa\x1a]\x07@'
p2098
tp2099
Rp2100
ag147
(g28
S'\x9c\xbb\x82C\x99Y\x07@'
p2101
tp2102
Rp2103
ag147
(g28
S'\xa4\xc5\x15\xc5>\xf5\x06@'
p2104
tp2105
Rp2106
ag147
(g28
S'\xe1\x97q\xab8\xf4\x06@'
p2107
tp2108
Rp2109
ag147
(g28
S'\xee\xa8\xc0\xff\r\xcf\x06@'
p2110
tp2111
Rp2112
ag147
(g28
S',Z\x06?\xc1\xcd\x06@'
p2113
tp2114
Rp2115
ag147
(g28
S'\x8e\xd3\xd64.\xcc\x06@'
p2116
tp2117
Rp2118
ag147
(g28
S'\xea\xa5+6&\xc7\x06@'
p2119
tp2120
Rp2121
ag147
(g28
S'\xac\xbe\xd9\x12\xdd\xc5\x06@'
p2122
tp2123
Rp2124
ag147
(g28
S'\xda\xf3+\x9a\xc4\xc5\x06@'
p2125
tp2126
Rp2127
ag147
(g28
S'6\xddQf\x0f\xc3\x06@'
p2128
tp2129
Rp2130
ag147
(g28
S'\xe8\xba\xf4\xb2\xc1\xc2\x06@'
p2131
tp2132
Rp2133
ag147
(g28
S'1H ]i\xbf\x06@'
p2134
tp2135
Rp2136
ag147
(g28
S'\x94\xd1\x92\x18\xc3\xbe\x06@'
p2137
tp2138
Rp2139
ag147
(g28
S'\xde\xc7\xbe\xff\xa4\xba\x06@'
p2140
tp2141
Rp2142
ag147
(g28
S'\xfe\xa1t\x1b\x93\xba\x06@'
p2143
tp2144
Rp2145
ag147
(g28
S'<\xc0;i\x9d\xb9\x06@'
p2146
tp2147
Rp2148
ag147
(g28
S'Lu\xc2\xec\xf0\xaa\x06@'
p2149
tp2150
Rp2151
ag147
(g28
S'\xe4\x991\xd1s\xa6\x06@'
p2152
tp2153
Rp2154
ag147
(g28
S'\xee\xa6v|#\xa6\x06@'
p2155
tp2156
Rp2157
ag147
(g28
S'j\x94\xe4!\xd8\x8f\x06@'
p2158
tp2159
Rp2160
ag147
(g28
S'\xce\xae\x1d\xce\xbcY\x06@'
p2161
tp2162
Rp2163
ag147
(g28
S'\xf8\xc0\xc6l\xf0\x1d\x06@'
p2164
tp2165
Rp2166
ag147
(g28
S'6\x80\xfb\xef\x85\x1a\x06@'
p2167
tp2168
Rp2169
ag147
(g28
S'f\x93\xe7\xee"\xc6\x05@'
p2170
tp2171
Rp2172
ag147
(g28
S'(\x8a!#\xcf\xb8\x05@'
p2173
tp2174
Rp2175
ag147
(g28
S'O\xb2\xc9h\xbd\xb6\x05@'
p2176
tp2177
Rp2178
ag147
(g28
S'\xf7\xea\xa76\x99\xb1\x05@'
p2179
tp2180
Rp2181
ag147
(g28
S'a\x1b\xae\xe8)\xad\x05@'
p2182
tp2183
Rp2184
ag147
(g28
S'\xc6\xc3\x9c\x15\x8b\xac\x05@'
p2185
tp2186
Rp2187
ag147
(g28
S'\x10\x97\xc2\x83S\xac\x05@'
p2188
tp2189
Rp2190
ag147
(g28
S'<\xfa\xffz\xd2\xa9\x05@'
p2191
tp2192
Rp2193
ag147
(g28
S'\xbc4\x9e\xd0\xd9\xa7\x05@'
p2194
tp2195
Rp2196
ag147
(g28
S'\xa2[\xc9V\xbd\xa7\x05@'
p2197
tp2198
Rp2199
ag147
(g28
S'\xb24k.\x06\xa5\x05@'
p2200
tp2201
Rp2202
ag147
(g28
S'\x86\xdd\x886\x13\xa4\x05@'
p2203
tp2204
Rp2205
ag147
(g28
S'\xb9\xa4\xef\xcc\xde\xa2\x05@'
p2206
tp2207
Rp2208
ag147
(g28
S'\xe7\xb9*\xb9\xbe\xa2\x05@'
p2209
tp2210
Rp2211
ag147
(g28
S'\x1c\xf9\xf4\x18y\xa1\x05@'
p2212
tp2213
Rp2214
ag147
(g28
S'A\x8e\x18\xdd.\x9f\x05@'
p2215
tp2216
Rp2217
ag147
(g28
S'\xb7\x84w\xa4\x03\x9f\x05@'
p2218
tp2219
Rp2220
ag147
(g28
S'\x88\x08w\xfe\x12\x7f\x05@'
p2221
tp2222
Rp2223
ag147
(g28
S'\xeec\x88Lq~\x05@'
p2224
tp2225
Rp2226
ag147
(g28
S'\x12\x93\xb8\xaa L\x05@'
p2227
tp2228
Rp2229
ag147
(g28
S'"\xe8W\xc2\xfdD\x05@'
p2230
tp2231
Rp2232
ag147
(g28
S'\x1a\xc4\x8a+\xaaB\x05@'
p2233
tp2234
Rp2235
ag147
(g28
S'\xb6p\x1eJD!\x05@'
p2236
tp2237
Rp2238
ag147
(g28
S'F\x18n";\x0b\x05@'
p2239
tp2240
Rp2241
ag147
(g28
S'\x1c\xb4R_#\xfb\x04@'
p2242
tp2243
Rp2244
ag147
(g28
S'\xecqW\r\xc2\xf6\x04@'
p2245
tp2246
Rp2247
ag147
(g28
S'\x04OI\xd6?\xe6\x04@'
p2248
tp2249
Rp2250
ag147
(g28
S'\x9e\xac\x1a\x9d\x9e\xdf\x04@'
p2251
tp2252
Rp2253
ag147
(g28
S'\xd4?k\xd7O\xdf\x04@'
p2254
tp2255
Rp2256
ag147
(g28
S'\xcb\xcb~\xd9\x9e\xdb\x04@'
p2257
tp2258
Rp2259
ag147
(g28
S'y\x80\xe2\xa3M\xd7\x04@'
p2260
tp2261
Rp2262
ag147
(g28
S'\xd8\xbc\x88\xecB\xd4\x04@'
p2263
tp2264
Rp2265
ag147
(g28
S'@\xe0\xb2\x1e\xdb\xd3\x04@'
p2266
tp2267
Rp2268
ag147
(g28
S'"\x0c\x14|\xc9\xd3\x04@'
p2269
tp2270
Rp2271
ag147
(g28
S'JL\x9f\xde\x0c\xcf\x04@'
p2272
tp2273
Rp2274
ag147
(g28
S'\xc2Mc\xca;\xcd\x04@'
p2275
tp2276
Rp2277
ag147
(g28
S'~\xac\x9fu\xbf\xcc\x04@'
p2278
tp2279
Rp2280
ag147
(g28
S'V\x9e\xe9\x1eb\xc8\x04@'
p2281
tp2282
Rp2283
ag147
(g28
S'\x1e\x9eV\xfa\xed\xc7\x04@'
p2284
tp2285
Rp2286
ag147
(g28
S'jT\xd7\x83z\xc0\x04@'
p2287
tp2288
Rp2289
ag147
(g28
S'f\x89\x08C\xc3\xbf\x04@'
p2290
tp2291
Rp2292
ag147
(g28
S'\x1e\x03\xf7\x99\x93\xb2\x04@'
p2293
tp2294
Rp2295
ag147
(g28
S'\x8e\x07y;~\xad\x04@'
p2296
tp2297
Rp2298
ag147
(g28
S'\xe2\xd1\xfc5On\x04@'
p2299
tp2300
Rp2301
ag147
(g28
S'\xbc A@\x8ch\x04@'
p2302
tp2303
Rp2304
ag147
(g28
S'p\xa3\x0c\xa9--\x04@'
p2305
tp2306
Rp2307
ag147
(g28
S'\x12\xc7\x90J\x12+\x04@'
p2308
tp2309
Rp2310
ag147
(g28
S'n\x08U\xd2_\t\x04@'
p2311
tp2312
Rp2313
ag147
(g28
S'\xbc\x85\xb1%\xc9\x08\x04@'
p2314
tp2315
Rp2316
ag147
(g28
S'\x94\xc1\xc7\n\xe5\xf7\x03@'
p2317
tp2318
Rp2319
ag147
(g28
S'\x99\xa1\xab\x0b\xf0\xf5\x03@'
p2320
tp2321
Rp2322
ag147
(g28
S'S-F\xe2\xeb\xed\x03@'
p2323
tp2324
Rp2325
ag147
(g28
S'\xda\xc4f\xe4\xfa\xe6\x03@'
p2326
tp2327
Rp2328
ag147
(g28
S"'\xa5\xb0Y{\xe6\x03@"
p2329
tp2330
Rp2331
ag147
(g28
S'\xf4\xbc\xf2\x0b\xe4\xe5\x03@'
p2332
tp2333
Rp2334
ag147
(g28
S'09|\x89s\xe0\x03@'
p2335
tp2336
Rp2337
ag147
(g28
S'\xa8\x7f\x1f\xc5\x9d\xde\x03@'
p2338
tp2339
Rp2340
ag147
(g28
S'v@D\xf5L\xde\x03@'
p2341
tp2342
Rp2343
ag147
(g28
S'\xb8\xef&b[\xda\x03@'
p2344
tp2345
Rp2346
ag147
(g28
S'\x91\x9f\xc9P\x9a\xce\x03@'
p2347
tp2348
Rp2349
ag147
(g28
S'\xa9\xf5w\xd1_\xce\x03@'
p2350
tp2351
Rp2352
ag147
(g28
S'J\x15\xac\xef\xe6\xc4\x03@'
p2353
tp2354
Rp2355
ag147
(g28
S'de8\x1e\xb7\xc4\x03@'
p2356
tp2357
Rp2358
ag147
(g28
S'\x88g\xa8\x18\x91\xbf\x03@'
p2359
tp2360
Rp2361
ag147
(g28
S'\xe8\xae\xd3\xf3\xb0\xbe\x03@'
p2362
tp2363
Rp2364
ag147
(g28
S'/~\xb5C&\xb9\x03@'
p2365
tp2366
Rp2367
ag147
(g28
S'\x7f\x07.Tp\xb8\x03@'
p2368
tp2369
Rp2370
ag147
(g28
S'Y\xd5A\xc6\xe8\xb6\x03@'
p2371
tp2372
Rp2373
ag147
(g28
S'\xde\x96|@"\xb6\x03@'
p2374
tp2375
Rp2376
ag147
(g28
S'\x84\x12\x07\xd4\x04\xb2\x03@'
p2377
tp2378
Rp2379
ag147
(g28
S'\xea]J{\xdc\xb1\x03@'
p2380
tp2381
Rp2382
ag147
(g28
S';\x13C\x1e\xec\xaf\x03@'
p2383
tp2384
Rp2385
ag147
(g28
S'\xc8J\xb2\xedE\xae\x03@'
p2386
tp2387
Rp2388
ag147
(g28
S'?\xbex\xb6\x08\xae\x03@'
p2389
tp2390
Rp2391
ag147
(g28
S'\xac\x0c\xe6\xd1x\xab\x03@'
p2392
tp2393
Rp2394
ag147
(g28
S'\xae`@\x88\xe7\xa9\x03@'
p2395
tp2396
Rp2397
ag147
(g28
S'=R\xc6\xd9\xc2\xa3\x03@'
p2398
tp2399
Rp2400
ag147
(g28
S')H\x15z\xac\x9f\x03@'
p2401
tp2402
Rp2403
ag147
(g28
S'\xcb)\xb6\xbc:\x90\x03@'
p2404
tp2405
Rp2406
ag147
(g28
S',\x11\x1cD\xf7\x8e\x03@'
p2407
tp2408
Rp2409
ag147
(g28
S'\x86m\xda-\x93Q\x03@'
p2410
tp2411
Rp2412
ag147
(g28
S'C\x9f\xd8\xc8\xadN\x03@'
p2413
tp2414
Rp2415
ag147
(g28
S'\xa0\xb8@\x94\xed\x15\x03@'
p2416
tp2417
Rp2418
ag147
(g28
S"\xab(R'2\x13\x03@"
p2419
tp2420
Rp2421
ag147
(g28
S'\n5\x8a+\xdb\xcb\x02@'
p2422
tp2423
Rp2424
ag147
(g28
S'\x06\x9dU\xef\xf6\xc8\x02@'
p2425
tp2426
Rp2427
ag147
(g28
S"\xaft\xc7\xe2'\xb0\x02@"
p2428
tp2429
Rp2430
ag147
(g28
S'O[\x07P\x95\x9d\x02@'
p2431
tp2432
Rp2433
asS'__name__'
p2434
S'TrainCG'
p2435
sS'__doc__'
p2436
S'\n    Newton-CG method\n    Using scipy.optimize.fmin_ncg\n\n    :Support networks:\n        newff (multi-layers perceptron)\n    :Parameters:\n        input: array like (l x net.ci)\n            train input patterns\n        target: array like (l x net.co)\n            train target patterns\n        epochs: int (default 500)\n            Number of train epochs\n        show: int (default 100)\n            Print period\n        goal: float (default 0.01)\n            The goal of train\n        rr float (defaults 0.0)\n            Regularization ratio\n            Must be between {0, 1}\n        \n    '
p2437
sbsS'connect'
p2438
(lp2439
(lp2440
I-1
aa(lp2441
I0
aa(lp2442
I1
aasS'errorf'
p2443
(ineurolab.error
SSE
p2444
(dp2445
bsg65
g18
(g19
(I0
tp2446
g21
tp2447
Rp2448
(I1
(I1
I2
tp2449
g28
I00
S'\x00\x00\x00\x00\x00\x00\xf0\xbf\x00\x00\x00\x00\x00\x00\xf0?'
p2450
tp2451
bsg72
g115
sb.