ccopy_reg
_reconstructor
p0
(cneurolab.core
Net
p1
c__builtin__
object
p2
Ntp3
Rp4
(dp5
S'layers'
p6
(lp7
g0
(cneurolab.layer
Perceptron
p8
g2
Ntp9
Rp10
(dp11
S'initf'
p12
cneurolab.init
initnw
p13
sS'ci'
p14
I40
sS'co'
p15
I30
sS'cn'
p16
I30
sS'inp_minmax'
p17
cnumpy.core.multiarray
_reconstruct
p18
(cnumpy
ndarray
p19
(I0
tp20
S'b'
p21
tp22
Rp23
(I1
(I40
I2
tp24
cnumpy
dtype
p25
(S'f8'
p26
I0
I1
tp27
Rp28
(I3
S'<'
p29
NNNI-1
I-1
I0
tp30
bI00
S'\x00\x00\x00\x00\x00\x00\x00\x00\x00\x00\x00\x00\x00\x00\xf0?\x00\x00\x00\x00\x00\x00\x00\x00\x00\x00\x00\x00\x00\x00\xf0?\x00\x00\x00\x00\x00\x00\x00\x00\x00\x00\x00\x00\x00\x00\xf0?\x00\x00\x00\x00\x00\x00\x00\x00\x00\x00\x00\x00\x00\x00\xf0?\x00\x00\x00\x00\x00\x00\x00\x00\x00\x00\x00\x00\x00\x00\xf0?\x00\x00\x00\x00\x00\x00\x00\x00\x00\x00\x00\x00\x00\x00\xf0?\x00\x00\x00\x00\x00\x00\x00\x00\x00\x00\x00\x00\x00\x00\xf0?\x00\x00\x00\x00\x00\x00\x00\x00\x00\x00\x00\x00\x00\x00\xf0?\x00\x00\x00\x00\x00\x00\x00\x00\x00\x00\x00\x00\x00\x00\xf0?\x00\x00\x00\x00\x00\x00\x00\x00\x00\x00\x00\x00\x00\x00\xf0?\x00\x00\x00\x00\x00\x00\x00\x00\x00\x00\x00\x00\x00\x00\xf0?\x00\x00\x00\x00\x00\x00\x00\x00\x00\x00\x00\x00\x00\x00\xf0?\x00\x00\x00\x00\x00\x00\x00\x00\x00\x00\x00\x00\x00\x00\xf0?\x00\x00\x00\x00\x00\x00\x00\x00\x00\x00\x00\x00\x00\x00\xf0?\x00\x00\x00\x00\x00\x00\x00\x00\x00\x00\x00\x00\x00\x00\xf0?\x00\x00\x00\x00\x00\x00\x00\x00\x00\x00\x00\x00\x00\x00\xf0?\x00\x00\x00\x00\x00\x00\x00\x00\x00\x00\x00\x00\x00\x00\xf0?\x00\x00\x00\x00\x00\x00\x00\x00\x00\x00\x00\x00\x00\x00\xf0?\x00\x00\x00\x00\x00\x00\x00\x00\x00\x00\x00\x00\x00\x00\xf0?\x00\x00\x00\x00\x00\x00\x00\x00\x00\x00\x00\x00\x00\x00\xf0?\x00\x00\x00\x00\x00\x00\x00\x00\x00\x00\x00\x00\x00\x00\xf0?\x00\x00\x00\x00\x00\x00\x00\x00\x00\x00\x00\x00\x00\x00\xf0?\x00\x00\x00\x00\x00\x00\x00\x00\x00\x00\x00\x00\x00\x00\xf0?\x00\x00\x00\x00\x00\x00\x00\x00\x00\x00\x00\x00\x00\x00\xf0?\x00\x00\x00\x00\x00\x00\x00\x00\x00\x00\x00\x00\x00\x00\xf0?\x00\x00\x00\x00\x00\x00\x00\x00\x00\x00\x00\x00\x00\x00\xf0?\x00\x00\x00\x00\x00\x00\x00\x00\x00\x00\x00\x00\x00\x00\xf0?\x00\x00\x00\x00\x00\x00\x00\x00\x00\x00\x00\x00\x00\x00\xf0?\x00\x00\x00\x00\x00\x00\x00\x00\x00\x00\x00\x00\x00\x00\xf0?\x00\x00\x00\x00\x00\x00\x00\x00\x00\x00\x00\x00\x00\x00\xf0?\x00\x00\x00\x00\x00\x00\x00\x00\x00\x00\x00\x00\x00\x00\xf0?\x00\x00\x00\x00\x00\x00\x00\x00\x00\x00\x00\x00\x00\x00\xf0?\x00\x00\x00\x00\x00\x00\x00\x00\x00\x00\x00\x00\x00\x00\xf0?\x00\x00\x00\x00\x00\x00\x00\x00\x00\x00\x00\x00\x00\x00\xf0?\x00\x00\x00\x00\x00\x00\x00\x00\x00\x00\x00\x00\x00\x00\xf0?\x00\x00\x00\x00\x00\x00\x00\x00\x00\x00\x00\x00\x00\x00\xf0?\x00\x00\x00\x00\x00\x00\x00\x00\x00\x00\x00\x00\x00\x00\xf0?\x00\x00\x00\x00\x00\x00\x00\x00\x00\x00\x00\x00\x00\x00\xf0?\x00\x00\x00\x00\x00\x00\x00\x00\x00\x00\x00\x00\x00\x00\xf0?\x00\x00\x00\x00\x00\x00\x00\x00\x00\x00\x00\x00\x00\x00\xf0?'
p31
tp32
bsS'inp'
p33
g18
(g19
(I0
tp34
g21
tp35
Rp36
(I1
(I40
tp37
g28
I00
S"u\xe3\xdf[GP\xca?\xdb\xb6m\xdb\xb6m\xdb?\xeek\x99,r\x80\xe0?\x7fNX\xc3;\xa3\xc7?\xf9\xf7\xd6\x11\x94f\xd3?U?'\xac\xe1\x9d\xd1?\xf0\xad#(\xcd\xa6\xcb?lxg\xf4R\xfd\xcc?L\xf5s\xc2\x1a\xde\xc9?\xf9\x18\x9c\x8f\xc1\xf9\x98?i6\xdd\xf8\xf7\xd6\xb1?\xd1*0\xf6\x94\x87\xc8?7\xdd\xf8\xf7\xd6\x11\xc4?\xb1\xa7<\xc4\\h\xc5?\xda\x95\xa8]\x89\xda\xd5?\xee\x8c^\xaa\x9f\x13\xd6?_\xcbd\x91\x03\x84\xd4?\xfb\x18\x9c\x8f\xc1\xf9\xa8?\r\xef\x8c^\xaa\x9f\xa3?\x0e\xef\x8c^\xaa\x9f\xc3?\xbb\x12\xb5+Q\xbb\xb2?\x04\x84\x14\xf7\xb5L\xb6?\x0e\xef\x8c^\xaa\x9f\xc3?8\x1f\x83\xf318\xbf?\xbb\x12\xb5+Q\xbb\xb2?\x9e\xd1K\xf5s\xc2\xca?\xa6\x1b\xff\xde:\x82\xd2?\xda\x95\xa8]\x89\xda\xd5?B\x8a\xfbZ&\x8b\xcc?L\xf5s\xc2\x1a\xde\xc9?-r\x80\x90\xe2\xbe\xc6?i6\xdd\xf8\xf7\xd6\xc1?C\x8a\xfbZ&\x8b\x9c?\xc5}-\x93E\x0e\xb0?\xe6B\xab\xc0\xd8S\xae?M\xf5s\xc2\x1a\xde\xb9?\x0e\xef\x8c^\xaa\x9f\xb3?\xbc\x12\xb5+Q\xbb\xc2?M\xf5s\xc2\x1a\xde\xb9?\xb1\xa7<\xc4\\h\xa5?"
p38
tp39
bsS's'
p40
g18
(g19
(I0
tp41
g21
tp42
Rp43
(I1
(I30
tp44
g28
I00
S'+R0;\xe5\x85\x13\xc0\x97+\xae\xb3/\x81\x11\xc0\xe1j\xf4\x8c\xe1/\xe7?\xe6\x99\xce=p~\xf7?ksg8\xe43\x11\xc0\xa6%\x009\xa3\xc6\xe4\xbf8\xaf\x11\xbe\xfc\xa6\x13\xc08\x9f\xba\x16(\x96\x14\xc0Hc7cTD\x01@\x18\xe0o\x9ar"\xf0?S\xb91\xf7\xc44\x00@:\xf7\xfb\xd9Df\x02@\xf2\xd0\xbf\xebT\xba\x15@\xa4\xc3\x92l$\x9a\x0e@\xac\x91\x9fnA\xf6\xed\xbf\x90h\x8d/\x9dS\xe4\xbf*j\xc1\xae\xed\xc4\x16\xc0\xccT0\x98\x0bm\x12@\xdbs\xfd5\x9bn\xf0\xbf\xd6\xc7\xfa\xe0\xce_\x16@\xf0\xfa\xc3\xf2 \xdc\xf4\xbf9{\xbc7R\xab\xf1\xbf\xc4`\x94\x16\xdf\xb0\xf0\xbf\xd2\xe1\x127\x99#\x0b@7\xc1\xf0\xe3x\x95\xf8\xbfp\xc1\xb1{\t\x17\xe3?.,\xd6\x83G\xf3\x13@Z\xf2\xa2\xd1:\x80\xef?(h<\x17\xafS\xe6?\xb9\xc2\x03x.\xc3\xf1\xbf'
p45
tp46
bsS'np'
p47
(dp48
g21
g18
(g19
(I0
tp49
g21
tp50
Rp51
(I1
(I30
tp52
g28
I00
S't"\xe6I\xb8\x14\x13\xc0i\xa92\x0c\x96\xa3\x14\xc09\xc7\xbf\xd4\x96\x96\xf6?oI\xd3\x91k\x9a\xf9?\xa1;\x14k\xf3 \x12\xc0\xe0f5\x80\x81\xcf\xf5\xbf\x7fb\x89d\x11\xab\x18\xc05\xc7|\x80\x9c%\x17\xc0\xfc\x11\x93\xe2\xa8\xa7\xf9?\xca\xb4#\xce*g\xfb?)\xed\x0b\xaa\x8b\xb3\xf7?f}%-\xedu\x08@\x85\xab)\x1b\x84k\x1c@\xdcq\xd9|\xd62\x10@\xa0\xd2\x18\t\x08A\xf5\xbf;\x98\x97A^\xcf\xec\xbf\x90\xbaV<!\x9d\x1d\xc0\x08\x0c\x030K\xd8\x18@\x02\xd1~\x81\xd6\x9f\xf5\xbfu/\xbaL\x87#\x1c@[\xdc\xd9\xc7\xef\x13\xfb\xbf\xb3\x8fQ\x8e\xf92\xf1\xbfi\xd8\x06L\xc1C\xaa\xbf\x7f:/\xaf\xe61\n@\x18\xf0\xf4\xff\x16\x92\x00\xc0\xf4\x95\n\xf6\x91g\xdf?Y\xe8t\xec\xd1\xc9\x19@\x8f\x7f\x9a\x86\xbcH\xdc?\xfb\xf0l\xf0\nD\xe0?\xb8\xb1\x02CP\xea\x01\xc0'
p53
tp54
bsS'w'
p55
g18
(g19
(I0
tp56
g21
tp57
Rp58
(I1
(I30
I40
tp59
g28
I00
S'\xf3\xa8J\x10D\x05\xbe?\xde\\3R%\x88\xe7\xbfA\xbdiY\xfex\xdf\xbf\xfc\x115U\xd5?\xe5\xbf\\\xd1`\x9d\xc83\xb6?z\x1ao\xe7U:\xe3\xbf\x08\xe2\xb4"\t\xf4\xe5\xbf\xcc=_vF\x04\xd0?\xff\xc5\x87\xb7\x12X\xb8?(\xfd\x96yPa\xc2?\x11\xefx\x9c\xcf\x06\xdb?J\xdd\xda\x11\xf3\xee\xd3?\xa9&\x9aS\xa8\xa7\xe9?\x19S\x9aS\xb0g\xe8?7\x8e\xc0s\x108\xd2\xbf\x1e\xa0Gn\x8d\xcd\xc8?x\xae\x1aK1\xe4\xcf\xbf;HP\xa0ID\xc4\xbf~Q\xa0$1\xbf\xe4\xbf\x90\xb1\xdfWS\x90\xe1\xbf\x07#!\xff\x08B\xe1?@g}\xf8\xd4r\xc6\xbfX\x08\xb8\x9fa\t\xea?\x87\xb5\xdf\xc9ez\xeb?\x18\x9d\xc5\x80\xb5<\xdf\xbfZ\x90\xe1\xdaz\x97\xcc?\xd9\x88c#1M\xdf?[I\xb3g\xd5\xae\xd4?\x9d\xd6\xa9A\xaan\xd6\xbf,\xfc\xaf?X\x15\xcb\xbf\r\x8aY\xef\x89\n\xbf?E/\xf7\'\xcc0\xca?\xc6\xfd$\xb2@<\xe8?\xe2\x11[\xb2s;\xbd\xbf\x8e\xab\xa1_e\x95\xd8?aF\x8f\'\xf0\xae\xe8?\xfb?\x8d\xa6:\xa5\xd3\xbft\x92\\\x1b?4\xd1?5\x99\x16\xaf\xf02\xdc?\xd6_GTI\xf6\xe5?\xd9\xde!\xa7R-\xaf?\x1c_x\x07\x97\xac\xcf?\x83\xa3\x98\xf0.7\xe7?\nG\x90"\xef8\xb7\xbf8G\xea\x96\x81\x83\xe1?\xaa\xef\xe1\xcc\x99d\xe0?l\xc8\x16\x91\x9e8\xd2\xbf&\xb9\xd2\xbc\xfc\xd7\x9c\xbf\'\x040\xed\x9a\x1b\xe1\xbf\xe9n\xd7/P5\xc7\xbf<Qv\x15w?\xe5?H\x1f\x96\x00\xfcU\xe6?&g\x8ce\xa5V\xe3?\xf1\x8f\x9a\x19\xcdM\xe8?g5}c\xd6\x0b\xe0?\x94\xf5\xa8i\x9e;\xe5\xbf(\xe3^\xad\xcb\xd8\xc6\xbf\x89\xb1-tm5\xc4\xbf\x86f9\xcd\x0c\x1b\xdc?^\xcfPN\xb66\xe9\xbf\xce\x86ab\xc4\xc1\xc7\xbf\x01\xa1\xa3\xb2\xb6\xed\xe5?\xa6\x0e\xc2\xdbeB\xac?U\x17F>\xba\xea\xe9?\xe5\x00\xf7.\xc7\x8a\xe3?\r\xc6D\xcf)\xd6\xe1\xbf^\x17\xad.\xe6d\xdf\xbf\xf3\x9f\xf3v\xa5D\xda\xbfM\xbd\x9bC\xae\x04\xe5?pog\x9b\x07\xa7\xe1?\x82\xb1\x05\x82T\xf0\xe5\xbf)\x81\xc6$%\xa3\xd3?\xbeOu\x1d!X\xe1\xbf\x11\xde\x8dU\'\xc2\xc5?\xf6}d#^Z\x97\xbfL\x08t^\x9e\xc3\xc2?\xb7\xbf\xf6\x85\xb7\xa7\xc4\xbfN\x89\xa9\x90,\xc6\xbd\xbf\xb9\xd4\x91\xa8\xd2\x12\xe3?,\xb1\xd5;\xce\xfe\xd2\xbf|\xe9\xd6a1\x9e\xd3\xbf\x1d"U\x8de\xbf\xe5\xbf\xf8h\t=\xe2\xed\xea\xbf\xeb\x11*4\x82\xa8\xc1?\x13\x17\xd8r\x1d:\xc3?\x11,\xbdY9\x06\xea\xbf\t^\x89\xd6Eg\xc1\xbfO\x84\xed\xea\xba\xf9\xe1?\xa9\xf2\x86"\x18\xa3\xd6?\x9e\x9c\xb5V\xe8\xb5\xc4?\xdd\x7f5\x0cm\xcd\xc4\xbf\xde\xabEE\xd3>\xc4\xbf-\t_(\xb9E\xdc?\x85\x96\x99d\xbd\x95\xc7\xbf\t"\xfe\xe9\xe1&\xd0\xbf\xb09\x15\x14\xb2\x97\xd6?\xc8K\x04,\x85\xea\xd9?L\xf0\x92;L\xfb\xe6?\t\xe9B\xd4B\x80\xe2\xbf`\x19/\xb9du\xea?\xb1\xac\xba\xb1\xe2\x7f\xee?\xe1\xce\x19\x94NK\xcb?\xfe\xca>\xc4\xe9\xba\xe3\xbf\xb0T6\xda\xbe-\xd4?\x06\x89lG8\xf6\xcf\xbf\x11\x1e\x07\x8e\xff\xa1\xd5?\xe8uZ\xa5y\x93\xed\xbf\xab\x93\x92[$\xb9\xaf?3(\xd1\xd3\xc1,\xe6\xbf4\xc3\xa4\xb4v\xbf\xaf?\xcc\xfbFY\x0b0\xe1\xbf\x84\xaf\x9e\x81\x1e\xee\xb0?\xec\x1e\xe1m\xf2@v\xbfr\t\x16\x9by\x1cc\xbf\x073\x1f\xc2G\xf6\xd8?\x9c\xac\xd5\x7f\xde\xdf\xc5?5&4f5\xef\xe0?\xd7\\K\x0bV\xbf\xdd?\x95\xd0h\xff\x9a\x0b\xdd?\xaf\xe9,7P\xe4\xe3\xbfs\x11K\x00\x1a\xc7\xe2?\xca\x8df\xc4?x\xd2?\x91DflsV\xd3\xbf)q\x8b\xd8\xea1\xc8\xbfY1*tCj\xdf\xbf3"\x85\x1d\x9c\x00\xe8?\xb0*L\xf4i\xab\x9b\xbfYb\x193r$\xdb?k\x909\xde2\x16\xf0?{b{o\x8e\x0e\xe2?\xda\xfb\x801\x95\\\xc9\xbf)D)z\xfc\xe2\xc0\xbf\x9f\x18\x16\x97:Q\xd5?\xf4\x9b\x0b:\x07\x90\xe3\xbf\xca\x03\x85T\xf2\xe3\xe1\xbf\xd0F\xda~,M\xf1\xbf8\x87\xa4\xa2gH\x82?\xb6h7W\xcc\xc5\xbe?\xd8\x988\xf2Y\xc3\xbc?\xdd\xbb\xd3\xfe\xa2]\xe6?u>\x1deb\x99\xc6?"\xf3\x82\x08\x16\x90\xed?H\x7f\xa1\xc3\xb9@\xda\xbf\xb4\xb8m\xdd\xda\xa6\xea\xbf\x103\xeaQ\xb8\xc8\x80?\x9d\xd6\x89\x07h\x14\xe4\xbf\x0cz\xed\x97\x8f\x88\xe2\xbf{t\x00\xe0z\x0e\xd9?\x84\x08\x19\xad\x9f\xf7\xc8?c\xe4t\xf3\x04\x9e\xd0?J2l\x8eQ\xca\xb3?\x02(\xf4\xcf\xef\xfd\xd6?\x92p\x0cO\x93\x0e\xe5\xbf\xaf\x9f\x01\x02\x9b-\xe4\xbf\xc8$\xd9\xbb\xef\xf8\xce\xbf^\xd6\xc6|\x85\xd6\xe3?\x98\xe3\x0c\x1e\xf8\xf7\xe9?\xae\x95\x82\x93\x8ev\xca?\x10\xf1\x0b\x10\nT\xb4\xbf\x1bF\xe2\xba\x0ch\xd9\xbf\xbe/\xfat>H\xe4?\x14\xaa4\xden\x1f\xe4\xbf\xec\xf0\x99\xb25\x11\xd7\xbf\x9a\xbd\xfb.WV\xd1?\xe7\xd3\x8f\x9f\xf0\xc2\xd7\xbf\xcd\xd1\xb9\x8b\x04\xe6\xc9\xbf\x96\xc8\x8a>2=\xab?O7t\x01\xd9\x10\xea?,\xe7\x02a\xaa\xeb\xe0\xbf\x9d\xa7uh\x03\xef\xd4?\x1c\xd1\xf1\xc4s\x1e\xe5?\xdc\x80\x85\xd5\xe7\x01\xea?!<0\xd4\x1a\x8a\xea?\xdbV\x9cg;\x8e\xc4\xbf\xa0G\x86\x90\x19\r\xe1\xbf\x7f:\x003\xb8\x01\xd1?\xce\x94\xb0\xa8:\xe2\xc9?\xc5\xc4\xbb\xa7pI\xc1?\xff\xf3\x8b7\x7f3\xc1?U\xdb\xc4cl\xda\xa2?4\xf4l\x17uJ\xe9?R\x8cn\xb7\xe8\x9e\xe9\xbfY"\xcd\x84\r\xbf\xe8\xbfo{+\xbe\xd5\x9e\xd0?g\xa1\xda\x96/\xdd\xca?\rS\xf4\x17\xb5\xdd\xda?\xd8\xc6\xa1\xf7\x92\xdc\xbc\xbfS\xce\x16\x89\x95(\xe9?\xf7\x18%\xcd8\xc8\xdd\xbf\xf6\xc9h\x06\xa6\xb8\xc9?@1\xac\x13\xda\xe9\xd8\xbfO\xcd\x187\xa5<\xe7?\x8aL\x8b\x9b*\x80\xe9?)\xb9\x82\x815\r\xc4\xbf\x854{\xa3R$\xd0\xbf#\x898\xfff4\xce?\xef\xdeU\x86\xa6|\xc1?\r\x81\xda\xcc7t\xd9?\x9b\xd0R\xc0n(\xa1?<\xbc\x0e\xc8\x05}\xe0\xbf\x82\x11\xe77f\xd9\xd0\xbf\xf4c\x08\xda@\xa6\xd1?\xc4\xcf\x88d\xec]\xe6?\xba\xd9\xadL\xf2F\xe5\xbf8\x8dD\xa9O\xf2\xe2?\x94\xf5\xf4\xe2r6\xe1?\xa0\xe3[\xe7\x07\xec\xe1?\x8c\x94\xff\xd3Y\xea\xd1?\x9b\xfe\xe8\xb74\x1a\xa2?Vw\x7f\x16@\xf1\xd2\xbfU\x9e.eGc\xe4\xbf\xed\x11\x8a\xea\xb9/\xd4\xbf\x0fZ\xdcP\xff"\xdd?\x1e\x0b\xa98\xb2n\xb1\xbft9\xadu\x12`\xe8\xbf\xe6\x16\xfa\xa3\xb7 \xd9\xbfd\xf6/|\xa9\x84\xa7\xbfL5\xaf\xf8g\x0e\xdd?\xe7\x98X\xf9\xd3\xc7\xe7?-=\xdd\xb2\xad\xa9\xe6?\xdf\xd7_\x0c\xfbZ\xc5\xbf\x08M\xabs\xb1\xd3\xd3?\x12\xcb\x83\x92F\x05\xa9?\xae;}\xcd\x02<\xd7?\xec\\6_\xea\xc1\xe1\xbfG\x95\xd9\x9c\x03\xbd\xe3\xbf\xec.\x80/\x80\xa5\xdb\xbfm\xc7\xe0-\xa7\x85\xd1\xbf@\xb5~\x07\x00\xc0\xe4?5\x0e@\xbc~\xa1\xe8?\xdc@\xac6G*\xe2?\xc3\xf3\xd1\xbb\xcb\xce\xd5\xbf\xa4[\xb3\x08\xaf"\xe5\xbfb\x9e\xe7(\xb2R\xc8?\xcbgf\xc7\n\xad\xc9\xbf\x94\x1a]ZN\x84\xe1?\x1c\xa0.\x9a\'\xa0\xc3\xbf\t\xc0\xa1\x97L6\xe7?\t\x81\xb6U\x1b/\xd9?\xbb\x12ME\xc0Q\xc5\xbf\x9e5\xff\x8c;;\xe3?\x96\x03\x8e\x1a9p\xd8?\x86\xfc\xee\xa9|F\xe4?\x10d\x9b\x9f\xf8\\\xe4?`@\x7fA\xc8w\xe4?\x04TR\xab\xb9\xbc\xde?\x95\xfd\xb8\xa6W\xb8\xd3\xbfT\xf1\xe5\xc19\xc3\xc6\xbf+\xa0*\xa5\xf3\xe4\xe8?\x16\x0b\xc7\xca\\&\xe8?+\x90I\xfd$\xb9\xd2\xbf\xf0\xac\xd7\x84:\x03a\xbf\xfb\x87\xeb\xa5\x16\\\xe0?3\x1d\xc7\xa9$4\xe9\xbf\x1b\xdd\x82\x18\xdc6\xe1\xbf\xf9S\xaf2\x8b}\xe2?\x1e\x1e\xab\x96\xf2\xec\xd2\xbf\xbb}Z\xe1\x96\xdb\xd8?\xe2\xd4x\xa7(]\xe7\xbfh\x03q\xcao}\xe8\xbf\x0c$\xf4\t\x9f\xbb\xd0?@\x96\x02\x90\x13\x89\xd7\xbf\xdfU\xcc\xf3\x9d+\xdf?\x84\xfb\xd8\x12\xe9\x15\xd9?|\xb2\xfe\xad\xf3K\xe7\xbf\xdc8\xc4\x97\xf0\x1a\xb4\xbf"\x9fS\n\xaa\xd3\xb8\xbf\xb6\xfc\xeep\xaf\x9c\xe5?\x92\xbc\xc7\x9c\x8dO\xd9\xbf\xcd\x08D\xe5\xa5\xe5\xd5?\xc3\x1f 6\r\xdb\xb6??\x88;t\x1d.\xa4\xbf_a;\x0c\xc9\x91\xd8?\xc0XJ\x90\xae\xfa\xb2\xbf(\xea\xa1F8\x1a\xe3?t\x80\xee\n7\x14\xc5?\x15\xe2\xc7\xfa.v\xe7?$\xd0\x1a\x05-\x1a\xc7?Ty\x14nk\x0c\xd5?{T\xdbs~\x03\xaa\xbf&\x00^M=\x8f\xca?\xd6"\x1d\xdc\x1bS\xd3\xbf\xc7\xb7\x10\'8`\xc6\xbf%\xeb3\x84\x89\xad\xd2\xbf\x99\xe3P\xc7$\x97\xc1\xbf\x1b\\\xa5\x9f\x8f\x12\xda\xbfq\x1e\x94A\xe7\x88\xea?\x92\x81p\xbfm?\xdc?\xba\xe7\xbc`g0\xe3?\xc0\xb1\x99\x7f\xa4F\xd5?\xb3(\xc6+\xb8\x8b\xdb\xbf\x96S\xa8\xbe\xbd\xc9\xd9?#\xa9E\xc7\x9e\x80\xdf?>\xea\x80\xc0/l\xdb\xbf\x02\xde\x84\nP\xce\xea?!\xf2\xe4\x83\xab\x9a\xb3\xbf\xdev\xbbi\xf8m\xc9\xbf\xe9\xd3\xc4\xde]\x13\xe6?c\xdf\xb5\xe43\xca\xea?;\xcc\xd6\x97\x8e\xa9\xe0?\n\xec\x15\x0f\x87\x9f\xd2\xbf/\xfc\xd2>\xa6\x06\xdd?\xac{4#\xe9\x8e\xe7?\xb6\x90\x05\x01\x1d\xeb\xe2?\xd9\xee\xbeJ\xba\x84\xdd\xbf\xf9y_\x14\xb4\n\xc8\xbf+\xbd\x9b\xbe\x97\xdc\xe0?]\xfbq\xa4]\x0e\xc0?\x11\xbd~\x15\xaa#\x8f\xbfOw\xc3i\xab\x1c\xd9?\xde=!\xfayd\xd5\xbfvr\x02\x02\x14a\xe3\xbf\xd9\xecG\x03\x01\xf6\xea?F\xc4\x9d\xf6\xe0\r\xb5?\x9f\xfan\xdf=u\xe9?P\xd7QxE\xab\xdb\xbfm`\xdfo\x80\xf7\xde\xbf\xa0\x85.\x82L~\xcd?\x0c\xf2\xf7\xb0\x0f|\xe2\xbfR\x85\xf4\xa9K\xb6\xc1\xbfh\x8e\xe1\xea\xbf\xf8\xa0\xbf\xf5B\x1cQ_n\xec\xbf\xfa\xc9/\x81\xce)\xcd\xbf\xb8z\x94\x9bA\xa8\xcd?|\xfa\x87S\x1er\xf0?\xfa\xedp\xbcN}\x9a?\xb0\xa5\x19\x12\xfd\xb3\xa1?\xdfJ\x83<\xeb\xbd\xce?NR\xf9\xfc\xafL\xdf\xbf\x1f\x82\xdc|\xa2\xa0\xe3\xbf \xcb\xe3N\xbc\x81\xca?\x87\xce\x98\xd7\xe6\x90W\xbf\xb3\xb4\x94/@VR?V\xf2T\xf9\x83^\xb1\xbf\x19\xcf\x1f\x02V\xc3\xeb?\x9f\x92\xc6J6\xd0\xe7?\xe7\xb9u\xd8\x0e\x0e\xe2?Il\xce`\x9d1\xe2\xbf\xa1R\xbb\x97`\x93\xed\xbf\xff\x9e\xe7\xf1\xefk\xe8\xbf\x1c{H\xa5\xa61\x9c\xbf\xc9E\x1aV\xff\x95\xd2?\xa9\x9a\xbf\xb7\xb8\x08\xbc\xbf\xf4z\xa8\x10a\xa7\xd5\xbf8m\\h\xe3\xc3\xac\xbf\xcb\xaafS\xdc\xa5\xd9?\xa9\x12\x18\\\x03\xb8\xd5?;\xe0\xe0\xb2\xba\xe2\xd8\xbf\xd3\xf4y\x9aM\xdf\xcb\xbf\xfe2&pTV\xd5\xbf\x89\x892\xc4E\x0b\xf2?s\xd4\x07\rx\xc9\xd1?g\x00\x17Z\\\x03\xb4\xbf\xc9+\x92\xc4\x82\x10\xcc\xbf\x97\xde\xf5LO\xb2\xd2?\xf0\xec\xe5\x84\x9cR\xc9?\x1a\xca\xe3c[\xd6\xc1?b\x1dr\xe3\x80I\xd8?\xb8\x93\xc1Q\xb1\xe6\xde\xbf@\xc9\xcd\xa3d~\xe0?R]c"\xe2\xa5\xa5\xbf{t\x966\xe7\xae\xe7\xbf\x12\xfa\x11\xe2\x92P\xd8\xbfz\xca\xae\\\x01U\xd9?\xffk\xd0\x0e;\xff\xbf?\\I\x0b:\x1d\xfd\xda\xbf\xa2\xcc =O\x8d\xe3?q\xf8\x1a+\x97t\xbe?\x1a\x15\xbe/s\x8f\xc5\xbf\x84\xfee\x87:\xf8\xe4\xbfZ\xf8\x80\x8d\x8f\x7f\xb3?U\x920b\x057\xa4?\x9bU&\xc0\xb34\xda\xbff\x8aU\x13\xda`\xdb?c\xe0\xe3\xfc\xd2\xeb\xe2\xbf\xd1\xe6~^06\xe8\xbfE\x7f\x87\xae\x96F\xd2?\xf1\x9dX\x8c\xe8J\xea?\xe7\xc5\x0bl\x9a\x1a\xe3?M\xdd\xdf\xaf\x9d\xfd\xd8?\xc3/\xf6\xdb\xfa\xdf\xc4?\x00\xbcbG\xe7x\xe2\xbfE\xb0s\xba\x8c\x1f\xe7\xbfGZ\x91\x91\x94l\xa0\xbf\x7f\xd5p\x13\xf6\xf7\xe3\xbf\xe7\xc8\xd0kZ-\xd4?)O>t\xd3\x01\xd2?x\x18\xff\xa099\xe0??\xe7\xac>WA\x95\xbf\xb8J\xc6\x0fxI\xc1?y!%\r\x052\xe0\xbf?H\x17}!A\xdd?tSX0\x85\x12\xe5??|g\x95\xee\xd6\xca?\x8bf\x8a\xf2\x81B\xe4\xbfg\xe6q\x9c\xeaj\xdb?s\'O\t\x1d\xd8\xe1\xbf\xac\x9e\x14\x19\xf9\x82\xd7\xbf#\xf7\x9dE)K\xeb\xbf\xc4\\\r\xb5\xa1\x82\xe7\xbf{a\x1f\x8f\xdeW\xbb\xbf\x14a\x15\\\xfa4\xc0\xbf\xdf\x01\x05\xee\xa3-\xd0?\x10V.\xa0\x11\x0e\xd5\xbf\xc0\x83\x08\x7f]\xa6\xd1\xbfS\xcd\xb3\x82\xfd\xe0\xe0\xbf;\xe8.#\xbf\xd2\xe8?>S\xd7\x07Ox\xc4?\xdb\x80i^\xc6\xd4\xe6\xbf\x93\xab\xa2 \xd5\xe3\xe3\xbf\x0cs\xfe\xa3\x12\xfd\xdd?j\xaf\xc8\xc0\x07\x84\x93\xbf\xdf\xb9\xf0\xb5\xd91\xdf\xbfv\xfe\x18\xe8o\xba\xdc\xbf\x9a^\xce\xd0\xcd.\xc3?\xd0\xdc\x01C \xad\xe2?:%\xb1\xa0\xc0r\xb9\xbfq\x00\x07:\x1dJ\xe8?\xec\x0f%\xaf\x9e9\xdc?\xa0\xfb{i\xba\xd3\xe7?"T\xad\xad\x94\xcb\xe1?8\xfa\xb2D\xb5\x07\xb0\xbfH\xd6:\x15:7\xee?\xe6xCS!\xd1\xeb?vg"3i&\xc0?tA2\x80x+\xd8\xbfU\x1au@Jh\xdb?;\xc0\x05S\xae\x8b\xa6\xbf\xc3\x7fj\x17\xdc\x86\xd4?R\xd6U\x15\x91\xa5\xe0\xbfcl\x89\x9a\r;\xa5\xbf*\x82N&+u\xe0?c\xb4\x10\xb9\xd9\x03\xe9\xbf\xb4$\xe8\'&\\\xcd?\x12vu\xf2\x9c\x9f\xd2\xbfxM\xb0\xed`m\x96?\x07\x1d\xd0\xde|t\xd6?\x0f\xd7y\x8d\x9a\x1a\xd9?x/\xcd\xd9\'?\xe2?w\xe5\xdd\xec\r\xba\xc2\xbf\x9e\x06g0\n\x8a\xdd\xbf\xa0S\t\x15\xea\x03\xb7\xbf\x8e\xc1V:N\xe6\xe9\xbf\x1f\x8fU\x13\xec\xd4\xbc?\x8e\x11\xf2R\xde\xb4\xe4\xbf\t\x0c=7\xe3\x9b\xe6\xbf\x92\xa22Gz\xed\xce?\x1aEI\xf0\x80\x96\xe4\xbf\xcc\xb8\xff\xbc\xfd`\xcf\xbf\xa2\x11\x81\x8cD\xf3\xe6?gC+\xc7\x16\x88\xd8\xbf\xca`F\x1f\x88\x88\xe6\xbf\x13\xe4@\xf5\xa5\xe5\xb4\xbf\xc2p\x021\xba;\xe7\xbf\xb6OQP}\xb7\xd5?\xb8\xe4{\xf8\xe2\xd7\xe7?\xb6\xd3\xc3D\x7f\x00\xd4\xbfWW\xf9{X\xe0\xca?N\x05\x0b\x04b{\xe8\xbf\x08*+\x97*c\xd6?5\x9d\xbb\xdd\x008\xe6?\x13\xf4\xa45\xd2\xf4\xb3?\xd43<\x19\x19\xe5\x90\xbf&\x93\x10\xb2\xfc\xcd\xb6\xbf\x93\xf9\n\x8c!\x93\xd7\xbfU\xefrz\x0e\x9f\xe5?\xb2V\xe6\xc9\xe8\xfd\xdc?\x1d.\xe0\xd2\x19\xf1\xd0\xbf\xa2\xbdVg\xefF\xce?\xfe\x8a\xbd\xd6wr\xd5?\x90\x1c\xfa\xc8s\x00\xcb\xbf\xfaUGR\xba\n\xe7\xbf\x84HAwZ\xe8\xe5\xbf\xbe\xf9\xc2\xef\xc7\xbd\xd9?\xe78\xfb\xf3\x81\xcd\x8b?\xed4\x1d\x14\x8a7\xc7?H\xe5\x08I\xf6\x92\xa0?\x83^\xb2F\xbe\xae\xe5?\xb6\xba|2\xb2t\x80?z\xe8G\xf6\x0c\xb9\xe8\xbf\xc6\xd7\x18\x0b\xaf?\xe6\xbf\x93\xcfN8\rw\xc6\xbfzW\x1b\xcb@,\xe1\xbf\xf7\xdc\x08H\xfa\x94\xb1?\xeb\x01}ij\xe3\xe2\xbf\x82H\x8bM\xb6&\xd9\xbf\x94\xe1\x1d\xc4(3\xe6?\x81h\xf6\xaeba\xe0\xbfFWT\xb2\xa7\xd6\xdf\xbf$\\\x84\xa1+\xd4\xe0?3Q\xf0\xd0\x1fS\xdb\xbfU\x1c\xeb0*\xfa\xc0?\x87\x8d\x1a\x88<O\xc9?\xa2(\xa7\xa7\xd1\x18\xe8\xbfpQO\xdf\x9fs\xc6\xbf\xa6\'v\xdan\x9c\xcd?\x02\x11zn\x05\x18\xe8\xbf\t%\xf3\xda\xb6\x7f\xe9\xbf\xae\x18\xa5&\x16R\xe9?\xed\xd7l\xa5\xa9*\xd0\xbf\x84\x7f\xdc\xdc\xd6\xe3\x9f\xbf s\xe0P\x9d\xc8\xcb?\xe8g\x01\xf6\xdb\xd7\xad?+F\xea~X\xfc\xe3\xbf\xf4-#\xae\xb9\xdc\xb0?\x147/UW\x8f\xb8?\xde\x1e\xdfc\x9bc\xc8?\xa4\xe9\xd8\x12^f\xe1\xbfK\xde\xdc\x9a\xe2\xdf\xd7\xbf\xf41\xe4v\xb2\xfd\xd4?V\xf6\xbclR\xc6\xd9\xbfj-6\xc7\x99y\xd8\xbf\xdc\xf3D\xe6w\xbc\xd7?=\xac\x0f<m6\xea\xbf?1a\n8\xad\xe3\xbf\xe5\xe7\r\xecP\x19\xda?\xa3\r\xf5[\x1e\xa7\xce\xbf\xa1\x00\xd1\x08\x8c(\xe7\xbfn\xaf\x02\x18\x1e\x80\xdf\xbfNk\x16\xb2\x05,\xe4?t\x18\'\xf1\x10\x03\xd9?Y\xe0\\3\xac\xce\xd6\xbf\xcco@\xb5\xb0w\xe8?\xc5\xaezuD{\xd7?\xa3\xed\x1f\xe0\x92Z\xe6\xbf\x04\xc4\x8cd\xaa\xaa\xdc\xbf\x14Q\t\xa8\xb3)\xd0\xbf\xaeSE\x1d\xac\x05\xe0?d|\xe77\xfd\x08\xe4\xbf\xf6-\xa2\xc7{k\xe3\xbf\xb8\x16+{\x15\xd8\xd5\xbfG\x13\xb8\xf6\xc9\xe3\xe9?&\xd2\xbd\xbc\'\x14\xe5\xbf$\xe7\xc4\x8dU\xf5\xbf\xbf\xbd\x84$\xbe\xe5\xec\xdf\xbf^atR\xaaB\xda?\xb5\x9eqQ\xe7S\xe0\xbf\xfb|$\x93\x86L\xda\xbf\x0f\x9d\xa45\xb4\xa4\xd7\xbf\xca\xf2\xdf\xect\xf0\x89?\x0fg\x07;\xed\xbb\xe0\xbf6c{\xbd_\x9f\xe1\xbf\x0f"l\xa9J\xfd\xdd\xbf\x88\xae\xa7\x98\xd7V\xe5\xbf\xa1g\x83\xb5\x0c\xf0\xcf?q\x03\x18\x98};\xd5?0\xea\x8e\xe1M\xdf\xda?\x9f+\x12\x03\xdc\xa5\xd5?:\x12\xae\xdaj2\xe2\xbfp\x15\x0f\xe2\xfb\xd3\xc9?\xa4AE\xbd\x89\x90\xe2\xbf\xec+\xdb\x90=\xf3\xde?\xc5\xe5G\x06u\x06\xd7\xbf\x8bz\xaa\xf4\xabS\xd2\xbfkB\xdd\xe9"]\xd6?jd\x94\xc7v\x1d\xe6?\x80\xd0\x96\xfa\xd1\x9f\xe3?\xba\x03\x92\xcb\x14\xce\xda\xbf\x03d\xa2\x03AR\xc1?;&s*\xc8\x92\xba\xbf\xd4\xa2\xab\xaa}\xfb\xc6\xbf\xff\x01j\xf74\xed\xe5?\xb1Y\x82\x0b\x9d!\xce\xbf\xde\xcf\xa6\xf8\xa2\xe1\x94\xbf\xcd\x0f_4\xf4\x82\xd4?\xb86\xf6O\x99\n\xc7\xbfK\xa7wu\xe0k\xdf?o\xb5P\x94>\x12\xd2\xbf\x8a\xf7m\xc4\xa0i\xdd?\xcc.2+\xf9\xc7\xca?Gn\xbf\xfc\x84\x1b\xe1?\x05\xd2w\x81\x03]\xd3?\xd5E\x0e_\x12\x87\xe1?7\x0e\xc0~%\xb9\xf0?\x0ew\xcfC\x0f@\xd4\xbf\xc0\x05\xbfp\x1b"\xe4?\xc0\xa1\xb4#\x81J\xbb?\xafv\xa0V\x07\xf9\xe6?\xd0\xf9\x9f2\x9d\x17\xe2\xbf\x06\x12\x95\xf3]\xd7\xda\xbfa\xa8\xa9\xf1\xdd\xc4\xdd\xbf\xd7L\x06K\xe1\xd2\xe4?\xd2\x83[\xe5\xdb\xb4\xe7?\xcd\xf3YID\x9e\xc1\xbf\xb3\xda~\x1e\nz\xe0?PpiT?\xe7\xde?\xa4\xfb\x11Q\xfa!\xe9\xbf\xcc\x15\x82\xc7\n\x11\xc1\xbf\xbc]\x80\x07K\xbf\xd4\xbf}\x0c\x94\x00\xb9q\xdb\xbf\xb3\x00\xd9# %\xe2?y\xc3\xa7\xb2\xc2\x92\xe0\xbf9?\'&P\xa9\xd8\xbf1\x10\xaf\xd4y\xe8\xd4\xbf\n\xacP\xa1\xb6\xf3\xc8\xbf\\\x17\xc9>\x93\xfa\xe9\xbfCe\x90j\xe8\x0c\xe6\xbf^!\xdb\xfc\xbb\'\xb9?\x92\xbd\xeb\xd0\xa9\xc5\xd8\xbf\x93R}h\xe3q\xe5\xbf\xfa\xbaM\xb8Y\xb8\xd9\xbfa\x85\x1b\x8e\xf0\xe5\xee?:\x17*\xee\xbb\xb4\xe4\xbf\xda\x98\xc1\xabok\xe1\xbfZ\x14-\xbb\xb7\xc6\xe1?\xfd&\x98oc\xdc\xdf?\xb0y]\x8f\xf3\xb3\xc7?\xdd\xbb\xf2\xb5T\xe2\xe4\xbf%\xcc\xa2\xa6+\xd0\xea\xbf\xb3\xbdN\x12\x96\x03\xc2\xbf^v\xa2^[\xcf\xbe?\xb6n\x99\xc9+4\xd3\xbf%\xb4\xa2T$\xf6\xc8?V$\xa8\xb0\x88\xd5\xe5?&\x18u\xa6\xc9d\xd8?\x98\x9f6\x8f\x1f\x82\xe4?.\xb1\xa4\xafY\xaf\xdc\xbf\xe4\xd2\xac0\xe1\x05\xaa\xbf\xcc\x1f5Q\x99\x0c\xc5?\x92\x18I\x9b\xa5\x0b\xd6?\x8a\xc1\xfe\xed\xcav\xdf\xbfxw\x87pb\xcd\xe5?\x96\xf1#\x14r\xd7\xdc\xbf\xab9\x13\xd1\tR\xd5?\xe2s\x9f\x89\x95\x9f\xca?\xe6\xb6\x9aW\x8e\xfd\xcc?"\xc4\x04qg\x89\xe4?\xc2\x8e\xfeD\x10\xbd\xd6\xbfL\xaf\x14\xe6\xe9/\xc6\xbf$\xdeH\x8f[\xd3\xba?\xa4\xad\x06\xf4\x12\x85\xe1\xbf\xbb\xba\xbe\x18\xc0+\xdf\xbf%K\xff\x03\xd47\xc8?P\x12\xec \xccV\xe8\xbf|\x90\xfa\xf3\x12x\xe7?\x89$6\xc5\x92\xde\xce?\xb8^\xb9f\xc8\xd6\xe7\xbfy\xc7\x0eQ\xfa\x1b\xe2?lY\x1b\x98`5\xc1\xbfM\xd9\xba\x19\xad\x0c\xc5?t\xa4\x1ej\xf73\xdf?\xd0\x8c\xf3@m\xb8\xd3?Y!f\xbfQ\\\xe3?\xf4\xfbACK\xc7\xb5?\xf2>_r\n{\xbc?C}\xda\x87x\xaa\xd4?\xc1\xbb\xbe\x9aP\xfd\xe5?S,\x95&\x8e\xf8\xc5\xbf\x81\x04\xfc\xba\x8d\x97\xdd\xbfm\xedKK\x98\x80\xe8?\xb0\xc1\x83\x08*\x9d\xb3?Cb\xb2Jo\xad\xdf?\xa9D\xb4\xf72\x16\xa4?|$\xb4\x9cG\xf8\xd9?\x1f\xfb\xdc\xe0\xb4\x1d\xd0?|_\xb5\xc6a\xab\xc2?\x1d\xb1\xb2"\xc5\xac\xdd?. 0\'\x03\xd0\xd0\xbfo$\t\x0b\x9c\xf8\xe5\xbf\x86m\xbeWK\x90\xc0\xbf\xca\xd7\x891\xd1U\xe7?\xe1\xa8\x84\x057o\xc6?/\xd0\xb4J\x15_\xe1?\x8f~\x97\x1d\xe7\xd4\xd9\xbf"\x9a\xe3Mh\xd1\xc1?=\x97\x9c\xb3\xeds\xd8?\xb9v\x05\xca?\x8a\xca\xbf{\xfcBE\xf6\x1d\xe8?\x98}#\xb5\xaef\xe8\xbfl\xec\xfe\xe4\x06\x9b\xe6?ZRr9\xb1k\xdf?hl\xd9\x146\xb0\xdc\xbf\xfe\xae\x01\x04\xcdt\xe0\xbf\x0f\xde\x154\xa4\x83\xe0\xbf\xb2\x14\xb2R\x88\xf7\xdf?\xa2r\x8d\xf1\x07T\xe1?\xab\x03uu\xaa\xec\xc1\xbf\n\x99(\x1d\x14\x89\xdd?~\x95\xf39\xe0T\xe8?\xf6\xea\xad\x1eh\x9b\xea?\xe5I\xffO?\x8c\xeb\xbf\xabC\xf1\xfa\x8b\xb4\xe5\xbfo5\xd3\xec\n\xc6\xeb\xbfd\xb8Qm\xc2\xb2\xe0\xbf\xbe\xc3uK\xc4\x19\xa2?\x93B\xf9\xa9\x16v\xce\xbf\xdb,\x81\xe3],\xc0?\xe9\x9e\xd2\ne\xc4\xe9\xbf\x97l\x0e\xee\x03\r\xd3\xbf3\x82\xd1\xf9\xf4\x8b\xe2\xbf\x8d\xe1\x06B\xf50\xeb?\xfdKl\xe4\r\x83\xde?\x8c\xd9<\x84\xce@\xe1?\x9c|\xe5\x18\x81S\xd4?\xaf\x92\x1ag\xcaA\xaa?H"U\xad\xe3}\xc8\xbf\xa0\xb0;\xec\xec\xf9\xc6\xbf\x96\x05f\x86d\xc0\xe0?\x0fK\xe4\xde)\xfb\xde\xbf\x19C\xc6z\x11\x8e\xd1?\xce\x83\xf6\xbaj\xaf\xcf\xbf\xd9\xdf\xd1w9U\xcb\xbf\xee2\x8e\xf5,\xbe\xd0?\xde9\xcf\xe6\x8a\xaa\xc3\xbf\xcb\x1c\xe3e\x95\x97\xe7\xbf;wlVW\xa1\x98\xbf\xcb>%Bg\xc7\xeb\xbf\xbd\x85B\xd0\xb3\x13\xbf?qN\xc6<\xe2V\xc9?\xa7 "\xdfr\xf7\xd7\xbf\x94\xf3,\x9e\xbc\xadD\xbf"\xd0\xd7|\xec\x14\xe9\xbf\'9\xe7\x0e%\xa5\xc8\xbf0a\xb1\xfdO\xb4\xe7\xbf0\xda\x0f\x0b\xe5\xc2\xd1?\xa6\xeb\xb8\x0f}\x15\xe1?U\xd0\x9a6\xf8\xed\xb7\xbf,Y\xf2$\xf3\xff\xe1\xbf\xf3dZ\x80\xa5\xd9\xe0\xbff#\xea\x9a\x98\xb3\xca?Q\x93Y\xc4)\xa6\xe0\xbfU#{/\xfbR\xb8?\xcf\xab>\x8a(M\xe4?\xec\xa1+&\xfa\xb1\xdb?^A1\x16>3\xe3?sf\xd23`\x8c\xe6?[\x14\xc3\x9ee\xb1\xda\xbf\xdc\x1bU\xf5\x9d\xa1\xee?sx:5q\xc1\xd3?\xfc\x16X\xe4\x8ez\xea\xbf9\xfe\x7f=~\xbb\xd6\xbf\xc9-\x04\xa1\xe0\xd0\xd1\xbf&\xce\xf65\xf3\x9b\xe0?\xbfucrf\x8a\xdb\xbf\xe7\x9b\x0eNb`\xd4\xbf\x80\x7fQ\x1a\x04#\xc3?\xacP\xc3\xef\xb8\xac\x9c?)0\xc7o\xb6J\xeb\xbf\xbc\xdf\xea\xabME\xd1\xbf\xe7c0\xac\xa9\x94\xe1?\xc0\xde\x02fc\xed\xd8\xbf\'\x93\x8bZ\xd5\x99\xbc?\xd5bt\x15[\xe2\xb9\xbf\xb3\xdc\xb5\x8f\x98Q\xb0?O\x8ck\xa9\x06\xda\xd1?I\x19z7\\\xf2\xd0?w\xac\x1f\xbfs\xbb\xd7\xbf\xb2\xdbd\xe6\xc2<\xec\xbf\xf4\xc9\x8eC\xfe\x07\xc6?\x8a\xac\xcc!\x93\xfa\xe9\xbf\xd6\x04=\x0f\xb3/\xdc\xbf\x87\x81\xca\x12\xc9\xdf\xc2\xbf"\xf0\\\xf3u\x11\xdd\xbf\x03\xd8\x96\x10a\x99\xd8\xbftQ\x05\xc4\x1e\xc2\xac?\xbc\xf5\x1a\xac\xa0\x9c\xe6?\xeb\x9b\xd5\x96\x10\xf9\xdb?\x8b\x1c\xb2\x88H\xd7\xd9?\xa3\xd8\x9a\\\xf7\xed\xb8\xbfn\xa6Y\x8b.\x88\xd4\xbf\xb1\xb4\xab\x9f\xf6\xbf\xe2?^g\xb2\xb1\xde\x17\xe5\xbf\x84\x06\xc08)\xa3\xe0\xbf\x04.C&\xb4\x00\xe5?\xc9\x0b w\xef\xff\xe4\xbfsi\x9e\x05M\x10\xdf\xbfP\x97\xec[\x98\xf1\xdb\xbf\x15P\x93\x0f\xcdT\xe0\xbf}\x12\x80 Ia\xab?\xe2sY\xfcU\xe5\xbe?\x88\xabA\x0e\xd7\xc1\xd1?&\x87\xdc\x15Y\x94\xe5\xbfn\x1b\xf8\xabn\xde\xdd\xbfjl(\x89\xef\x82\xe8\xbf\x80\xf3\xd6?\x1d\xa6\xc3?_\xaa\xb5\x01\x8a2\xe7?\xa2\xfc\x08B\x0e\xda\xdc\xbf\xc6\xf8\xa7\xe46v\xe6\xbf\xd0V(\xd2\xd6\x95\xb0?\xd8\x08\x0f\xeb\x86\xac\xcb?=^>&x\xee\xe5\xbfu\xafs\x1d\xd1\xc5\xe3\xbf\x0fKn\x84\x10\xbc\xc8?>\xed\x01\xcf\xfb\x1d\xa7\xbf\x1d\x89\x89\xd3\xf0\x0e\x9e\xbf\xc7\xc61b\xea\x0e\xdc\xbf\x92\xa9O\xd3\xd9#\xd4\xbf\x95M\x87\xf5\x16\x10\xdb\xbf\xb4i\x80\x12rU\xbb?\xba\xbb\xf9\x15@Z\xdc\xbf\xf9\x91>\x15\x02m\xe3?T\xc2\r\xa7l\xfd\x9f\xbf\xdf\x02\xf8\xe6Jb\xe3\xbf\x9f\x7fa \x1c\x87\xe7?O\xd6\xf3\t\xf9Y\xe5\xbf+U\x91\x92\xca}\xe0\xbf\x8c\x7f(\x1f;\xd0\xda?\xd87\xb8\xd0\xccm\xdf\xbf\x92A\x1b\x1cq:\xd0?*\xa5\x11\x90\xb0\xfb\xb7\xbf\xc2)\x06\xe3$^s?\t\x115\xc8\xe9\\\xe3\xbf8r<\xb4\xa3\xf7\xe5?$H\xa7\x1da\xf4i?\x85\x95\xcd%\xa4\x05\xe2?\xe2\xbc\x9c\xb3\x08M\xc5\xbf\xe6\x9eD\xab\xf8\x82\xcb\xbf\x05\xfejD7\x9b\xe9?\x9e\xe87\x1b\xf4\xf2\xc3\xbf\xbc\xacA\xbc\x9f>\xb2\xbf6\x0b}-F;\xd3?M-\xe5Z\xfdP\xdc?\n\xbf,J{\xac\xed\xbf\xec\x13\xae\x9b\x9bB\xe1?9&P\x8e4/\xe7\xbf\x12\xc0\xb1\x95\x1a\x92\xe8?Y\xaa\x12,\x8b\x1d\xe7\xbf\xf31W\xc1\xa5\xfa\xd4?B\x99\xa8~,\xb3\xdd\xbfr\xb5u"[@\x9e\xbf\xef\xf2\xbb,\xa3P\xc6?\x8f\xcb\xf1\xf0HN\xcb\xbf\x86_\x81i8\xbd\xe8?w\x08m\xdf\rl\xe3\xbf=N\xfa\xb6\x8a\xf9\xe5?\xe0\xb7#j\x88e\xce?E0\x10\xd0\x19I\xd4\xbf\xeb\xb5K\xbaB\xa1\xe4?\'\x16\xd1\x0e2\x0e\xd7?\x9aw\xc9\t\x99\xd4\xc5\xbf\xf06\xb5\xe5\xf7\xe8\xcd\xbf\xb5d\xc6]\x1e\x16\xb8?\xd5\xe6b?+}\xe0\xbfu\xab\x0fv\x1f>\xe6?\xa1\xd8\x14\xf38!\xa3?{\xe5M2\xab\x07\xe5\xbfd\xae\xc3\x9b\x95\x19\xd0\xbf\xb3z\\\xa3,L\xd2\xbf\xf4\x99\x0f\xd1Cl\xe3?,\xdap\x10\xa0`\xd5\xbf\xb3\xa6\x92\xc3\xf6\xa1\xe1\xbf\x01\x87\x98Cw\xc1\xce?F\xff@)\xdc\x89\xb3?\x19\xaa\xaf\xb9\x87\xca\xd9?h\xc2\xde\x92p\xef\xc0\xbf\xc7\xa9\xdc6\x7fO\xdd?\xa8W]&\x8e\x84\xc0?\xeat\xcb\xb9\x1f-\xe7?<\xb0C\xac\xcc\xa6\xe1\xbf\x16m.\xa5w\x9d\xe5\xbf\x9d\xd5\x02\xd0xZ\xdb?\x83\xf0\x152\xa7\xb2\xc3\xbf.Lm\xa3$\xe6\xeb\xbf\xado\x07\xc5d\xc2\xb7\xbf9\x9c\xf9|\x16\xe7\xe4?\xba\xea+\xb6U\x94\xa1\xbf%P\xb4\xc4 \xd0\xa9?\xca\xc1\xbf\xe8\xcb\x89\xa6\xbfy\xd1\xbf<Z\xb1\xae?\x9d\x8f\x9e\xb0\xe8\xef\xe6\xbf\x94 \x16es\xfc\xe4?\xc9\x06u\xd2\xed\x92\xe8\xbf\x81\t|\xb6h\xc9\xc8\xbf\x9c\xb4\xaa\x08\xdd\x0c\xe5?\xdfE\x17\xf6\xec\x9b\xd3\xbf\x9c\x06\xbb\xc6\xedm\xdf?\xb8o\xd4\x0bc\xb9\xdf\xbf\x13A\x07\x90x\xcf\xe6\xbf\xf5 \xe0\x13\xb3\x87\xd1\xbf\x04\x9a\xd5rJ`\xe1\xbf\xd8\xbcI\x87\xe7$\xdd?\x14\xbe\xa7R\xfe\xf7\xe8?\xdf\x8dR&tQR?y\x03\x10.\xf2j\xa1\xbf\x84\xc7|\x08P\xe2\xc2\xbf:\xa5\xb2\x83b\x8b\xe8\xbf\x00\x08B\xd4\xff\xb1\xde?\\\xc0\x9aV\xe7[\xb5\xbf;\xedek\xae\xd3\xdc?\xc0l\x107w\xc6\xe3?Z\xcd7\x0cTY\xc4\xbf\xf1V\xe7\x85\xd5\xbd\xd8\xbf\x9c\xef\xaa\n,\xed\x95?!+x#\r\xfe\xdd?S\xb74\xb2VK\xd5\xbf\xb6 !c\x96\x83\xe1\xbf\x9e\x12\xf0\xd0\xfa!\xd6\xbf\x1c\xba\xf0\x82\x7f\x1b\xd3\xbf)\xbag\x91\x1f\xb0\xd0?\x91\xf5\xd1\xfe; \xeb?$\xc0a%^\xdc\xb3\xbf\x1aF\xe4\xa1\x02\x8f\xd3\xbf0\x8f\xbeMg\x8b\xd4\xbfL\xac\xa7JY/\xc4\xbf\x08k\xb4M\x86\xc9\xbe\xbf+Hs\x16\xb3g\xe6\xbf\xe2\xb8\x06R\x84\x07\xea\xbf\xc3\xc4\x06\x8f&\x01\xe5?d\xda\x02\xf8V\x9d\xe8\xbf\x16\xf4]er\x1c\x97\xbf\xb7\x13\xdfps\xec\xe7?6e\x8d\xac\x97\x9d\xe5\xbfvu\xbc!\x97k\xc8?S\xaa|G\x11V\xc1?\xa7\xe5\xd7\x9a\x1fN\xbe?&z}\xb0\xb7k\xe2\xbf\x07\xbd\x94\x83\x80\xac\xa6\xbf\x91\xc6\xbe\xda\xfd\xdc\xe9?\xf1\xf3\x99\x87__\xc9\xbf\x1bn\x81Z\xd0\xd5\xe3?\x03P\xde\xf3\xa4E\xe3\xbf\x8e\xdb\x01\xae\xbe\x87\xdd\xbf\xab\x8a\xed\x9eP\x9e\xe8?\t\xf6\xabG\x89\x83\xcf?,\x0b\x84"L\x1e\xde?X\xd8S\xe5\xd7p\xe5?\x95lH\xf4\xfa1\xad?\x1cVH\x8a\x19\xd6\xe1\xbf\x1a\xaa\x9b\xfd#\x8d\xe0\xbf\x12&\xa0W\xd5\xd4\xc9?RR\x05R\xd4\xc0\xc5?[^\xbb\x03`\xe0\xd5?\xf7\x03\xfc\'\xb5Q\xe9?\xb2\'7\xbfd\xd0\xd0\xbf\xf8\xc0\x9d\xaf\xdc=\xda\xbf\xb3\x8b\xb9\xf5\xe4\x87\xe2\xbf\xa4-A\xb8Q&\xea?\xafqW\xf8*/\xb7?6g8o\x8f\xb0\xe5?\xb4z"\xb80\x98\x95\xbf\x98\xd2\xee\x86D\x10\xe3\xbf2h\xdd\x87cT\xb3?\x02Rf\xb4T>\xd7\xbf\xe2\xd5\x97\x07\xfd\xe3\xe0\xbfO\xdf\x13A\xee7\xd4?\xd8\xfb\xd7f\xe7i\xd1?\xfa3\xd9\xf9:\x82\xe4\xbf\xe8Z \xd7^\x9d\xdb\xbf~u\xddi\xf3(\xd8?\xf6\xe2U\xa1\xbd\xe7\xe0\xbfsU\x86\xe0\xadr\xe7?\xe3e\xdeg \x16\xd9\xbf\xb1I.\xfe{\x08\xcf?\xd3\xf3\xfd\xd9\x15\x9a\xd5\xbfY\xb1\x93\x12\x92\x87\xe4\xbf\x16\xe3\x11c\xeb\x9a\xe6?\x87\xcfhB\x8dI\xe8\xbf\x8a^\xdd\xa5\x02-\xbc\xbf\xa0\xf5\xf6<\x1e\x9a\xcd\xbf1\x11\x0c1\x95\xd2\x94\xbf\r\xfbM\xc8\x90\xcd\x95?\\\x1d_\xe4\xc3~\xd6\xbf\x11\xda\xfd/\xa3)\xd3\xbf\x04\xfbF \xb1\xff\xe0\xbf\xdb8\xe6\xf0F\xff\xea?\xde\xee\x98Q)\xf0\xdb?\xf9@\r\xb3\xaf2\xc4\xbfb\xc0\x1b\x9aW\xa8\xdf?\xc6\x19\xa6\xa0\xc3\x88\xe7\xbf\xd8D\xb9\x1c\xed\xd8\xc1\xbf}\x7f"\x81*\xa2\xd8?i\xf6O\xf7)\x11\xe7\xbf\xc2\xc1)\xe76k\xe0?h6\x9f\xa1T\x92\xe9?\x9f\xac\x9bf\xf8\xba\xe5\xbf\xb3\xa5\xf9\x8c\x12v\xde\xbfl\xc2:\x99h|\xca?jl\xadL\x19\x93\xe3\xbf\x06p?\x99\xe6$\xe7?\xdd|\xa2\xf7\x06\xf7\xda?,\x93\xa8x\x195\xa8?\'\xcf#\xbd\x86\x1a\xd9\xbfDr\x1d\xac|]\xbd\xbf\x81\x02q\xbc&a\xd0\xbf\xb5(\xb6\xc8\x0b\xfe\xde?\xed\x80b\xb90\xce\xe8?q\t{\xcf\xba]\xd4\xbf0\xc8y&#\xe3\xd2?J\x9c\xf0\x12:\xad\xb5\xbfa\x0b\xfasK\x0e\xcc\xbf\x9fU\rKSI\xc3?\xbcv\xf1\xe0\x86\xcd\xe7\xbf\xe6\xa4@\xe1k\xa3\xe6?M\x8e\xdf\xa4\x9d\xdc\xd7?\xd3}x\xf3\x83\xcf\xc9?f2sQ\xba\xf2\xe1\xbf\x81\xed\xdfq\xe0h\xbe\xbf\xc3\xf8mz\xe2\xe9\xe2?\xfd\xae\xe40\'\x1b\xe5?\x7f(\xa0)\x80L\xbd?G\x12\xa7\xdc\x15\x1d\xa5\xbf\x96\x9c\xcd\xfa\x0f\x1d\xd6?\xc9\xf7\x1c\xe9\xe1\xd2\xe5\xbfT\n]=\xd6\xd4\xd8\xbf\x0b\xc4\xff;\x05\xd7\xdd\xbf(\xbdg\xd3kd\xe3?L\xec\x9c\x97.=\xd8?e\x88\xe9\x83}\xd4\xb8\xbf\xb1 "v\xf5\xb9\xd9?\xb2\xdftRS`\xe6?@\xe3g\x0e\x92T\xd1?\xf1\x0b\x9b\xa0\x00}\xd0\xbf\x95#8{\xe1\x94\xe9?s\x86\x15\xbb\xd6b\xa7?\x1b\xecK6\xba\xdf\xe3?\xee\x7f\xac\xc3K\xef\xe6\xbfd~\xb7\x87\x01\x81\xcb\xbf+\xe29/\xeb\x0c\xb5?b\x9e\xf0\xb8\xd9:\xe6?\xfb\xbaf69\xf0\x95?^!B\x8d\t\x04\xe2?\xb9\xd2\x93\x05\x1f\r\xdd?\x87\xfa.\xf3 \x9d\xd3\xbfC\x15\xc4\x02D\xdf\xdd\xbf\x06\xab\x832\xcc\x10\xee\xbf\xb8H\x8d?I\xc3\xe6\xbf\x1a\xefh\xc9y\xca\xa2\xbf/\x92m\xf9\xf1u\x9a\xbf\x8f\xd7\xae\x93W\xce\xe8?\xe9\x0c\xd8.\x11\x1a\xe7\xbf\xc8\x10\x15\xdf\xd2F\xcb?\x17WM\xc3\xc8H\xc0\xbf\xe9|\x12\xdf\xb1e\xe3\xbf\x04\x8f;\x0e\xfaB\xc3\xbf\xd8\xe9\xa6\x8d\xea\xff\xd8\xbfH!M\xec\xd4n\xe4?`\xe5\xddk\xe0-\xbd\xbf-n\xdf\xf4\xed\xef\xe3?\x82yjV\x9b\xaf\xe6\xbfK\xf6?\x964\xe3\xe4?.(\xdbn"\xd0\xd6\xbf!\x94\xbaZ\xc0G\x97?\xd3\xcc\x16i\xae\x18\xd7?g0\xe4-\xe9\xfd\xbb?d\x03\x06\xcb\x13\x1e\xe1?\xc7\xca\x14\x03\xf8_\xd9?\x9d\x1c\xfe\xa6\x16\xd2\xce\xbfX\xe6\xe4\xf8J\xe3\xd5?\x9b)k\xa7\xe4\xa3\xe7?\x82\x0eb@\xa5\xe9\xcc?\xc0\xd6\xe0#\xc3\x0c\xc5\xbfe\xcf\x1e\x98\x14\x95\xe4?A#\xc2C\x1e\x84\xe7\xbf\x1e\xc6\xa1\xb6\xb8\x1c\xb9?\xcd\x18\x97\xe6\xe6\x90\xeb\xbf\xf2\xdc\xa3\xcf\xc2U\xd6\xbf\xb4%q\xf0@\x17\xdf?\x9f\xa3`|\x9d\x8a\xc9?Jl\xbc\xf9\x82\x0bw?\x13$\x813Q\xd1\xb5?\x85s\x99T!\r\xcc\xbf\xca\x92ED(I\xb7?\x19\xbd\xf6\xc0\x025\xec\xbfO\x9b\xb5\xfc\xf3.\xdb\xbfMQ\xeb\x91j\xb5\xda\xbf\xfcCW\xd0\xce\xa1\xab?\x83\xa8\x9a3p\'\xe3\xbf59j*@\xc1\xe8\xbf\x00\x05:L\xfdp\xd8?#\xe2^\xd9o\xe1\x98?\x1f\xb2\xfe\xc3k\x19\xc0?\xf5\xb5\x9b\xbd=\x10\xd6?\x8a`\x1af\xd2\x93\xe7\xbf\x8e\xec./u\x87\xcc?\xa3\xf1\xfb_\x94\xe4\xac\xbf\xd9\xcb\x8cK\xf4\x1a\xe0\xbf[\xb5n@\x06\xad\xea\xbf\xdf\x8b1Pa\xa4\x90?b\x98~H\xe5?\xd2?4\x90\x85<\xf0\x18\xd2?\x8f\xee\xb9\xc0\xa9\xf7\xb9\xbf\xc7\x1fl\xa0\xbaS\xe8\xbfU\xfcMt=\xae\xe5\xbf\x96)\xc2\xcc/\x83\x9a\xbf\x19k\xf8\xa7\xc12\x97\xbf\xaba\x98m7\x80\xe5\xbf\xfb\xe2d\x91b\x95\xe7\xbf9\xfd\xd8\x95\xa9+\xe1\xbf9\xa8A\xacq\xdf\x96\xbf-\x1f\x9b\xe9\xb2\xd7\xe4?R\x1d\x96\x13/\xaa\xdd\xbflaX\x7f_\x87\xe3?\x14\xb6G&\x84\xa5\xc3\xbf\x8c\x8fD`\x08\x83\xdf?]/\xd9\xaa\x8b\x15\xca\xbf\xa9z\x06\xa7jj\xcc\xbfZ:!\xb4\x9d#\xaf\xbfW\xee[r\xaaA\xcf\xbf\x88\xb0\xb0/4\xd8\xec?\xfdO\xe19\xady\xc4?\xb6^\x0f\xb9m\x07\xd9?\xb0&\x8f\xb9\r\x0f\xac?\x88j\x1a\xd8z\xda\xe6?l\x8c\x9f5.\x9a\xdc\xbf\xd9\x9f+{\xb4\x80\xed?Z\x96\xda;\xec*\xef?>\xb9`\xbab?\xeb?\xca\xa8\xcfh\x1d\x1b\xc5\xbfxgG\x13u\x1e\x9c?\xea==\x94\x1a"\xd3\xbfQ^\x15jI\xac\xeb\xbf\xc8\x12/M\x11f\xd3\xbf\x8e\x03\x0fv\xa2@\xcf\xbf\xc25\xdaLx\xa4\xd3\xbf\x17\x11w?\xf0\x00\xf2\xbf\xb1\x80\xff[9\xa6\xe8\xbf)_ uB\xbd\xc0\xbf\xb7\xfbbS&0\xf1\xbf\x94\x83\x14\xd7[\x06\xdf\xbf\x82o\x9ce\xf8\xf3\xd9?\xc2\x9e\x7fR\xc8\x83\xe1?\x8a1\x87\xee\r\xf6\xc5?s\x00 \xd5_"\xdb\xbf\x91if2v%\x88?:}!U\t\x1d\xbe?\xb5\x99v\x1f`2\xb7?\xaf\x8eF\x9ewn\xe6?\xacW\xdd7[\x1c\xdc?\x97\xb1\x8dVv"\xbb?\xcb\xc3\xfb\xa4\xfc\x14\xc7?n\xb6{\xa6\x05n\xd1?\xf5%/V\xf3\x02\xe0?&\xf9\xfb\x0eQ\x02\xac\xbf\xd7\xc8\xce/\xb77\xdc?\xf1bp{\xb5\x1d\xda\xbfY6\xa4,3\xd9\xcf?Q\x1a\x05Hhq\xd5\xbfa[]\x01z-\xbe\xbf\x862\xd7+\xa2\xe5\xc7\xbf\xe9|\x80\xc3\x96\xcf\xb6\xbf\xfe\x8c\xfd\xaf\xba\xa3\xe7\xbf?!Y<\x1e\x07\xb5\xbf\xe3A33\xb3S\xc0?J\xc1\xe93\xfa\xb2\xc4?\xcd\xc8\x97f;M\x82?\x16/z\x93b\xad\xe1?\xfcq\x8a_`W\xb7\xbf\xf8UA\x8e\x082\xb0\xbf&\xfa\xe6\xa9\xa0k\xd9\xbfi\xb8V\xc7\xaeH\xe5\xbf\xa2]\xe8\xfb\x9a\xd3\xe6\xbfj\xa4\x9f\x84\xb1\xb2\xd6?\xd4\x80\xfc\xa9m\x0e\xd7?]\xdc\x06\xa6L\x9b\xdd\xbf\x1b\xe0\x06|E(\xde?T\x9f\x8c\x89G\x18\xe8?\xbc\x03\x11[H\xbc\xd0?\xd6\xcbuq%\x08\xea\xbf3\x8b\x85 \xc1\x93\xcd?\x0e\x11\x95^3\xbb\xd6\xbf\xfb\x88rK7\xfe\xdd?O\x8e\x87\xb8\x83/\xd7?n\xfa\xf2\xe4\xe5\x84\xf0?\xa7\xbe\xc1\x01\xb4D\xe7?\x9b\xf5\xdc\x93\xe9\xae\xb9?>\xf9Ut\xcb\xe4\xde?\xe2_\xe07\xdb\x89\xdf?\xe3\xad\xbdF\xb6\xfd\xeb\xbfo\x02!\x96V\x17\xf0\xbf\xdbF}\x88\xf9\x94\xdb?~\xbc\xfb3G@\xdd?\xb6\x99\xa6\xf7X\x97\xe0?\x90\xa8\x00\xd0Tz\xe3?\xab\x85\xea\xf7\x9b\\\xdb?\xc0\x9fI\x9d\x83\x1a\xeb\xbf\xd2\xbc\x00\xe4\xc9J\xc8?q\xfcM\x8e\xcb7\xb1?\xdd\x7f\xac`L\xef\xea\xbfW\xfb\xe4\x98;\xa4\xdd?\xc7*&{J\x02\xe6\xbf\x8a~\x8e\x863\xa7\xd3?\xae3\xffB\x0b\x0b\xe6\xbf4J`\x06\xd2\x83\xdb\xbf\n6\xb4}\xdfc\xc4\xbfi\x8e\xe2\x99\xb7\xba\xe6?\x8c%P\x19a!\xdb?\nD\xa8!A@\xc0?BF\x9f\xac\x15E\xc7?\xad&\x86=C\x9f\x84\xbf\x17\x08w3\xfd\x0e\xe3\xbf\xcaX\xe0M\xca\xa0\xe2\xbf~\xc1\xc3!\x89\x18\xbd\xbf<\x9d\x11\x9f.I\xe0?\xc0\xa8(~\x8c\xe6\xdf?N\r\xe0\x92\xc5\x1e\xd3\xbfZy\x84\x0e\xff-\x8c\xbf\xfd\x02F\xa9u\xc5\xdd?\x82\xf8\xd36\xbd\xf2\xbe\xbf\xc6\xa9"\x87\x05\xd2\xd9?\tj\x16\xaa\x1b\xf7\xe2?\x01\x03j\n\xe2\xf0\xb5?\xb6\xcb!K\x14B\xe8?~\xa3\x9e\xdb\x97\x9d\xe1?dNd ;N\xd9?A\xa6\xe7\xe1<\xd0\xea?\x0e\xc7\x8al,\xc5\xe8?\xf8\x16o\xd5\xf6Q\xbb?U)W\xcbF\xec\xd4\xbf\xcc\xa6G\xd3Te\xc7\xbf\xb6\xf8\xce\x99\x9dB\xd4\xbf'
p60
tp61
bssS'transf'
p62
(ineurolab.trans
TanSig
p63
(dp64
bsS'out_minmax'
p65
g18
(g19
(I0
tp66
g21
tp67
Rp68
(I1
(I30
I2
tp69
g28
I00
S'\x00\x00\x00\x00\x00\x00\xf0\xbf\x00\x00\x00\x00\x00\x00\xf0?\x00\x00\x00\x00\x00\x00\xf0\xbf\x00\x00\x00\x00\x00\x00\xf0?\x00\x00\x00\x00\x00\x00\xf0\xbf\x00\x00\x00\x00\x00\x00\xf0?\x00\x00\x00\x00\x00\x00\xf0\xbf\x00\x00\x00\x00\x00\x00\xf0?\x00\x00\x00\x00\x00\x00\xf0\xbf\x00\x00\x00\x00\x00\x00\xf0?\x00\x00\x00\x00\x00\x00\xf0\xbf\x00\x00\x00\x00\x00\x00\xf0?\x00\x00\x00\x00\x00\x00\xf0\xbf\x00\x00\x00\x00\x00\x00\xf0?\x00\x00\x00\x00\x00\x00\xf0\xbf\x00\x00\x00\x00\x00\x00\xf0?\x00\x00\x00\x00\x00\x00\xf0\xbf\x00\x00\x00\x00\x00\x00\xf0?\x00\x00\x00\x00\x00\x00\xf0\xbf\x00\x00\x00\x00\x00\x00\xf0?\x00\x00\x00\x00\x00\x00\xf0\xbf\x00\x00\x00\x00\x00\x00\xf0?\x00\x00\x00\x00\x00\x00\xf0\xbf\x00\x00\x00\x00\x00\x00\xf0?\x00\x00\x00\x00\x00\x00\xf0\xbf\x00\x00\x00\x00\x00\x00\xf0?\x00\x00\x00\x00\x00\x00\xf0\xbf\x00\x00\x00\x00\x00\x00\xf0?\x00\x00\x00\x00\x00\x00\xf0\xbf\x00\x00\x00\x00\x00\x00\xf0?\x00\x00\x00\x00\x00\x00\xf0\xbf\x00\x00\x00\x00\x00\x00\xf0?\x00\x00\x00\x00\x00\x00\xf0\xbf\x00\x00\x00\x00\x00\x00\xf0?\x00\x00\x00\x00\x00\x00\xf0\xbf\x00\x00\x00\x00\x00\x00\xf0?\x00\x00\x00\x00\x00\x00\xf0\xbf\x00\x00\x00\x00\x00\x00\xf0?\x00\x00\x00\x00\x00\x00\xf0\xbf\x00\x00\x00\x00\x00\x00\xf0?\x00\x00\x00\x00\x00\x00\xf0\xbf\x00\x00\x00\x00\x00\x00\xf0?\x00\x00\x00\x00\x00\x00\xf0\xbf\x00\x00\x00\x00\x00\x00\xf0?\x00\x00\x00\x00\x00\x00\xf0\xbf\x00\x00\x00\x00\x00\x00\xf0?\x00\x00\x00\x00\x00\x00\xf0\xbf\x00\x00\x00\x00\x00\x00\xf0?\x00\x00\x00\x00\x00\x00\xf0\xbf\x00\x00\x00\x00\x00\x00\xf0?\x00\x00\x00\x00\x00\x00\xf0\xbf\x00\x00\x00\x00\x00\x00\xf0?\x00\x00\x00\x00\x00\x00\xf0\xbf\x00\x00\x00\x00\x00\x00\xf0?\x00\x00\x00\x00\x00\x00\xf0\xbf\x00\x00\x00\x00\x00\x00\xf0?\x00\x00\x00\x00\x00\x00\xf0\xbf\x00\x00\x00\x00\x00\x00\xf0?\x00\x00\x00\x00\x00\x00\xf0\xbf\x00\x00\x00\x00\x00\x00\xf0?'
p70
tp71
bsS'out'
p72
g18
(g19
(I0
tp73
g21
tp74
Rp75
(I1
(I30
tp76
g28
I00
S"\x1c$\xbfN\x0e\xff\xef\xbf\xeai\x10\x02i\xfd\xef\xbf\x03)(~\xf8\xd4\xe3?`\\I\x1d\xc9\xc6\xec?\x9e\xf1\xff\xfc\xfc\xfc\xef\xbf['^W\xf8F\xe2\xbf\x07&\x11o\x1d\xff\xef\xbfH\x85F\xfcq\xff\xef\xbf\xd9\xd3\xbcbB(\xef?#\x08R\x91\xba{\xe8?\xdaT\x0c\xb6\xdc\xe7\xee?\x95\xc3\x1c\xd4\xed\\\xef?R>\x10\xbd\xaf\xff\xef?t9\x15U5\xf8\xef?I\xedH5\x04y\xe7\xbf;\xb4}W\xd9\xf8\xe1\xbf\xa6R\xd6P\xd0\xff\xef\xbf\xeb\x17t\xb7]\xfe\xef?\x98\xd4\xf27\xfd\xb9\xe8\xbf\x84\xa8d\xe7\xc5\xff\xef?\xa00\xe6Z\x1a\x9b\xeb\xbf\x10\x86V\xf9_\xaa\xe9\xbf\xfc\x11\x16\xbf\xb9\xee\xe8\xbf\x9f\xfe\x82 ~\xed\xef?\x11\xb8\xb9\xf7>+\xed\xbfxJ\x81\xd4n\x1b\xe1?\xcbF6\xcc<\xff\xef?\xffS\xa2\xb1\xad(\xe8?m\xf6\xb8\xa8\x15K\xe3?\xcc\xd3\xf4\x85Q\xbb\xe9\xbf"
p77
tp78
bsbag0
(g8
g2
Ntp79
Rp80
(dp81
g12
g13
sg14
I30
sg15
I1
sg16
I1
sg17
g18
(g19
(I0
tp82
g21
tp83
Rp84
(I1
(I30
I2
tp85
g28
I00
S'\x00\x00\x00\x00\x00\x00\xf0\xbf\x00\x00\x00\x00\x00\x00\xf0?\x00\x00\x00\x00\x00\x00\xf0\xbf\x00\x00\x00\x00\x00\x00\xf0?\x00\x00\x00\x00\x00\x00\xf0\xbf\x00\x00\x00\x00\x00\x00\xf0?\x00\x00\x00\x00\x00\x00\xf0\xbf\x00\x00\x00\x00\x00\x00\xf0?\x00\x00\x00\x00\x00\x00\xf0\xbf\x00\x00\x00\x00\x00\x00\xf0?\x00\x00\x00\x00\x00\x00\xf0\xbf\x00\x00\x00\x00\x00\x00\xf0?\x00\x00\x00\x00\x00\x00\xf0\xbf\x00\x00\x00\x00\x00\x00\xf0?\x00\x00\x00\x00\x00\x00\xf0\xbf\x00\x00\x00\x00\x00\x00\xf0?\x00\x00\x00\x00\x00\x00\xf0\xbf\x00\x00\x00\x00\x00\x00\xf0?\x00\x00\x00\x00\x00\x00\xf0\xbf\x00\x00\x00\x00\x00\x00\xf0?\x00\x00\x00\x00\x00\x00\xf0\xbf\x00\x00\x00\x00\x00\x00\xf0?\x00\x00\x00\x00\x00\x00\xf0\xbf\x00\x00\x00\x00\x00\x00\xf0?\x00\x00\x00\x00\x00\x00\xf0\xbf\x00\x00\x00\x00\x00\x00\xf0?\x00\x00\x00\x00\x00\x00\xf0\xbf\x00\x00\x00\x00\x00\x00\xf0?\x00\x00\x00\x00\x00\x00\xf0\xbf\x00\x00\x00\x00\x00\x00\xf0?\x00\x00\x00\x00\x00\x00\xf0\xbf\x00\x00\x00\x00\x00\x00\xf0?\x00\x00\x00\x00\x00\x00\xf0\xbf\x00\x00\x00\x00\x00\x00\xf0?\x00\x00\x00\x00\x00\x00\xf0\xbf\x00\x00\x00\x00\x00\x00\xf0?\x00\x00\x00\x00\x00\x00\xf0\xbf\x00\x00\x00\x00\x00\x00\xf0?\x00\x00\x00\x00\x00\x00\xf0\xbf\x00\x00\x00\x00\x00\x00\xf0?\x00\x00\x00\x00\x00\x00\xf0\xbf\x00\x00\x00\x00\x00\x00\xf0?\x00\x00\x00\x00\x00\x00\xf0\xbf\x00\x00\x00\x00\x00\x00\xf0?\x00\x00\x00\x00\x00\x00\xf0\xbf\x00\x00\x00\x00\x00\x00\xf0?\x00\x00\x00\x00\x00\x00\xf0\xbf\x00\x00\x00\x00\x00\x00\xf0?\x00\x00\x00\x00\x00\x00\xf0\xbf\x00\x00\x00\x00\x00\x00\xf0?\x00\x00\x00\x00\x00\x00\xf0\xbf\x00\x00\x00\x00\x00\x00\xf0?\x00\x00\x00\x00\x00\x00\xf0\xbf\x00\x00\x00\x00\x00\x00\xf0?\x00\x00\x00\x00\x00\x00\xf0\xbf\x00\x00\x00\x00\x00\x00\xf0?\x00\x00\x00\x00\x00\x00\xf0\xbf\x00\x00\x00\x00\x00\x00\xf0?\x00\x00\x00\x00\x00\x00\xf0\xbf\x00\x00\x00\x00\x00\x00\xf0?'
p86
tp87
bsg33
g75
sg40
g18
(g19
(I0
tp88
g21
tp89
Rp90
(I1
(I1
tp91
g28
I00
S'\xda\x1ff\xb7\x8b>\xc6?'
p92
tp93
bsg47
(dp94
g21
g18
(g19
(I0
tp95
g21
tp96
Rp97
(I1
(I1
tp98
g28
I00
S'k+LG!\xa6\xb9?'
p99
tp100
bsg55
g18
(g19
(I0
tp101
g21
tp102
Rp103
(I1
(I1
I30
tp104
g28
I00
S"'\x0eV\xa8\r\xb8\xb8?bt{s~\xec\xd4?a\x91/axc\xc1?\x95V*\x91r\xa5\xe4\xbf\x8b\xb6\x1f\xe2\x9f&\xd1?`\xedo\xc7\x9f\x86\xb2?\x07#\xb5*\xbe\xff\xb0?&\x81\x16\xc0tm\xc0?c\x8f\xee\xcc5\xe1\xda?\xc8\xe8\xf6\x87\xf4\x0f\xb9\xbf\x97YK+\x1d\xff\xd7?\xef\xfcp\x1f\xb0\t\xc9\xbf8\xe4\r\xb3t\x82\xd8?\x18\xac\x91\x0c\xa4\x86\xda?\x8c\xc1\xcf,^6\xc8?\x9d\t}\x8b\x1fO\xc0\xbf\xa4\x9dq9F\xc0\xb0\xbfz\xc8\xe6\xa5\x85y\xcb\xbf\xb7\x05\xf2\xd7\xad\xce\xb2\xbf`\xd7\xc31-\xfd\xa6?\xf5\x96\xc7\xdeX\xd7\xd4\xbf\x84\x9c\x96\xca\xe3g\xba\xbf\xe6\xca\x9e\x05\x07\xf3\x96?/3\xc5;$\x92\xa5\xbf?c\xacYlI\xaa\xbf\xe1\n\x10\x97h\xdb\xba\xbf\xfa2\xcc\xe1=Z\xd9?|\x8a\xbbZ\xdd,\xca\xbf\xbc\x08`\xda\xc2\x96\xc3\xbf\xdb\r/\xbe\xd0Z\xc5?"
p105
tp106
bssg62
g63
sg65
g18
(g19
(I0
tp107
g21
tp108
Rp109
(I1
(I1
I2
tp110
g28
I00
S'\x00\x00\x00\x00\x00\x00\xf0\xbf\x00\x00\x00\x00\x00\x00\xf0?'
p111
tp112
bsg72
g18
(g19
(I0
tp113
g21
tp114
Rp115
(I1
(I1
tp116
g28
I00
S'\xd7\xc3\xdd@\xe7\x05\xc6?'
p117
tp118
bsbasg14
I40
sg15
I1
sg17
g18
(g19
(I0
tp119
g21
tp120
Rp121
(I1
(I40
I2
tp122
g28
I00
S'\x00\x00\x00\x00\x00\x00\x00\x00\x00\x00\x00\x00\x00\x00\xf0?\x00\x00\x00\x00\x00\x00\x00\x00\x00\x00\x00\x00\x00\x00\xf0?\x00\x00\x00\x00\x00\x00\x00\x00\x00\x00\x00\x00\x00\x00\xf0?\x00\x00\x00\x00\x00\x00\x00\x00\x00\x00\x00\x00\x00\x00\xf0?\x00\x00\x00\x00\x00\x00\x00\x00\x00\x00\x00\x00\x00\x00\xf0?\x00\x00\x00\x00\x00\x00\x00\x00\x00\x00\x00\x00\x00\x00\xf0?\x00\x00\x00\x00\x00\x00\x00\x00\x00\x00\x00\x00\x00\x00\xf0?\x00\x00\x00\x00\x00\x00\x00\x00\x00\x00\x00\x00\x00\x00\xf0?\x00\x00\x00\x00\x00\x00\x00\x00\x00\x00\x00\x00\x00\x00\xf0?\x00\x00\x00\x00\x00\x00\x00\x00\x00\x00\x00\x00\x00\x00\xf0?\x00\x00\x00\x00\x00\x00\x00\x00\x00\x00\x00\x00\x00\x00\xf0?\x00\x00\x00\x00\x00\x00\x00\x00\x00\x00\x00\x00\x00\x00\xf0?\x00\x00\x00\x00\x00\x00\x00\x00\x00\x00\x00\x00\x00\x00\xf0?\x00\x00\x00\x00\x00\x00\x00\x00\x00\x00\x00\x00\x00\x00\xf0?\x00\x00\x00\x00\x00\x00\x00\x00\x00\x00\x00\x00\x00\x00\xf0?\x00\x00\x00\x00\x00\x00\x00\x00\x00\x00\x00\x00\x00\x00\xf0?\x00\x00\x00\x00\x00\x00\x00\x00\x00\x00\x00\x00\x00\x00\xf0?\x00\x00\x00\x00\x00\x00\x00\x00\x00\x00\x00\x00\x00\x00\xf0?\x00\x00\x00\x00\x00\x00\x00\x00\x00\x00\x00\x00\x00\x00\xf0?\x00\x00\x00\x00\x00\x00\x00\x00\x00\x00\x00\x00\x00\x00\xf0?\x00\x00\x00\x00\x00\x00\x00\x00\x00\x00\x00\x00\x00\x00\xf0?\x00\x00\x00\x00\x00\x00\x00\x00\x00\x00\x00\x00\x00\x00\xf0?\x00\x00\x00\x00\x00\x00\x00\x00\x00\x00\x00\x00\x00\x00\xf0?\x00\x00\x00\x00\x00\x00\x00\x00\x00\x00\x00\x00\x00\x00\xf0?\x00\x00\x00\x00\x00\x00\x00\x00\x00\x00\x00\x00\x00\x00\xf0?\x00\x00\x00\x00\x00\x00\x00\x00\x00\x00\x00\x00\x00\x00\xf0?\x00\x00\x00\x00\x00\x00\x00\x00\x00\x00\x00\x00\x00\x00\xf0?\x00\x00\x00\x00\x00\x00\x00\x00\x00\x00\x00\x00\x00\x00\xf0?\x00\x00\x00\x00\x00\x00\x00\x00\x00\x00\x00\x00\x00\x00\xf0?\x00\x00\x00\x00\x00\x00\x00\x00\x00\x00\x00\x00\x00\x00\xf0?\x00\x00\x00\x00\x00\x00\x00\x00\x00\x00\x00\x00\x00\x00\xf0?\x00\x00\x00\x00\x00\x00\x00\x00\x00\x00\x00\x00\x00\x00\xf0?\x00\x00\x00\x00\x00\x00\x00\x00\x00\x00\x00\x00\x00\x00\xf0?\x00\x00\x00\x00\x00\x00\x00\x00\x00\x00\x00\x00\x00\x00\xf0?\x00\x00\x00\x00\x00\x00\x00\x00\x00\x00\x00\x00\x00\x00\xf0?\x00\x00\x00\x00\x00\x00\x00\x00\x00\x00\x00\x00\x00\x00\xf0?\x00\x00\x00\x00\x00\x00\x00\x00\x00\x00\x00\x00\x00\x00\xf0?\x00\x00\x00\x00\x00\x00\x00\x00\x00\x00\x00\x00\x00\x00\xf0?\x00\x00\x00\x00\x00\x00\x00\x00\x00\x00\x00\x00\x00\x00\xf0?\x00\x00\x00\x00\x00\x00\x00\x00\x00\x00\x00\x00\x00\x00\xf0?'
p123
tp124
bsg33
g36
sS'trainf'
p125
g0
(cneurolab.core
Trainer
p126
g2
Ntp127
Rp128
(dp129
S'_train_class'
p130
cneurolab.train.spo
TrainCG
p131
sS'__module__'
p132
S'neurolab.train.spo'
p133
sS'params'
p134
(dp135
S'epochs'
p136
I4000
sS'train'
p137
(dp138
S'rr'
p139
I0
ssS'goal'
p140
F2e-05
sS'show'
p141
I500
ssS'defaults'
p142
(dp143
g136
I500
sg137
(dp144
g139
I0
ssg140
F0.01
sg141
I100
ssS'error'
p145
(lp146
cnumpy.core.multiarray
scalar
p147
(g28
S'h\x91\xa08fJ1@'
p148
tp149
Rp150
ag147
(g28
S'J\xcbkF\xf4\xc90@'
p151
tp152
Rp153
ag147
(g28
S'\xe2\xe1\xd3\xb8\xa8\x8c0@'
p154
tp155
Rp156
ag147
(g28
S'\xaaL\xbc\xb2\x02\x05&@'
p157
tp158
Rp159
ag147
(g28
S'\xee\xcf!\x07m\xbf%@'
p160
tp161
Rp162
ag147
(g28
S'\x95\x9d\x1a\x1d\xea\x1a#@'
p163
tp164
Rp165
ag147
(g28
S'\xa2.\xcc\xee\xf7\xb1"@'
p166
tp167
Rp168
ag147
(g28
S'\x84m4\x19]y"@'
p169
tp170
Rp171
ag147
(g28
S';\x82\xf6\xd2\xc6\x8d!@'
p172
tp173
Rp174
ag147
(g28
S'\xc6\xae\xb4\x0f\xe3\x83!@'
p175
tp176
Rp177
ag147
(g28
S'\xaceB\xab\xcaW!@'
p178
tp179
Rp180
ag147
(g28
S'\xf8\xbb\x1d\x1e\xd2L!@'
p181
tp182
Rp183
ag147
(g28
S',\x9f\xe1\x952)!@'
p184
tp185
Rp186
ag147
(g28
S'\x8a\xb7!\xa4]\x19!@'
p187
tp188
Rp189
ag147
(g28
S'FH\x0b\x90\xc9\xec @'
p190
tp191
Rp192
ag147
(g28
S'\xa8\xa5\xfa8<\xdd @'
p193
tp194
Rp195
ag147
(g28
S'\xa4\x99\x93u\xdb\xb6 @'
p196
tp197
Rp198
ag147
(g28
S'<#\x98\x1dO\xac @'
p199
tp200
Rp201
ag147
(g28
S'Y\x0f\x7fz\x87\x93 @'
p202
tp203
Rp204
ag147
(g28
S'\x99\xa2\xca\x191\x8d @'
p205
tp206
Rp207
ag147
(g28
S'\x8aL\x01I\xf9} @'
p208
tp209
Rp210
ag147
(g28
S'\xb0\x11\x13\xaa\xaey @'
p211
tp212
Rp213
ag147
(g28
S'\xdf\t\x97 0n @'
p214
tp215
Rp216
ag147
(g28
S'\nSe\x83Sj @'
p217
tp218
Rp219
ag147
(g28
S'\x15_\x1c\x9d!^ @'
p220
tp221
Rp222
ag147
(g28
S'\x1e\x90\x1a\x11WY @'
p223
tp224
Rp225
ag147
(g28
S'_\x12\xd9\xd3xH @'
p226
tp227
Rp228
ag147
(g28
S'\xcc\xcek\x8eCA @'
p229
tp230
Rp231
ag147
(g28
S'\xe5\xd0j\x8c\x94( @'
p232
tp233
Rp234
ag147
(g28
S'\xdd\xf0\xb3\xc1\xc9\x1d @'
p235
tp236
Rp237
ag147
(g28
S'\xc6\xb6\t[x\xfe\x1f@'
p238
tp239
Rp240
ag147
(g28
S'\x82\xec!\xc4l\xe3\x1f@'
p241
tp242
Rp243
ag147
(g28
S'\x14{\xaf\xf5\xaf\xaa\x1f@'
p244
tp245
Rp246
ag147
(g28
S"V'*QQ\x91\x1f@"
p247
tp248
Rp249
ag147
(g28
S'\x9c*\xa6\x9e\xe5m\x1f@'
p250
tp251
Rp252
ag147
(g28
S'\xb5\xb3\xcfY\xe4@\x1f@'
p253
tp254
Rp255
ag147
(g28
S'K\x15\x94\xef\xfb\xaf\x1e@'
p256
tp257
Rp258
ag147
(g28
S'\n\xb0\xf4,\x0b\x8e\x1e@'
p259
tp260
Rp261
ag147
(g28
S'\x10\xc7{\xfb|\x8a\x1e@'
p262
tp263
Rp264
ag147
(g28
S'\xe5\xdb\xe1\xd31\xa6\x1d@'
p265
tp266
Rp267
ag147
(g28
S'W\x1c\x90\x01E\xa5\x1d@'
p268
tp269
Rp270
ag147
(g28
S'\xaaS\x1a\xf5\x01z\x1d@'
p271
tp272
Rp273
ag147
(g28
S'\xc9O\xd2\x18\rI\x1d@'
p274
tp275
Rp276
ag147
(g28
S'\x92\xee\x91\xb4pG\x1d@'
p277
tp278
Rp279
ag147
(g28
S'*R\xba,\xca\x1d\x1d@'
p280
tp281
Rp282
ag147
(g28
S'\xddo#\xc9y\x1d\x1d@'
p283
tp284
Rp285
ag147
(g28
S'1\x06\xa8\x87\x0c\x18\x1d@'
p286
tp287
Rp288
ag147
(g28
S'@-=+\x93\xfb\x1c@'
p289
tp290
Rp291
ag147
(g28
S'\xecL\x1dU\xdf\xfa\x1c@'
p292
tp293
Rp294
ag147
(g28
S')\x16\x8aT\x01\xdf\x1c@'
p295
tp296
Rp297
ag147
(g28
S'm\x0fh\x19\xb3\xde\x1c@'
p298
tp299
Rp300
ag147
(g28
S'\xc3\xfd|\x85#\xce\x1c@'
p301
tp302
Rp303
ag147
(g28
S'\xb7\n6\x11\xa5\xcd\x1c@'
p304
tp305
Rp306
ag147
(g28
S'X\xa6\xd3*\xba\xb4\x1c@'
p307
tp308
Rp309
ag147
(g28
S'\xf8\xf2|\xa2\xbf\xb2\x1c@'
p310
tp311
Rp312
ag147
(g28
S'\xbaoz\x07\xe9\x8d\x1c@'
p313
tp314
Rp315
ag147
(g28
S'\xcb\x84^\xb7p\x8b\x1c@'
p316
tp317
Rp318
ag147
(g28
S'I5S\xc04u\x1c@'
p319
tp320
Rp321
ag147
(g28
S'\x1a\xac\x18^ft\x1c@'
p322
tp323
Rp324
ag147
(g28
S'\x8evUS\x04b\x1c@'
p325
tp326
Rp327
ag147
(g28
S'\x11\x94\x1a3\nU\x1c@'
p328
tp329
Rp330
ag147
(g28
S'\x90\xed\xc7\xb2\x19R\x1c@'
p331
tp332
Rp333
ag147
(g28
S'l\xcf.\x12pP\x1c@'
p334
tp335
Rp336
ag147
(g28
S'\x02\x9b\xcbKlL\x1c@'
p337
tp338
Rp339
ag147
(g28
S'jn\xe9\x99\xbaJ\x1c@'
p340
tp341
Rp342
ag147
(g28
S'>\xf5\xc3\x95\xe2F\x1c@'
p343
tp344
Rp345
ag147
(g28
S'\xc6E\xa0E5E\x1c@'
p346
tp347
Rp348
ag147
(g28
S'\x1aC\x94\xe40B\x1c@'
p349
tp350
Rp351
ag147
(g28
S'V\xc8O\x8d\x96@\x1c@'
p352
tp353
Rp354
ag147
(g28
S'7lQ/m>\x1c@'
p355
tp356
Rp357
ag147
(g28
S'\xf8\x16\x8b\xe9\x93;\x1c@'
p358
tp359
Rp360
ag147
(g28
S'\xe7e\xd5\x94\xa91\x1c@'
p361
tp362
Rp363
ag147
(g28
S'\xac\xb7\xf5\xb7/-\x1c@'
p364
tp365
Rp366
ag147
(g28
S'\rp\x9c\xaaG,\x1c@'
p367
tp368
Rp369
ag147
(g28
S'\xb0\x17OGA\xe8\x1b@'
p370
tp371
Rp372
ag147
(g28
S'F\xfao\xfd\x86\x9c\x1b@'
p373
tp374
Rp375
ag147
(g28
S'\xf4X\xc6\xd7\xb3\x90\x1b@'
p376
tp377
Rp378
ag147
(g28
S'\x1dja\x82\xab\x8c\x1b@'
p379
tp380
Rp381
ag147
(g28
S'\x98U\x8e\x9d%\x8c\x1b@'
p382
tp383
Rp384
ag147
(g28
S'\xe8=\x15\xac\x07k\x1b@'
p385
tp386
Rp387
ag147
(g28
S'3\xba\x081\xe3i\x1b@'
p388
tp389
Rp390
ag147
(g28
S'>WK\n\x1cS\x1b@'
p391
tp392
Rp393
ag147
(g28
S"\xbb\xf1\xa4'\xbfR\x1b@"
p394
tp395
Rp396
ag147
(g28
S'\xa2\rf\xb2%L\x1b@'
p397
tp398
Rp399
ag147
(g28
S'\x1a4\x89\xd0\x9dI\x1b@'
p400
tp401
Rp402
ag147
(g28
S'b\xdb\x84\x96r@\x1b@'
p403
tp404
Rp405
ag147
(g28
S'w<\xaf;\xdd=\x1b@'
p406
tp407
Rp408
ag147
(g28
S'F3ye\xdd8\x1b@'
p409
tp410
Rp411
ag147
(g28
S'\xae>\x07\xc4\xe57\x1b@'
p412
tp413
Rp414
ag147
(g28
S'Jf%H52\x1b@'
p415
tp416
Rp417
ag147
(g28
S'"|+\xb0L1\x1b@'
p418
tp419
Rp420
ag147
(g28
S'\x96\x8b\x84,\xe0-\x1b@'
p421
tp422
Rp423
ag147
(g28
S'\xe0\xb4\xffE\xdb,\x1b@'
p424
tp425
Rp426
ag147
(g28
S'\xdd\xd2\xfa\x9c\xfe\x18\x1b@'
p427
tp428
Rp429
ag147
(g28
S'rAj\x10\xdd\x15\x1b@'
p430
tp431
Rp432
ag147
(g28
S'\x86\xc4FS\x92\x00\x1b@'
p433
tp434
Rp435
ag147
(g28
S'\xaa\xb8?U\x11\xfc\x1a@'
p436
tp437
Rp438
ag147
(g28
S'\xd6^\xd7\xe7\xf3\xf6\x1a@'
p439
tp440
Rp441
ag147
(g28
S'd\xd4\xf7\xc78\xf2\x1a@'
p442
tp443
Rp444
ag147
(g28
S"L\x7f\x0e'\x9e\xf0\x1a@"
p445
tp446
Rp447
ag147
(g28
S'\xe7B?=\x0c\xf0\x1a@'
p448
tp449
Rp450
ag147
(g28
S'\x08n56M\xb4\x1a@'
p451
tp452
Rp453
ag147
(g28
S'/\xd7\\\xff\xf6\xb3\x1a@'
p454
tp455
Rp456
ag147
(g28
S'$\xc3X\xfe\xc1\x92\x1a@'
p457
tp458
Rp459
ag147
(g28
S'\x0cU\xb7\xee\x03\x92\x1a@'
p460
tp461
Rp462
ag147
(g28
S"\\'\x99\x10l\x8f\x1a@"
p463
tp464
Rp465
ag147
(g28
S'\x81\xf7\xebz\xf9\x89\x1a@'
p466
tp467
Rp468
ag147
(g28
S'\xf2\x0b\xe6\xe1\x9b\x84\x1a@'
p469
tp470
Rp471
ag147
(g28
S'\xa0\xba\xb9zW\x7f\x1a@'
p472
tp473
Rp474
ag147
(g28
S'\xee\xf9!\x07\xc6y\x1a@'
p475
tp476
Rp477
ag147
(g28
S'\xc0U\x8e\xe9\xc9u\x1a@'
p478
tp479
Rp480
ag147
(g28
S'"d\x9c\xb6\x0et\x1a@'
p481
tp482
Rp483
ag147
(g28
S'y\xf3\x9eCWs\x1a@'
p484
tp485
Rp486
ag147
(g28
S'@e\x8cF\x9dq\x1a@'
p487
tp488
Rp489
ag147
(g28
S'n\r\x05\xe1\xfdp\x1a@'
p490
tp491
Rp492
ag147
(g28
S'\x80\xd2\x94n\x7fo\x1a@'
p493
tp494
Rp495
ag147
(g28
S'\xd0\xa1\x15\xb8\xf9n\x1a@'
p496
tp497
Rp498
ag147
(g28
S'\xde5X\xbc\xb2m\x1a@'
p499
tp500
Rp501
ag147
(g28
S'\xcc\xbf?\xde@m\x1a@'
p502
tp503
Rp504
ag147
(g28
S'\xb8\xebs\x95\x1el\x1a@'
p505
tp506
Rp507
ag147
(g28
S'\xd8@;\x8f\xb7k\x1a@'
p508
tp509
Rp510
ag147
(g28
S'0g\xfd\x87\xa0j\x1a@'
p511
tp512
Rp513
ag147
(g28
S'~p\x93\xf89j\x1a@'
p514
tp515
Rp516
ag147
(g28
S'\xce\x1bE\x06\x12i\x1a@'
p517
tp518
Rp519
ag147
(g28
S'\x0c]\xe1\xc1\xa0h\x1a@'
p520
tp521
Rp522
ag147
(g28
S'`\xdb\x98XKg\x1a@'
p523
tp524
Rp525
ag147
(g28
S'\x81`\xa4u\xc3f\x1a@'
p526
tp527
Rp528
ag147
(g28
S'r%o\xbe)e\x1a@'
p529
tp530
Rp531
ag147
(g28
S'\xd5\xc4^T\x7fd\x1a@'
p532
tp533
Rp534
ag147
(g28
S'\xb2\x19-\xdc\x9bb\x1a@'
p535
tp536
Rp537
ag147
(g28
S'\xc7\xdb\x0e\xed\xc3a\x1a@'
p538
tp539
Rp540
ag147
(g28
S'\xf0`;\xa2\xa8_\x1a@'
p541
tp542
Rp543
ag147
(g28
S'BBb#\x99^\x1a@'
p544
tp545
Rp546
ag147
(g28
S'\x1e!\xafrb\\\x1a@'
p547
tp548
Rp549
ag147
(g28
S'@\xde<\xc7\x14[\x1a@'
p550
tp551
Rp552
ag147
(g28
S'w\xff\xaa\x14\xdeX\x1a@'
p553
tp554
Rp555
ag147
(g28
S'XA\x18\xa5XW\x1a@'
p556
tp557
Rp558
ag147
(g28
S'X\xa3.ydU\x1a@'
p559
tp560
Rp561
ag147
(g28
S'\xec\xf7\x12\xed\xe0S\x1a@'
p562
tp563
Rp564
ag147
(g28
S'\xc6M\x87\xd0\xf9R\x1a@'
p565
tp566
Rp567
ag147
(g28
S'\xe0\xa4X\x8enQ\x1a@'
p568
tp569
Rp570
ag147
(g28
S'k\xc8\tk\xee4\x1a@'
p571
tp572
Rp573
ag147
(g28
S'\xce\xac\xf9o\\4\x1a@'
p574
tp575
Rp576
ag147
(g28
S'V2\xf0\xccM\x06\x1a@'
p577
tp578
Rp579
ag147
(g28
S'\xeeW/\x11t\x04\x1a@'
p580
tp581
Rp582
ag147
(g28
S'6\x9aCq!\xd1\x19@'
p583
tp584
Rp585
ag147
(g28
S'\xd9`\x8a\xbc\x8e\xcb\x19@'
p586
tp587
Rp588
ag147
(g28
S':\xf4\xce\t;\xc4\x19@'
p589
tp590
Rp591
ag147
(g28
S'ZZ\xf6Gg\xbc\x19@'
p592
tp593
Rp594
ag147
(g28
S'`\xe8\x1d\x8bb\xb7\x19@'
p595
tp596
Rp597
ag147
(g28
S'65\xb4\xfa\xa8\xb6\x19@'
p598
tp599
Rp600
ag147
(g28
S'@\x04\x07\xc1C\x85\x19@'
p601
tp602
Rp603
ag147
(g28
S'\x9a,%\x9f\x8a\x7f\x19@'
p604
tp605
Rp606
ag147
(g28
S'\x8c\xe4\x7f\xad\xb2t\x19@'
p607
tp608
Rp609
ag147
(g28
S'@/\xc2Yrb\x19@'
p610
tp611
Rp612
ag147
(g28
S'*r\x1a\x03\xee]\x19@'
p613
tp614
Rp615
ag147
(g28
S'\xa7\x87d\xb1kX\x19@'
p616
tp617
Rp618
ag147
(g28
S'\xa6\xc5R>\xacW\x19@'
p619
tp620
Rp621
ag147
(g28
S'ZF\x8cq\xfaA\x19@'
p622
tp623
Rp624
ag147
(g28
S'=\\\xb5\xf1\xdcA\x19@'
p625
tp626
Rp627
ag147
(g28
S'c\xafq\x00\x9f6\x19@'
p628
tp629
Rp630
ag147
(g28
S'\xae\x9e\xa1\xbct6\x19@'
p631
tp632
Rp633
ag147
(g28
S'\xba\x11V+\x892\x19@'
p634
tp635
Rp636
ag147
(g28
S'\t\xad\x9e\xa0\xd2\x1d\x19@'
p637
tp638
Rp639
ag147
(g28
S'\xdcv\xd5\xe8\xa3\x1b\x19@'
p640
tp641
Rp642
ag147
(g28
S'!9Pz\x9a\x1a\x19@'
p643
tp644
Rp645
ag147
(g28
S'|z\xd7\xd0\t\x1a\x19@'
p646
tp647
Rp648
ag147
(g28
S'A:h\xd2\xd8\x18\x19@'
p649
tp650
Rp651
ag147
(g28
S'\xa9\x8f\x8a\xe6O\x18\x19@'
p652
tp653
Rp654
ag147
(g28
S'<t\xae\x9b5\x17\x19@'
p655
tp656
Rp657
ag147
(g28
S'\x84\xb7|\xeb\xb9\x16\x19@'
p658
tp659
Rp660
ag147
(g28
S'h\x18u\xfa\xc6\x15\x19@'
p661
tp662
Rp663
ag147
(g28
S'\xaf\xcfl\x92\\\x15\x19@'
p664
tp665
Rp666
ag147
(g28
S"O'\xd3\xdd\x89\x14\x19@"
p667
tp668
Rp669
ag147
(g28
S'x\x88?\x0e-\x14\x19@'
p670
tp671
Rp672
ag147
(g28
S'Y \xf6ok\x13\x19@'
p673
tp674
Rp675
ag147
(g28
S'\xafOU\xf7\x15\x13\x19@'
p676
tp677
Rp678
ag147
(g28
S'\xf1TX^W\x12\x19@'
p679
tp680
Rp681
ag147
(g28
S'{\xf14+\x04\x12\x19@'
p682
tp683
Rp684
ag147
(g28
S'$;\\\x82?\x11\x19@'
p685
tp686
Rp687
ag147
(g28
S'\xd4b*\xf6\xeb\x10\x19@'
p688
tp689
Rp690
ag147
(g28
S'\xbe\x16\x0c\xc4\x1e\x10\x19@'
p691
tp692
Rp693
ag147
(g28
S'\xc9\xb0\xff\xea\xca\x0f\x19@'
p694
tp695
Rp696
ag147
(g28
S'\x82oL\xcb\xf6\x0e\x19@'
p697
tp698
Rp699
ag147
(g28
S'\x9b\x14\x99V\xa3\x0e\x19@'
p700
tp701
Rp702
ag147
(g28
S'\xf2\xc0\x81\xa3\xc7\r\x19@'
p703
tp704
Rp705
ag147
(g28
S'\x94E\xaf\rs\r\x19@'
p706
tp707
Rp708
ag147
(g28
S'J\x96\x91\xc2\x85\x0c\x19@'
p709
tp710
Rp711
ag147
(g28
S'@\xbf\x9b%*\x0c\x19@'
p712
tp713
Rp714
ag147
(g28
S'\x13\xbf\x0e\x8d\x12\x0b\x19@'
p715
tp716
Rp717
ag147
(g28
S')!\x84\x0b\xa4\n\x19@'
p718
tp719
Rp720
ag147
(g28
S'\xd4\xd4\x9b16\t\x19@'
p721
tp722
Rp723
ag147
(g28
S'n(\x15\xf9\xa0\x08\x19@'
p724
tp725
Rp726
ag147
(g28
S'[2xU\x9b\x06\x19@'
p727
tp728
Rp729
ag147
(g28
S'\\G\x8e\x84\xc0\x05\x19@'
p730
tp731
Rp732
ag147
(g28
S't\xff\xf9}\xd6\x02\x19@'
p733
tp734
Rp735
ag147
(g28
S'26\x0f\xc0}\x01\x19@'
p736
tp737
Rp738
ag147
(g28
S'\x83\xf1~(1\xfd\x18@'
p739
tp740
Rp741
ag147
(g28
S'N\xabp\xd8\xab\xfa\x18@'
p742
tp743
Rp744
ag147
(g28
S'\xfe\xd8\x87\x9c\x15\xea\x18@'
p745
tp746
Rp747
ag147
(g28
S'\xb4\xa5\xdb`\xad\xdf\x18@'
p748
tp749
Rp750
ag147
(g28
S'\x05\x0e\x02s\x06\xda\x18@'
p751
tp752
Rp753
ag147
(g28
S'\xd2\x98e\xd7\xcd\xd8\x18@'
p754
tp755
Rp756
ag147
(g28
S'\x9e\xbf\xd3\x04+\xac\x18@'
p757
tp758
Rp759
ag147
(g28
S'\x0f\xc0N\xde\x99\xab\x18@'
p760
tp761
Rp762
ag147
(g28
S'\xbcdOV\xb2\x80\x18@'
p763
tp764
Rp765
ag147
(g28
S'd\xaf&\xdb\xc7w\x18@'
p766
tp767
Rp768
ag147
(g28
S'\xc0B\xc4\xa9-w\x18@'
p769
tp770
Rp771
ag147
(g28
S'\x9e\xd9\x82\xabBi\x18@'
p772
tp773
Rp774
ag147
(g28
S'\xf3q\x0bY\xb9f\x18@'
p775
tp776
Rp777
ag147
(g28
S'\x06Ca\xb7\xfc[\x18@'
p778
tp779
Rp780
ag147
(g28
S'6\xaaQ@\xd6[\x18@'
p781
tp782
Rp783
ag147
(g28
S'7=;=OS\x18@'
p784
tp785
Rp786
ag147
(g28
S'g\xcd\xeb\xb57S\x18@'
p787
tp788
Rp789
ag147
(g28
S'\x94\xc4\xf8\xa1\x16I\x18@'
p790
tp791
Rp792
ag147
(g28
S'\x9e\xd1\xf4T\xdcG\x18@'
p793
tp794
Rp795
ag147
(g28
S'`\xf2\xc4\xc1\x87<\x18@'
p796
tp797
Rp798
ag147
(g28
S'\x9a\xc6\xd2m\xdf.\x18@'
p799
tp800
Rp801
ag147
(g28
S'\xf6\x11\xa5\xcbK.\x18@'
p802
tp803
Rp804
ag147
(g28
S'\xc2Y!t\x0e!\x18@'
p805
tp806
Rp807
ag147
(g28
S'\x0b\x99\x8d\x10\x00!\x18@'
p808
tp809
Rp810
ag147
(g28
S',\xb1\xc6l\x9e\x1d\x18@'
p811
tp812
Rp813
ag147
(g28
S'\x8e\xe3\x96Hh\x1c\x18@'
p814
tp815
Rp816
ag147
(g28
S'|\xa1\xe8k\xda\x1a\x18@'
p817
tp818
Rp819
ag147
(g28
S'&DW;\xc3\x18\x18@'
p820
tp821
Rp822
ag147
(g28
S'G\x1bx:\xed\x17\x18@'
p823
tp824
Rp825
ag147
(g28
S'\x9c\x95.\xdc\xd5\x17\x18@'
p826
tp827
Rp828
ag147
(g28
S'b\xc7v\xfaB\x17\x18@'
p829
tp830
Rp831
ag147
(g28
S'\x1b\xe1mP5\x17\x18@'
p832
tp833
Rp834
ag147
(g28
S'\xda6h\xda\xce\x13\x18@'
p835
tp836
Rp837
ag147
(g28
S'\x00^\xf0\xd2\xf8\x06\x18@'
p838
tp839
Rp840
ag147
(g28
S'f\x1e\xef\x95\xbf\x06\x18@'
p841
tp842
Rp843
ag147
(g28
S'\xc9o\xd6Pz\xa0\x17@'
p844
tp845
Rp846
ag147
(g28
S'\xe8\xb9\xf5\xb1\xf3\x8d\x17@'
p847
tp848
Rp849
ag147
(g28
S'f@\x83\xaf\xaa\x88\x17@'
p850
tp851
Rp852
ag147
(g28
S'\x1cw\xdeQ\xa2\x85\x17@'
p853
tp854
Rp855
ag147
(g28
S'\xaa\x81\t\x90\xa2r\x17@'
p856
tp857
Rp858
ag147
(g28
S'R\x95\xeb\xbfLq\x17@'
p859
tp860
Rp861
ag147
(g28
S'\x02tTw\x1fB\x17@'
p862
tp863
Rp864
ag147
(g28
S'U\x7f\x11\xb7?9\x17@'
p865
tp866
Rp867
ag147
(g28
S'W\x96j\x83\xa58\x17@'
p868
tp869
Rp870
ag147
(g28
S'\xc4\x88\x19-m\x17\x17@'
p871
tp872
Rp873
ag147
(g28
S'\\\xff\xa0\x00<\x17\x17@'
p874
tp875
Rp876
ag147
(g28
S'\xa4\xbaY=\xc4\x0f\x17@'
p877
tp878
Rp879
ag147
(g28
S'\x86I\xaem\x91\x0f\x17@'
p880
tp881
Rp882
ag147
(g28
S'\x83T\xf7bI\x0b\x17@'
p883
tp884
Rp885
ag147
(g28
S'\xee\x02\xa5%\x12\x0b\x17@'
p886
tp887
Rp888
ag147
(g28
S'X>\xcfG\xac\x05\x17@'
p889
tp890
Rp891
ag147
(g28
S'\xce\xb9\x14yf\x03\x17@'
p892
tp893
Rp894
ag147
(g28
S'\x12bO\xbd\xe1\xd4\x16@'
p895
tp896
Rp897
ag147
(g28
S'k\x0e\xba\x11\xc6\xce\x16@'
p898
tp899
Rp900
ag147
(g28
S'\xe0\xdb\x04\x0e\xb8\xc8\x16@'
p901
tp902
Rp903
ag147
(g28
S'\x8a\xce\xa4t\xb1\xc8\x16@'
p904
tp905
Rp906
ag147
(g28
S'\x9e\xf7\xd5O\x96\xc0\x16@'
p907
tp908
Rp909
ag147
(g28
S'FO\x06\xc3S\xbf\x16@'
p910
tp911
Rp912
ag147
(g28
S'f\xc4\xc5\xa0\xbd\xbe\x16@'
p913
tp914
Rp915
ag147
(g28
S'/\xd2\x02x=\xb9\x16@'
p916
tp917
Rp918
ag147
(g28
S'\xb2h\x14-0\xb9\x16@'
p919
tp920
Rp921
ag147
(g28
S'\xa4W\x91y\xd5\xb8\x16@'
p922
tp923
Rp924
ag147
(g28
S'R\t\x80\xc1\xa2\xb8\x16@'
p925
tp926
Rp927
ag147
(g28
S'l\xdaE\xdd\xb2\xb7\x16@'
p928
tp929
Rp930
ag147
(g28
S'\n"W\xd8<\xb7\x16@'
p931
tp932
Rp933
ag147
(g28
S'\x7f\xf2\xe8\x1c,\xaa\x16@'
p934
tp935
Rp936
ag147
(g28
S'*\xbe!b\x82\xa9\x16@'
p937
tp938
Rp939
ag147
(g28
S'Y\xc0\xdf\x80\x19\xa5\x16@'
p940
tp941
Rp942
ag147
(g28
S'\x1e>34\xfd\x9f\x16@'
p943
tp944
Rp945
ag147
(g28
S'\x0cq-\x08\x0b\x9e\x16@'
p946
tp947
Rp948
ag147
(g28
S'4T\xbfW\xe1\x9d\x16@'
p949
tp950
Rp951
ag147
(g28
S'L\xc6\x16]\xc7\x9d\x16@'
p952
tp953
Rp954
ag147
(g28
S'fs\xe9W{\x9d\x16@'
p955
tp956
Rp957
ag147
(g28
S'\xaf\x8c\x8b\x16u\x9b\x16@'
p958
tp959
Rp960
ag147
(g28
S"\xf9}\xad\xfa'\x9a\x16@"
p961
tp962
Rp963
ag147
(g28
S'\xabbDR\x8e\x99\x16@'
p964
tp965
Rp966
ag147
(g28
S'\xebx\xf2;\x9d\x97\x16@'
p967
tp968
Rp969
ag147
(g28
S'\xce\x0b*L\x91\x92\x16@'
p970
tp971
Rp972
ag147
(g28
S'\xe9\x96\xde\xbf{\x92\x16@'
p973
tp974
Rp975
ag147
(g28
S'\x9e\xe0\x94?\xac\x8a\x16@'
p976
tp977
Rp978
ag147
(g28
S'\xf8\xb5@\xf9\xbf\x87\x16@'
p979
tp980
Rp981
ag147
(g28
S'\x85\x11\xa6\xa2r{\x16@'
p982
tp983
Rp984
ag147
(g28
S'v\xd2\x13\x8f\x15{\x16@'
p985
tp986
Rp987
ag147
(g28
S'\xbf\xb5\xda\x12 q\x16@'
p988
tp989
Rp990
ag147
(g28
S'\xd5\x14\x0f\xc1\xa5o\x16@'
p991
tp992
Rp993
ag147
(g28
S'\x95q\xb8\xbe\xc3g\x16@'
p994
tp995
Rp996
ag147
(g28
S'\xc2\xfd\xef\xe9Bg\x16@'
p997
tp998
Rp999
ag147
(g28
S'\xca\xbc?\xf9\x95d\x16@'
p1000
tp1001
Rp1002
ag147
(g28
S'n\xcb\xe6\x8f"d\x16@'
p1003
tp1004
Rp1005
ag147
(g28
S"\x16\x06~'T^\x16@"
p1006
tp1007
Rp1008
ag147
(g28
S'.\x13v\x91&^\x16@'
p1009
tp1010
Rp1011
ag147
(g28
S'8\x13\xec\x8e=Y\x16@'
p1012
tp1013
Rp1014
ag147
(g28
S'\x82\x08^u\xf0X\x16@'
p1015
tp1016
Rp1017
ag147
(g28
S'Wp\xff\x9a\x08W\x16@'
p1018
tp1019
Rp1020
ag147
(g28
S'*;\xa5\x94\xf7V\x16@'
p1021
tp1022
Rp1023
ag147
(g28
S"\x9eB'wjU\x16@"
p1024
tp1025
Rp1026
ag147
(g28
S'\xbc\xbcJ\x131U\x16@'
p1027
tp1028
Rp1029
ag147
(g28
S'\xe6\xf00\xf8\x88A\x16@'
p1030
tp1031
Rp1032
ag147
(g28
S'^CW\x1f<\x16\x16@'
p1033
tp1034
Rp1035
ag147
(g28
S'\x02\xe8\xe1\x14\xf9\x12\x16@'
p1036
tp1037
Rp1038
ag147
(g28
S'\x90AM<\xa9\xe0\x15@'
p1039
tp1040
Rp1041
ag147
(g28
S'\x92\xe1\x90\xdb\x8e\xe0\x15@'
p1042
tp1043
Rp1044
ag147
(g28
S'\xf3\xc3\x00\x12\xf0\xdd\x15@'
p1045
tp1046
Rp1047
ag147
(g28
S'\xa7#\xd1\x9df\xdd\x15@'
p1048
tp1049
Rp1050
ag147
(g28
S'()\xcf\xa1\x18\xdd\x15@'
p1051
tp1052
Rp1053
ag147
(g28
S'@kC\x13\x03\xdd\x15@'
p1054
tp1055
Rp1056
ag147
(g28
S'*\xe4\xf6PQ\xd8\x15@'
p1057
tp1058
Rp1059
ag147
(g28
S'\x1c \xd6"6\xd8\x15@'
p1060
tp1061
Rp1062
ag147
(g28
S'\xc3\xb2\x07\xf7\xf3\xd2\x15@'
p1063
tp1064
Rp1065
ag147
(g28
S'*T\x96\xd2\xe5\xd2\x15@'
p1066
tp1067
Rp1068
ag147
(g28
S'\xf0\xea\x06\xc2F\xd1\x15@'
p1069
tp1070
Rp1071
ag147
(g28
S'\xf8\x00Y\x9f5\xd1\x15@'
p1072
tp1073
Rp1074
ag147
(g28
S'\x04\x11\xe2\x90\xe5\xd0\x15@'
p1075
tp1076
Rp1077
ag147
(g28
S'\xca\x082\xf6\xc7\xcd\x15@'
p1078
tp1079
Rp1080
ag147
(g28
S'_\xda\x9f3\xdc\xcb\x15@'
p1081
tp1082
Rp1083
ag147
(g28
S'\xec\x0c.;7\xc7\x15@'
p1084
tp1085
Rp1086
ag147
(g28
S'zd\xc3u\x15\xc1\x15@'
p1087
tp1088
Rp1089
ag147
(g28
S'\x1f\x90\xe6\xc8\x85\xc0\x15@'
p1090
tp1091
Rp1092
ag147
(g28
S'\xbe\x17bca\xbd\x15@'
p1093
tp1094
Rp1095
ag147
(g28
S'\xae\xbc,\xb6\x1d\xb6\x15@'
p1096
tp1097
Rp1098
ag147
(g28
S'\x89\x96R;\x12\xb6\x15@'
p1099
tp1100
Rp1101
ag147
(g28
S'p\xdbq\xa5\xad\xad\x15@'
p1102
tp1103
Rp1104
ag147
(g28
S'$rW\xf9Q\xad\x15@'
p1105
tp1106
Rp1107
ag147
(g28
S'i0\x9aAH\x9c\x15@'
p1108
tp1109
Rp1110
ag147
(g28
S'\xac\x98\x06\xe9\x1d\x9c\x15@'
p1111
tp1112
Rp1113
ag147
(g28
S'\xe7d\x08\x0e\xdc\x05\x15@'
p1114
tp1115
Rp1116
ag147
(g28
S'\xf10\xcb\xd4\x04\xf5\x14@'
p1117
tp1118
Rp1119
ag147
(g28
S'\xd1Q.\xbf\x87\xef\x14@'
p1120
tp1121
Rp1122
ag147
(g28
S'\xd2\x00\xb0\xa3\x11m\x14@'
p1123
tp1124
Rp1125
ag147
(g28
S'\x15W5p_l\x14@'
p1126
tp1127
Rp1128
ag147
(g28
S'\xe6a\xcd\xc2\xa5=\x14@'
p1129
tp1130
Rp1131
ag147
(g28
S'\xe2\x9d)\xf3\x89;\x14@'
p1132
tp1133
Rp1134
ag147
(g28
S'o+bIc"\x14@'
p1135
tp1136
Rp1137
ag147
(g28
S'\xb9S\x7f\xf2\x1e"\x14@'
p1138
tp1139
Rp1140
ag147
(g28
S"!('<\xdb\xf8\x13@"
p1141
tp1142
Rp1143
ag147
(g28
S'\xda}j\x8e\xc6\xf8\x13@'
p1144
tp1145
Rp1146
ag147
(g28
S'\x8e\xa7h\xe9I\xf4\x13@'
p1147
tp1148
Rp1149
ag147
(g28
S'\xbb[cj\x1b\xf3\x13@'
p1150
tp1151
Rp1152
ag147
(g28
S'h\x19\xed\xa0\x8d\xed\x13@'
p1153
tp1154
Rp1155
ag147
(g28
S'\x14W\x03\xff\xc9\xec\x13@'
p1156
tp1157
Rp1158
ag147
(g28
S'\np\xc3\xcd\x9b\xdf\x13@'
p1159
tp1160
Rp1161
ag147
(g28
S'\xa1D\xe2+\x18\xdf\x13@'
p1162
tp1163
Rp1164
ag147
(g28
S'\xe4\xa8;\x93L\xd3\x13@'
p1165
tp1166
Rp1167
ag147
(g28
S'\xb8&xa8\xd3\x13@'
p1168
tp1169
Rp1170
ag147
(g28
S'\xb06\xbb\xd6\x1c\xcc\x13@'
p1171
tp1172
Rp1173
ag147
(g28
S"Z\xc7'\xce\xa3\xc7\x13@"
p1174
tp1175
Rp1176
asS'__name__'
p1177
S'TrainCG'
p1178
sS'__doc__'
p1179
S'\n    Newton-CG method\n    Using scipy.optimize.fmin_ncg\n\n    :Support networks:\n        newff (multi-layers perceptron)\n    :Parameters:\n        input: array like (l x net.ci)\n            train input patterns\n        target: array like (l x net.co)\n            train target patterns\n        epochs: int (default 500)\n            Number of train epochs\n        show: int (default 100)\n            Print period\n        goal: float (default 0.01)\n            The goal of train\n        rr float (defaults 0.0)\n            Regularization ratio\n            Must be between {0, 1}\n        \n    '
p1180
sbsS'connect'
p1181
(lp1182
(lp1183
I-1
aa(lp1184
I0
aa(lp1185
I1
aasS'errorf'
p1186
(ineurolab.error
SSE
p1187
(dp1188
bsg65
g18
(g19
(I0
tp1189
g21
tp1190
Rp1191
(I1
(I1
I2
tp1192
g28
I00
S'\x00\x00\x00\x00\x00\x00\xf0\xbf\x00\x00\x00\x00\x00\x00\xf0?'
p1193
tp1194
bsg72
g115
sb.