ccopy_reg
_reconstructor
p0
(cneurolab.core
Net
p1
c__builtin__
object
p2
Ntp3
Rp4
(dp5
S'layers'
p6
(lp7
g0
(cneurolab.layer
Perceptron
p8
g2
Ntp9
Rp10
(dp11
S'initf'
p12
cneurolab.init
initnw
p13
sS'ci'
p14
I36
sS'co'
p15
I14
sS'cn'
p16
I14
sS'inp_minmax'
p17
cnumpy.core.multiarray
_reconstruct
p18
(cnumpy
ndarray
p19
(I0
tp20
S'b'
p21
tp22
Rp23
(I1
(I36
I2
tp24
cnumpy
dtype
p25
(S'f8'
p26
I0
I1
tp27
Rp28
(I3
S'<'
p29
NNNI-1
I-1
I0
tp30
bI00
S'\x00\x00\x00\x00\x00\x00\x00\x00\x00\x00\x00\x00\x00\x00\xf0?\x00\x00\x00\x00\x00\x00\x00\x00\x00\x00\x00\x00\x00\x00\xf0?\x00\x00\x00\x00\x00\x00\x00\x00\x00\x00\x00\x00\x00\x00\xf0?\x00\x00\x00\x00\x00\x00\x00\x00\x00\x00\x00\x00\x00\x00\xf0?\x00\x00\x00\x00\x00\x00\x00\x00\x00\x00\x00\x00\x00\x00\xf0?\x00\x00\x00\x00\x00\x00\x00\x00\x00\x00\x00\x00\x00\x00\xf0?\x00\x00\x00\x00\x00\x00\x00\x00\x00\x00\x00\x00\x00\x00\xf0?\x00\x00\x00\x00\x00\x00\x00\x00\x00\x00\x00\x00\x00\x00\xf0?\x00\x00\x00\x00\x00\x00\x00\x00\x00\x00\x00\x00\x00\x00\xf0?\x00\x00\x00\x00\x00\x00\x00\x00\x00\x00\x00\x00\x00\x00\xf0?\x00\x00\x00\x00\x00\x00\x00\x00\x00\x00\x00\x00\x00\x00\xf0?\x00\x00\x00\x00\x00\x00\x00\x00\x00\x00\x00\x00\x00\x00\xf0?\x00\x00\x00\x00\x00\x00\x00\x00\x00\x00\x00\x00\x00\x00\xf0?\x00\x00\x00\x00\x00\x00\x00\x00\x00\x00\x00\x00\x00\x00\xf0?\x00\x00\x00\x00\x00\x00\x00\x00\x00\x00\x00\x00\x00\x00\xf0?\x00\x00\x00\x00\x00\x00\x00\x00\x00\x00\x00\x00\x00\x00\xf0?\x00\x00\x00\x00\x00\x00\x00\x00\x00\x00\x00\x00\x00\x00\xf0?\x00\x00\x00\x00\x00\x00\x00\x00\x00\x00\x00\x00\x00\x00\xf0?\x00\x00\x00\x00\x00\x00\x00\x00\x00\x00\x00\x00\x00\x00\xf0?\x00\x00\x00\x00\x00\x00\x00\x00\x00\x00\x00\x00\x00\x00\xf0?\x00\x00\x00\x00\x00\x00\x00\x00\x00\x00\x00\x00\x00\x00\xf0?\x00\x00\x00\x00\x00\x00\x00\x00\x00\x00\x00\x00\x00\x00\xf0?\x00\x00\x00\x00\x00\x00\x00\x00\x00\x00\x00\x00\x00\x00\xf0?\x00\x00\x00\x00\x00\x00\x00\x00\x00\x00\x00\x00\x00\x00\xf0?\x00\x00\x00\x00\x00\x00\x00\x00\x00\x00\x00\x00\x00\x00\xf0?\x00\x00\x00\x00\x00\x00\x00\x00\x00\x00\x00\x00\x00\x00\xf0?\x00\x00\x00\x00\x00\x00\x00\x00\x00\x00\x00\x00\x00\x00\xf0?\x00\x00\x00\x00\x00\x00\x00\x00\x00\x00\x00\x00\x00\x00\xf0?\x00\x00\x00\x00\x00\x00\x00\x00\x00\x00\x00\x00\x00\x00\xf0?\x00\x00\x00\x00\x00\x00\x00\x00\x00\x00\x00\x00\x00\x00\xf0?\x00\x00\x00\x00\x00\x00\x00\x00\x00\x00\x00\x00\x00\x00\xf0?\x00\x00\x00\x00\x00\x00\x00\x00\x00\x00\x00\x00\x00\x00\xf0?\x00\x00\x00\x00\x00\x00\x00\x00\x00\x00\x00\x00\x00\x00\xf0?\x00\x00\x00\x00\x00\x00\x00\x00\x00\x00\x00\x00\x00\x00\xf0?\x00\x00\x00\x00\x00\x00\x00\x00\x00\x00\x00\x00\x00\x00\xf0?\x00\x00\x00\x00\x00\x00\x00\x00\x00\x00\x00\x00\x00\x00\xf0?'
p31
tp32
bsS'inp'
p33
g18
(g19
(I0
tp34
g21
tp35
Rp36
(I1
(I36
tp37
g28
I00
S"u\xe3\xdf[GP\xca?\xdb\xb6m\xdb\xb6m\xdb?\xeek\x99,r\x80\xe0?\x7fNX\xc3;\xa3\xc7?\xf9\xf7\xd6\x11\x94f\xd3?U?'\xac\xe1\x9d\xd1?\xf0\xad#(\xcd\xa6\xcb?lxg\xf4R\xfd\xcc?L\xf5s\xc2\x1a\xde\xc9?\xf9\x18\x9c\x8f\xc1\xf9\x98?i6\xdd\xf8\xf7\xd6\xb1?\xd1*0\xf6\x94\x87\xc8?7\xdd\xf8\xf7\xd6\x11\xc4?\xb1\xa7<\xc4\\h\xc5?\xda\x95\xa8]\x89\xda\xd5?\xee\x8c^\xaa\x9f\x13\xd6?_\xcbd\x91\x03\x84\xd4?\xfb\x18\x9c\x8f\xc1\xf9\xa8?\r\xef\x8c^\xaa\x9f\xa3?\x0e\xef\x8c^\xaa\x9f\xc3?\xbb\x12\xb5+Q\xbb\xb2?\x04\x84\x14\xf7\xb5L\xb6?\x0e\xef\x8c^\xaa\x9f\xc3?8\x1f\x83\xf318\xbf?\xbb\x12\xb5+Q\xbb\xb2?\x9e\xd1K\xf5s\xc2\xca?\xa6\x1b\xff\xde:\x82\xd2?\xda\x95\xa8]\x89\xda\xd5?B\x8a\xfbZ&\x8b\xcc?L\xf5s\xc2\x1a\xde\xc9?-r\x80\x90\xe2\xbe\xc6?i6\xdd\xf8\xf7\xd6\xc1?C\x8a\xfbZ&\x8b\x9c?\xc5}-\x93E\x0e\xb0?\xe6B\xab\xc0\xd8S\xae?M\xf5s\xc2\x1a\xde\xb9?"
p38
tp39
bsS's'
p40
g18
(g19
(I0
tp41
g21
tp42
Rp43
(I1
(I14
tp44
g28
I00
S"\\\x0b\xf6`\x17\xd4\xf4?\xf8oD\x07\xe3[\xe2\xbfx\x04\xe7W\xe9,\x14\xc0,e\x9b\xd5\xf9o\xe0\xbf-P\x0f\xb7.\x85\x11\xc0jZ\xebM\xda\xb7\xfe?\x9dh\xc1\x9d-R\x02\xc0\xe5\x08x\xbd\x90\xf5\xf1?\x1a\xda\xb1DZW\x04@\x7f'o:}\xa9\x12@\x19\xbb\x17\x869e\x10\xc0\xbfB\x8d\xd9\x92j\xd6?\xf5\xe0\xe0\xef\x8a\x16\x05@\x90\xda\xfaP\xc0.\x02\xc0"
p45
tp46
bsS'np'
p47
(dp48
g21
g18
(g19
(I0
tp49
g21
tp50
Rp51
(I1
(I14
tp52
g28
I00
S'\x950\xd2\xfd\xf9\x88\xfb?rQs\x15T\x83\xf2\xbf\xf6\xdc)\x1b\xf2\xcf\x19\xc0"\x9e\xfd{Mo\xba\xbf`y\xdba\xb5\x8a\x13\xc0\x160\xcc\xbb\x11\xa9\xf9?\xc7\xddA\x00\xf8\xa1\xf9\xbf\x9fdw\xfc\xe4\xc7\xf3?\x90\xbe\xc6\xf1\xe5\xf8\xfd?&#;\xfb.\x10\x15@X\x19\xde\xdb\xd0\x02\x11\xc0P\x15\x12\x10\x05n\xc7?\xf8\x1e\xc7M\xa2\x06\xb7\xbf^\xa9\xa5\x8a\xa3\x07\xf0\xbf'
p53
tp54
bsS'w'
p55
g18
(g19
(I0
tp56
g21
tp57
Rp58
(I1
(I14
I36
tp59
g28
I00
S'GdM$\xffY\xb8\xbf\xdbB0\x92\xb0\xec\xe5\xbf\xe7\x81\x18\x04W\xbe\xcc\xbf\xd8A\xd1\xe0\x7fZ\xd8\xbf\x0fVW\xde\xd4C\xef?\x9eH}\xc3j3\x94\xbf\xb9\x96?<A\x15\xe1\xbf\xb2\xb6\x1f\\k\x85\xc9\xbf\xc5\x06\xc9)\x87\xf5{\xbf\x95{E\xa1(\xa6\xeb\xbft\xd8\x82 \x0e\xc3\xe2\xbf\xcd\x8c\xf5\xd4\xd9d\xb1\xbfo\x8dgr1\x9c|\xbfp\xfe_\xc05]V?\xb2v\xb7\xaa\xf5\x1f\xf0\xbfS\x8doE\xf3G\xaa?_4\xc9\\\xb5\xc3\xe5?/E\x10\xf4gg\xf2\xbf\x99\xf0\xb0N@\xbc\xee?\xdc\xb9\x19\xc0\xd8r\xf2?\x81(\x81i\x03X\xd6?\xb0\x91)r\xe4K\xde?\x02\x0f&i\x00T\xe2?\xc8\xbe\x1b\xfe\xbe\xd7\xe7\xbfw ~\xc1&-\xec\xbf\xeaJ\x96\xbb\x12\xca\xc9?\x10\x07u-\x1b\xb7\xe2\xbf\x8cr\xceM}\xab\xc4\xbf\x7f\x90;\xf1/\xa5\xa1\xbf\x04F\xb9\xaf\x16\xc7\xbd?\x13\xc7n\x99\x95\x10\xc3\xbf\xb9\x1dkG\xa7\x86\xdc?>\xbf\xba\x02a3\xe4?Xr6\x08h\xe1\xe3?\xd8\x93\x8fcH\x00\xd6\xbf\xce%\xbf\x07\xee)\xe7?<1\xc0\xa8\xb4\xc2\xe0?\x9cy\xee\x1e\x15\xaa\xe1?\xa73\xd5>\xa2\x9c\xcf\xbf\xf1\xf4[\x828Q\xc2?\xd5\x8f\xd2~\x80\xcd\xda?\xe3\x00\n\xf8E\x16\x91\xbf\xae\x1dCs\xe1A\xd3?\x0c\x836\x1d\xfb\xe4\xe3?\xa9\xe8\x19\xb0\xa8\x88\xd3\xbf\x1a\x07\x08\rD \xe0\xbfN\xfd\x11bp\xe9\xd3?j\x88J\x9c\xdez\xc1\xbfF\xbb\x02S\x9dL\xd6?K\x90/$>\n\xf1?\xd7\xfa\x00\xc6\xbfu\xeb?L=\xcd\x1c\x92\x86\xdb?,A{\x08\x1b\x95\xb5?H\x00\xedQc)\xcd\xbf\x12[\xebJ,\xe0\xd3\xbf\x97XC#\xad\x9d\xec\xbf\xe3\xd9g\xf2\xabE\xdb\xbfMGJm\xf0\xe5\xa1\xbf\x97\xc6x,\x88\x01\xe9?p\x05\x98&\x14H\xc4?\x90\xa8\x98\x12\xc1\xe1\xf1\xbfp\xcb\xa2\xdd\x81\xc1\xe2\xbf\xa0\xe5\xf56E@\xe2?3\xeb\xa2\xa7m2\xb8\xbf\xeb\x9a\xd9\x8d]\x92\xe4\xbfF\xf1\xd2\xe3\xb3\x89\xd4\xbf\x9a\xf0L\xa6\xd8\xce\xbc\xbf\xa4O\xc7\xb1[\xb6\xf4\xbf\xae\xbal5\xe9\x05\x99\xbf\xa6\xfb\xda\xc7\x18U\xe6?\xfd&\x9a3\xab\x16\xaa\xbfV\xd1\xb9\xf6~F\xf2\xbf\x01,\x94\x1b\x03\x93\xe9?\xe14\xf9\xa8\xa1\x99\xe0\xbf\'\xfb!Up=\xec?E\xd4\x96\xdc\xe0\xe6\xe2?h\x16\xa1\xa62\xff\xc4?\x8d\x83\xd9\xa0 #\xe1\xbf4NG\x84$z\xbd?\xfdM\xa6\x906W\xc7\xbfJ\xfd\x1a\xb8U\x86\xea?\xea|\xb9iE\x16\xe6?\xbe~m\xbf\x7f\x9f\xcc\xbf\x07\xa3q\xb5\x834\xbc\xbf\x08\n\xaa\x17?\xc8\xe0\xbf\xdeAcpf\x03\x94\xbfm)\xe9\x9f(&\xe1?\xa7*aA5B\xc5?\xf9\xb0\xb3\x94/|\xeb?\xfes\xaf\x10\xdc\x00\xc0\xbf\x99\x1b\x82\x0b\xe5\x84\xdf\xbfv\xe3\xbd\xa4\x90\xcc\xe2?\xff92\xbb\xa7Y\xd7?\x0bSsc\x7fv\xc9?\xa4A\xbc<fO\xb5?\xff\x14\x03/}j\xdb\xbfG\xach\xb4|y\xe6?\x1f\x0e\xb6\xf6f\xb1\xd9\xbf6at\xdc\xd3\x87\xb1\xbf\x0e\xdc\xa1_5\x92\xec?\x8e\xda\xeazH@\xd8?\x95\xcb^\x9f\x80\xdf\xb6??\x8a\xbd\xd1\xb5M\xe1\xbf\xd3\x94\x9b\x0c\xb4\x18\xe5?\x7f\xedFl @\xd5?k\x93c\xcb\x0eS\xc6\xbfl\x836\xabT8\xe4\xbfL@0\t8_\xe2?\x08+\x9f\xb1t^\xd6\xbf\x93\x9a\x91\xc4H\x8b\xf1\xbf$\x9d;\xac\x95\xc8\xed\xbf\xaa\xc1L\xe6\xbdh\xf2\xbf\xce"\xe5\xb9aC\xde\xbf\xbcAH\xcaOR\xcb\xbf\xf3.5\xd5\xec=\xd3\xbf\x1c\x00\xc1\x8e=2\xe9?\xfa\xfe\x91\xc7\xf7\x7f\xcb?5\xfb\xc4\x99Yl\xe7?n\xfc\x13\x1fBw\xa6\xbf\x99\xf0\x82\x07U\xc3\xd6?\x0fF\xfc\xaf\x13\xeb\xdb?\xf57\xf4\x8b\x99\xde\xde?\xab{\xe8\x8a\x04\xc4\xf2?u\xf4\x16\x9fB\xa0\xdc?a\xc3YQXm\xe5?\x90\xcbP\x18\xcbX\xf3\xbf+\x15I\xaar<\xcb\xbf\x94\x9c\xfb5X1\xe9\xbf\xb9 \xa1\x1f\xde5\xc7\xbf\tc\xf1ga\xfa\xd4\xbf\x90\x90\xd2\x8e\x8e!\xf5?A\x0ca}a\x11\xb6\xbf\x16\xfa\x0e\xcfd\x7f\xd4\xbf?\xbc\xc8\x87.\xc3\xcb\xbf6\x08\xec\x0cS\xd4\xbe\xbf\xd0\x9e2\x91%\xf0\xd4\xbf\xf22\xfcW\xb6\xba\xc6?\xf2\xb0BJ\t\xd8\xcc?\x0f\x15\x8d\xb0h\xbc\xef\xbf\xc5Kv^\\\xa2\xec?H\xd3\xf3~,\x81\xe6?\xa59\xb2{$\x81\xa0?1\xe673\r\xdd\xd4?\xf3\xbd\xce\xd8\x8c7\xdd?\xd3\xffg\xe2\xa8\xad\xde?\xf3\xdb\x11\xe4M\x84\xd7?f,Qb\x14\xec\xdf\xbf\x06\xe3E\xcee\x94\xb7\xbf\xb2\x07\xd4\xdc\x83\xc8\xe3\xbf\xa7L)\x17Ia\xf0?\xf8"\\\x17\x93\xd7\xe0\xbf\xa2!\xa8\x8c\xa7\x89\xf1?\xbe\xe2q\\\xc5\xe9\xca\xbf;\xee\xbe\x0cZ\xaf\xc3\xbf\xe1\xedq\xdc!<\xc6?\x0fP)r\x86]\xd1?\x9eU\xd3EK\xa8\xb7?KR$\x14\x9a\x13\xe2?\xab\xdcp\xc6\xaba\xe8\xbf\x08r \xd2I\x8e\xdc\xbfzv\x7f\xb2\x07\xb3\xc8\xbf\xa0\x91\xf9\xfa\xfb\x12\xd2?\x98%{0k\x93\xd6\xbf4\xa0)\x99%W\xcf?\\\x05Iq\xfd\xf3\xda?\xe7xYi\x07z\xd1?\x1ex\xafv\x90\xfb\xe3\xbfM\xe6\xb5O\x15\xd6\xdc\xbf\xfb-B\x96}\x84\xe5?Pm\xc7\xae\x89\x9b\xe6?\x93\x8e\xbd\x02\xdb\xc1\xdc\xbf3\x99\x9a\xb2\xc6\xf1\xeb?\xdb\xdf\x05\xec\x9d^\xc9?\xb9f\x80\x89.&\xb6?"\x83a\xa9\xd2>\xe5?%\x85\rC\xcd\xc9\xc5?\xc0\xc7r\xdeO\xd5\xe4?\xb0"\xd1\xe2P-\xe5?E\xcfRB\xd0\x04\xd3?\x02\xf2\xfc\xd6\x03\xd2\xe1?~\xd2\xecG\xda\xcd\xdb?\r\xbb\xac\xaam\xb0\xdf\xbfx \x00.<\x0f\xe7\xbf\x99\xb5\xfa\xd3v\xf0\xd3?\x05h*\t\xc0O\xe7?S.K\x96.\xfa\xe3?\x9f?d\xf58\xa7\xfa?\x8e_Z\xcd\xea\xb9\xe3?!\xa6\x0e\xc6\x96J\xc1?\xa4\xb0d\xd2\xbb\xf4\xf9?\xfe\xed\x1a2\xee\xdc\xf2?S\xf1\xb9\xc4c&\xfc?\xd1|^T\xde\xd5\xe9?LE\x95\xc22\x85\xe3?\x1c\xa6\xf2\xf6\xb9\xfa\xf0\xbf0O\xa4phv\xe2\xbf\x02\x99[\xc4\x9d\x99\xcd\xbf(\x9f\x08,\x8d\xe2\xdf?\xbdNuj\x92\xde\xdf?\x0b\x87\xd8\x9f^\x0e\xf4?\xce\xb8\xb7\xc1\xae,\xef?\xc5~Wk\xa2\x9f\xe6?X7\xf7\x04;\xfe\xd5\xbf\xdceE\xe27\x98\xed\xbf\xd1\x98\x81\x1f\xe2\xac\xe8\xbf\xdb\xe4<\xc6t\xc5\xe6\xbf\xb3\xb74\x01\x94j\xe2?T\x18\x9d|L\xb9\xe0\xbf7\xc0\xba\xec\x04j\xbb?[\xc8\xb9/\xbd\xb4\xd6\xbf\xb2\xf8\xcb\t\xc7\xb1\xd3\xbfO\xca\xbd\x05\x87\xc3\xe8?\xd3\xa8z\x14\xc9\xc5\xf0\xbf\x9a\xf0+5\xa1@\xe1\xbf\xc0\xba\xb2]C\xb6\xe6\xbfX\xb1;\xe7\xcc\x87\xf0\xbf*\xa6\xca\xd5\xb0\xca\xf8?\xfd&WQ\x8c2\xcb?\x9d\x04\xfbK\xeap{?\xf9j4\xdc\x9cP\xc4?))\x84\x12;\xc5\xd2\xbf\x1bRc\x9d\xc02\xb7\xbfq\xd5\x88\x9d\x93\x93\xe7?\xdd\xe5\xb6_\x16P\xbf\xbf$\xd4\xe0\xe7\xb6\x9c\xe5\xbf\x10\xdd\t\xab\xa2!\xb6?$\x16F\x94\x94\xae\xcf\xbf|\xd5\xa5k\xdf,\xeb?b\xdfO\xe4\xc9\t\xcf\xbf\xdc4>\xbbP\xd0\xda\xbf\xf7\xee\x97\x96\xdf\x80\xf2\xbf\x03\r\x99)\xb31\xe4\xbf\x88\xd4\xd6}\x04\xb6\xdd\xbf\x81\\\x1f@S\x95\xea\xbf\xe8\xae\xfe\x19\xde\xac\xb9\xbf\x15\xc1\xda\xfa\xb0\xa7\xe8?\xffw1\x1e\xf5\x15\xd1\xbf8)\x1a0\x0fJ\xe1?\xe7\xccos,G\xde\xbf\x8dz\xd5g\xe3\x03\x90?\xff\x0fs\xbd7\x83\x97?\x1b<\xa0\xda\xf45\xee\xbfc6C\xf5\xd3\x84\xd3?j\xe3\xbf\xb8\x1b\x9f\xe5\xbf\xe3\x83\xee\x0f\x94\xe5\xea\xbf\xab\x17\x97]\x89\xcf\xc6?\x12I\xd7\xfe\x07\x95\xcb?\x81\xa7c&\x8dy\xe1?n\xbfse\x80\x8d\xdb?\xaf\xce.:d\x8e\xd5?\xf7\'7\xb9\x907\xe3?\x99>\xaa\xb4[\x82\xc1\xbf\x85\xb4y\x10\x1a\xf3\x81?GJ\x01\xefNP\xe4?\xba\xb6\xf9\xa1\x8f\x90\xe8?_I\xa9y\xf3\x0b\x8f?u\xf7\xbd\xb1\x1c\xb9\xe9?\x08y\xa1\x16\x9cI\xe2?7\xf0\xa4\xda\x15\xbf\xe6\xbfA\xbd~r\x14s\xe5\xbf\x04I\x9dB=\x85\xb1?>\xcc0\xbeH\xc6\xf1\xbf\xae\xa2\xfc\xbeY\xb2\xd0\xbfpOr\x07\x003\xa7\xbf\xa9\xf8L\xe0\nF\xd9\xbf\xe7\xae\x04\xf43\x90\xf2\xbf\x06\xa5\xf3\x19%S\xde\xbf\r\xeb#8\x96\x87\xe6?s/I}l\x9f\xdf\xbf\t\x13\xae\xed\xf8)\xf4\xbf\x07-\x7f;\x06\xb4\xb2?\xcc\x94\x8b\xde\x13\xa0\xbd?2c\xa7\xcf\xac\xe8\xe4\xbf/+\x0cy\xfd\\\xd0?\x9e\xd66Y\x9b\xa5\xe0?\x94\x1c]\xfa\x88\x0e\xaf\xbf\x93\xcb@\x97\xfbS\xe2\xbf\'\x18Q\x92,G\xcf\xbf\xe8\x7fz\xb5\x1b\xfe\xa6\xbf\xcb\x8a\x1f\xedM\xa7\xe8\xbf\xa5)\x9a\x9aJ!\xe3\xbfg\xf5q<l\r\xb2\xbfj\x9clI\xabU\xe7?\xf9\xf0\rz\x006\xdd\xbfjp\xbb\xe6\x84\x1c\xe1?U\x89\xda\x037\xa2\xd4?\x80&\xb4\n\xc8\xd3\xe1\xbf\t\xd6!\xe3\xe5\xe1\xe4\xbf_\x11\xcd\x90\x0f\xaf\xde\xbf\x938\\V\xd0\xdb\xe3\xbfvr\'g\xff\xad\xca?Z\x9ez\xd6w\xe4\xe9?\xb73\xe5\xaf\\\x85\xef?_\xccq\xfblS\xeb?\xce\x19\n\xb3\x84?\xe4?Pe\xfb\xd1u\xbe\xc8?\xce\xaa\x9d\xa6\xcb\xe5\xe2\xbf}.\xc6\xa8\x03\xdf\xc8\xbf\x88gU\xeb\x1cB\xe2?#Y!{Z\xb6\xe6?\xc5l\x9a\x07q\xc6\x98?Q+\x92V\x8c0\xe9\xbf\x00,-k\x18\xca\xee\xbfg\x93\xb8\x00f\xb2\xf0?\x07\xc2\x98\xb2)\xac\xd0?\xfd\x14\xf8Y\xe0\xe1\xe8\xbfD\x903(u\xc2\xf1\xbf\x03\x0c\xc4]\xd7+\xac?\xb9eo\x86G\xcd\xd8\xbf\x7f\x12-,\x07\xf9\xe0?-\xe2\xa3\x13\x95I\xe6?9\xdc\x04,uW\xc1\xbf\xf3\r\xf1\xf8O\xfe\xaa\xbf\xe1\x1d]\xf6Yc\xe4\xbfT1\xb1T\t\x0c\xd3\xbft\xf4\xfc/\xaei\xc0\xbf?\xb0\x17a\x9b\x94\xc6?\xf4\xd2i\xdd\xa4l\xd3?\x16\xafe\x93<\xc6\xe7?[I\x81\xacM0\xda?)p:T7\xb8\xd6\xbf\xf2\'UF\x1d;\xe5\xbfv\x11tV\xcb7\xca\xbf\xa71\x08[\xc7G\xd2?\xb7jP\xe6&\x1f\xe3?\x03\x1a\xec\x1fam\xdc\xbf\x10s\x80\xc4D[\xba\xbfS\x9cM}\xe6\xb7\xe5?\xfeW\xb5f\xd3\xd6\xe5?\xa4\x1e\xbbChh\xd8\xbf?.\x1a\x13V\x07\x99?\xcd\xb3f\x16\xb9O\xc4?\x84\xa4Q\x88S\x0b\xc7?\x1bS\x1cj:q\xd4\xbf\xc0\xdcB\xa7\x98\x8c\xe2?\x8a\xae\x01\xb3c5\xde\xbf(.\x87\xb3X\xa8\xde\xbf$p\xb1w\xb5B\xea\xbfe\xfbi\x1e\'\xb2\xa8\xbfq\x19\xb0s\xdd{\x93\xbf\x9fn\xcfH\x92\xed\xe4\xbf\xa1\xaf\xdct\xfa\xf2\xe8\xbfg\xc0\xe3\x1a*w\xe2?\xcauT\xe0\x9c!\xe3\xbf\x87_3\xcc\x10&\xe2\xbfQ\xb4\xff\xa7<\xc8\xb4?:\x88\xf0\xed\xa1\xf2\xe1\xbf\x84_P5\x8a\xd7\xda\xbf\xff\x10/\x01)~\xe3\xbfsw\x18\x92\xe7u\xe0\xbfr\x93\x0b|\x03\xff\xcf?\xa2\xa8G\xf9\xb6\xfd\xe1?<\xfeF/\xe2{\xe9\xbf\x92\xaez\xce\x87\xc1\xe1?\xea~dx\x8e\xc6\xc0?\xb1d\x99\x96n\xcb\xe6\xbf\x8b\xa3\xdbrP\xdd\xd0\xbf\xda\x9c\xbf8\xf6\xcf\xc7\xbf\xdbkF\xd4+\xdb\xd5\xbf\x7f\xa4\x90\x074\xe9\xe4?\xdb\xc7Wd%N\xd3\xbf\xfa\xe9]\xa2:\x1c\xa1?\x89\xce\xa5\xcc\n\xfdu\xbf\xab\x88\xb3!K\x18\xe8\xbf\xd2v2\x16\xfaO\xd7?\x05\xfe:<G*\xb0?YZ\xac\xca\x11^\xe6?\xd7\xc0\x8bEO\x90\xc2?`\xef\x01O,\xa6\xde\xbf\xb3\xdf%\xd9j\x99\xc3?\\\x92B)\xa8\x96\x88?T\x9dt\x16\xc4\xee\xdc?%\xe4d6\xa5\x03\xb0?#C\xe1\\bq\xea?\x88s,d\xf2\x90\xc7?\t\xcbk\x00,>\xd5?\xb4S_\xa9\x87.\xea\xbfF\xb9\xc7\xee\x99+\x91\xbf\xec\xdc\x9dS+Q\xe0\xbf\x91\x95\xc5f\xa2\xd2\xc8?\x1a\x82\xf0ag\xaf\xe2?\xd6PW\xf6\xe1\xe8\xe0?\xdd\xbd\xb1\xc3\xd0\x0e\xe0\xbfhF\xd3 .k\xe4?\x11\x17\xb8\xb3\xdb\xeb\xd0?Y\x85\xed\xd5\xcb\x0f\xc6?\x1e\xd2V\xb3\x16\x17\xe7?\x1fO\x06\x92D#\xe5\xbf\xed\xc7\x9c\xd8\xea\x8b\xec\xbf!\xb0\xc7\xc6\x82\x9f\xbf?\xa2W\xf3\x8b\x7f\xd7\xdf\xbf\x801\xd8\xed\xde\x97\xe5?\x1bj`\x0f-\x8b\xe3\xbf\x05\x132\x91\xfd\xdf\xdc\xbf1=1cs\xd5\xd4\xbfc\x12\x82\xb65\x0f\xe6?\xcb\x8e\xfb\x0b\xa1\xb5\xdb?\xb7\xc4\xa1~_\xc4\xb3\xbf(8\xce\xcb\xc2\x98\xd3\xbf\x90\xfa\x94#\x8bA\xf1?\xe3\x97\xb4D\xe9\xf6\xf0?\xaeZ\xa0)\xf7\xfe\xe6\xbf"\xf9\x91\xb1K\xb0\xe4\xbf \xc9n\\\xec%\xdb?!ip)*3\xe3\xbf\xc0F\xfc\xf1\x94\xfe\xc3\xbf\xc8\x80\xd9\xf1\xfa\xe9\xe8\xbf\xf7v7Y\xfe\xa9\xb6?\x15^\x9do;\x87\xbd?T\x84\x9a\x95z\xa3\xec?\x8fe\xc4\xf8\x80_\xf0\xbf\xe0\xe5\x0b\x83V5\xc9?\xfa\xb5P\x9b\x19\xb6\xe0?\xffpz857\x90?\x00$d\x9b(Q\xc1\xbf^z\xb9\xc7aa\xd2?6\xbe\xa5n\x81 \xde?\x1au9\xf0=\xc4\xe0?X\xc2\xdc\xf2\xc2\x08\xb4\xbf=\xde\x9b\xaf\x97c\xf4\xbf\xbb\xe8\x81\xf4>\xca\xfc\xbfd\x942\xe5\xba\xd4\xf2\xbf\xf6\xf6+\xce\xf9\x07\xb0\xbf\xf0\x9dg\x98(\xce\xd5?\xebr\x80"\x88\xa7\xcb?\xc3\x00\x00BJ\xd9\xf3?v\xf3\xdaE\xabr\xdb\xbf>\x05?\xfe\xb1\xcc\xca\xbf\xc3\xff\xf0\x1du\xa3\xd4?>\x9b\x8dL\xf7\x02\xf2?:m\x16\x8e)e\xcf?\xc4\x0f\x9e\xcd\x14\xe5\xf5?\xa7ce\x0b\xd9\xb6\xcb?\xff\'\xeaJ l\xe9?\xe4D\xc6J Y\xf7?\x12\xb4Y\xb99\xe5\xf0?\x07\x19\xbdA/\x1c\xe2\xbf}\x93,\xf5_\xcc\xc6?\xcd\xb9\xed\x18\xbb\xee\xef?\x86\x82\xa0j\xb0`\xdb?\xbd\nd\xeb\x15\n\xe5?\xe9\x00\xa1d"\xcb\xdd?<\xfa\x80\xc1i}\xed?\x00\tZ\t,3\xbf?\x08\xef\xf8\xe6\xf3\x17\xea?-\xa0\xbb\x08t\x0b\xa4\xbf\n:\xf2N\x90\xe1\xd2?QI\xec\xbf\xb4x\xd3?zu\xf6A\x13\xc8\xf3?\xf8C\xe6M\xea2\xf0?y \xdb7}r\x95\xbf\xfaJ\xf0\x08\xf4\xe9\xe8\xbf\xa9\x0b\x85\t\x13\x94\xed\xbf~Q\xe7\xfa\xbc\xc1\xd6\xbfF\x18\xff\xe0\r\x03\xdc?\x0e5\xdf\x7f\xafe\xe8?\xd1e\xef\xd2\xba\x9e\xde?\x16\xe1\xaaiZ\xda\xeb?\xb51\xfd|!J\xda?\xa6+_\xef\x91b\xd4?:y\xa4\xf1\xfc\x0f\xd2\xbf\x06\x90W\xe9\xdc\x8a\xe0\xbf\xbf\xca\td?\x9f\xe1\xbf\x8b\xb9\xd4\xf0I\x8d\xb8\xbf\xa3\x85k\xa2zl\xe8\xbf\x07\xa1\xff\x91}\xc9\xe0\xbf\x1e\xf5\xa9\xd7\xfe\xd6\xed?K$WL\xf1\xbd\xec?,\xde\xfb\x0fLI\xd2?\x9c\xf7\xee\xc48\x96\xf0\xbf\x16\xb1\xa7\xd7C\xac\xf3\xbf\x04\xa2\xf9\x8a\x1c\xf7\xec\xbf\xdff\xedbu\xf5l\xbfJ\xc4\x92\xdd\x89\xa3\xe2?\xf5#\x89\xa7\x07k\xf7?4\xae\x8e\x17\x96\xa9\xea?\x9b\xadl\x9d\x82\xe6\xe4\xbfz\x1a\n\x9fiM\xbe\xbf\xf4E\xcb \xf1\xa1\xde?\xd3\x0e\x0492\x99\xcd?n&Z\x87]i\xdb\xbf\xffi_\x99\xfaG\xe4?~N\x94A\x05(\xcb\xbf\xfaYunU\xb4\xea\xbf\xc4\x04\x14\x99f}\xc8?\xd1\x95M\xeb.\x95\xcd\xbf\xcf\xfaB3\xc4\xa9\xd9\xbf]\x85~\xa2\xbf\xf8\xe2?\x1b\x91\xb5.\xd9\xdc\xbe?\xa4\xeb\x13\xa5\xcd$\xca?\x02\x8d\x9b\x9a\xf44\xdb\xbf\xa8\xc5+\xc6\x16\xb4\xd2\xbf\x13W\xed\xe2\xc6m\xf2?\xf7!\xd7-\x92\xae\xd1?;\xf2\xee@\x06\x9e\xdf\xbf \xc9.\'lz\xcf\xbf1,\x95\xb2\xa4#\xdd\xbf\r!*\xcb\x9e\'\xf6\xbfQ{jl\xd2\x7f\xd0?g\t\xcb\x14Q\xbd\xe1?SB\xb3\xbb\x00T\xb1\xbfJE\xdd+\xeb0\xe4\xbf\xa3*\xdeB\x16\xb4\xcb\xbf\xc8\x04\t`/\xfe\xcd\xbf'
p60
tp61
bssS'transf'
p62
(ineurolab.trans
TanSig
p63
(dp64
bsS'out_minmax'
p65
g18
(g19
(I0
tp66
g21
tp67
Rp68
(I1
(I14
I2
tp69
g28
I00
S'\x00\x00\x00\x00\x00\x00\xf0\xbf\x00\x00\x00\x00\x00\x00\xf0?\x00\x00\x00\x00\x00\x00\xf0\xbf\x00\x00\x00\x00\x00\x00\xf0?\x00\x00\x00\x00\x00\x00\xf0\xbf\x00\x00\x00\x00\x00\x00\xf0?\x00\x00\x00\x00\x00\x00\xf0\xbf\x00\x00\x00\x00\x00\x00\xf0?\x00\x00\x00\x00\x00\x00\xf0\xbf\x00\x00\x00\x00\x00\x00\xf0?\x00\x00\x00\x00\x00\x00\xf0\xbf\x00\x00\x00\x00\x00\x00\xf0?\x00\x00\x00\x00\x00\x00\xf0\xbf\x00\x00\x00\x00\x00\x00\xf0?\x00\x00\x00\x00\x00\x00\xf0\xbf\x00\x00\x00\x00\x00\x00\xf0?\x00\x00\x00\x00\x00\x00\xf0\xbf\x00\x00\x00\x00\x00\x00\xf0?\x00\x00\x00\x00\x00\x00\xf0\xbf\x00\x00\x00\x00\x00\x00\xf0?\x00\x00\x00\x00\x00\x00\xf0\xbf\x00\x00\x00\x00\x00\x00\xf0?\x00\x00\x00\x00\x00\x00\xf0\xbf\x00\x00\x00\x00\x00\x00\xf0?\x00\x00\x00\x00\x00\x00\xf0\xbf\x00\x00\x00\x00\x00\x00\xf0?\x00\x00\x00\x00\x00\x00\xf0\xbf\x00\x00\x00\x00\x00\x00\xf0?'
p70
tp71
bsS'out'
p72
g18
(g19
(I0
tp73
g21
tp74
Rp75
(I1
(I14
tp76
g28
I00
S'<\xc0A\x03\xfc\x96\xeb?8\xe0\xe3\x01$\x94\xe0\xbf\xfd\xc0\xec\x93Q\xff\xef\xbf)\xaf\xe4hVB\xde\xbf\xe20h)n\xfd\xef\xbf\xed9\x05{.\xa7\xee?\x81 p\x14\xbbY\xef\xbfW\xe1\xf06\x94\xde\xe9?\xa5\x03qjA\x9b\xef?\x82\xfe\x10J\x8c\xfe\xef?\xc2\xb4\x95\xb0}\xfb\xef\xbf{\xb2&\xc4\xe0\x8a\xd5?s\xb66\x81S\xac\xef?\xb2\x98Kq\xf0S\xef\xbf'
p77
tp78
bsbag0
(g8
g2
Ntp79
Rp80
(dp81
g12
g13
sg14
I14
sg15
I1
sg16
I1
sg17
g18
(g19
(I0
tp82
g21
tp83
Rp84
(I1
(I14
I2
tp85
g28
I00
S'\x00\x00\x00\x00\x00\x00\xf0\xbf\x00\x00\x00\x00\x00\x00\xf0?\x00\x00\x00\x00\x00\x00\xf0\xbf\x00\x00\x00\x00\x00\x00\xf0?\x00\x00\x00\x00\x00\x00\xf0\xbf\x00\x00\x00\x00\x00\x00\xf0?\x00\x00\x00\x00\x00\x00\xf0\xbf\x00\x00\x00\x00\x00\x00\xf0?\x00\x00\x00\x00\x00\x00\xf0\xbf\x00\x00\x00\x00\x00\x00\xf0?\x00\x00\x00\x00\x00\x00\xf0\xbf\x00\x00\x00\x00\x00\x00\xf0?\x00\x00\x00\x00\x00\x00\xf0\xbf\x00\x00\x00\x00\x00\x00\xf0?\x00\x00\x00\x00\x00\x00\xf0\xbf\x00\x00\x00\x00\x00\x00\xf0?\x00\x00\x00\x00\x00\x00\xf0\xbf\x00\x00\x00\x00\x00\x00\xf0?\x00\x00\x00\x00\x00\x00\xf0\xbf\x00\x00\x00\x00\x00\x00\xf0?\x00\x00\x00\x00\x00\x00\xf0\xbf\x00\x00\x00\x00\x00\x00\xf0?\x00\x00\x00\x00\x00\x00\xf0\xbf\x00\x00\x00\x00\x00\x00\xf0?\x00\x00\x00\x00\x00\x00\xf0\xbf\x00\x00\x00\x00\x00\x00\xf0?\x00\x00\x00\x00\x00\x00\xf0\xbf\x00\x00\x00\x00\x00\x00\xf0?'
p86
tp87
bsg33
g75
sg40
g18
(g19
(I0
tp88
g21
tp89
Rp90
(I1
(I1
tp91
g28
I00
S"'\xbf|\xd09\x10\xd0?"
p92
tp93
bsg47
(dp94
g21
g18
(g19
(I0
tp95
g21
tp96
Rp97
(I1
(I1
tp98
g28
I00
S'\xf9<\xedc\xe2\x0b\xdb?'
p99
tp100
bsg55
g18
(g19
(I0
tp101
g21
tp102
Rp103
(I1
(I1
I14
tp104
g28
I00
S"\xad%MZ\x9fX\xeb?\x81SC\xa9&_\xe0?\x1a\xd6\xaf\xb7\n\xce\xcd\xbf\nG\xdf8_1\xc6\xbf,N\x93a\xa9\xec\xc4?l\xe4\xd01~\xbd\xf9\xbfL\xdfU\xa5\xeb\xe6\xe5?\xf4\xe4\xe2\xa1\x93\x13\xd9\xbf\x8a\x1d\x93k\xc7\xee\xf7?\xa7KcF\\\xcf\xce?'\x80\xef~0\xd8\xea\xbfx:\xe7Z\xcf\xa4\xd3\xbf\x83\x87\xf3\x9b\xc1\xa6\xf7\xbf\xb6\x9c\xd7\xfe\xebM\xe8\xbf"
p105
tp106
bssg62
g63
sg65
g18
(g19
(I0
tp107
g21
tp108
Rp109
(I1
(I1
I2
tp110
g28
I00
S'\x00\x00\x00\x00\x00\x00\xf0\xbf\x00\x00\x00\x00\x00\x00\xf0?'
p111
tp112
bsg72
g18
(g19
(I0
tp113
g21
tp114
Rp115
(I1
(I1
tp116
g28
I00
S'\x17S\x88\x0c\xfew\xcf?'
p117
tp118
bsbasg14
I36
sg15
I1
sg17
g18
(g19
(I0
tp119
g21
tp120
Rp121
(I1
(I36
I2
tp122
g28
I00
S'\x00\x00\x00\x00\x00\x00\x00\x00\x00\x00\x00\x00\x00\x00\xf0?\x00\x00\x00\x00\x00\x00\x00\x00\x00\x00\x00\x00\x00\x00\xf0?\x00\x00\x00\x00\x00\x00\x00\x00\x00\x00\x00\x00\x00\x00\xf0?\x00\x00\x00\x00\x00\x00\x00\x00\x00\x00\x00\x00\x00\x00\xf0?\x00\x00\x00\x00\x00\x00\x00\x00\x00\x00\x00\x00\x00\x00\xf0?\x00\x00\x00\x00\x00\x00\x00\x00\x00\x00\x00\x00\x00\x00\xf0?\x00\x00\x00\x00\x00\x00\x00\x00\x00\x00\x00\x00\x00\x00\xf0?\x00\x00\x00\x00\x00\x00\x00\x00\x00\x00\x00\x00\x00\x00\xf0?\x00\x00\x00\x00\x00\x00\x00\x00\x00\x00\x00\x00\x00\x00\xf0?\x00\x00\x00\x00\x00\x00\x00\x00\x00\x00\x00\x00\x00\x00\xf0?\x00\x00\x00\x00\x00\x00\x00\x00\x00\x00\x00\x00\x00\x00\xf0?\x00\x00\x00\x00\x00\x00\x00\x00\x00\x00\x00\x00\x00\x00\xf0?\x00\x00\x00\x00\x00\x00\x00\x00\x00\x00\x00\x00\x00\x00\xf0?\x00\x00\x00\x00\x00\x00\x00\x00\x00\x00\x00\x00\x00\x00\xf0?\x00\x00\x00\x00\x00\x00\x00\x00\x00\x00\x00\x00\x00\x00\xf0?\x00\x00\x00\x00\x00\x00\x00\x00\x00\x00\x00\x00\x00\x00\xf0?\x00\x00\x00\x00\x00\x00\x00\x00\x00\x00\x00\x00\x00\x00\xf0?\x00\x00\x00\x00\x00\x00\x00\x00\x00\x00\x00\x00\x00\x00\xf0?\x00\x00\x00\x00\x00\x00\x00\x00\x00\x00\x00\x00\x00\x00\xf0?\x00\x00\x00\x00\x00\x00\x00\x00\x00\x00\x00\x00\x00\x00\xf0?\x00\x00\x00\x00\x00\x00\x00\x00\x00\x00\x00\x00\x00\x00\xf0?\x00\x00\x00\x00\x00\x00\x00\x00\x00\x00\x00\x00\x00\x00\xf0?\x00\x00\x00\x00\x00\x00\x00\x00\x00\x00\x00\x00\x00\x00\xf0?\x00\x00\x00\x00\x00\x00\x00\x00\x00\x00\x00\x00\x00\x00\xf0?\x00\x00\x00\x00\x00\x00\x00\x00\x00\x00\x00\x00\x00\x00\xf0?\x00\x00\x00\x00\x00\x00\x00\x00\x00\x00\x00\x00\x00\x00\xf0?\x00\x00\x00\x00\x00\x00\x00\x00\x00\x00\x00\x00\x00\x00\xf0?\x00\x00\x00\x00\x00\x00\x00\x00\x00\x00\x00\x00\x00\x00\xf0?\x00\x00\x00\x00\x00\x00\x00\x00\x00\x00\x00\x00\x00\x00\xf0?\x00\x00\x00\x00\x00\x00\x00\x00\x00\x00\x00\x00\x00\x00\xf0?\x00\x00\x00\x00\x00\x00\x00\x00\x00\x00\x00\x00\x00\x00\xf0?\x00\x00\x00\x00\x00\x00\x00\x00\x00\x00\x00\x00\x00\x00\xf0?\x00\x00\x00\x00\x00\x00\x00\x00\x00\x00\x00\x00\x00\x00\xf0?\x00\x00\x00\x00\x00\x00\x00\x00\x00\x00\x00\x00\x00\x00\xf0?\x00\x00\x00\x00\x00\x00\x00\x00\x00\x00\x00\x00\x00\x00\xf0?\x00\x00\x00\x00\x00\x00\x00\x00\x00\x00\x00\x00\x00\x00\xf0?'
p123
tp124
bsg33
g36
sS'trainf'
p125
g0
(cneurolab.core
Trainer
p126
g2
Ntp127
Rp128
(dp129
S'_train_class'
p130
cneurolab.train.spo
TrainCG
p131
sS'__module__'
p132
S'neurolab.train.spo'
p133
sS'params'
p134
(dp135
S'epochs'
p136
I20000
sS'train'
p137
(dp138
S'rr'
p139
I0
ssS'goal'
p140
F2e-05
sS'show'
p141
I0
ssS'defaults'
p142
(dp143
g136
I500
sg137
(dp144
g139
I0
ssg140
F0.01
sg141
I100
ssS'error'
p145
(lp146
cnumpy.core.multiarray
scalar
p147
(g28
S'\xa2\xd1\xd5>y\xc5@@'
p148
tp149
Rp150
ag147
(g28
S'Z\x1e1\xf2\xfb\n@@'
p151
tp152
Rp153
ag147
(g28
S'\x9fV\xb8\xbe\x00\xaa.@'
p154
tp155
Rp156
ag147
(g28
S'T\t\xc9\xdc\xa4\x1f%@'
p157
tp158
Rp159
ag147
(g28
S'\xf0\xdd\x0e\xaa9\xbe#@'
p160
tp161
Rp162
ag147
(g28
S'lC\xbe\x047[#@'
p163
tp164
Rp165
ag147
(g28
S'\x10\xbb\xd3\x98\'\xed"@'
p166
tp167
Rp168
ag147
(g28
S'\xe2P\xdb\x80\xbf\xa1"@'
p169
tp170
Rp171
ag147
(g28
S'z\xa5(7\x91\xa1"@'
p172
tp173
Rp174
ag147
(g28
S'#g~\x02\x8a\x8c"@'
p175
tp176
Rp177
ag147
(g28
S'F\x051\xb0\x9cu"@'
p178
tp179
Rp180
ag147
(g28
S'\x8aB\xe1\xc6b\xef @'
p181
tp182
Rp183
ag147
(g28
S'Lo\xe3o\xbd\xc4 @'
p184
tp185
Rp186
ag147
(g28
S'^"\xa2\xa2\x1e\xad @'
p187
tp188
Rp189
ag147
(g28
S'\x92\xed\xdd\x81\x94D @'
p190
tp191
Rp192
ag147
(g28
S"\x0c\x98'\x1e6B @"
p193
tp194
Rp195
ag147
(g28
S'\xf4;\xdfi\xc97 @'
p196
tp197
Rp198
ag147
(g28
S'\xbeBf~63 @'
p199
tp200
Rp201
ag147
(g28
S'\x18\xb2Q\x06Q\x1e @'
p202
tp203
Rp204
ag147
(g28
S'\xf4\xf9\x12i\x01\x17 @'
p205
tp206
Rp207
ag147
(g28
S'\x96\x80\xeb\xf5\x88\xff\x1f@'
p208
tp209
Rp210
ag147
(g28
S'\xcaF\x88\xe1\xe8\xe8\x1f@'
p211
tp212
Rp213
ag147
(g28
S'\x90\x9e\xad\xd5\x7f\xca\x1f@'
p214
tp215
Rp216
ag147
(g28
S'H&quv\xa2\x1f@'
p217
tp218
Rp219
ag147
(g28
S'bo\x9b?\x15J\x1f@'
p220
tp221
Rp222
ag147
(g28
S'\xd2\xe7\x14\x96\xef/\x1f@'
p223
tp224
Rp225
ag147
(g28
S'\xe4\x8f\xe9\xfa\x1d\x1e\x1f@'
p226
tp227
Rp228
ag147
(g28
S'\xee@@\x07\x8e\x9b\x1d@'
p229
tp230
Rp231
ag147
(g28
S'\x8a\xdb<\xbfi\x9a\x1d@'
p232
tp233
Rp234
ag147
(g28
S'\xfccz\x9f\x9cz\x1d@'
p235
tp236
Rp237
ag147
(g28
S'\x12\xde]\x10Td\x1d@'
p238
tp239
Rp240
ag147
(g28
S'\xec\x98\xc6\xeb\xe3c\x1d@'
p241
tp242
Rp243
ag147
(g28
S'\xae\xb6\x0b\xdb\xf4Y\x1d@'
p244
tp245
Rp246
ag147
(g28
S'\x8a\xd1\xaax\x94X\x1d@'
p247
tp248
Rp249
ag147
(g28
S'\xd8m\xcc\xda\x030\x1d@'
p250
tp251
Rp252
ag147
(g28
S'\xb0\x91\x05\xea\x93/\x1d@'
p253
tp254
Rp255
ag147
(g28
S'\xf6@\xbdG\x9c\x05\x1d@'
p256
tp257
Rp258
ag147
(g28
S'\\\xb4\xc3\xac7\x02\x1d@'
p259
tp260
Rp261
ag147
(g28
S'8\x07\xc1W`\xf1\x1c@'
p262
tp263
Rp264
ag147
(g28
S'\xa6\xfb\xfc\x1b\xfa\xed\x1c@'
p265
tp266
Rp267
ag147
(g28
S'\xae&1q\xe3\x12\x1c@'
p268
tp269
Rp270
ag147
(g28
S'\x1c\xd4\xf1|8\xf9\x1b@'
p271
tp272
Rp273
ag147
(g28
S'\xf1\x81\xa7\x86S\xd8\x1b@'
p274
tp275
Rp276
ag147
(g28
S'@\xa5\x0b]\xec\xd2\x1b@'
p277
tp278
Rp279
ag147
(g28
S'\x0c\x9dd\xbc\xa4z\x1b@'
p280
tp281
Rp282
ag147
(g28
S'\x9e\xf95}\xa5x\x1b@'
p283
tp284
Rp285
ag147
(g28
S'\x1b\x0b\x80r\xdfW\x1b@'
p286
tp287
Rp288
ag147
(g28
S'\x8a\xe5}\xe7PW\x1b@'
p289
tp290
Rp291
ag147
(g28
S'\x98A7\x0eX\xec\x1a@'
p292
tp293
Rp294
ag147
(g28
S'\xf1<,\x10#\xd1\x1a@'
p295
tp296
Rp297
ag147
(g28
S'\x05\xc4\x84z\x1d\xca\x1a@'
p298
tp299
Rp300
ag147
(g28
S'\x84+\x08B\x97\xc2\x1a@'
p301
tp302
Rp303
ag147
(g28
S'\x80\x06\x92\x1f}\xbf\x1a@'
p304
tp305
Rp306
ag147
(g28
S'\xd6TML^\xbd\x1a@'
p307
tp308
Rp309
ag147
(g28
S'`\xeff\xbb\xad\xbc\x1a@'
p310
tp311
Rp312
ag147
(g28
S'hhC\xcf\xd0\xba\x1a@'
p313
tp314
Rp315
ag147
(g28
S'\x9a4\x9a\xfa\x90\xb9\x1a@'
p316
tp317
Rp318
ag147
(g28
S'\x8f+x\xa8W\xb9\x1a@'
p319
tp320
Rp321
ag147
(g28
S'\x1c\xf3;\xd3\xbd\xb8\x1a@'
p322
tp323
Rp324
ag147
(g28
S'\x94\x9f6!\xb1\x9d\x1a@'
p325
tp326
Rp327
ag147
(g28
S'@A\xf3\xabN\x96\x1a@'
p328
tp329
Rp330
ag147
(g28
S'"\n\xedz\xac|\x1a@'
p331
tp332
Rp333
ag147
(g28
S'\xad\xdcz\xe8\xe4{\x1a@'
p334
tp335
Rp336
ag147
(g28
S'\xcc}+\xcdry\x1a@'
p337
tp338
Rp339
ag147
(g28
S'.6\xb2\xf8Hx\x1a@'
p340
tp341
Rp342
ag147
(g28
S'\xc8?\x8d3\x9bt\x1a@'
p343
tp344
Rp345
ag147
(g28
S'jm\xfbgAs\x1a@'
p346
tp347
Rp348
ag147
(g28
S'lx2\xb73p\x1a@'
p349
tp350
Rp351
ag147
(g28
S'D\x0e\xfaS\to\x1a@'
p352
tp353
Rp354
ag147
(g28
S'\x0c^\xed\xe0~m\x1a@'
p355
tp356
Rp357
ag147
(g28
S'`\x87\xa8tvj\x1a@'
p358
tp359
Rp360
ag147
(g28
S'\xda\xfcT,Le\x1a@'
p361
tp362
Rp363
ag147
(g28
S'#\xe9\xb5s\x05e\x1a@'
p364
tp365
Rp366
ag147
(g28
S'n\xc4@\xf1\xceZ\x1a@'
p367
tp368
Rp369
ag147
(g28
S'\x19=,\xderY\x1a@'
p370
tp371
Rp372
ag147
(g28
S'\x98\xcb\xd0\xd2\xb4K\x1a@'
p373
tp374
Rp375
ag147
(g28
S'\xa2Z\x11\xa0\x80J\x1a@'
p376
tp377
Rp378
ag147
(g28
S'*\xb6R\x18\xc1D\x1a@'
p379
tp380
Rp381
ag147
(g28
S'\xf8<gKlC\x1a@'
p382
tp383
Rp384
ag147
(g28
S'm\x8d\xe4\xf1g:\x1a@'
p385
tp386
Rp387
ag147
(g28
S'\xe6\xdfM\xcf\xf38\x1a@'
p388
tp389
Rp390
ag147
(g28
S'\xe0}\x10\xf5\xc13\x1a@'
p391
tp392
Rp393
ag147
(g28
S'\xe27a\x98\x19.\x1a@'
p394
tp395
Rp396
ag147
(g28
S'\xaa\x07\x0e!\x1d-\x1a@'
p397
tp398
Rp399
ag147
(g28
S'(\x9e,\xcf\xe9"\x1a@'
p400
tp401
Rp402
ag147
(g28
S'\xacLb\x9f;\x1b\x1a@'
p403
tp404
Rp405
ag147
(g28
S'6\xa7\x9d\xc2\x99\x19\x1a@'
p406
tp407
Rp408
ag147
(g28
S'b\xc5\xd2\xc9B\x19\x1a@'
p409
tp410
Rp411
ag147
(g28
S'\xeaD\x90\xfa<\x11\x1a@'
p412
tp413
Rp414
ag147
(g28
S'\xc5\xda\xdf\xa5\xa8\x10\x1a@'
p415
tp416
Rp417
ag147
(g28
S'\xbc8\x88"\x87\x0b\x1a@'
p418
tp419
Rp420
ag147
(g28
S'\xa6r\xc5\xdc<\x0b\x1a@'
p421
tp422
Rp423
ag147
(g28
S'\x06=y\x0cL\x07\x1a@'
p424
tp425
Rp426
ag147
(g28
S'\x85\x90\x0e+\xe0\x06\x1a@'
p427
tp428
Rp429
ag147
(g28
S'\xe0\xa9\xab\xbd\\\x00\x1a@'
p430
tp431
Rp432
ag147
(g28
S'\x8e\rvn\xb7\xfe\x19@'
p433
tp434
Rp435
ag147
(g28
S'\x00dz\x8c4\xf8\x19@'
p436
tp437
Rp438
ag147
(g28
S'0G\x9eQ\xe8\xeb\x19@'
p439
tp440
Rp441
ag147
(g28
S'\xca\x89\xb2Z\x1e\xdc\x19@'
p442
tp443
Rp444
ag147
(g28
S';\xb7\x8a\x0c\xe5\xda\x19@'
p445
tp446
Rp447
ag147
(g28
S'\xe0\xb1\x8a\x1f\x1d\xc2\x19@'
p448
tp449
Rp450
ag147
(g28
S'#\xee\xe6\x15\x0b\xbc\x19@'
p451
tp452
Rp453
ag147
(g28
S'\xad\x0cK)\xe1\xb5\x19@'
p454
tp455
Rp456
ag147
(g28
S'\n\xecf\xbb\xad\xb1\x19@'
p457
tp458
Rp459
ag147
(g28
S'\xea\xaa\\\xeeg\xb1\x19@'
p460
tp461
Rp462
ag147
(g28
S'\x8f\xbal>\x1b\xb1\x19@'
p463
tp464
Rp465
ag147
(g28
S'\xd8\x96q=\x8b\xac\x19@'
p466
tp467
Rp468
ag147
(g28
S'p4\x92N\xdd\xab\x19@'
p469
tp470
Rp471
ag147
(g28
S'\xa7\x9ed\xec(\xa8\x19@'
p472
tp473
Rp474
ag147
(g28
S'\x056HJ\x00\xa8\x19@'
p475
tp476
Rp477
ag147
(g28
S'i\xfb\x80\x9c\xe0\xa0\x19@'
p478
tp479
Rp480
ag147
(g28
S'f\xb3\x87\xe5\x87\x9c\x19@'
p481
tp482
Rp483
ag147
(g28
S'\xa0\x12\x82\x88\xc1\x96\x19@'
p484
tp485
Rp486
ag147
(g28
S'\xd9(\xcf\xe2\xed\x92\x19@'
p487
tp488
Rp489
ag147
(g28
S'\xc7q|%v\x91\x19@'
p490
tp491
Rp492
ag147
(g28
S'\xa9uU\x18\xe9\x90\x19@'
p493
tp494
Rp495
ag147
(g28
S'*\xc5l8\xc9\x8d\x19@'
p496
tp497
Rp498
ag147
(g28
S'0\xc2\x04\xb9U\x8d\x19@'
p499
tp500
Rp501
ag147
(g28
S'\xf85\t\x00\xee\x84\x19@'
p502
tp503
Rp504
ag147
(g28
S'\xc66\x83B\x10\x82\x19@'
p505
tp506
Rp507
ag147
(g28
S'\xc12\x84\xa3\xa4Z\x19@'
p508
tp509
Rp510
ag147
(g28
S'\xab\xdf\x90\x0b\x9cW\x19@'
p511
tp512
Rp513
ag147
(g28
S'D\xd7!oxN\x19@'
p514
tp515
Rp516
ag147
(g28
S'\x01\xc1\x00\xa5\x00I\x19@'
p517
tp518
Rp519
ag147
(g28
S'\x80\x18,\xa2\x94E\x19@'
p520
tp521
Rp522
ag147
(g28
S'\x92\x1f\x85\xf6sE\x19@'
p523
tp524
Rp525
ag147
(g28
S'\x1e\x92`]HE\x19@'
p526
tp527
Rp528
ag147
(g28
S'\x08\xfd\xd7\x11!D\x19@'
p529
tp530
Rp531
ag147
(g28
S'f\xaf\xd6\xe7\xeeB\x19@'
p532
tp533
Rp534
ag147
(g28
S'\xeb3p\x95\x84B\x19@'
p535
tp536
Rp537
ag147
(g28
S'\xa6\xbd\xd8\x11fB\x19@'
p538
tp539
Rp540
ag147
(g28
S'\x9ff\x884\x19A\x19@'
p541
tp542
Rp543
ag147
(g28
S'\xd8\xf3\xac\xd9j,\x19@'
p544
tp545
Rp546
ag147
(g28
S'N\xf1W\xaa\x10+\x19@'
p547
tp548
Rp549
ag147
(g28
S'"\x905o\xf2\xd8\x18@'
p550
tp551
Rp552
ag147
(g28
S'\xa4\xff\xbd\x07=\xd7\x18@'
p553
tp554
Rp555
ag147
(g28
S'\x12\x82\x0eq+\xd1\x18@'
p556
tp557
Rp558
ag147
(g28
S'O!\x1e\xe6]\xb1\x18@'
p559
tp560
Rp561
ag147
(g28
S'\x16\xb1\xabF"\xb1\x18@'
p562
tp563
Rp564
ag147
(g28
S'6a\xabH0\xac\x18@'
p565
tp566
Rp567
ag147
(g28
S'\xe2\x0f\x9a\x11\xf5\xa9\x18@'
p568
tp569
Rp570
ag147
(g28
S'\xb5\xed\xf9^\x9e\x95\x18@'
p571
tp572
Rp573
ag147
(g28
S'Kr\xebi\xc8\x94\x18@'
p574
tp575
Rp576
ag147
(g28
S'\xeeF\xf6\xd3\x17\x92\x18@'
p577
tp578
Rp579
ag147
(g28
S'1\x06\x0cB\xd3\x91\x18@'
p580
tp581
Rp582
ag147
(g28
S'\xd6=#\x10\x05\x91\x18@'
p583
tp584
Rp585
ag147
(g28
S'pl\xac\xac\xeb\x90\x18@'
p586
tp587
Rp588
ag147
(g28
S'\x10\x07\xa3(R\x90\x18@'
p589
tp590
Rp591
ag147
(g28
S'/L\xfc\xda\x19\x90\x18@'
p592
tp593
Rp594
ag147
(g28
S'\xbc\xe6\x91\xd4\xcd\x8d\x18@'
p595
tp596
Rp597
ag147
(g28
S'\xf7\x1d!_\xd8\x8c\x18@'
p598
tp599
Rp600
ag147
(g28
S'\xac|c\xf2J\x81\x18@'
p601
tp602
Rp603
ag147
(g28
S'd\xfe\x19T9~\x18@'
p604
tp605
Rp606
ag147
(g28
S'\x9cu\x91A\xa4o\x18@'
p607
tp608
Rp609
ag147
(g28
S'\xefa\x9e;Do\x18@'
p610
tp611
Rp612
ag147
(g28
S'\x9d2\x12o\xc5m\x18@'
p613
tp614
Rp615
ag147
(g28
S'"\xe5\xdf04m\x18@'
p616
tp617
Rp618
ag147
(g28
S'n\xd8G\xd3Ik\x18@'
p619
tp620
Rp621
ag147
(g28
S'V\x8d6\x11\xa6j\x18@'
p622
tp623
Rp624
ag147
(g28
S'4y9,\x04i\x18@'
p625
tp626
Rp627
ag147
(g28
S'\xd2\xec\xd7\x90|h\x18@'
p628
tp629
Rp630
ag147
(g28
S'\x80,\xf6tYg\x18@'
p631
tp632
Rp633
ag147
(g28
S'\x1a=[\x0f\xfbf\x18@'
p634
tp635
Rp636
ag147
(g28
S'\xd6\x90y&)f\x18@'
p637
tp638
Rp639
ag147
(g28
S'\x1e\xfc:%\xdde\x18@'
p640
tp641
Rp642
ag147
(g28
S'\xed\xbb\xfe#\x16e\x18@'
p643
tp644
Rp645
ag147
(g28
S'F\x15&\x90\xbdd\x18@'
p646
tp647
Rp648
ag147
(g28
S'\x18\x05\xe8\x13\xacc\x18@'
p649
tp650
Rp651
ag147
(g28
S'f\xdfTf!c\x18@'
p652
tp653
Rp654
ag147
(g28
S'm\xbe%\xe9_a\x18@'
p655
tp656
Rp657
ag147
(g28
S'\x8f\x9d\xb4\xa8}`\x18@'
p658
tp659
Rp660
ag147
(g28
S'\xcf\xf6\xdd\x13\xda]\x18@'
p661
tp662
Rp663
ag147
(g28
S'\xbb\xfeU\x06\x98\\\x18@'
p664
tp665
Rp666
ag147
(g28
S'\x9e/\xf1\x96VY\x18@'
p667
tp668
Rp669
ag147
(g28
S'\x99$U\x1a\xdbW\x18@'
p670
tp671
Rp672
ag147
(g28
S'#(\xa6\x95\x9cT\x18@'
p673
tp674
Rp675
ag147
(g28
S'v\xa2\x13\xbf\x13S\x18@'
p676
tp677
Rp678
ag147
(g28
S'B\x8e(\xcbNP\x18@'
p679
tp680
Rp681
ag147
(g28
S'\xe0\xc2\xcc\xbd\xd4N\x18@'
p682
tp683
Rp684
ag147
(g28
S'\xd2o\x9e\x17\xc6L\x18@'
p685
tp686
Rp687
ag147
(g28
S'\x80\x8d*\xff\x08E\x18@'
p688
tp689
Rp690
ag147
(g28
S'\xc6Y\r\xf5f1\x18@'
p691
tp692
Rp693
ag147
(g28
S'0Uu:\xcf/\x18@'
p694
tp695
Rp696
ag147
(g28
S'\x8c\xb8\xe3\xa7~\x1c\x18@'
p697
tp698
Rp699
ag147
(g28
S'\xd9\x95\xf6\xe7\xd3\x11\x18@'
p700
tp701
Rp702
ag147
(g28
S'\xb6\x00\xb0VJ\x05\x18@'
p703
tp704
Rp705
ag147
(g28
S'E\xf3Ue\xa2\x04\x18@'
p706
tp707
Rp708
ag147
(g28
S'g\x95\xbb;\xa8\xf2\x17@'
p709
tp710
Rp711
ag147
(g28
S'\xa8%\xffv\xfe\xf0\x17@'
p712
tp713
Rp714
ag147
(g28
S'(\xd7\xc6>\x03\xb0\x17@'
p715
tp716
Rp717
ag147
(g28
S'\xae8@gi\xa9\x17@'
p718
tp719
Rp720
ag147
(g28
S'\xd5g\x1a\x8d!l\x17@'
p721
tp722
Rp723
ag147
(g28
S' \x1c\x1bS\xafi\x17@'
p724
tp725
Rp726
ag147
(g28
S'\x8a\xcf:\xdcgT\x17@'
p727
tp728
Rp729
ag147
(g28
S'\x95=\x84\xca\x11N\x17@'
p730
tp731
Rp732
ag147
(g28
S'\xbd|4:\xc4-\x17@'
p733
tp734
Rp735
ag147
(g28
S'\xd6{Du(-\x17@'
p736
tp737
Rp738
ag147
(g28
S'\x95\xfa\xc4\xb64"\x17@'
p739
tp740
Rp741
ag147
(g28
S'\xc2\xe5\x94\xc2\xe2!\x17@'
p742
tp743
Rp744
ag147
(g28
S'\xees\xee\x89\x91\x1b\x17@'
p745
tp746
Rp747
ag147
(g28
S'`b.\\\xa5\x1a\x17@'
p748
tp749
Rp750
ag147
(g28
S'|.\x17\xfc\xe8\n\x17@'
p751
tp752
Rp753
ag147
(g28
S'b\xed\xc9S\xe0\x07\x17@'
p754
tp755
Rp756
ag147
(g28
S'\x00\xbc\x9e}l\x00\x17@'
p757
tp758
Rp759
ag147
(g28
S'p\xa5\x19\x82\xe0\xff\x16@'
p760
tp761
Rp762
ag147
(g28
S'\xd2N\x159)\xff\x16@'
p763
tp764
Rp765
ag147
(g28
S'@\xa2l\x83p\xfe\x16@'
p766
tp767
Rp768
ag147
(g28
S"\x156t'\xc9\xfc\x16@"
p769
tp770
Rp771
ag147
(g28
S'\xc0\x84\x89\xee\x80\xfc\x16@'
p772
tp773
Rp774
ag147
(g28
S';\xf7\x9fj\x08\xf8\x16@'
p775
tp776
Rp777
ag147
(g28
S'qM\xd1H\xb9\xf2\x16@'
p778
tp779
Rp780
ag147
(g28
S'\xb0\xfc\x1f\x97\xa5\xf1\x16@'
p781
tp782
Rp783
ag147
(g28
S'\xa4:J\x9d\x04\xf1\x16@'
p784
tp785
Rp786
ag147
(g28
S'0L\xf1\xcc\xdd\xf0\x16@'
p787
tp788
Rp789
ag147
(g28
S'\x0bp\xd2P.\xea\x16@'
p790
tp791
Rp792
ag147
(g28
S'\xe2\x9b\x8d#d\xe3\x16@'
p793
tp794
Rp795
ag147
(g28
S'K\xc5\x87v>\xe1\x16@'
p796
tp797
Rp798
ag147
(g28
S'\x91\xe9\xab]\xe1\xde\x16@'
p799
tp800
Rp801
ag147
(g28
S'\x8a\xfa~0\xcf\xde\x16@'
p802
tp803
Rp804
ag147
(g28
S'b\x17H(\t\xda\x16@'
p805
tp806
Rp807
ag147
(g28
S' T{Ng\xd6\x16@'
p808
tp809
Rp810
ag147
(g28
S'b\xf0\x88P\x95\xd5\x16@'
p811
tp812
Rp813
ag147
(g28
S'\x19\xb9\x89T\xc0\xd3\x16@'
p814
tp815
Rp816
ag147
(g28
S" \x10\xa0\xcc'\xc4\x16@"
p817
tp818
Rp819
ag147
(g28
S'\xbbL\xf6\xa2\x07\xc2\x16@'
p820
tp821
Rp822
ag147
(g28
S'\x80\xd4\xe2\xcd\n\xbf\x16@'
p823
tp824
Rp825
ag147
(g28
S'\x88F 9d\xbe\x16@'
p826
tp827
Rp828
ag147
(g28
S'"\xf5\x17@\x87\xbb\x16@'
p829
tp830
Rp831
ag147
(g28
S'\x10\xa3\xba\xe3\x8f\xb7\x16@'
p832
tp833
Rp834
ag147
(g28
S'R0\xf0\xb4X\xb7\x16@'
p835
tp836
Rp837
ag147
(g28
S'2\xcc\x13\xe5\xb9\xb6\x16@'
p838
tp839
Rp840
ag147
(g28
S'\xad\xb4A\xa6\x9c\xb1\x16@'
p841
tp842
Rp843
ag147
(g28
S'JA\xbfM,\xb1\x16@'
p844
tp845
Rp846
ag147
(g28
S'\xe2\xe3\xbd2!\xb0\x16@'
p847
tp848
Rp849
ag147
(g28
S'\x02\xaaEr\x16\xaf\x16@'
p850
tp851
Rp852
ag147
(g28
S'D\x8c\xdb\x80\xb4\xae\x16@'
p853
tp854
Rp855
ag147
(g28
S'&V\xeb\xbc,\xae\x16@'
p856
tp857
Rp858
ag147
(g28
S'R\x83L^\xdb\xad\x16@'
p859
tp860
Rp861
ag147
(g28
S'\xf0\x0e\xa2\xbc\xfe\xa9\x16@'
p862
tp863
Rp864
ag147
(g28
S'\xed\n\xfde\x13\xa6\x16@'
p865
tp866
Rp867
ag147
(g28
S'=C"V\xd9\xa5\x16@'
p868
tp869
Rp870
ag147
(g28
S'\x934\x8cXK\x9f\x16@'
p871
tp872
Rp873
ag147
(g28
S'p\xaael?\x9f\x16@'
p874
tp875
Rp876
ag147
(g28
S'U\xef\xa6\xffj\x9e\x16@'
p877
tp878
Rp879
ag147
(g28
S'\x92\xb8\xe5\x0b\xd3\x9c\x16@'
p880
tp881
Rp882
ag147
(g28
S'^\x979S\xcd\x9b\x16@'
p883
tp884
Rp885
ag147
(g28
S'B\x990)\x1f\x85\x16@'
p886
tp887
Rp888
ag147
(g28
S'\x9a\xe5Vo\x96\x84\x16@'
p889
tp890
Rp891
ag147
(g28
S'3\x83\x13\x1c"e\x16@'
p892
tp893
Rp894
ag147
(g28
S'\xb1q\x1f\xb9\xe0b\x16@'
p895
tp896
Rp897
ag147
(g28
S'\x9b\xa0\xd6\x00C?\x16@'
p898
tp899
Rp900
ag147
(g28
S'\x11]{\x17\x10=\x16@'
p901
tp902
Rp903
ag147
(g28
S'\xb0\x0b\xf3!\x8c\t\x16@'
p904
tp905
Rp906
ag147
(g28
S'\xb7\xdc\x02\xc0p\x00\x16@'
p907
tp908
Rp909
ag147
(g28
S'\x10\xd0\xef\xe1\xd7\xe8\x15@'
p910
tp911
Rp912
ag147
(g28
S' \x1b}\x03#\xe7\x15@'
p913
tp914
Rp915
ag147
(g28
S'\xa8o\x12w\xec\xca\x15@'
p916
tp917
Rp918
ag147
(g28
S'\xea\x14\xbfn%\xc9\x15@'
p919
tp920
Rp921
ag147
(g28
S'\xac\xe5\xbb}\xb0\xb8\x15@'
p922
tp923
Rp924
ag147
(g28
S'\xc8R\x9c#\xcd\xb7\x15@'
p925
tp926
Rp927
ag147
(g28
S'8\x19\x8f\xc3@\xad\x15@'
p928
tp929
Rp930
ag147
(g28
S'\x19\xb9w\x94\x8d\xaa\x15@'
p931
tp932
Rp933
ag147
(g28
S'd\xea:[\x8c\x98\x15@'
p934
tp935
Rp936
ag147
(g28
S'\x0c\xa4\x97\xed\x96\x93\x15@'
p937
tp938
Rp939
ag147
(g28
S'\xfe\x06\x82\xf3<\x84\x15@'
p940
tp941
Rp942
ag147
(g28
S'\xad\x18\xc8\xda\x0e~\x15@'
p943
tp944
Rp945
ag147
(g28
S'\xa64\xe3\x89:b\x15@'
p946
tp947
Rp948
ag147
(g28
S'\xbe\x8cl4\xdb_\x15@'
p949
tp950
Rp951
ag147
(g28
S'\xee\x02\xa6\xa9/*\x15@'
p952
tp953
Rp954
ag147
(g28
S'\x9a\xa0VD\x0b(\x15@'
p955
tp956
Rp957
ag147
(g28
S'B\x11Z\xdd\x8c\x0e\x15@'
p958
tp959
Rp960
ag147
(g28
S'\xd4\x07g\xc6\x8e\x0c\x15@'
p961
tp962
Rp963
ag147
(g28
S'\x1b\x1b\xebWs\xfa\x14@'
p964
tp965
Rp966
ag147
(g28
S'`\xd1\x03!@\xf9\x14@'
p967
tp968
Rp969
ag147
(g28
S'\x16\x97\x02(\x97\xf2\x14@'
p970
tp971
Rp972
ag147
(g28
S'~\xb8\x15WF\xf1\x14@'
p973
tp974
Rp975
ag147
(g28
S'\xca,VZ\x8e\xee\x14@'
p976
tp977
Rp978
ag147
(g28
S'\xbe\xd83:\xa8\xec\x14@'
p979
tp980
Rp981
ag147
(g28
S'\xfe\x03\xab>p\xdf\x14@'
p982
tp983
Rp984
ag147
(g28
S'\xae/\xc0$&\xdf\x14@'
p985
tp986
Rp987
ag147
(g28
S'\x04\x8d\xe1,\x18\xd8\x14@'
p988
tp989
Rp990
ag147
(g28
S'\xe1-\xd4#\xd9\xd6\x14@'
p991
tp992
Rp993
ag147
(g28
S'F\xe6\x91o\xb5\xce\x14@'
p994
tp995
Rp996
ag147
(g28
S'\x10\xdb\xee\xf7\xb8\xcc\x14@'
p997
tp998
Rp999
ag147
(g28
S'P\x16\xafT\x11\xc1\x14@'
p1000
tp1001
Rp1002
ag147
(g28
S'/\x9e\x0bT\xf8\xbe\x14@'
p1003
tp1004
Rp1005
ag147
(g28
S'\xae\x14\x80\x18\xb4\xb9\x14@'
p1006
tp1007
Rp1008
ag147
(g28
S'<HNo\xbe\xb7\x14@'
p1009
tp1010
Rp1011
ag147
(g28
S'D\x84Fco\xab\x14@'
p1012
tp1013
Rp1014
ag147
(g28
S'\x1cz.\xdf\xf1\xa9\x14@'
p1015
tp1016
Rp1017
ag147
(g28
S'\xc2hq9\x9a\x99\x14@'
p1018
tp1019
Rp1020
ag147
(g28
S'\x14\x1f\xcf\xf7\x12\x8f\x14@'
p1021
tp1022
Rp1023
asS'__name__'
p1024
S'TrainCG'
p1025
sS'__doc__'
p1026
S'\n    Newton-CG method\n    Using scipy.optimize.fmin_ncg\n\n    :Support networks:\n        newff (multi-layers perceptron)\n    :Parameters:\n        input: array like (l x net.ci)\n            train input patterns\n        target: array like (l x net.co)\n            train target patterns\n        epochs: int (default 500)\n            Number of train epochs\n        show: int (default 100)\n            Print period\n        goal: float (default 0.01)\n            The goal of train\n        rr float (defaults 0.0)\n            Regularization ratio\n            Must be between {0, 1}\n        \n    '
p1027
sbsS'connect'
p1028
(lp1029
(lp1030
I-1
aa(lp1031
I0
aa(lp1032
I1
aasS'errorf'
p1033
(ineurolab.error
SSE
p1034
(dp1035
bsg65
g18
(g19
(I0
tp1036
g21
tp1037
Rp1038
(I1
(I1
I2
tp1039
g28
I00
S'\x00\x00\x00\x00\x00\x00\xf0\xbf\x00\x00\x00\x00\x00\x00\xf0?'
p1040
tp1041
bsg72
g115
sb.