ccopy_reg
_reconstructor
p0
(cneurolab.core
Net
p1
c__builtin__
object
p2
Ntp3
Rp4
(dp5
S'layers'
p6
(lp7
g0
(cneurolab.layer
Perceptron
p8
g2
Ntp9
Rp10
(dp11
S'initf'
p12
cneurolab.init
initnw
p13
sS'ci'
p14
I34
sS'co'
p15
I17
sS'cn'
p16
I17
sS'inp_minmax'
p17
cnumpy.core.multiarray
_reconstruct
p18
(cnumpy
ndarray
p19
(I0
tp20
S'b'
p21
tp22
Rp23
(I1
(I34
I2
tp24
cnumpy
dtype
p25
(S'f8'
p26
I0
I1
tp27
Rp28
(I3
S'<'
p29
NNNI-1
I-1
I0
tp30
bI00
S'\x00\x00\x00\x00\x00\x00\x00\x00\x00\x00\x00\x00\x00\x00\xf0?\x00\x00\x00\x00\x00\x00\x00\x00\x00\x00\x00\x00\x00\x00\xf0?\x00\x00\x00\x00\x00\x00\x00\x00\x00\x00\x00\x00\x00\x00\xf0?\x00\x00\x00\x00\x00\x00\x00\x00\x00\x00\x00\x00\x00\x00\xf0?\x00\x00\x00\x00\x00\x00\x00\x00\x00\x00\x00\x00\x00\x00\xf0?\x00\x00\x00\x00\x00\x00\x00\x00\x00\x00\x00\x00\x00\x00\xf0?\x00\x00\x00\x00\x00\x00\x00\x00\x00\x00\x00\x00\x00\x00\xf0?\x00\x00\x00\x00\x00\x00\x00\x00\x00\x00\x00\x00\x00\x00\xf0?\x00\x00\x00\x00\x00\x00\x00\x00\x00\x00\x00\x00\x00\x00\xf0?\x00\x00\x00\x00\x00\x00\x00\x00\x00\x00\x00\x00\x00\x00\xf0?\x00\x00\x00\x00\x00\x00\x00\x00\x00\x00\x00\x00\x00\x00\xf0?\x00\x00\x00\x00\x00\x00\x00\x00\x00\x00\x00\x00\x00\x00\xf0?\x00\x00\x00\x00\x00\x00\x00\x00\x00\x00\x00\x00\x00\x00\xf0?\x00\x00\x00\x00\x00\x00\x00\x00\x00\x00\x00\x00\x00\x00\xf0?\x00\x00\x00\x00\x00\x00\x00\x00\x00\x00\x00\x00\x00\x00\xf0?\x00\x00\x00\x00\x00\x00\x00\x00\x00\x00\x00\x00\x00\x00\xf0?\x00\x00\x00\x00\x00\x00\x00\x00\x00\x00\x00\x00\x00\x00\xf0?\x00\x00\x00\x00\x00\x00\x00\x00\x00\x00\x00\x00\x00\x00\xf0?\x00\x00\x00\x00\x00\x00\x00\x00\x00\x00\x00\x00\x00\x00\xf0?\x00\x00\x00\x00\x00\x00\x00\x00\x00\x00\x00\x00\x00\x00\xf0?\x00\x00\x00\x00\x00\x00\x00\x00\x00\x00\x00\x00\x00\x00\xf0?\x00\x00\x00\x00\x00\x00\x00\x00\x00\x00\x00\x00\x00\x00\xf0?\x00\x00\x00\x00\x00\x00\x00\x00\x00\x00\x00\x00\x00\x00\xf0?\x00\x00\x00\x00\x00\x00\x00\x00\x00\x00\x00\x00\x00\x00\xf0?\x00\x00\x00\x00\x00\x00\x00\x00\x00\x00\x00\x00\x00\x00\xf0?\x00\x00\x00\x00\x00\x00\x00\x00\x00\x00\x00\x00\x00\x00\xf0?\x00\x00\x00\x00\x00\x00\x00\x00\x00\x00\x00\x00\x00\x00\xf0?\x00\x00\x00\x00\x00\x00\x00\x00\x00\x00\x00\x00\x00\x00\xf0?\x00\x00\x00\x00\x00\x00\x00\x00\x00\x00\x00\x00\x00\x00\xf0?\x00\x00\x00\x00\x00\x00\x00\x00\x00\x00\x00\x00\x00\x00\xf0?\x00\x00\x00\x00\x00\x00\x00\x00\x00\x00\x00\x00\x00\x00\xf0?\x00\x00\x00\x00\x00\x00\x00\x00\x00\x00\x00\x00\x00\x00\xf0?\x00\x00\x00\x00\x00\x00\x00\x00\x00\x00\x00\x00\x00\x00\xf0?\x00\x00\x00\x00\x00\x00\x00\x00\x00\x00\x00\x00\x00\x00\xf0?'
p31
tp32
bsS'inp'
p33
g18
(g19
(I0
tp34
g21
tp35
Rp36
(I1
(I34
tp37
g28
I00
S"\x18Z\x05\xc6\x9e\xf2\xb0?\xb1\xa7<\xc4\\h\xc5?\x9d\xd1K\xf5s\xc2\xaa?\xf9\x18\x9c\x8f\xc1\xf9\xb8?\x9e\xd1K\xf5s\xc2\xba?\x7fNX\xc3;\xa3\xc7?u\xe3\xdf[GP\xca?\xdb\xb6m\xdb\xb6m\xdb?\xeek\x99,r\x80\xe0?\x7fNX\xc3;\xa3\xc7?\xf9\xf7\xd6\x11\x94f\xd3?U?'\xac\xe1\x9d\xd1?\xf0\xad#(\xcd\xa6\xcb?lxg\xf4R\xfd\xcc?L\xf5s\xc2\x1a\xde\xc9?\xf9\x18\x9c\x8f\xc1\xf9\x98?i6\xdd\xf8\xf7\xd6\xb1?\xd1*0\xf6\x94\x87\xc8?7\xdd\xf8\xf7\xd6\x11\xc4?\xb1\xa7<\xc4\\h\xc5?\xda\x95\xa8]\x89\xda\xd5?\xee\x8c^\xaa\x9f\x13\xd6?_\xcbd\x91\x03\x84\xd4?\xfb\x18\x9c\x8f\xc1\xf9\xa8?\r\xef\x8c^\xaa\x9f\xa3?\x0e\xef\x8c^\xaa\x9f\xc3?\xbb\x12\xb5+Q\xbb\xb2?\x04\x84\x14\xf7\xb5L\xb6?\x0e\xef\x8c^\xaa\x9f\xc3?8\x1f\x83\xf318\xbf?\xbb\x12\xb5+Q\xbb\xb2?\x9e\xd1K\xf5s\xc2\xca?\xa6\x1b\xff\xde:\x82\xd2?\xda\x95\xa8]\x89\xda\xd5?"
p38
tp39
bsS's'
p40
g18
(g19
(I0
tp41
g21
tp42
Rp43
(I1
(I17
tp44
g28
I00
S'E\xe3\xfek0\xef\xeb\xbf\xf8\xee\xb4\xa7\x1f\xe0\x13\xc0\xae9\xd8\xe9y\xbd\x04\xc0\xe3\xe5\xcfD\x16\xa8\xe2\xbf\x04\xc5\x01\x96\xc4\x9a\xed?\xfc\x84\xd6\x06\x17\xd6\xf3\xbf\x91\xed\x86\xe6P\xc0\xe1?\xc9\x82}\x07Tl\xde?\xfbS\x8f\xafw\xdf\x05\xc0\x0c\xc3c# c\x00\xc0\xee\xe9c\xee\xe1\xe2\x00\xc0"\x9d\'a\xdd\xe6\x06\xc0\xd2\xf7\x83\xcaM|\xeb?\x05e\xa5\xbc\x1a\x90\xfb\xbf5\xe6\x13\xadr\x15\x00\xc0&\xbe\x01jX\x06\x0e\xc0P#\xd6\xed\xd0\xaa\xcf\xbf'
p45
tp46
bsS'np'
p47
(dp48
g21
g18
(g19
(I0
tp49
g21
tp50
Rp51
(I1
(I17
tp52
g28
I00
S'\x0f\x00\xab\xda5\x05\xea\xbf\x83\xb5\x17|65\x16\xc0\xdf\x08\xaf\xaaC\x95\x0b\xc0\xa9\xa4R\xb9\xf6\xd3\xd5\xbf\xcf\xca\x88\xb1\xca\x05\xf8?\xe1\x9cz(gn\xf2\xbf\x87?\xa1\xe3\xfe\x19\xd4?C>A%<B\xeb?8&\x04\x06a\xa6\x05\xc0\x95\x0c\xd0wM\xcd\n\xc0\xb8\x91\xbb?\x91\xd9\x05\xc0\xabo~\x9a\x1f\xb2\x08\xc0Zt\xf9\xc1\xc0Y\xfa?q?\xbb\xcf]\xd8\x03\xc0\x7f*)@\xf0j\x01\xc0e\xf5\x97t\x08\xc2\x12\xc0\xf8\xf3Z\x9b\xd0)\xf0\xbf'
p53
tp54
bsS'w'
p55
g18
(g19
(I0
tp56
g21
tp57
Rp58
(I1
(I17
I34
tp59
g28
I00
S'c\xea\xca\xdb;\xac\xd9?J4\x9cp\x16F\xe8?\x02\xff\x98c\\QW\xbf\xe3\xa1Y\xc8\xeb\xf9\xe4\xbf\xc5\xe9\xd8H\xaa\xb1\xd1\xbf\xb3\xfb*\xc5\x91\x9e\xe9\xbf\xdc\xfce\x96al\xde?\xab\x81O\xa8\xddu\xe8?.A\xb86t\xf4\xe6?,\xa2\xb5\xf2\x1f\xbc\xd8\xbf\xfc\x8a\xe0\xa3\xe7\x13\xe8\xbf\xf2Kj\xf3g\x0c\xcb\xbf\x88y\xae-\xf9\xfc\xcc?\xd1\xdd<\x13z\xe8\xc4?H\xc1\xbc\x8c\x94\t\xe6\xbf\xab\x8a>w\xc6\x1f\xc0?\xcez\xd3\x8d<\xf9\xe0?\xc9o#\x90.\xdd\xe1\xbf\x9ax\xc0\'-\xc8\xdb?\x9d\xc7\x8f\x1a8{\xe0\xbf\xad\x7fiw\xe6G\xc9\xbf\x13\\@\x95q\xa7\xe9\xbf\x81\x18\x0b\xeb\xa0w\xe3?\x12:~\xb8\x8b\xa1\xda\xbf\x8bVW\xef\xfdQ\xd0?\x9a\xc2.\xb3\xe93\xd6?\xc9\xdee`Z\x1e\xe6\xbf\xa5\xcc\xf3V\x87\xb9\xe6?\xbc-\xec\xd6\xa2q\xe0?\xb8\x06\x10\x11\xcaB\xc6?\xc0\xa4oU\x9e5\xe4\xbf\xf0\xaar\x9e\xa1T\xa1\xbf)$\x1ct\xa7W\xab?\xca\xf1(\xfc\xccc\xe6\xbfz\x1b\xd2Jkd\xc4?\xee\xba\xa29\xa0A\xe8?\xe8I4\xf0\xe3\xc2\xec?>\xa2\xc7\x81X\xc8\xcd\xbf<\xbf\x96\xbe\x17\x07\xe0?L6z\x9a\x97j\xe6?\xbe\x1e(\xd3\xf2)\xe6?\xf7\xa1U\xfbZ\xaf\xd6\xbf!H\xcb\xfc\xaa\xd1\xd0?\\\xe1\xdbI[/\xe2\xbfC\xba\xbce=\xb7\xb3?\xfat\xaa\x85\xb6\x7f\xd6?H#\x92\xe0\x1b\x93\xe7\xbf\x80:z\x83vp\xe0?\x17\xc1\xd0?\x17`\xe7?j\xe3\xbd\x87;Y\xeb?\x1b\x0b\xac\xb0~#\xe9\xbf\x90:\x9a\x10tM\xd5?\x1a\xb7]\x8b\x06\xb2\xd1?\xbc\xf0\xb5\x84\xb6$\xab?\xf0Ts\xf9\x8dY\xe1?C\xb1\xd1BL\x14\xdf?\x9f]\x87\xe34\x8f\xd4\xbf\xb2\xc3\x1b\xf5%S\xce\xbf\xda\x0e\x05\x97\xfa$\xd2\xbf\xdd\xfc\x91\x17\x05)\xd0\xbf\xd3,\x0b\xf2\xfd\xdb\xeb?\x02F\xc8\xda;\xd8\xbe?\x85N\xe1\x10D\xd3\xe0\xbfm\r4\x0e\x80r\xdd\xbf#]\xcf\xdd\xe3\xb2\xd5?\xf5\xca\xc5\xd8P\x02\xdc?\x02\xc7\x18\xf9\x85r\xcf\xbf\x08\xc7\xbf\x80\x88S\xe8\xbf\xef\x9f\xcc\xe0\x05;\xe6?U\xfb5\xa2\x9ax\xae\xbf\x91fo\x0c\xe6\x1e\xc3?g\xaf\xf55\x89\xd1\xd7\xbfb\x18;\xb5s\x01\xb2\xbfL\xc1|L\xb3\xc5\xe4\xbf\xbf\x11X2\xe8y\xe1\xbf7\x99\x87$\x9c\xcd\xe2?\x95>\xd3\xb1\x91\xf7\xe8?\xc8w\xaf\x8b\xd5V\xb3\xbf\xdd\xf1d\xa3\x12t\xe8?\xa1\x01\xbdE\x98\x01\xdd?\xfc\xe8h#B\x93\xcf\xbf\xa7hd\xc0\xf7*\xe7?\xda\x88^\x9ez8\xea?7\xcf\xbfS?S\xe2\xbf@\xa8 +\x03\x8f\xe0?\x1b\xa2\x9cA\x1a\xa8\xe8?\xb2k(\x0e>\xfb\xe7\xbf\xea\xc0\xa9\x8d\x0e\xb8\xde\xbf\x12\xc1\xd3u\xdaN\xe2?j\xab\xd0\x19\x93F\xe5\xbf\x9aZ\x8b\xf0N\xd4\xc7\xbf\xcb\xfd\xb5\x8e\x17Y\xd4\xbf \xfe\xe53^f\x89\xbf\xcdC\xed\x1b\x85\xd9\xcb?\xbb\x95\x8c\xf2\xceI\xdd?\x005\xadA\xbc\xb8\xe7\xbf\x94>\xee\xcb\xd0\x90\xcc\xbf\xf7i\x0b\xc6\x12\xd4\xed?\x08\xf4\xde\x95\xd5\xdf\xcc?\xb7\xfc\x15\x8c\x01\xaa\xcd\xbf\xe6 \x0eX\xef\x04\xd4\xbf\xd9cb\xef\xe4\xa6\x95\xbf\x9b\xed\x19\xb6;0\xe3?`\xaa%8\x0c\xdd\xe1\xbf\xc91\xe83\xf7!\xe3\xbf\xf0\x11\xc7\xf08w\xa3?\xe6\x17y:\x81\xb5\xb3\xbf,\xc2\xae\x90s\x1b\xe4?V\xd2\x18\x7f\x1c?\xe6\xbf\xd1\x11\xf0\xaf\xd3\xb3\xe1\xbfAj\xe3\x11k\xb7\xe6\xbfD\x98\x89\xf19\xf6\xd7\xbf\xcaV\xd9\x83u4\xe1?\x1d!\xc4\xd7\x1f\xcf\xe4\xbf\x8a\xe3\x1a\x98\x1f"\xd6?D\x18\x13(\x86\xd9\xd9?`\x98\x00\xec\xb7\xfd\xea\xbf\xe1n\xfe[\xd5\x1f\xd9\xbf@\xf7!\x96\x9f\x8a\xe2?I\xa3gq\xe7\xb9\xdb\xbfFb\xce\x14\xd8\x88\xd0\xbfNs(\xf5k\xa0\xe1?\xb4\x9b\xbe\x1f1>\xbb\xbf%\xda1>\xbcI\xd1\xbf\x84$\xbcks\x0c\xde?-\xde\xbe\n\xde\x04\xe1\xbf)#\xad\xf45\xaf\xea?\x05,\x9c\xf2\x1ex\xe7?\xea\x1fX\x84]\x99\xea?\xbfi\xae\x08\xd8\xaf\xe1?\\7\x00$\xccv\xc7?8U\xf3\xc8\xe2g\xce\xbf(\xe2\xf3N\xe6\xf3\xcc\xbf\xac0D&\xe1\xa7\xc9?Q\x03\xea\xf0\xe2\x17\xc7?\xb9c\xb8d\xd4\xb4\xe6?LM\x95\n\xacL\xdb?/r\xcf1J?\xc0?`\xf5c\xcaz\x01\xcc?Cm,i\x82+\x8c\xbfD\x0c\r\xa9%\xef\xe3\xbf\xb5HQF\xe7\xf0\xe4\xbf\x1b\xf1\x93\xfc\xa1/\xc9\xbf\x92\xb8{\x03\xda\x86\xd3\xbf\xae\xaa\x82\x04\xea\xf1\xc9\xbfT\x7f\x85b?@\xe5?\xc6\x0bQ\x11\\\xa5\xb3\xbf!\xca\x14\xce\xbaP\xcd?\x8di.\xac\xcbb\xe6?i\xed(\xde\x93\xd5\xc1?\x02\x81\xf3S\xc4\xa2\xdf\xbf\x9d\x18z\\\x810\xd8\xbf\x84#\x00S^p\xe5\xbf\x98e\xe1\xb0\x96\xde\xe8?\xf0*\x98\x96\x1ap\xe2?\x1d$\x00b\xcc\xfc\xe7?\x92\xa7UG|\\\xe7\xbf\x08\xab\xbe(.`\xe5\xbf\xc06\x12\xe6\xae_\xc2?\xfe\xb7n\xebI\xed\xe1?l\x8a\x15\x8b\xf1\xaa\xe8?\xc6\xd9\xf6\x95\xfc2\xd8?5h\xa3\xb2\xdb\xa3\xac\xbf\x15\xc6\xf7I\xc4\xc8\xd8\xbf~\xca"\xaf\xf7\x9c\xe3\xbf\xc2\x87\xbe\x1e\nt\xe2\xbf\x9aP\xbePu\xc2\xe6\xbfkg]\xbe1"\xe3\xbf~\xe2\x0e\xe8E\x1b\xe5\xbf\xfb\xb3\xc3_\xc9\x1d\xde?:\x07\xe9,4\'\xca\xbf\xf0\xf3\xa20\x03E\xe1\xbf\xde\xd8\x16\x99\xa4\x9e\xc4?\x8d\xb5+Q\x8f\x9b\xd1\xbf\xd5,d\x85\xcf3\xe7?-n\x07\xdd\x18\x18\xe3?\xf3.-<\xd2I\xe4?\xa1\x97\x0bZp\xfd\xe0\xbf\x85k\x18\x18.\x9d\xba\xbfT\x9d\x9e\x9b\x0e\xea\xef?\xa5\x9a\x1c+Ku\xd4?W\xeb\x15\xc2nn\xe1?\x80\x98\xa5\xb9\xcaW\xb4\xbf\xe0\x9cb\x86\xce0\xef\xbfn\xe5\xe1\xff\xcc\xde\xc0\xbfk\xafke\xec\x1c\xe2?\x01\xd2\xe18%\xf0\xee\xbf[\xac:5\xed.\xb0\xbf\xd0g\x1ax\x08p\xb7?\xe3\x16q.D:\xe7?|o\xdb\xc3\r\x82\xc5\xbf\xa0\x91\x11^\x80\x1e\xc9\xbf\x02>\xebn@\x87\xe1\xbfa.\x0c\x0e:O\xe4?\x9cc\x07\xfc`/\xe7?\xd8\xa7\x82E\xa3\xe2\xce\xbfv@\x0b\x9f\xe6}\xbf?\x83\xa0\xf4}\x80U\xc6?&2\xfe\xb9VP\xc7?A\x8e_\r$\xdc\xf0\xbf\x12.\xeb\x9a(W\xe0?J\x86\x93\x81*\x02\xdb?\x18\x12\x17YJ\xd0\xb9?\xa8\x89/\xeap\x8d\xbb\xbf\'W\xd8\xed\xceK\xe1?\x8c\x94\xd1N!\xd6\xe6\xbf\x1d\xd4"`\xa5B\xe1\xbf.D,S[\x9e\xaa\xbfv\r\xdc\xf3\x80\xfb\xc6\xbf\xfaB<0\xfc\x98\xe4?B\n8\xfdtl\xbb\xbf\x06\x9bP\x07\xddh\xcd?(\xd9\x06`\xdb\xce\xd8?\xee\nT\xee\x81#\xe6?\x00\xb1\xcd\x1f\x17\xbd\xd7?\xac\'\xad[5\xbe\xe4\xbf\x03]\xa0\xc0\xf7\x06\xca?NI<&kD\xe7?\xcf-m\xa2>\x97\xd9\xbf\\\x1a2\xffz\x15\xe3\xbfB\xe7\xbeh\xf9\x15\xe7\xbf\x81\t\t`C\xd3\xe4?\x85\x01t\xc8\xb0\x19\x9d\xbfv\\x\xb1\x96pS\xbf\xce\xf9w.R\xbd\xe4?\x80\xbc*\x949\xb8\xcf?h\x81)\x8c\x81\x86\xea\xbf\xa6\xb1\n~Oz\xec\xbf\x82vS&z\xc1\xbb\xbf\x01\xc309\xd8\x92\xb4?\xf9\xee\xd3*\x97\xc4\xe7?\xd6\x0fv\x0f\xbf>\xd2\xbf\xefwu>I\xb7\xbf\xbff\xc0\xeb\xad\xbe\x8d\xe2\xbfUh\x1e\xa6\x8a~\xc7?\x07\xecG\x0c\xf7N\xe5\xbf\x8a\xad[\t\xc2\x86\xe3?\xba\xce\xd2\xb8\xe5_\xe8\xbf\x8e\x06P\xf0\x96\x08\xe8?\xc0\x8a\xe3\xf2\x02\x04\xdc?\x1f\xc5\xe6YE\xf0\xe2\xbf8=\x05sN\xf6\xe2?\xd7:\xfe\x16\xbc\xf8\xde\xbf\x96\x84\x89\xd1{a\xe6\xbfU-\xa8\x11>D\xde?Y |$X\x13\xce\xbf\xe4\xdd\x90\x82\xd9\x03\xc8\xbf\xe8\x96\xcd\xa3\xe26\xe9?\xfc\x82\xf5a\x89&\xa7\xbf|\xb6V\xb6S\x06\xde?\xe0\x08\xc7/\x85\xdb\xed?&\xb91\xcf\xa2(\xd5?\x8b?\x83\xfeG[\xc2?\x9c\t\xaaS\xbah\xd5\xbf\x90\xfb\xc4\x9e\xaaJ\xd1?\t\xbbu\xa5U\xce\xe9\xbf\xc3\xb4>\x05\xb2\xf2\xe9\xbfB8\x90\x99\x0b&\xe5\xbf/A\xf8\x84\xe53\xd1\xbf\xfe\xdf\\\x89\xbf\x8f\xeb\xbf\xae\x83\x16WY\xdb\xd2?i\xc4l\xca\xee&\xe1?4J\x90~\xb2r\xe1?P\x9e\xdd\xe4\xf2\x89\xc1?[j\xd4Y\x87b\xd9\xbf\x99e\xa0\x8f\x8a;\xc3\xbf\x8c@\xd1\xdf\xbe\xae\xe0\xbfP0\xf9\xc1\xe7\x8d\xa8?\xb3\xde\x135\x01\xd5\xd8\xbf\xcc\xf5\x0f\x1c\x19\x16\xe1\xbfA1\xe6\x9c\x00G\xe4?Fsw9\x85\xb3\xd8\xbf6\xeck<\x90#\xeb\xbf\xdb\t9\xe1\xd4\\\xea?\xa70\x13\x92/1\xe3?\xdd\xc1\x18.\xf6\xe7\xe8?\x14\xb2\xff-x\xf0\xdb\xbf\xdaD\xa6`\xcfB\xd3?r\x01\xb6\x1c\xc4\xe3\xba\xbf\xec\x1e;\xc5\xb6\xb2\xdc\xbf{\x1f4\xff\x02i\x91?su\xbe.W\x83\xc1?\xa8\xb6\xbf\x14\x80\n\xe1\xbf\\\xc5[\x92\xd5\xd3\xa0?\x98\xaf\xe0\x8b\xd0\x9b\xb3?\xb5w\x88y\xf6b\xe7\xbf\x89\xe4\xd2\n\xf8\xa4\xa1?\xa2\xe5\xdb\x84\xd7\xd3\xeb\xbflhb\xbd\xa7\x85\xc9?\\\x11\x937\x81\xde\xd9?\xa9\xf0\x03`;\xcc\xd2\xbf=l\xfe2\xc5B\xe9?\xd1\xacr{q\xb9\xb9?\xf2~\xff\x8e_\x04\xca?*\x04\xd2\x8c\xe9\xee\xd1\xbf\x9b\x1b\x12F\xe1\xb5\xe3?c\xd9\x18\x03\xa40\xe8?\xa17\xf9\x80\xb3\'\xe5?\xbd\x9d\x1aa\xef\xfa\xe2?\xec\xce\xc63\xe3\x8f\xe3\xbf\x94O{N~\xa3\xdf\xbf\xb8f(X\xad\x19\xca?]\x99\x1a_\xea\xcd\xe5?\x7f]\xc9i3\xff\x94\xbf0In\x97\x8f)\xe7\xbf\x1f\x17\xd6\xa0\xfed\xda?\xf3\x015E,u\xdc\xbf\xc2WV#\xd3}\xc4\xbf\xac)Ia\xcd*\xb5\xbf(\xda8("\xcd\xb3?Us\x9a\xc5\xe8S\xe0?\x95\x93Z\\\xf5\xc7\xe7?\x1bo\xa2\x19\xed\xb1\xc0?Cf,\xb0\xedL\xe8?\x88\xc8\xff\xc8t\xa0\xda?\xcd\x997\xbe\xaad\xc7\xbf\xa5+\x17\x0c\x8b\xe4\xe2?\xed=\x94\xa8\xba\xd1\xdc?\x8f\xc7\xca\xf8|-\xc3\xbf\xeeg\xcefI\x02\xd7?\xd1\xe0\x11\xee\xb9\x8b\xe4?\xe4\x06\xee\xfc\xe4\x16\xe2\xbf\x81\x17\x91\x1f\x85[\xe7\xbfe\xe1a\xb3\x03\x8b\xd4\xbfx\xd6Q\xc2\xe8\r\xe7\xbf\x8f\xefi\x9b\xa7\x1f\xe6?\xec\x87\x03\x83\x98\xb6\xe6?\xbfJ\x1a\xa5S\x85\xd6\xbf\xc7\xd7|\xd0\xe8\xe5\xe6?\x08M\xeb\xb7\x11s\xd7\xbf\x07E7\x02.4\xe1?7+zx\xc5\x8d\xd4\xbf\x84b\xff\xf7\x92\xa3\xe1?\xe9\xe5\xabR\xc8\xa7\xe0?\x00`\xe2\x98\n5\xe2\xbfh\xf2\xfe\xd0\x91z\xe5\xbf\x8c\xa9\xd5\xb7\x8b\xbf\xe3?\x9c\x83\x81G\xbc\x8e\xc9\xbf\x97\xd8k\x96\x11\x17\xe5\xbf6\x10\x11\xde\xb5v\xe6?{\xce\x95\xe1\xfe\xdc\xe2\xbf\xfc5\x07\xd2\xc3\xae\xd6?\x96^\xd8|\x8e\xc0\xdc\xbf\xfc\x8d\x0e7\xd1\xba\xe9?\x93\xd6\xd4\x9d\xa5\xa2\xdb?\xef rm}b\xdf?\xd1>\xa483\xc7\xc9\xbf\xafu\xdb\x16\x16B\xdf?]\xe03\x00\xde\x89\xf0\xbf\xb4E\x05\xa0\xdd\xe6\xe8\xbf\xcbJi`t$\xed?+o$\xab4;\xd9?wQ\xc1\xf0\xd4\x8e\xb1?\xdd\xa0h%Ebt?\x1c\xe9\xd3\xbeW9\xca?\xc6\xf5\xf0\xd9mh\xd2?:\xfdi\x9a)\x9f\xdd\xbf\xdbF\x0f\x874l\xd3\xbfq\xca\x1e?\x02\xca\xdb\xbfe\xf4\xceDi\x8a\xc5?F\x84\xd2-\'Y\xdd?R\xcd\xe7\t~A\xe2?)\xf2\xbb\xb2H\x9f\xd9?\xde\x07\x1c>\x08\xe4\xda\xbf\xfc\xed8\xbbl\xd4\xdb?;go\x1a\xd2L\xeb\xbf,\x96E\x8f\xba\r\xe8\xbf\x80\xec\xfaN\x1e\x97\xd2?\x99\x86\xc0\xe3&\x97\xdc?h\xbc\x9c\xc1\xd9a\xca\xbfrW\x93#j\xb8\xdb\xbf\x9e5\xb9uQ\xf7\xb8?\xb2\xee\x92\x079c\xed?\xd1\xb5\x1e\xfat\xe0\xa6\xbfe\x88\xfd8 =\xe3?Cv\x01\xecp\xcel?C =F\xea\x99\xe2\xbfP\x12\x15\x13\xfeu\xd7\xbf7\xad5:\xbc@\xc9\xbfHI\xdc\x92\x82\xef\xe8?U\xa4\xa3\x9b\xb8\xa5\xe3\xbfd\xe1\xd0\x99\x1c\x0c\xe1?\xcd\x0e\x8c\x90\xcd\xf7\xea\xbfjj\x99\xa3U\x9b\xe8?S\xd6<-X\xcd\xdd\xbf\x1fJG\xa0@\xc8\xcd\xbf\xa1\xd52\xa6\xd2.\xe6\xbf\xa7\x14&\x8bl\xbe\xe8?\x9f\xe3Rb\xb6"\xe8?\x8e\xaf\xc2T\x1dh\xe3?\xcaF>\xe5\x15\xcd\xad\xbfF\x1bu\xa5\xa7G\x86\xbf\x90\x133\xa1\xedC\xe1?-\xd6\x04\xfb\x8f3\xd6?\x81\x92\x04:\x86\x1a\xe6? \xa4\x06ZM\x8d\xb3\xbfh\x91\xc3-\x02\xb4\xe6\xbf[\x1e\x81\x14\xba\x0f\xcc?\xfc\xe3\xf2(\x03,\xd7\xbfR\x943.\xc3[\xe0\xbf}\x1e\xaeh/%\xe8?\xc4=\x1b\xc44\xac\xe9?(i\xfe\x80\xdb\x88\xbf?\x94\xa1\x10\xc4X\xe1\xcc?0\x13\x9b\xfd,\xf0\xd0\xbf\x8c\xbb\xfdV\xd7{\xd0?B$\\j\xb6\xf3\xc4?y\x8c\xe7{C\x9f\xbd?8\xa7"\xcbV\x04\xde\xbfs\x9b\xec\xeaZ\x04\xe9?@sX\xca:\xc6\xe7?\xc1\xb007\xbb\x02\xd7?\x83\xcb\xef\xa9\x99\xa0\xe5?*\x91\x19&\x1c\r\xd6\xbf\xd5\r\xca\xb3\x0bm\xdf\xbfc\xb7G~(\xba\xda\xbf\x07D\x01\xdb\xb5\xeb\xbe?\xc8#\xfc\xe2\xc2\xe2\xe6?_\xfd\x8f\x0f\xa3G\xd9\xbfP1X:\r\xb8\xd2\xbf\x91\xc6NO\xd3\xbe\xe6\xbf\xb9\x844\x8fQ6\xc5?D\xdaS\xd1\xf0\xc9\xe7\xbflP\xc5\xa0\xb1w\xbd?ch\x07\xc7\x14\xcd\xe1?\xbcP\xe0Jq\x1c\xc5\xbf\xce\xed\xfb>\xb0F\xc9?1\xe69\xc7\x0cn\xe0\xbf\xe0\xf4u\xad\xce\xc4\xdd?;]b\x11\xd1 \xa9\xbf\xbe\xc9\x1b\xa2UU\xdc\xbf\x0f\xce\xdd\x17\x99P\xec?\x8f\x87\xd2\xb4\xad\xbf\xe7?\x9b\x0b\xe1\xb5\xf8s\xc2\xbf\xed\x81\xf4\xd6&7\xb1\xbf\x82\x12\xd4\x93S\xa6\xaa?\xc5\xe0Q\'\xbc\xe9\xe0?\xa9bw\x1c0\x16\xd0\xbf\xcaT*\xe7\x9e%\xd1?\xbe\x00Yt\x94\xce\xe9\xbf\xbe1Z1M\xf7\xc2\xbf\xeb\x99a\xf6L+\xea\xbf\xa4sL\x9cKw\xe0?\xf3\x87\xa3\xfa\xca\x08\xe2\xbf\x06\xb4\xb7qES\xcb\xbfw\xdaj\xc7\xcc\x7f\xd3\xbf8\xa9\x85\x18\x95g\xe2?(\x9d}\xd4\xcdB\xe7?\x0e\x83\x00X\xb6\xe0\xea\xbfTm\xca\xc4\xbfN\xce?\xb9\x12\xecx\x8a\x85\xe8?[\xe7\xca|\xaaO\xda\xbfl-\xea\x8c\xd0\xb1\xd1?\xccm\x11\xb3e\xfc\xe2?\xe99al\xf2x\xe6?\x17,\xa0\x85\xc5l\xe7?I\x1dn\x96V\t\xc8?\xa9yP\xe0\x9d\x96\xd6\xbfc\xa9\x7f\xed\xca\xa9\xb7\xbf\xe2\x80\x91\x9f\xa9>\xd9\xbfM\n\x01\x15h \xc2\xbfc\xc0\x8fDCm\xe4?\x1c7\xbfV7\xcc\xd8?(\x14\x8a\x070\xeb\xc3\xbf\xbc\x9b\xec\xc3\xf2I\xb1\xbf\x0f\x8e\'\xab\nr\xe3\xbf\x90\x8a\xf1\xb6\x1e\xb1\xc6>vu.\xf37$\xc4?\xd57\xd1\xf4y\xcc\xe6\xbfw\x10\xe3\xd19\xc1\xe7?\x8c\x1aq\x03kf\xc8?O\xe3(\xf0\xd8\xcd\xd1?\xb6\xbe\xe4\xea\xf8\xec\xd8?S\x88\xcc\xdeC\xf5\xe5?w\xaa\x8eZ\xf6q\xe7\xbff3\xbcO6\x07\xe9\xbf\xae\xd5\xab\xfe;\x17\xa0\xbf\xa4\x1cv\x1aT\xcb\xe6\xbfe\xe3\xb1\xb4:[\xda?\xf0\xbe%\xd29i\xe3?A\xe4$6\x9e\x90\xe5\xbf)\xd8\x0e\xa6\x01\x00\xbe?\xdft\xea\\Y\xbb\xcf\xbfOSt3\xc8\x00\xcf\xbf\xeb\x0b)\'\xc5A\xa2?;\xc6\xcb\xfc\xccG\xe3?\xd2\xa4\x03\x944\x01\xe3?I/\x83\xf5U)\xe5\xbfg\xd4\xae\x89\xcc*\xe0?\x9dF\xf6\x96\x0c\x16\xcb?\xe4\xc0Y\x00n?\xe3\xbf\x8eK\xa4)L\xf5\xda?\xc3\xe6\x15\xea\xc9p\xd1\xbf\x87\x93\x1eS})\xe8?"BvF\x0f\xfc\xdb\xbfT\x94\xc8\xe5N\xa8\xdd\xbfQAdM\xc9\xb1\xe2\xbf\xf0\xdf\x81\x9f\x1d%\xe8?\xb9\xd03I\xe0f\xe7\xbf\x84n\x0c\x173\x1f\xd8\xbf\x05-"\xfb\xa1R\xd6\xbfR\x88\xf1\xc8W\xbf\xe7\xbf\x93\x19\x05\x13\x81\xb4\xde?/\xb3|\xed\xe0y\xe4?FY\x86\x0f\xb5\x81\xd5?dc\x94\xc1\x8e^\xe0\xbf\xf2\x8b\xfeo\x1dK\xe2?\xc0I\x12\x8eC\x9c\xe6?O\x17\x0e\xc0\x18\xbb\xd1?\xb45\x10\x9d\xfdK\xe5?\x8b \x8bn&\xf4\xe1\xbfSM-z\xd9p\xc2?\t\x1aN\xf2\x807\xb1\xbf[\x0bbXvv\xdf\xbfJ\x12:7\xc6\xcf\xe7?\x8a~"\x86O\x01\xdc\xbf\xf5\xd9R@P\x0f\xac\xbfC\xf5\x91.\x8cf\xdc?\\2\xd5\xf4j\xef\xd1?\x8e!\x8e}\xfa\xa0|?h\x95\xc0\x10.\x9c\xc7?\x94=\xa15U\xc4\xed\xbfyl\xa8\xf5ek\xc2\xbf\x13)\xc9\x12\x0bs\xde\xbf.\x11\xbe\x07^\\\xdb\xbf\x1f\xf4p\x1e\xd9W\xd6?\x8a\xc6\xedO\xb5\x98\xeb\xbf\x1f\xc8l\x87\xd4 \xe5?\xf0\x17\xf2\xa4\xdfz\xa0\xbf\xa1E\xf3G\x89\xc2\xde?\xf7@\xa1\xf5K%\xeb?\xbc\xcc;C\x19\xd0\xa8?}\xa2\xb7\xd7N`\xeb?\xbc\x02R\xa1*i\xe4?&\x95\xea/\xed\xc3\xd6\xbfw\xfe]p\x92\xa6\xe5?\x94P\xb2\xca\x08l\xcd\xbf\x9dXA\xa2\xfb\xc2\xe9?`\xe6k\xa4\xb1\x9c\xe6?\xb5\x89q\x03\xfbF\xde\xbfM\x93\xbc\xb5\xebk\xe1?\xa0\xb9\xaa\xa0g\x7ff\xbf\xa8\x0c\x08\xb7\nN\xe7?\xea`\xd9\xca\xcb\xfe\xd2\xbf\xc1\x19y\xcf\xa0J\xe0?\xb8\xed\xe6Cn\x87\xe7??\xd0c\xa5+\x95\xe5?T8Px"W\xde\xbfR^\x80\xe4\xf2\xbf\xe0\xbf\xd5\x88>\x0e\xb0z\xc0?\x06,K\xd0#\xf9\xea?\x05\xa2~\xb5\x10z\xd3?\xde\x03\xa8Z\xa76\xc3?\x0b\x8b\x1ct\x87y\xe8?\x13C2\xa3\xbf~\xe3\xbfJ h\xa0\x89\xe7\xd5\xbf\xf8\xccJ\xee\xf5\xde\xe5?\xa7\xf0a\xfd%\xe5\xd0\xbfh\x048r\x11N\xe1?\x0e\x98\xa2V`z\xe7\xbf^\xc1\x99\x92@N\xba\xbf\x91R\xe5\xe7\xf93\xe3\xbf\xb3Mo~\x9dp\xe0?iT\x9fh\xff"\xeb\xbf\x94E\x1b\xfd=\x98\xd8?\x1an\x1d\xf2\x9f\xe3W?\xfe\x86|\xf6R\x04\xd7\xbf`\x1e.qp\xa3\xb5\xbf7\xeav\xbbO=\xeb\xbf\x04C\x94$F\x9c\xd6\xbf\'\x83\xcb\xbc\x99.\xe3?E\x0eM\x03\x93\xac\xe0?\x86,\xca\xebn\x02\xb0?*;\x02\x1b\xc0\xf7\xe7?\xcbY\x93\xb0\xf7\xf4\xd9?\r\xc1kX\xe6\x06\xd5?rr\xe5Z\xb4\x0b\xe1?\xdd\xd3\r\x0b\xa9}\xbe?'
p60
tp61
bssS'transf'
p62
(ineurolab.trans
TanSig
p63
(dp64
bsS'out_minmax'
p65
g18
(g19
(I0
tp66
g21
tp67
Rp68
(I1
(I17
I2
tp69
g28
I00
S'\x00\x00\x00\x00\x00\x00\xf0\xbf\x00\x00\x00\x00\x00\x00\xf0?\x00\x00\x00\x00\x00\x00\xf0\xbf\x00\x00\x00\x00\x00\x00\xf0?\x00\x00\x00\x00\x00\x00\xf0\xbf\x00\x00\x00\x00\x00\x00\xf0?\x00\x00\x00\x00\x00\x00\xf0\xbf\x00\x00\x00\x00\x00\x00\xf0?\x00\x00\x00\x00\x00\x00\xf0\xbf\x00\x00\x00\x00\x00\x00\xf0?\x00\x00\x00\x00\x00\x00\xf0\xbf\x00\x00\x00\x00\x00\x00\xf0?\x00\x00\x00\x00\x00\x00\xf0\xbf\x00\x00\x00\x00\x00\x00\xf0?\x00\x00\x00\x00\x00\x00\xf0\xbf\x00\x00\x00\x00\x00\x00\xf0?\x00\x00\x00\x00\x00\x00\xf0\xbf\x00\x00\x00\x00\x00\x00\xf0?\x00\x00\x00\x00\x00\x00\xf0\xbf\x00\x00\x00\x00\x00\x00\xf0?\x00\x00\x00\x00\x00\x00\xf0\xbf\x00\x00\x00\x00\x00\x00\xf0?\x00\x00\x00\x00\x00\x00\xf0\xbf\x00\x00\x00\x00\x00\x00\xf0?\x00\x00\x00\x00\x00\x00\xf0\xbf\x00\x00\x00\x00\x00\x00\xf0?\x00\x00\x00\x00\x00\x00\xf0\xbf\x00\x00\x00\x00\x00\x00\xf0?\x00\x00\x00\x00\x00\x00\xf0\xbf\x00\x00\x00\x00\x00\x00\xf0?\x00\x00\x00\x00\x00\x00\xf0\xbf\x00\x00\x00\x00\x00\x00\xf0?\x00\x00\x00\x00\x00\x00\xf0\xbf\x00\x00\x00\x00\x00\x00\xf0?'
p70
tp71
bsS'out'
p72
g18
(g19
(I0
tp73
g21
tp74
Rp75
(I1
(I17
tp76
g28
I00
S'\x94\x87\xed\xad\xe6}\xe6\xbfLNE[5\xff\xef\xbfPNu\xc8\xc3\xa4\xef\xbf\xf5l\xffq\x9e\xcb\xe0\xbf\xc3\xfb\xe1*hN\xe7?h\xe1\x93"n\r\xeb\xbf\x96&\x84\xb15!\xe0?d\xf2\x98/ER\xdc?\xc0\xaf\xc7\xda+\xbb\xef\xbf\x0c\xc0\xe8\xf0\x0e\xf4\xee\xbftm\x1e\x1b\x08\x13\xef\xbf-\xd4^2\xbb\xca\xef\xbf[\xbb\xf5x2C\xe6?\xe1z\xa3\xd6\x9c\x05\xee\xbf4`r|P\xdf\xee\xbf</\n\xcb\xff\xf6\xef\xbf_n\xab\xaa^\t\xcf\xbf'
p77
tp78
bsbag0
(g8
g2
Ntp79
Rp80
(dp81
g12
g13
sg14
I17
sg15
I1
sg16
I1
sg17
g18
(g19
(I0
tp82
g21
tp83
Rp84
(I1
(I17
I2
tp85
g28
I00
S'\x00\x00\x00\x00\x00\x00\xf0\xbf\x00\x00\x00\x00\x00\x00\xf0?\x00\x00\x00\x00\x00\x00\xf0\xbf\x00\x00\x00\x00\x00\x00\xf0?\x00\x00\x00\x00\x00\x00\xf0\xbf\x00\x00\x00\x00\x00\x00\xf0?\x00\x00\x00\x00\x00\x00\xf0\xbf\x00\x00\x00\x00\x00\x00\xf0?\x00\x00\x00\x00\x00\x00\xf0\xbf\x00\x00\x00\x00\x00\x00\xf0?\x00\x00\x00\x00\x00\x00\xf0\xbf\x00\x00\x00\x00\x00\x00\xf0?\x00\x00\x00\x00\x00\x00\xf0\xbf\x00\x00\x00\x00\x00\x00\xf0?\x00\x00\x00\x00\x00\x00\xf0\xbf\x00\x00\x00\x00\x00\x00\xf0?\x00\x00\x00\x00\x00\x00\xf0\xbf\x00\x00\x00\x00\x00\x00\xf0?\x00\x00\x00\x00\x00\x00\xf0\xbf\x00\x00\x00\x00\x00\x00\xf0?\x00\x00\x00\x00\x00\x00\xf0\xbf\x00\x00\x00\x00\x00\x00\xf0?\x00\x00\x00\x00\x00\x00\xf0\xbf\x00\x00\x00\x00\x00\x00\xf0?\x00\x00\x00\x00\x00\x00\xf0\xbf\x00\x00\x00\x00\x00\x00\xf0?\x00\x00\x00\x00\x00\x00\xf0\xbf\x00\x00\x00\x00\x00\x00\xf0?\x00\x00\x00\x00\x00\x00\xf0\xbf\x00\x00\x00\x00\x00\x00\xf0?\x00\x00\x00\x00\x00\x00\xf0\xbf\x00\x00\x00\x00\x00\x00\xf0?\x00\x00\x00\x00\x00\x00\xf0\xbf\x00\x00\x00\x00\x00\x00\xf0?'
p86
tp87
bsg33
g75
sg40
g18
(g19
(I0
tp88
g21
tp89
Rp90
(I1
(I1
tp91
g28
I00
S'yDN\xa29x\xc3?'
p92
tp93
bsg47
(dp94
g21
g18
(g19
(I0
tp95
g21
tp96
Rp97
(I1
(I1
tp98
g28
I00
S'\x03\x17K\x87\xae\xf8\xc3\xbf'
p99
tp100
bsg55
g18
(g19
(I0
tp101
g21
tp102
Rp103
(I1
(I1
I17
tp104
g28
I00
S'`\x02h|\x94\xe7\xb1\xbf#\xb9\xc0C\x9c\xbe\xe0?W"\xafb\xcd6\xc9?^A2\r&\xb0\xb7?o\x98x1\xb6\x8c\xb4\xbf\x13s\xdf\xbe\x84\x83\x91?\xc3u?\xcc\xa1o\xae\xbf\xff\xed\x86\xc4\xe2m\xb0\xbf3\xe4\x91{)\xf9\xb5?\x83\xf0I\xbcG\x9c\xc9\xbfb\xb7\xc9X\xbar\xd2\xbf\xe6\xe3s-$T\xd7\xbf\x1d^\xc7\xd8\x7f\x96\xad?\x90\xf0\xe7\x1a\x02\x13p\xbf\xa8\xea?\x9f\xf3!\xb5\xbf\xc6hN\xef\x00\xd7\xd3\xbf\x18\xc5gP:S\xbc?'
p105
tp106
bssg62
g63
sg65
g18
(g19
(I0
tp107
g21
tp108
Rp109
(I1
(I1
I2
tp110
g28
I00
S'\x00\x00\x00\x00\x00\x00\xf0\xbf\x00\x00\x00\x00\x00\x00\xf0?'
p111
tp112
bsg72
g18
(g19
(I0
tp113
g21
tp114
Rp115
(I1
(I1
tp116
g28
I00
S'Wl\xa8z#R\xc3?'
p117
tp118
bsbasg14
I34
sg15
I1
sg17
g18
(g19
(I0
tp119
g21
tp120
Rp121
(I1
(I34
I2
tp122
g28
I00
S'\x00\x00\x00\x00\x00\x00\x00\x00\x00\x00\x00\x00\x00\x00\xf0?\x00\x00\x00\x00\x00\x00\x00\x00\x00\x00\x00\x00\x00\x00\xf0?\x00\x00\x00\x00\x00\x00\x00\x00\x00\x00\x00\x00\x00\x00\xf0?\x00\x00\x00\x00\x00\x00\x00\x00\x00\x00\x00\x00\x00\x00\xf0?\x00\x00\x00\x00\x00\x00\x00\x00\x00\x00\x00\x00\x00\x00\xf0?\x00\x00\x00\x00\x00\x00\x00\x00\x00\x00\x00\x00\x00\x00\xf0?\x00\x00\x00\x00\x00\x00\x00\x00\x00\x00\x00\x00\x00\x00\xf0?\x00\x00\x00\x00\x00\x00\x00\x00\x00\x00\x00\x00\x00\x00\xf0?\x00\x00\x00\x00\x00\x00\x00\x00\x00\x00\x00\x00\x00\x00\xf0?\x00\x00\x00\x00\x00\x00\x00\x00\x00\x00\x00\x00\x00\x00\xf0?\x00\x00\x00\x00\x00\x00\x00\x00\x00\x00\x00\x00\x00\x00\xf0?\x00\x00\x00\x00\x00\x00\x00\x00\x00\x00\x00\x00\x00\x00\xf0?\x00\x00\x00\x00\x00\x00\x00\x00\x00\x00\x00\x00\x00\x00\xf0?\x00\x00\x00\x00\x00\x00\x00\x00\x00\x00\x00\x00\x00\x00\xf0?\x00\x00\x00\x00\x00\x00\x00\x00\x00\x00\x00\x00\x00\x00\xf0?\x00\x00\x00\x00\x00\x00\x00\x00\x00\x00\x00\x00\x00\x00\xf0?\x00\x00\x00\x00\x00\x00\x00\x00\x00\x00\x00\x00\x00\x00\xf0?\x00\x00\x00\x00\x00\x00\x00\x00\x00\x00\x00\x00\x00\x00\xf0?\x00\x00\x00\x00\x00\x00\x00\x00\x00\x00\x00\x00\x00\x00\xf0?\x00\x00\x00\x00\x00\x00\x00\x00\x00\x00\x00\x00\x00\x00\xf0?\x00\x00\x00\x00\x00\x00\x00\x00\x00\x00\x00\x00\x00\x00\xf0?\x00\x00\x00\x00\x00\x00\x00\x00\x00\x00\x00\x00\x00\x00\xf0?\x00\x00\x00\x00\x00\x00\x00\x00\x00\x00\x00\x00\x00\x00\xf0?\x00\x00\x00\x00\x00\x00\x00\x00\x00\x00\x00\x00\x00\x00\xf0?\x00\x00\x00\x00\x00\x00\x00\x00\x00\x00\x00\x00\x00\x00\xf0?\x00\x00\x00\x00\x00\x00\x00\x00\x00\x00\x00\x00\x00\x00\xf0?\x00\x00\x00\x00\x00\x00\x00\x00\x00\x00\x00\x00\x00\x00\xf0?\x00\x00\x00\x00\x00\x00\x00\x00\x00\x00\x00\x00\x00\x00\xf0?\x00\x00\x00\x00\x00\x00\x00\x00\x00\x00\x00\x00\x00\x00\xf0?\x00\x00\x00\x00\x00\x00\x00\x00\x00\x00\x00\x00\x00\x00\xf0?\x00\x00\x00\x00\x00\x00\x00\x00\x00\x00\x00\x00\x00\x00\xf0?\x00\x00\x00\x00\x00\x00\x00\x00\x00\x00\x00\x00\x00\x00\xf0?\x00\x00\x00\x00\x00\x00\x00\x00\x00\x00\x00\x00\x00\x00\xf0?\x00\x00\x00\x00\x00\x00\x00\x00\x00\x00\x00\x00\x00\x00\xf0?'
p123
tp124
bsg33
g36
sS'trainf'
p125
g0
(cneurolab.core
Trainer
p126
g2
Ntp127
Rp128
(dp129
S'_train_class'
p130
cneurolab.train.spo
TrainCG
p131
sS'__module__'
p132
S'neurolab.train.spo'
p133
sS'params'
p134
(dp135
S'epochs'
p136
I50000
sS'train'
p137
(dp138
S'rr'
p139
I0
ssS'goal'
p140
F2e-05
sS'show'
p141
I0
ssS'defaults'
p142
(dp143
g136
I500
sg137
(dp144
g139
I0
ssg140
F0.01
sg141
I100
ssS'error'
p145
(lp146
cnumpy.core.multiarray
scalar
p147
(g28
S'\xa7\xdf\xa9\xd9\x86_A@'
p148
tp149
Rp150
ag147
(g28
S'\xa5X(\xe9)\x8a@@'
p151
tp152
Rp153
ag147
(g28
S'@b\x08\xd9y\xce%@'
p154
tp155
Rp156
ag147
(g28
S'\xf6\xc55[\xe6\x9b$@'
p157
tp158
Rp159
ag147
(g28
S'\x939O\xfb\xa3`$@'
p160
tp161
Rp162
ag147
(g28
S'\x11\xf4\x97\xaeW: @'
p163
tp164
Rp165
ag147
(g28
S'\xf7Wa{,\r @'
p166
tp167
Rp168
ag147
(g28
S'E"\xa5\xd2~\xcc\x1e@'
p169
tp170
Rp171
ag147
(g28
S'=[q\xef\xb1\xb3\x1e@'
p172
tp173
Rp174
ag147
(g28
S'E\xd5\xc0\x80\xca\x0b\x1e@'
p175
tp176
Rp177
ag147
(g28
S'\xa5\x1e\xb6\x9bS\x03\x1e@'
p178
tp179
Rp180
ag147
(g28
S'\xe4\xb5\x0bV\xc6>\x1d@'
p181
tp182
Rp183
ag147
(g28
S'CWbe6(\x1d@'
p184
tp185
Rp186
ag147
(g28
S'k\xbb"\x99\xe1S\x1c@'
p187
tp188
Rp189
ag147
(g28
S'z\x15\xf1b\xda;\x1c@'
p190
tp191
Rp192
ag147
(g28
S'3>\xebmp\x0e\x1c@'
p193
tp194
Rp195
ag147
(g28
S'\x96ll\x84\t\x00\x1c@'
p196
tp197
Rp198
ag147
(g28
S'\x19\xc2\xccE\xd9\xc2\x1b@'
p199
tp200
Rp201
ag147
(g28
S'd\x82\x844\xd4\xc1\x1b@'
p202
tp203
Rp204
ag147
(g28
S'\xb5o\xb6]\x01\x86\x1b@'
p205
tp206
Rp207
ag147
(g28
S'\xa8-\xabPb\x85\x1b@'
p208
tp209
Rp210
ag147
(g28
S'\x84\xb6\xfc\xf4\xf1b\x1b@'
p211
tp212
Rp213
ag147
(g28
S'\x06F\xe2|0`\x1b@'
p214
tp215
Rp216
ag147
(g28
S'\xab\x81\rK\x91\x17\x1b@'
p217
tp218
Rp219
ag147
(g28
S'\x98\x86%\xe2\x92\x14\x1b@'
p220
tp221
Rp222
ag147
(g28
S'}\xb3f\xaf\xca\xf2\x1a@'
p223
tp224
Rp225
ag147
(g28
S'q\x13~\xc2i\xdb\x1a@'
p226
tp227
Rp228
asS'__name__'
p229
S'TrainCG'
p230
sS'__doc__'
p231
S'\n    Newton-CG method\n    Using scipy.optimize.fmin_ncg\n\n    :Support networks:\n        newff (multi-layers perceptron)\n    :Parameters:\n        input: array like (l x net.ci)\n            train input patterns\n        target: array like (l x net.co)\n            train target patterns\n        epochs: int (default 500)\n            Number of train epochs\n        show: int (default 100)\n            Print period\n        goal: float (default 0.01)\n            The goal of train\n        rr float (defaults 0.0)\n            Regularization ratio\n            Must be between {0, 1}\n        \n    '
p232
sbsS'connect'
p233
(lp234
(lp235
I-1
aa(lp236
I0
aa(lp237
I1
aasS'errorf'
p238
(ineurolab.error
SSE
p239
(dp240
bsg65
g18
(g19
(I0
tp241
g21
tp242
Rp243
(I1
(I1
I2
tp244
g28
I00
S'\x00\x00\x00\x00\x00\x00\xf0\xbf\x00\x00\x00\x00\x00\x00\xf0?'
p245
tp246
bsg72
g115
sb.