ccopy_reg
_reconstructor
p0
(cneurolab.core
Net
p1
c__builtin__
object
p2
Ntp3
Rp4
(dp5
S'layers'
p6
(lp7
g0
(cneurolab.layer
Perceptron
p8
g2
Ntp9
Rp10
(dp11
S'initf'
p12
cneurolab.init
initnw
p13
sS'ci'
p14
I34
sS'co'
p15
I21
sS'cn'
p16
I21
sS'inp_minmax'
p17
cnumpy.core.multiarray
_reconstruct
p18
(cnumpy
ndarray
p19
(I0
tp20
S'b'
p21
tp22
Rp23
(I1
(I34
I2
tp24
cnumpy
dtype
p25
(S'f8'
p26
I0
I1
tp27
Rp28
(I3
S'<'
p29
NNNI-1
I-1
I0
tp30
bI00
S'\x00\x00\x00\x00\x00\x00\x00\x00\x00\x00\x00\x00\x00\x00\xf0?\x00\x00\x00\x00\x00\x00\x00\x00\x00\x00\x00\x00\x00\x00\xf0?\x00\x00\x00\x00\x00\x00\x00\x00\x00\x00\x00\x00\x00\x00\xf0?\x00\x00\x00\x00\x00\x00\x00\x00\x00\x00\x00\x00\x00\x00\xf0?\x00\x00\x00\x00\x00\x00\x00\x00\x00\x00\x00\x00\x00\x00\xf0?\x00\x00\x00\x00\x00\x00\x00\x00\x00\x00\x00\x00\x00\x00\xf0?\x00\x00\x00\x00\x00\x00\x00\x00\x00\x00\x00\x00\x00\x00\xf0?\x00\x00\x00\x00\x00\x00\x00\x00\x00\x00\x00\x00\x00\x00\xf0?\x00\x00\x00\x00\x00\x00\x00\x00\x00\x00\x00\x00\x00\x00\xf0?\x00\x00\x00\x00\x00\x00\x00\x00\x00\x00\x00\x00\x00\x00\xf0?\x00\x00\x00\x00\x00\x00\x00\x00\x00\x00\x00\x00\x00\x00\xf0?\x00\x00\x00\x00\x00\x00\x00\x00\x00\x00\x00\x00\x00\x00\xf0?\x00\x00\x00\x00\x00\x00\x00\x00\x00\x00\x00\x00\x00\x00\xf0?\x00\x00\x00\x00\x00\x00\x00\x00\x00\x00\x00\x00\x00\x00\xf0?\x00\x00\x00\x00\x00\x00\x00\x00\x00\x00\x00\x00\x00\x00\xf0?\x00\x00\x00\x00\x00\x00\x00\x00\x00\x00\x00\x00\x00\x00\xf0?\x00\x00\x00\x00\x00\x00\x00\x00\x00\x00\x00\x00\x00\x00\xf0?\x00\x00\x00\x00\x00\x00\x00\x00\x00\x00\x00\x00\x00\x00\xf0?\x00\x00\x00\x00\x00\x00\x00\x00\x00\x00\x00\x00\x00\x00\xf0?\x00\x00\x00\x00\x00\x00\x00\x00\x00\x00\x00\x00\x00\x00\xf0?\x00\x00\x00\x00\x00\x00\x00\x00\x00\x00\x00\x00\x00\x00\xf0?\x00\x00\x00\x00\x00\x00\x00\x00\x00\x00\x00\x00\x00\x00\xf0?\x00\x00\x00\x00\x00\x00\x00\x00\x00\x00\x00\x00\x00\x00\xf0?\x00\x00\x00\x00\x00\x00\x00\x00\x00\x00\x00\x00\x00\x00\xf0?\x00\x00\x00\x00\x00\x00\x00\x00\x00\x00\x00\x00\x00\x00\xf0?\x00\x00\x00\x00\x00\x00\x00\x00\x00\x00\x00\x00\x00\x00\xf0?\x00\x00\x00\x00\x00\x00\x00\x00\x00\x00\x00\x00\x00\x00\xf0?\x00\x00\x00\x00\x00\x00\x00\x00\x00\x00\x00\x00\x00\x00\xf0?\x00\x00\x00\x00\x00\x00\x00\x00\x00\x00\x00\x00\x00\x00\xf0?\x00\x00\x00\x00\x00\x00\x00\x00\x00\x00\x00\x00\x00\x00\xf0?\x00\x00\x00\x00\x00\x00\x00\x00\x00\x00\x00\x00\x00\x00\xf0?\x00\x00\x00\x00\x00\x00\x00\x00\x00\x00\x00\x00\x00\x00\xf0?\x00\x00\x00\x00\x00\x00\x00\x00\x00\x00\x00\x00\x00\x00\xf0?\x00\x00\x00\x00\x00\x00\x00\x00\x00\x00\x00\x00\x00\x00\xf0?'
p31
tp32
bsS'inp'
p33
g18
(g19
(I0
tp34
g21
tp35
Rp36
(I1
(I34
tp37
g28
I00
S'\xf9\x18\x9c\x8f\xc1\xf9\x98?i6\xdd\xf8\xf7\xd6\xb1?\xd1*0\xf6\x94\x87\xc8?7\xdd\xf8\xf7\xd6\x11\xc4?\xb1\xa7<\xc4\\h\xc5?\xda\x95\xa8]\x89\xda\xd5?\xee\x8c^\xaa\x9f\x13\xd6?_\xcbd\x91\x03\x84\xd4?\xfb\x18\x9c\x8f\xc1\xf9\xa8?\r\xef\x8c^\xaa\x9f\xa3?\x0e\xef\x8c^\xaa\x9f\xc3?\xbb\x12\xb5+Q\xbb\xb2?\x04\x84\x14\xf7\xb5L\xb6?\x0e\xef\x8c^\xaa\x9f\xc3?8\x1f\x83\xf318\xbf?\xbb\x12\xb5+Q\xbb\xb2?\x9e\xd1K\xf5s\xc2\xca?\xa6\x1b\xff\xde:\x82\xd2?\xda\x95\xa8]\x89\xda\xd5?B\x8a\xfbZ&\x8b\xcc?L\xf5s\xc2\x1a\xde\xc9?-r\x80\x90\xe2\xbe\xc6?i6\xdd\xf8\xf7\xd6\xc1?C\x8a\xfbZ&\x8b\x9c?\xc5}-\x93E\x0e\xb0?\xe6B\xab\xc0\xd8S\xae?M\xf5s\xc2\x1a\xde\xb9?\x0e\xef\x8c^\xaa\x9f\xb3?\xbc\x12\xb5+Q\xbb\xc2?M\xf5s\xc2\x1a\xde\xb9?\xb1\xa7<\xc4\\h\xa5?\xf1\xad#(\xcd\xa6\xbb?\x04\x84\x14\xf7\xb5L\xb6?\x94f\xd3\x8d\x7fo\xbd?'
p38
tp39
bsS's'
p40
g18
(g19
(I0
tp41
g21
tp42
Rp43
(I1
(I21
tp44
g28
I00
S'\x14-\x0e\x9d>:\x1f@e\x83\x13\x0b\x1du\x06\xc0\xec\xc22\xa38r\x04\xc0\x88.t\t\x95\xab\xfc\xbfs\xe2\xc1\xe4\xe8`\xf8\xbf\xfbd\xb4%J\x7f\xe5?\x04\xc0\xd7PGo\x1c@\xfb\x8e\x99\xbc\x9e\xeb\xfa\xbf9\xf4\x81\xbf\x8e\xcb\xf1?X\x89a\x96;+\x07\xc0\xc4\xfa~"G\xb8\xf9?\xe4\x9fo]0\r\xff?\x94h}=t\xbc\xf5?\\"\xd7\x99E\x9c\xd3\xbf.\x9f=!\x8a\x81\x11\xc0P\xe3\x17\x9cM\xbf\x0b\xc0p\xc9\xc7\x0c)\xef\xfd?T|\x0f\xed\xeb\x97\xee?X\xc4t~~\xa0\xfd?\x08\xaeW\n\xc0\xb7\x1c@\xfcJ\x95\x1f\r\x0b\xfd\xbf'
p45
tp46
bsS'np'
p47
(dp48
g21
g18
(g19
(I0
tp49
g21
tp50
Rp51
(I1
(I21
tp52
g28
I00
S'\x0f\x9f\xe6\xcf\xd2\xaf!@\xd5jw\xf7\x06\x03\n\xc08\xf7\xbc\x9c2P\x02\xc0\xa5\r\xfc\x149\x9e\x05\xc0\x9a\xc66\x94\x89\xd6\xf4\xbfS\xd8?c\xd1\x98\xe1?zNM\x10\xfcL @\x96\x14\x93\x9c\xbd\xbf\xfb\xbf>\x8d\xf9pUL\xf0?\xdc\xe6\xd5\x12\x11/\r\xc0\xbe\xf0p\xa4\x802\x00@\x80y\x14\xaf\x89\xec\xfe?\xc4\x0c8\x8b\x9d\x06\x00@R\xd6[\xc9\xbf9\xea\xbf\x94\xe8\xf3\xb6\x17\xbf\x13\xc0Tvg\x18\x8cH\x10\xc0\xab\x0f\xb3\xf1\xdc\xf9\x01@^%\xdcr\xd7\xd1\xf5?\x01\xff+\xc7l?\xff?M\x91z\x96\x8cm @\xa1_>l\x14g\xfc\xbf'
p53
tp54
bsS'w'
p55
g18
(g19
(I0
tp56
g21
tp57
Rp58
(I1
(I21
I34
tp59
g28
I00
S'^SMtP\r\xd8\xbf\xd0\x89h\x85\xd8\xfe\xd2\xbf\xe8"=\xc8X\xbf\xd2?Y\x00\xa0*\xb3\xf7\xe1\xbfw\x98E$7w\xf0?<j\x84\x96LO\xdf\xbf\x94\x1bf\x0bS\xd4\xcc\xbf>]-\xb0\xe0\xe5\xee\xbf\xc2\x11B\x9f\x08!\xda\xbf\x83\xb6A\x8b2\xf3\xcb\xbf\x93U0\x86\xc3%\xc1?z\x90\xbbUX;\xab\xbfnA\x82\x1f\x1fQ\xe5\xbf/\t\xcc\x13 =\xe2\xbf\x85\xb7;\x7f\xacX\xd8\xbfO\x00!dP.\xe5\xbf\xca\xe8\xc6I\xb8?\xb9?3\xde\xf8J\xb7\xb0\xdb\xbf\x80\x05\x83\x0f$,\xd1?\xd6Y\xe209\xbf\xdc?K\x9b\'\xf0\xcc\x83\xe0\xbf$\x995l\xca\xc4\xe6\xbf\xce\x1b\rh&\x1a\xf1\xbf\xf6\xafc\x0c\x0e\x1b\xc1?\x89\xb3j\x9d\x1b\x12\xb7\xbf\xbb\xa8\xa0s2y\xcf\xbf\x89wQ!\xbd\xb1\xe4\xbf\x95\x9a\xdc_\xb8\xbf\xe7?\x1e\x9e\xd5\xf1m\xab\xa9?[>\x0b\x13\xd7\x90w?L\xc0\xb9\xbc\xc2\xbe\xef\xbf\xfc\\)\xe2\x84+\xe2?\xed$\x19\x0b\xd6\x8f\xd0\xbf\x0c\x0b\x1d]R\xda\xcf\xbf\xc4\xaayl\x91\xf6\xe6?y\x97\x90\x97\xb0\xfc\xdb?@\xc3}D\r1\xe1?\x81\xc3\x98\x818[\xe3?J90\xb9\xea\x06\x9e\xbf\xb5\xb2\ry\xdb\xaf\xcd?\xf9\n\xb7![\r\xd6\xbf\'\xf5w\n\xe7\xf8\xec?\xe9\xcb\x9c\t\xb4\xa5\xe5\xbf\x12s\x879\xa5H\xc8?Lm\xbe\x87\xfe9\xe8\xbfW_h\x0c@\x80\xeb\xbfG\x04\xa3\x11hy\xb2?\x0c\r\xc9\xa5\xb7\xf2\xca?\xed\xabB\x10\xb2P\xe4\xbf\xd1\xdb6IcG\xe1\xbfu\x8ad\xae\x8a\x8e\xeb\xbf\xb4j\xb1\x05b/\xd2?\xc4\xdb\x92\xfbr\xdb\xe5?\x12\xa2=oh\xa9\xde\xbf]\xce)\x13?C\xe5?\xb97\xc8\xf5~\xb5\xc1?\x06f\x0f\xc2\x8aJ\xe1?\xd1\xec\xc9\xb7\x05\x94\xd8?X\x8e<\xd1\x05b\x96\xbfV\xd5\xaf\x95;\x1b\xe5?Q\xeaNN\xb4\x15\xda\xbfd\xc6\xd0B\xd1\x05\xd0?\xee\xbe\xf6\xdb\xb4\x03\xd1\xbf\xe2\x1f\x83\xd5d\xf9\xd7?\xecx\x03\x0c\xa5\xed\xe5?V\xcb\xcdR\xe1\x88\xd3?\xf3]_\xcar\x1b\xdb\xbf\xfe\xde\xed\xbfNf\xe5\xbf\xba\x0e\x02D\xda\x93\xed?\xac\x9e\x10\x1e\x8e/\xdf?\xac5\xd3\xacu\x81\xe9?/\xf6\x04\x80N\xe1\xea?+\x80\x03\x07/2\xd9\xbf,\x14D\x08\x7fs\xda\xbf*,\x87\x8b\xccB\xe6\xbf\x1f\\\xe3\xddl\xee\xdb\xbf\xe4\xe4\xe3|X\xf2\xae\xbfH\x1c\xd8<Uc\xb9?\x8e\xf21\xef`\xe2\xdc?\xe3\x0e\xd9\x0ev\xd3\xeb?\x1e\xe7\xc9\xe8\x94\xb0\xe8?-#\x12\xb5\xd9\x8d\xa1?\xf3\xac\x9a\x9c\x0c\xab\xb4?\x08\x8bM9\xec\xf8\xeb?\x8aNmO\x82P\x96\xbf\x1d\xe7\x97G\x16t\xdf?\xf0.\x04LU\x9f\xce\xbf\xcb\x87)\x98\xec\xe7\xa9?\xf2\xf0H\xc4\n\xab\xcf\xbf\xe0\xcd\xc3yW\xfb\xd1\xbf\xff\x161|\xa3\xa2\xd7\xbfDHX\xdch0\xe5\xbf ;/bl\xf2\xaf?\xc8 !\xd3\x15\x9e\xcd\xbf\x0b~\x9d\x94\x12.\xed\xbf\xfb\xf0\xdc\x97\x8c\xfb\xeb\xbf\xcaR\x9927y\xdf\xbf\x97\xbe\xa1xM\r\xd8\xbfv\xc8\x9bC\x9c\x0c\xd2?\xae\xcaXCY\x97\xe5?\xbf\xae\x9d\xd1h\xaf\xb6?#\xed\xb1:\x81\x8a\xb9\xbf\xea\x0epC\x01(\xce\xbf\x937*4\x9b"\xaf?(\x94}\xbd\xb8a\xdf\xbf\xd1C\t\x1b\xa6\xf8\xaa?\xaa\x01\x9c\xd9\xe2\xbd\xe6\xbf\xf6k\xd3\xa9\xd6\xd4\xd5\xbf\x18"1\xaf+\xbf\xe1?\xa1\xd1\xb7l\xa66\xeb?Z\xce_d\xf5\xff\xe6?\xd0=b\x96H\xd1\xd9?\xaf\xe9\x8a\\\xf7\x91\xac\xbf\x8cO\xa1\x13{\xe1\xa4?\x18\x97IUk\xd1\xea?q\x1f\x8f\xd2b\x07\xdc?\xf0\x820\x03\xe1\xfa\xe8?<\x89\xc2%\x9c\n\xb3?\xe2\x12\x99\x8b`\x96\xcb\xbf\xeb0\xd2\xf3\xd4\xda\xef?\x99\xe7\xc4Cjp\xe7?&{~?\xb9\x11\xeb\xbfl\xf0\xfbk\xc6\x82\xe0?\xf9\xbe\xad\x0c`\x02\xe4?\x0f\x83\x8c\x88\xc5/\xa1\xbf\xf8\'\xbb\xae\x94~R\xbf\xa6\x86r\x16\x16<\xe1?B \xcb\x16\x1a\xf9\xc1\xbfv\ty>\xe2\xc0\xd5\xbf\xd9|\x01\rkL\xed\xbf\xc3\x8f\x0e\xe7(\x00\xd8?7\xe2\x7fv\xce\x90\xdc\xbf\xd5\xa0\x9b\x1a\xad\xe4\xe4\xbf\xff\x94\xdb\x078k\xdb?\x0e\x99\xffV\x8cY\xd2?`\x16\xdf(\xa3^\xac\xbf\xdb\x1ap\x1a\x03S\xd1\xbf\xae\x8f\xd4\x96:-\xd2?\xc6D\xb6\x0c>x\xd3?Y\xd1{\xd2\xf4\xc2\x8c?\xf0AcK]\xf3\xe4\xbf\xf5T\xccq\xa8\x18\xba\xbf3K\xe2\xeb\xcb\\\xe0\xbfE\xe6\xe2\xeb\x1f\xa7\xe5\xbfg\xcby3\xf3\xba\xda\xbf\r\x85D\x96\xb6\xbc\xe9?\xe2I\x1e\x89\x0c\xe3\xd8?\\\xa0\x8b\xa0j\xbf\xe9\xbf\xfe\xa9\xed^\xcb\xd1\xd7?G\xb4<\xa4\xf8\xb9\xc0\xbf\x99\xfb!%w\xbf\xe6?O\xa9\x96\x01\xdb\xc5\xd1\xbf\xee]P^\xe9\xfc\xac\xbf\x9b\xbe\x86\xe4\\\x11\xcf\xbf\x19e\xd4e!\x06\xe1\xbf\x90H\xa9\xbf\x03\xfb\xc8?]5\xcb\x031C\xe6\xbf{e!\x1a\x06+\xe4?\xcf7\xfa\xbaV\x8b\xdd\xbfl\xccx\x8b2j\xda?F\xa5@\xd0\x084\xe7?o\xbc\x9d\x1d\xb7\x8e\xe8\xbfI\xc8I\x83x,\xe2?\xb9\xca\x9e=V\x0c\xe6?\xf8_t\x96S4\xd5?\xc3\xcaA:\x9c\x10\xdf?\xd51%\xc2\xe7L\xce?"\xee|\xc5aO\xe7?\x8cI\xd8\xdd+\xcc\xea?z\x10\xaba\x1c\xa7\xe7?\xbc\xe3\xa4\x00\x07A\xe0?\xcf\x03\xef:\x15\xe6\xe0?\xb0P\x9bdX\xff\xd3?@\xf5\xe30*\xa4\xd5\xbf\xa2\xa9\xf1&\x92\xbd\xe6?\xb8\x15\xa7\xf7\x8a\x11\xe2?\\Pj\x8a*\x8b\xe3\xbf|\x84\xcf\xc8\x1c\xfd\xcb?\xd5\xaf\xec{\x0fX\xe2\xbfy&@\xa9{Q\xe2?\x0fE,\x9b\x95\xc7\xe1\xbf\x03B3F\xcfN\xb9\xbfT\x16\xeb\xe3\x86\xad\xc5?h\x97\nj\xbdc\xdd\xbfzU?\xa2\x11]\xde?\x13xH\x97\xc9E\xe5\xbfP\x01\x85\xb3\xaen\xa2?^5\xd9\x03\xe9f\xe2\xbf\xf5\xd8\x1b4 \xd4\xe8?\xd7Ci\'6\xe5\xdc?N\x99\x1a\xc6\x15\x9f\xcf?\x1f\xec{\'Ub\xe5\xbf\xe0\xe5\x08e\xb3\xc4\xe1?`C\xe7\xe8\x1a\xa2\xd8\xbf\x8dD\x9d\x9e.\xaa\xe5\xbfD\xd8\xa3\x18\x14d\xdf?\xadz\xa5^Y\x07\xe0\xbf\xe8\xf1\x8b_\x93j\xe6\xbf\xbc!\xca\x07\xcc\xa2\xe6?$\xce\xaa\xab\xec\x8f\xe1\xbf\x8a\xc7\x08\xa3\x13\xbe\xda?\xfdL\xb05LS\xe8\xbfJ\xd9K\xe1\x05\xbb\xe2\xbf\xa8%\x86\x8bu\x86\xc6?\xe8EK\xd4\xb4\x07\xe9\xbf`V\xbe\xe3Sc\xbc\xbf)\xb6!\xa3?~\xe2?\x85\xf0\x90\xfb\xea\t\xc8\xbf\xdfP#B5v\xc6\xbf\x97\xcf\xb7\xcb\xc7/\xe4\xbf\xe8yE\x8b\xac\xd7\xd9\xbfZ\x92\x0e\x9eVK\xe8\xbf:\xe9\xd0\xfd9c\xe7\xbf\xff\x856\x84\xca!\xe7?K\xf0\xec\x87\x11\t\xba?zq\xf7C\x13W\xe8\xbf\x84\x87/.\xff\xe7\xe7\xbf\xc4\xff3\xd5m\x1e\xde\xbf\xe0M\xef\x1b\xd6\xbf\xd8\xbf$d\xea\x9b5\x93\xa0?\xb0\xc2\x05Y\xa3=\xdd\xbf\x96_\xceH"=\xde?DI\xbe4\xa2\xbc\xd2\xbf\x9a\x108{.`\xe4\xbf\xef\xecu\x97\x01F\xe9?\xbd\x7f\x1d\x15\\O\xd2?\x1c\xf0C\xff\xc3\xc2\xdc\xbf{\x85\x11\x812)\xb8\xbf\x8a\xf1\xe4\xf3\x08V\xb5\xbf\x9c1\xfa\xa3\x9f\xb2\xe5\xbf;\x18\xc5\xe4\x8f0\xe8\xbfD\xff\xaan\xe2\x19\xe6?\xa9\xb5T<\xc6\x88\xd0?b\xfd\xd4\x85Ef\xc8?\x03\xa3T\xa6?\t\xe8\xbfr\x014Q\xbd(\xe1\xbfU\xf4\xa6\xd1\xdd\x90\xd1\xbf\x81\x10\xbe\xad\x16,\xe0\xbf\xc7\x0e\x9fz_F\xdf\xbf;\xe5C;\xfa\x01\xe9?\xd0\x01V\x1c\xfb\xd6\xe1\xbf\xf6\xf2\xbc\xc5\xa6\xf2\xe2?\x8d\xe6\xa2\x82\xe1\xdf\xe3?\x07\xf6Z\x92\x1f\xce\xb1\xbf^\xb5E\xfe\x06\xbc\xe4\xbf\x9a\xed\xbb\xb6K \xe0\xbf\x833\xe9\xfd\x06w\xc9\xbf\x1bPM\xc7\x1df\xde?,\xbb\xde\x97I2\x9b\xbf\xf9\xd6OZ\xeb2\xde\xbf\x8d\r$\xafpA\xe3\xbf\xf8\\\xca\xd4\x88\xb7\xde\xbf\xa0l\x97b\x8d\xf4\xe8?\xe4\x15=\xf9(%\xbe\xbf\n|\x0bU\xbd~\xe8?\xb1\x1cR\xf8\xcd\xe9\xe4?H\xd0\xa0\xd9\x1a\xc5\xe8\xbf\xdc\x9f\xc7J\xb7\x15\xd3?=\x12\tAtL\xe4?|yt\xa6\x10\xbc\xe6\xbf\xd0\xf3\xb1$\xb6\x94\xd4\xbf\x0ck\xa0FK\xec\xd1\xbf\xfb\xc4R\xea\xda\xc6\xe4?\xe2\x9e\xc5\x1cN\x0f\xa6\xbf,J\xa0\x8e\x90\xdc\xd6\xbf\xf1\xc33\xee)\xf8\xde?N\xba%U\xa1&\xe7?\x83\x9f{\xecH\xe5\xb4?\xfdV\xaf\x1f\x7f\xbf\xe3?0\x85\x9b\xf1\xb8\xd5[?\x17%^\xf7\xc5\xc3\xd7?\x8dY\xc6\x9b3\xd4\xe7?\xc6\xa2\x8f!\x84_\xe8\xbf\xf3\xdb\x1fF\x82\xbb\xe8\xbfb\x13!\xbbi\x85\xc2?\xb9\xed\x98\x01\xb10\xe2?H\xf6\xc6\xad\xc7x\xe5?\x02[yq^\xd1\xda?\xf6\x03\'\x82\x99\xa4\xe7\xbfj-\xd5\x15\x18y\xe0\xbf\xbd\x03\x85\xd3\x9e\x87\xe2?\x05\xc9\xa6\x18\xe9\x9a\xe4?K\x07/\x80"\xf8\xe1?kU2\x1b>_\xe5\xbfQ~Ei\xee\xe1\xc6?\x93\xaf0f]x\xe7\xbf-\xa4\xb3oI\x9f\xe3?L\x8d\xa7\xa9A\x10\xe4?\x9e16w4\x93\xde\xbf\x81\x83\x9d$\x10\x89\xe7?\xa4\xed\x1a\xa3g\xd8\xdf?9ENIM\xad\xd5?y\xa3qb\x9f\xef\xc9?\xf28\x15\xb0\x86O\xc9\xbf\xe1\x9e\xd2\xce_\x11\xe5\xbf\xf9!\xcfa\xdf\xef\xc6?\xa7\xbc\xdc9W\x86\xe0\xbfb\xa0t\xb5\x84X\xe5\xbfTIC_\xba\xc8\xc1?t\x05\xc3\x8b\x10\xf2\xd1?\xe1\x19KS!\x17\xba?J\xec\xae\x83\xe1 \xc8\xbf]\xbb\xa3\xfd\x86{\xe4\xbf\xbb\x03\xd6\xcc>\x02\xe4\xbf$T\xc2\xa2oh\xc4?\xee\x86\xd9\xb9\xe1\x82\xdf\xbf@\xc9Q\xef\xb2\x19\xe3?\xd0\xfefs\xac\x95\xf0\xbfZ\xaa\x1c\x9b\x05Y\xc5\xbfT\xa5M\x11\x99H\xcb\xbf\xfe,\x9e\x15\x0e\xc8\xda\xbf4\xd9\xec\xca\x90\xee\x8b?t\xe4\xec\x14\xd9\xd3\xe1?\xf4\xe3\xd9\xbbB\x98\xcf?I\xba4\r\xa7D\xe3\xbf\xf8\xdfN\xcc\xff\x88\xe6\xbf\x1e~\x0b\x8c\xb2l\xea?@\x17$Vt\x0c\xcb?\x10P4\xb5\xda\xff\xec?\xb9%H_D\xe8\xb3?\xc3JS\xa4\xe7-\xd0\xbf\xae\xebx\xef8\x1d\xd4\xbf*\xde\xfd\x07Q\x9b\xea\xbf\xb8\x10`\xfe\x9fk\xc3?\x82Rw@fr\xeb?\x8f+\xa8\x9f2\n\xe9?Q\xebs\x88\x97\xea\xae\xbf)\xa9\x90v\xcc\xce\xe1?\'!=Ax{\xd8\xbf\x81\xce\xd5\xd9\xb4\xa8\xa4?\xd4\xf7d\x8fw?\xe3?^[\xd7\xc4J\xd4\xe7?\x98\x8d\x8f\xb0\x1cf\xcd?\xd6\xf17?\xa0!\xd5?\xc4gb\x96.\xe9\xcd\xbf]\xe9\xa0\x1a\xde\xff\xe0?\xbe\xd4\x1a\xcb\x02\xd1\xbb?\x11\x13\xf0\x83\x8a\xf8x\xbf\xd0f\xd2X\xa2c\xe9?UH\xab2o\x02\xdb\xbf-\xc9r\x7fla\xed\xbft\xb1\x90\x03v\x18\xcb?.\x96\x82\xb3\xf51\xe2\xbf\xe7c\xf4\x02\x83@\xaa\xbf\x12\xda\x84\xcc\x84\x9b\x99?CO\xc8\x0c~\x96\xe0\xbf\x91\xe3\xcd@=\xc4\xeb\xbf\xacA\xe3g\xe7N\xe0\xbf\x14B\xc2tQ=\xd2\xbf\xcd\xeew\x92\x8d\x9b\xdc\xbf%\xe6\xb1\x96\x1e\xb6\xd9?\xe0\xfe\xe0\xdf\xa3E\xdb\xbf\xb8\xd1\x94\xa1{\xae\xe5?/bKV\xae^\xc3\xbf\xd4!\xd0\xac\xae"\xde\xbfi9\xbd!\xad\x18\xd0?\xd4\x05\xbf%\xa4\xb4\xd0?Q\xf6V\x8br\xae\xd4?T\x00\xb61\xd0Q\xed?A\x94\xea\x11\x9fh\xdd\xbfP\xdb\x90\x8d\x9a\xdd\xe2\xbf\x8b\xc9\x07\xc0\x06U\xd6\xbf0o\xf5m\xc5 \xe5\xbf*\x17\xd6\xfa\x10\x9c\xe8\xbf \x8by\x91x\xcd\xd4\xbf{\x802V\xb4\xa8\xe5?\x9b\xba\xb3\xe2f\xaf\xe7?z\x8f\x98\x9d\xa9\x8f\xec?\x08\xe9\xcbw>\x90\xe6?\xcb0\xf7<\xf5k\xd1?\x87\xfc\x81\x17\xfe\x89\xdc?\x97\xa6\xdc\x18W\xed\xb2\xbf/\t\xedE\xfbE\xd0\xbfT\xd8\xb9\xcc%A\x7f?\x8f\xf9\xb0\x07\xf0\x92\xe8\xbf\xd13\x868\xe7{\xd4\xbf1\x0c\x85\xab\xb1\x97\xd7\xbf&\xc6\x8ew\xa6\xb4\xe6\xbfT\x8e\x8f\x9bI\x03\xd1?i\xd5&\x16\x8dj\xe1?_\xab}\x96I\xe2\xcd?7l\xdan\x84\x9c\x88?\x8b\xac\x1d\x06\x1aG\xe3\xbf\xe0\xaeUa\xf4\x99\xe9?\xfcXV\xb2\xf1\xea\xe6\xbf\xb2Do7\x96\x8b\xa9\xbf\x8eq\x08C\x17@\xd3\xbf\x98\xa7\xfa$\xbb#\xe7?\x1d\\\xaf`\x0eP\xe5?!\xc7\xfb\x1dXK\xe3?5\xaf\xb3\xfbrV\xe8?\xba\xc0\t\xc8&e\xa9\xbf?j\xb9\xaf5]\xe4\xbfGJ\xf2\xa5\xe3\xa5\xd5?\xcf\xa8j\xd0d\xee\xd1\xbfc\xf8$t\xa0\x84\xd2?\xd8\xf2t\xe2Ly\xdf\xbf\x02\xa5\xfa\xacU\x0b\xea\xbf\xff\x11\x97\x97d\xf2\xc3?w\xee\n\xeb\xce\x13\xe6\xbf6Iw\x05=\x99\xe5?\xc3\x17\xed\xb0\x99\xc1\xdc\xbfy\xe0.\xe3uS\xd9\xbf\xee\x95\x9e\x15(=\xdf\xbf\xce)C%(T\xc3?P\x95\xe8_\x0f\'\xa7?\xcd\xb9\t <\xc6\xe7\xbfe\x1ao\xc0s\x83\xe3?z\xca\xd4\x84n\x9d\xe3?8\xe7\x02\xf1M\x12\xc1\xbf\xfe0u\xd9\x89\x9f\xe5\xbf\x15+^\xeb\xaa\x98\xce\xbf\xe9\xb2:R\xd1_\xd9\xbf\x1aA\x1d\xfa\x15\x8f\xd1?\x856\xfap\x01u\xed\xbf\xdfd\xfa\xa0\xd4w\xa0?\xa2b\xd0Pz\x9b\xc9\xbf\x10\xfd\x1f[\xc1d\xe5?8>9\xa3\xbe\x06\xcd?p\xa1\n.ld\xe9\xbf\x1fZ\xfb\\\xbe\xa6\xc0?+\xfbT7\x13\xa9\xd3\xbf\x80\xa0\xc9\x10\xf0W\xe0\xbfj\x16\x81nZj\xd3?:\xd9};\x8d\x81\xe9\xbf\xc5\xc1\x91\xbc\xc87\xd2?\xe6\x95\x1c\xbe/.\xc1?\xc3\x15\xd7J\xd4s\xce?\xc2H\xcd\xbd*\xab\xd8\xbf\x10\xa0\x05\xfe\xb1[\xe9\xbfN@\x81\xad\x01D\xbf\xbf\x94\xd2B\x82\xa1\x00\xeb?pq\xdeY4\x1b\xe8?C\xaf%"\xab\xae\xe4?s\xf4Uus\x84\xd4?\x10\x91\xc4\xfe>\xa7\xc1\xbf\xf1D\xc8\xdfq\x9b\xd3?t,\xb4\x00H\x80\xdb?\xa6\x82\xef\x9f\xd07\xd8\xbf\x93\xd0\x02\\I|\xe5?\x8b\xe1.G\xb4M\xe7\xbfBu\x00\\\xf9\x07\xef\xbf\x01k)\x1a\x9d9\xdb?\xce^r\x97q;\xe0\xbf\x1e\x03@i\x8c\x19\xec?a/f\xa1\x14\x8e\xe0?t\\\xc7O\xf4\x9e\xd6\xbf\xac\x81\x16\x13\xcf\xe7\xd7?\x87\xb6\xb6\xfa\xd7\xcc\xe0?\x97\xc6u,\xe7\xf6\xe1\xbf\x80F\x96\x07\x9e\xc5\xb0\xbf\x1b\x88\xf2\xb7n\x97\xe5?\xe0\x8ar#o\xa3\xe9?$\xbe{^\x8a^\xdf\xbf\xda\x8c\xf2\xaf\x84\xf5\xe4\xbf\x0f\xcc\xec\xbc\xa0\x9b\xce\xbf\t\xa5D{\xf0\xbe\xe7?V\x8f\xd6 \x85\x95\xd0?95\x08r\xe6)\xd8\xbfX\x83\xea\x17V\xac\xd6\xbfB\xe4z\xe2\\\xae\xde?q\x16l $}\xe3?\x1bcF&W\x19\xcd\xbfL\x01\x8f8Ab\xd2?\x83o\xcc\x17J=\xc7?\xe6\x8d\x1e\x89\xd9\xcc\xe8\xbfS\x11$\xa8%\xa3\xeb\xbf\x1f\xa0\x00\x8a\xe1@\xe3\xbf\xd2=\x97\x8a\xb4&\xe5\xbf\x1e\xa6\x11\xe2\xb9\x05\xd7?\xb995\xaf\xed1\xe2?\xcf\xcbA\xad/\x98\xd3?\xd5\xedH\x82\xd0\x0b\xdf\xbf%\xe4\t\x1d\xac\x9e\xe3\xbf\xf5O\xd6\xa9h\xda\xcc?/.u\xb8\xa2\x0b\xdb?U|t5\x9a\xb5\xe8\xbfL\xa6/\xc4Yt\xd1?\xf2\x19\x08\x8a3\x8b\xd9?/\xa4\x1fh\xd1\x11\xe7\xbf\xdd\xc3\xc04\xdd\x00\xe7?\x05]\xc02\xae\xe4\xe9?\xa0\x7f\xf0\xdcD\xde\xe2\xbf\xd2wga\x1e\x0f\xe6?\\\x13\xa1Y\x90i\xe6?>.\x06\xdd\xa6#\xe7?#\xc7\xe6\x18\xc6\xb7\xb3?7\xfd}*4\x97\xd6?34~\xbe\x92\xbd\xe2?ZLl?\x10(\xd9\xbf\xb9\x9e\xa6h\xc8\x97\xba?\xa3\xeb\x9a.\xf1k\xea?&j\x97\xe5Y\x90\xaa\xbf\x97\x93F\xe7$Y\xd8?\xfci\x12\xd9\xecX\xb3\xbf \xfa\xd3\xe0\xbe\x9d\xc5\xbfQWb\x98\x9dx\xbd?\x89\xbb*\x1c[\xdd\xe5\xbf\xf6\xb5>g$\x1a\xd4\xbf\xa4\xc3;\x83\x1b\x1c\xdc\xbf\x81\x04n\x11 \x81\xd6\xbf\xc6\x84I\xa2|\x1f\xe9?\xedn\xba\xea\xbd\xac\xdf\xbf^\x1a\x7f-\xfa\x1f\xdf?\xd1e\x95\xaf].\xc8\xbf\x12v\x99\x024\xc4\xea?:\xfdh\xe3\xa2k\xd4?6\xc71\x17\xa9\x89\xbc?\x8b\xc5\xb0*\xe3Q\xdb\xbfT\xbe\xa8\xaeDu\xe6?\xff\xf8\xc1Z\x07\xca\xe3?m\x0b=\xac#D\xe6\xbf\xfb\xe7\xf5\xc1\xaf\xd2\xae?n\xc0\xe1\x85$\xef\xbc?\x82\xc0\xb6H;\xdf\xe8?\x1c\xf7\x88\x9e\x06]\xdc?\x06"\xb5z\xcd\xd5\xe1?\x81=\xab\x18eY\xd1\xbf\x9e\x00|:-_\xc4?\x00\xa4\xcbbs\xa0\xe2?\xa7\xc3Y\x92b\xfb\xe5?\xe8\xb3\x1fq(\x99\xe1\xbf\xba\xb4\x9a\xe3\xc5L\xd6?\xbc|\xdd}\xe0]\xd9\xbf\xc8F\xfe\x16\xe7\xcb\xe0\xbf$\xba\t(=l\xec?\xb7\x1d\x93(d\xe9\xe5\xbf\xa1B \x1c\xbc\xa7\xe5?E9\x01\x98\xe9\x16\xd0\xbf\x1fp\x91h\xe3o\xc2\xbfW<Z\x99\t4\xe5\xbf\r\x17&\x1b\x0e\xe0\xd5?n)\x15q\x92j\xe3?\xc5\xd6,A\x1c\x86\xc4\xbf\x9e\x88*\xee\xa5\xf5\xe9?\xd2\xe2\xbb\x1bVZ\xdd?\xa9\xec\x98\x8e\xc2\x07\xe8?\xf0\xb9\xe4\x16\xc1\x13\xdb\xbf3/\xf6\x03[\xa0\xd4\xbf\x80\r6\xdcGS\xa2\xbf\x83\xa6\xbe,kV\xd1\xbf\xbd\xf4\x84\x83\xa3\x82\xe6?\x0c\x1f[\xce\\2\xbc\xbf\x8d\x178\xc7\xbb.\xe8?\xd1&\xa7\xaeqc\xe5?\xcc<2Mci\xd5?-i`\x9c`\xbd\xe1\xbf\r\xe8\x8cO\x9b\xaa\xcb\xbf\xd26\xaa\xbe\xe0o\xd7?\xc9\x905\xf1t_\xe0?\xab\x91I\xad\xb4F\xea?\x83\x06\xcbmr\xf0\xe1\xbf\xa7o\xdb<\x98h\xe7?\xe7\xe0\xfd\xb0o\x80\xea\xbfFy\xbe\xa9\xc1\xc3\xb4\xbf1\xfaL\xcb\x8dq\xe6?\x17\xcf\x17H\x9d\xd2\xdd?<KES\xf4\xba\xd7?\xd9\xa8\x11\xfd\xe6K\xd7\xbf\x9cf\xe94\xb5\xc2\xd6\xbf\xae\xe2b\xf7d\x9f\xce?<Q\xed26\xab\xe9\xbf3\n\xfe\x99\x0c\xc9\xea\xbf\x96\xfc\x0fM\xd4\xb0\xce\xbft!\xe8\xb5\x00\x99\xce?!\x8e\'\x06V\x81\xe2?\x03\x02h\x05uH\xea\xbf\'Ki\x14a\xf2\xd4\xbf\x13\x84*k8\xb6\xcc?\xac\xf8*U\xf3I\xb4\xbf2U\xd9\xf0\r\xb3\xd3\xbf\xb6\x0b\xf68\xc5i\xd7\xbf4\x9d6\xf2$\x92\xe9\xbf\xad\xec2\xa2\rh\xdb\xbf\xb3\xa3WuG\xf5\xd8?\xc5\x8d\xff\x0er\x85\xe5?\x98\x01\xc9\xf4\x1e:\xe4\xbf\x0cO\xa7\xfde\xc9\xc0\xbfM"\xbf\x9c\x0f\xa3\xe0?\xd6\xdc\xc4/\xbb6\xe1?\x89\x8c\x86{Q\xbd\xc4?\xdc\x1a\xf1\xe0w\xa2\xe2\xbf\xe7\xa7c\xa63\xbb\xe6\xbf\xb4\xc3\xe8\x8c\x06\xbb\xe2\xbf\xdd\xbcZ\x8e*|\xd6?\x8c\x8e|S)\x90\xc9\xbf"\'\x95Z\x1b\xc8\xdb?\xdby\x87^O\x8e\xe6\xbf\xad\x9d\xc2x>\xfb\xe0\xbfUkP\xff\xd7\x8b\xe0\xbfP\xc2\xad\x1c\x04\xf5\xdf\xbf\xc7C\xe9\xbf)m\xe3?\x80\xc7T\x06\xbc\x83\xe2\xbf\x80\x93\x0bCI\x99\xc4\xbf\x14o0\xd8\x16\x08\xe9?\xcf\x94c\xc4\x97\x14\xd9\xbf\x11\x00\x84R\xaeG\xd9\xbfv\x1b\xe2\xc95[\xe2\xbf~t\xb0\xa2Q\x01\xe7?\xed\xabg\x03\x9e\x01\xe1\xbf\xc5\xa3)#%\xff\xe1\xbf@\xb5R\xdf\xef\xc1\xe5?\x9b\xe7\xe5v\xf5\xc8\xe4?\xb0\xc2\xe5\x95\xf1\xb6\xe0\xbf \x90\xd2\x18\xe9;\xaf\xbf\xe0\xadx[\xe0#\xe6?\xb1L\x85\x0b\x00*\xea?\xbf):\xc4\x11u\xc3?~r\xb7\xbd\xd48\xe3?\xa2N\xff\x82\xa13\xd2?\x9a\xec\xeaJ\x11S\xca?\x9f\xcc3<\x90\x1c\xc9\xbf\x8c4HgE+\xcb?\xcc\xd0*\xbd\xdb\x0b\xf1\xbf\xc8\xe3\xc6N1\x8b\xa4?\x9e\xbc\xc03\x1cm\xe2\xbf#\x06\xe6\x12\xa5Y\xeb\xbf\xf1\x99U\x063Z\xea?\x0cW\x0e\xab\xe4\x16\xce\xbf\x87\xf9i\xdf\xc4\x9b\xdd?$\xdbQ\x87n\xea\xe2?W\x9f3]54\xd7?g\x7f\xa5\\\xe1\x06\xc1\xbf\xfa\x7f\xf1\x05D?\xf1?\x9f\xd5\xcbW-p\xe9\xbf\x7fpsU\xbf\x1d\xe3?\xd7u\xb5\x96\x06\xf5\xc6?b\xd1\x88\xda^\\\xdf\xbf\xfcw\xc7\x05\xb7\xe9\xb7\xbf+5[\xeb\xb5\x11\xa4\xbfs)\xc6\xe8")\xde\xbf\x18\xdc\xd2\x7f\x97:\xc6\xbfr\xb2\xc5\x8c\xb1p\xd9?-\xfb\x8d)`)\xdf\xbf\xcb\x9b\x96\x92\xa0\\\xdd?\x11o\xb7\xc8\x8c\xa4\xe3?\xe6D\x04\xe1\x8a0\xb3\xbfm\xa5"\x83\xe3\x10\xef\xbf\x91\xa5\x93\xbf\x8b%\xba?MW1|\x8aF\xdc\xbf\x16i\xf8mX\xb0\xdd\xbf\x14Q\xc7\x87\xbeE\xd0\xbfz\'\\M\xc6k\xb7?\x1a\x8eF\x9e\xebf\xd5?\x85\xa7\xb88\xee\xf5\xe4?*S\xc3\xac\xa4\xb8\xcd\xbf@S}\xe7Y:\xd6?w\x86\xf8\x87\xcf\xdf\xd4\xbf\x11MD\xf3\x95V\xe0\xbf\xeb\xb7\x19\xc30G\xdf\xbf\xd5^i\xa4<\x07\xde\xbfnf\xb2\xa7\xa5\xaf\x8f\xbf\x9a\xbd\xbe\xd5\xccL\xe3\xbf\xef\t\x92;X\xcd\xc3?OT\xd8z\xec\x94\xca?/M\xdf\xb5\xeb\xb3\xca\xbf\xa6 b_d\xc0\xec\xbfV{\xa4mm\xe3\xee\xbfz\x8b\x14\xf4\xccr\xca?\x94\xc0\xcb\x85\xa4\xc8\xec\xbf\xf7\x86+]\xd15\xc7\xbf\x9c\xd8\xbaG\xfe\x10\xd7\xbf\xd3L\xc3K\x11+\xc7?\x93862\n\xc1\xb8?\xdb\xb79\x97\x86)\xe4\xbf\xb0\xea\xc2\x83\x91"\xe4\xbf\x8c\xcb\x11\xda\x86\x9b\xe7?\xfe3\xa17~:\xc0\xbfX\xb1{\xddt|\xc2\xbf\x95\x98d\xffp/\xe6\xbf\x17\xf8&\x8b\xdb=\xdc\xbf\x95]\x0bf\xcdi\xed\xbf\xfao\xff\xfeR\x9e\xdb?jW\x95N\xfa\x96\xc8?\x18I2d\xf9\xdc\xcd\xbft}u\x85\xef\xe3\xe4?\\\xc3\xce\xb3\xe6\x91\xb7?\xea\x1d\xb9~\x8dB\xeb?\xf9\xf4PI\xea.\xdd\xbf\xab\x7f\xfa\xc0A5\xe9\xbf_K$\x94\x9a\x05\xe3\xbfA\x94\xa4\xf6y\xc3\xec?\xa9\xd1\xa4\x98\xbf\xf7\x91\xbf\x0f\xbf\x9b&\x08\xb1\xe2?\xfd\xb6CYS\xf6\xea\xbf\x1d3x\xc9\xd5;\xc7\xbfNS_\x8d\xa1\xed\xb3?\xb1\xce*\x88sb\xe0?%D +\xe0\xa6\x9b?t(;\xb8\xda\xc0\xe2?\xde\x17\x16\x85q\xd5\xe8\xbf\xe6a\xe9\x90\xb6\xa6\xe5?f}O\x16\x19\xd5\xe1\xbfZ\xcdV\xb9\xe0;\xc8\xbfp\xab\xed\xb5\xce\xd6\xe1?"+\xe2\xc3S\xd2\xe8?\x03\x01\xf3\xe9\x963\xcc\xbf\xa8\x18\xdf\xa6m(\xaa?\xba\x04\x1a\x85\x84\xd8\xd8?a\x931\xb3\x02\xaa\xeb\xbf\x10[\x8b\xcd\x1a^\xc5\xbf\xba\xcd\x0f\xec_\xf1\xa0?d\xbf\x14\xc3\xb6\xc2\xe7?\xf9\x11\xb4\x8c\xe9\x7f\x8b?x\x86\x8d\xb4\\`\xcb\xbfv\x00\x8b\x1d\xa0\xe9\xe8?\x90>\xfbYr\xa9\xc1?\xf8\x9b\x88\x1a\x1bM\xe7\xbf\xbeiS\xe7\xe6:\xe6\xbf*\xd6/5\x16\xef\xe6\xbfIO:\xf6\xb1\x87\xd9\xbf|Mct|\x15\xe0?\x1eq\x126s\x16\xca\xbfkH\xa4\x82\x8a\xcb\xbc?'
p60
tp61
bssS'transf'
p62
(ineurolab.trans
TanSig
p63
(dp64
bsS'out_minmax'
p65
g18
(g19
(I0
tp66
g21
tp67
Rp68
(I1
(I21
I2
tp69
g28
I00
S'\x00\x00\x00\x00\x00\x00\xf0\xbf\x00\x00\x00\x00\x00\x00\xf0?\x00\x00\x00\x00\x00\x00\xf0\xbf\x00\x00\x00\x00\x00\x00\xf0?\x00\x00\x00\x00\x00\x00\xf0\xbf\x00\x00\x00\x00\x00\x00\xf0?\x00\x00\x00\x00\x00\x00\xf0\xbf\x00\x00\x00\x00\x00\x00\xf0?\x00\x00\x00\x00\x00\x00\xf0\xbf\x00\x00\x00\x00\x00\x00\xf0?\x00\x00\x00\x00\x00\x00\xf0\xbf\x00\x00\x00\x00\x00\x00\xf0?\x00\x00\x00\x00\x00\x00\xf0\xbf\x00\x00\x00\x00\x00\x00\xf0?\x00\x00\x00\x00\x00\x00\xf0\xbf\x00\x00\x00\x00\x00\x00\xf0?\x00\x00\x00\x00\x00\x00\xf0\xbf\x00\x00\x00\x00\x00\x00\xf0?\x00\x00\x00\x00\x00\x00\xf0\xbf\x00\x00\x00\x00\x00\x00\xf0?\x00\x00\x00\x00\x00\x00\xf0\xbf\x00\x00\x00\x00\x00\x00\xf0?\x00\x00\x00\x00\x00\x00\xf0\xbf\x00\x00\x00\x00\x00\x00\xf0?\x00\x00\x00\x00\x00\x00\xf0\xbf\x00\x00\x00\x00\x00\x00\xf0?\x00\x00\x00\x00\x00\x00\xf0\xbf\x00\x00\x00\x00\x00\x00\xf0?\x00\x00\x00\x00\x00\x00\xf0\xbf\x00\x00\x00\x00\x00\x00\xf0?\x00\x00\x00\x00\x00\x00\xf0\xbf\x00\x00\x00\x00\x00\x00\xf0?\x00\x00\x00\x00\x00\x00\xf0\xbf\x00\x00\x00\x00\x00\x00\xf0?\x00\x00\x00\x00\x00\x00\xf0\xbf\x00\x00\x00\x00\x00\x00\xf0?\x00\x00\x00\x00\x00\x00\xf0\xbf\x00\x00\x00\x00\x00\x00\xf0?\x00\x00\x00\x00\x00\x00\xf0\xbf\x00\x00\x00\x00\x00\x00\xf0?\x00\x00\x00\x00\x00\x00\xf0\xbf\x00\x00\x00\x00\x00\x00\xf0?'
p70
tp71
bsS'out'
p72
g18
(g19
(I0
tp73
g21
tp74
Rp75
(I1
(I21
tp76
g28
I00
S'sV3N\xff\xff\xef?\x90\x16<\xd3~\xc4\xef\xbf\xd6\xd7yT\xd9\x9d\xef\xbfZ,1CME\xee\xbf0q\xda#B\x19\xed\xbf\xe4x\xec\x18\xc8\xc1\xe2?\x86\xe8\x901\xfd\xff\xef?F\xd0\xd8\xde\xad\xdc\xed\xbf\xc0E@\x99:\xc1\xe9?~-0B)\xce\xef\xbf\xc8\xf5|#{\x87\xed?A\xb7\xa9L\xf8\xb4\xee?\x17\x13\xf7p\x93\x08\xec?~\x94\x86#\xd7\x04\xd3\xbf\x81\xd9\x19wi\xfd\xef\xbf\xd2\x84\x9d\xcc\x19\xf0\xef\xbfn\xe0\xa4\xa7\x80\x84\xee?]\xec,D\x9f\xc2\xe7?\x18\x8f\xf6\xd6\xffu\xee?Okc\x90\xfd\xff\xef?\xa60\xf5\xbb\xf1X\xee\xbf'
p77
tp78
bsbag0
(g8
g2
Ntp79
Rp80
(dp81
g12
g13
sg14
I21
sg15
I1
sg16
I1
sg17
g18
(g19
(I0
tp82
g21
tp83
Rp84
(I1
(I21
I2
tp85
g28
I00
S'\x00\x00\x00\x00\x00\x00\xf0\xbf\x00\x00\x00\x00\x00\x00\xf0?\x00\x00\x00\x00\x00\x00\xf0\xbf\x00\x00\x00\x00\x00\x00\xf0?\x00\x00\x00\x00\x00\x00\xf0\xbf\x00\x00\x00\x00\x00\x00\xf0?\x00\x00\x00\x00\x00\x00\xf0\xbf\x00\x00\x00\x00\x00\x00\xf0?\x00\x00\x00\x00\x00\x00\xf0\xbf\x00\x00\x00\x00\x00\x00\xf0?\x00\x00\x00\x00\x00\x00\xf0\xbf\x00\x00\x00\x00\x00\x00\xf0?\x00\x00\x00\x00\x00\x00\xf0\xbf\x00\x00\x00\x00\x00\x00\xf0?\x00\x00\x00\x00\x00\x00\xf0\xbf\x00\x00\x00\x00\x00\x00\xf0?\x00\x00\x00\x00\x00\x00\xf0\xbf\x00\x00\x00\x00\x00\x00\xf0?\x00\x00\x00\x00\x00\x00\xf0\xbf\x00\x00\x00\x00\x00\x00\xf0?\x00\x00\x00\x00\x00\x00\xf0\xbf\x00\x00\x00\x00\x00\x00\xf0?\x00\x00\x00\x00\x00\x00\xf0\xbf\x00\x00\x00\x00\x00\x00\xf0?\x00\x00\x00\x00\x00\x00\xf0\xbf\x00\x00\x00\x00\x00\x00\xf0?\x00\x00\x00\x00\x00\x00\xf0\xbf\x00\x00\x00\x00\x00\x00\xf0?\x00\x00\x00\x00\x00\x00\xf0\xbf\x00\x00\x00\x00\x00\x00\xf0?\x00\x00\x00\x00\x00\x00\xf0\xbf\x00\x00\x00\x00\x00\x00\xf0?\x00\x00\x00\x00\x00\x00\xf0\xbf\x00\x00\x00\x00\x00\x00\xf0?\x00\x00\x00\x00\x00\x00\xf0\xbf\x00\x00\x00\x00\x00\x00\xf0?\x00\x00\x00\x00\x00\x00\xf0\xbf\x00\x00\x00\x00\x00\x00\xf0?\x00\x00\x00\x00\x00\x00\xf0\xbf\x00\x00\x00\x00\x00\x00\xf0?\x00\x00\x00\x00\x00\x00\xf0\xbf\x00\x00\x00\x00\x00\x00\xf0?'
p86
tp87
bsg33
g75
sg40
g18
(g19
(I0
tp88
g21
tp89
Rp90
(I1
(I1
tp91
g28
I00
S'?\xa4X\xd9j{\x04@'
p92
tp93
bsg47
(dp94
g21
g18
(g19
(I0
tp95
g21
tp96
Rp97
(I1
(I1
tp98
g28
I00
S'\x92\x11\x06\xc0\xa2+\xcf?'
p99
tp100
bsg55
g18
(g19
(I0
tp101
g21
tp102
Rp103
(I1
(I1
I21
tp104
g28
I00
S'O\x9b\xf7K\xd6p\xcf\xbfr\xd4\x15X!7\xb1?\xc2Q\xeem\xff\xb4\xc8\xbf>\x19\xf8P5\xb5\xb2\xbf\x03\x81}\x17\x8a\xa9\xd3?\x81^\xddJR0\xd3?\x1c\xad\xb1\x93k\n\xda?z\xe2_=B\xf7\xd0?\x9a\x06\xbcC\x0c;\xb4\xbfdG\xba\x93Xe\xc6?\x8d\xc0I}@\xf9\xdf?\xf6\x9d[\x0b\xd7\xf4\xd2?\xaa\x94\x9bc\xc4\x0c\xda?\xbb\xa7\x1c\xb3{o\xd8\xbff\x91\xed\xc1\xc4\xff\xd7\xbf\xa48,\xac\xe8\x86\xcf\xbf\x16\x96:\xdcXQ\xb5\xbf\tqh`\xde\xff\xdf?\xd4\r\x95\xa0\xb2\x87\xb2\xbfO\x96\x92<\xa2\x8f\xc6\xbf\x85\x8b\xae#\xa1\x8c\xe6\xbf'
p105
tp106
bssg62
g63
sg65
g18
(g19
(I0
tp107
g21
tp108
Rp109
(I1
(I1
I2
tp110
g28
I00
S'\x00\x00\x00\x00\x00\x00\xf0\xbf\x00\x00\x00\x00\x00\x00\xf0?'
p111
tp112
bsg72
g18
(g19
(I0
tp113
g21
tp114
Rp115
(I1
(I1
tp116
g28
I00
S'\\"~\xa3\xb8\x9e\xef?'
p117
tp118
bsbasg14
I34
sg15
I1
sg17
g18
(g19
(I0
tp119
g21
tp120
Rp121
(I1
(I34
I2
tp122
g28
I00
S'\x00\x00\x00\x00\x00\x00\x00\x00\x00\x00\x00\x00\x00\x00\xf0?\x00\x00\x00\x00\x00\x00\x00\x00\x00\x00\x00\x00\x00\x00\xf0?\x00\x00\x00\x00\x00\x00\x00\x00\x00\x00\x00\x00\x00\x00\xf0?\x00\x00\x00\x00\x00\x00\x00\x00\x00\x00\x00\x00\x00\x00\xf0?\x00\x00\x00\x00\x00\x00\x00\x00\x00\x00\x00\x00\x00\x00\xf0?\x00\x00\x00\x00\x00\x00\x00\x00\x00\x00\x00\x00\x00\x00\xf0?\x00\x00\x00\x00\x00\x00\x00\x00\x00\x00\x00\x00\x00\x00\xf0?\x00\x00\x00\x00\x00\x00\x00\x00\x00\x00\x00\x00\x00\x00\xf0?\x00\x00\x00\x00\x00\x00\x00\x00\x00\x00\x00\x00\x00\x00\xf0?\x00\x00\x00\x00\x00\x00\x00\x00\x00\x00\x00\x00\x00\x00\xf0?\x00\x00\x00\x00\x00\x00\x00\x00\x00\x00\x00\x00\x00\x00\xf0?\x00\x00\x00\x00\x00\x00\x00\x00\x00\x00\x00\x00\x00\x00\xf0?\x00\x00\x00\x00\x00\x00\x00\x00\x00\x00\x00\x00\x00\x00\xf0?\x00\x00\x00\x00\x00\x00\x00\x00\x00\x00\x00\x00\x00\x00\xf0?\x00\x00\x00\x00\x00\x00\x00\x00\x00\x00\x00\x00\x00\x00\xf0?\x00\x00\x00\x00\x00\x00\x00\x00\x00\x00\x00\x00\x00\x00\xf0?\x00\x00\x00\x00\x00\x00\x00\x00\x00\x00\x00\x00\x00\x00\xf0?\x00\x00\x00\x00\x00\x00\x00\x00\x00\x00\x00\x00\x00\x00\xf0?\x00\x00\x00\x00\x00\x00\x00\x00\x00\x00\x00\x00\x00\x00\xf0?\x00\x00\x00\x00\x00\x00\x00\x00\x00\x00\x00\x00\x00\x00\xf0?\x00\x00\x00\x00\x00\x00\x00\x00\x00\x00\x00\x00\x00\x00\xf0?\x00\x00\x00\x00\x00\x00\x00\x00\x00\x00\x00\x00\x00\x00\xf0?\x00\x00\x00\x00\x00\x00\x00\x00\x00\x00\x00\x00\x00\x00\xf0?\x00\x00\x00\x00\x00\x00\x00\x00\x00\x00\x00\x00\x00\x00\xf0?\x00\x00\x00\x00\x00\x00\x00\x00\x00\x00\x00\x00\x00\x00\xf0?\x00\x00\x00\x00\x00\x00\x00\x00\x00\x00\x00\x00\x00\x00\xf0?\x00\x00\x00\x00\x00\x00\x00\x00\x00\x00\x00\x00\x00\x00\xf0?\x00\x00\x00\x00\x00\x00\x00\x00\x00\x00\x00\x00\x00\x00\xf0?\x00\x00\x00\x00\x00\x00\x00\x00\x00\x00\x00\x00\x00\x00\xf0?\x00\x00\x00\x00\x00\x00\x00\x00\x00\x00\x00\x00\x00\x00\xf0?\x00\x00\x00\x00\x00\x00\x00\x00\x00\x00\x00\x00\x00\x00\xf0?\x00\x00\x00\x00\x00\x00\x00\x00\x00\x00\x00\x00\x00\x00\xf0?\x00\x00\x00\x00\x00\x00\x00\x00\x00\x00\x00\x00\x00\x00\xf0?\x00\x00\x00\x00\x00\x00\x00\x00\x00\x00\x00\x00\x00\x00\xf0?'
p123
tp124
bsg33
g36
sS'trainf'
p125
g0
(cneurolab.core
Trainer
p126
g2
Ntp127
Rp128
(dp129
S'_train_class'
p130
cneurolab.train.spo
TrainCG
p131
sS'__module__'
p132
S'neurolab.train.spo'
p133
sS'params'
p134
(dp135
S'epochs'
p136
I10000
sS'train'
p137
(dp138
S'rr'
p139
I0
ssS'goal'
p140
F2e-05
sS'show'
p141
I500
ssS'defaults'
p142
(dp143
g136
I500
sg137
(dp144
g139
I0
ssg140
F0.01
sg141
I100
ssS'error'
p145
(lp146
cnumpy.core.multiarray
scalar
p147
(g28
S'3M\xa4zh"j@'
p148
tp149
Rp150
asS'__name__'
p151
S'TrainCG'
p152
sS'__doc__'
p153
S'\n    Newton-CG method\n    Using scipy.optimize.fmin_ncg\n\n    :Support networks:\n        newff (multi-layers perceptron)\n    :Parameters:\n        input: array like (l x net.ci)\n            train input patterns\n        target: array like (l x net.co)\n            train target patterns\n        epochs: int (default 500)\n            Number of train epochs\n        show: int (default 100)\n            Print period\n        goal: float (default 0.01)\n            The goal of train\n        rr float (defaults 0.0)\n            Regularization ratio\n            Must be between {0, 1}\n        \n    '
p154
sbsS'connect'
p155
(lp156
(lp157
I-1
aa(lp158
I0
aa(lp159
I1
aasS'errorf'
p160
(ineurolab.error
SSE
p161
(dp162
bsg65
g18
(g19
(I0
tp163
g21
tp164
Rp165
(I1
(I1
I2
tp166
g28
I00
S'\x00\x00\x00\x00\x00\x00\xf0\xbf\x00\x00\x00\x00\x00\x00\xf0?'
p167
tp168
bsg72
g115
sb.