ccopy_reg
_reconstructor
p0
(cneurolab.core
Net
p1
c__builtin__
object
p2
Ntp3
Rp4
(dp5
S'layers'
p6
(lp7
g0
(cneurolab.layer
Perceptron
p8
g2
Ntp9
Rp10
(dp11
S'initf'
p12
cneurolab.init
initnw
p13
sS'ci'
p14
I33
sS'co'
p15
I30
sS'cn'
p16
I30
sS'inp_minmax'
p17
cnumpy.core.multiarray
_reconstruct
p18
(cnumpy
ndarray
p19
(I0
tp20
S'b'
p21
tp22
Rp23
(I1
(I33
I2
tp24
cnumpy
dtype
p25
(S'f8'
p26
I0
I1
tp27
Rp28
(I3
S'<'
p29
NNNI-1
I-1
I0
tp30
bI00
S'\x00\x00\x00\x00\x00\x00\x00\x00\x00\x00\x00\x00\x00\x00\xf0?\x00\x00\x00\x00\x00\x00\x00\x00\x00\x00\x00\x00\x00\x00\xf0?\x00\x00\x00\x00\x00\x00\x00\x00\x00\x00\x00\x00\x00\x00\xf0?\x00\x00\x00\x00\x00\x00\x00\x00\x00\x00\x00\x00\x00\x00\xf0?\x00\x00\x00\x00\x00\x00\x00\x00\x00\x00\x00\x00\x00\x00\xf0?\x00\x00\x00\x00\x00\x00\x00\x00\x00\x00\x00\x00\x00\x00\xf0?\x00\x00\x00\x00\x00\x00\x00\x00\x00\x00\x00\x00\x00\x00\xf0?\x00\x00\x00\x00\x00\x00\x00\x00\x00\x00\x00\x00\x00\x00\xf0?\x00\x00\x00\x00\x00\x00\x00\x00\x00\x00\x00\x00\x00\x00\xf0?\x00\x00\x00\x00\x00\x00\x00\x00\x00\x00\x00\x00\x00\x00\xf0?\x00\x00\x00\x00\x00\x00\x00\x00\x00\x00\x00\x00\x00\x00\xf0?\x00\x00\x00\x00\x00\x00\x00\x00\x00\x00\x00\x00\x00\x00\xf0?\x00\x00\x00\x00\x00\x00\x00\x00\x00\x00\x00\x00\x00\x00\xf0?\x00\x00\x00\x00\x00\x00\x00\x00\x00\x00\x00\x00\x00\x00\xf0?\x00\x00\x00\x00\x00\x00\x00\x00\x00\x00\x00\x00\x00\x00\xf0?\x00\x00\x00\x00\x00\x00\x00\x00\x00\x00\x00\x00\x00\x00\xf0?\x00\x00\x00\x00\x00\x00\x00\x00\x00\x00\x00\x00\x00\x00\xf0?\x00\x00\x00\x00\x00\x00\x00\x00\x00\x00\x00\x00\x00\x00\xf0?\x00\x00\x00\x00\x00\x00\x00\x00\x00\x00\x00\x00\x00\x00\xf0?\x00\x00\x00\x00\x00\x00\x00\x00\x00\x00\x00\x00\x00\x00\xf0?\x00\x00\x00\x00\x00\x00\x00\x00\x00\x00\x00\x00\x00\x00\xf0?\x00\x00\x00\x00\x00\x00\x00\x00\x00\x00\x00\x00\x00\x00\xf0?\x00\x00\x00\x00\x00\x00\x00\x00\x00\x00\x00\x00\x00\x00\xf0?\x00\x00\x00\x00\x00\x00\x00\x00\x00\x00\x00\x00\x00\x00\xf0?\x00\x00\x00\x00\x00\x00\x00\x00\x00\x00\x00\x00\x00\x00\xf0?\x00\x00\x00\x00\x00\x00\x00\x00\x00\x00\x00\x00\x00\x00\xf0?\x00\x00\x00\x00\x00\x00\x00\x00\x00\x00\x00\x00\x00\x00\xf0?\x00\x00\x00\x00\x00\x00\x00\x00\x00\x00\x00\x00\x00\x00\xf0?\x00\x00\x00\x00\x00\x00\x00\x00\x00\x00\x00\x00\x00\x00\xf0?\x00\x00\x00\x00\x00\x00\x00\x00\x00\x00\x00\x00\x00\x00\xf0?\x00\x00\x00\x00\x00\x00\x00\x00\x00\x00\x00\x00\x00\x00\xf0?\x00\x00\x00\x00\x00\x00\x00\x00\x00\x00\x00\x00\x00\x00\xf0?\x00\x00\x00\x00\x00\x00\x00\x00\x00\x00\x00\x00\x00\x00\xf0?'
p31
tp32
bsS'inp'
p33
g18
(g19
(I0
tp34
g21
tp35
Rp36
(I1
(I33
tp37
g28
I00
S'\xd1*0\xf6\x94\x87\xc8?7\xdd\xf8\xf7\xd6\x11\xc4?\xb1\xa7<\xc4\\h\xc5?\xda\x95\xa8]\x89\xda\xd5?\xee\x8c^\xaa\x9f\x13\xd6?_\xcbd\x91\x03\x84\xd4?\xfb\x18\x9c\x8f\xc1\xf9\xa8?\r\xef\x8c^\xaa\x9f\xa3?\x0e\xef\x8c^\xaa\x9f\xc3?\xbb\x12\xb5+Q\xbb\xb2?\x04\x84\x14\xf7\xb5L\xb6?\x0e\xef\x8c^\xaa\x9f\xc3?8\x1f\x83\xf318\xbf?\xbb\x12\xb5+Q\xbb\xb2?\x9e\xd1K\xf5s\xc2\xca?\xa6\x1b\xff\xde:\x82\xd2?\xda\x95\xa8]\x89\xda\xd5?B\x8a\xfbZ&\x8b\xcc?L\xf5s\xc2\x1a\xde\xc9?-r\x80\x90\xe2\xbe\xc6?i6\xdd\xf8\xf7\xd6\xc1?C\x8a\xfbZ&\x8b\x9c?\xc5}-\x93E\x0e\xb0?\xe6B\xab\xc0\xd8S\xae?M\xf5s\xc2\x1a\xde\xb9?\x0e\xef\x8c^\xaa\x9f\xb3?\xbc\x12\xb5+Q\xbb\xc2?M\xf5s\xc2\x1a\xde\xb9?\xb1\xa7<\xc4\\h\xa5?\xf1\xad#(\xcd\xa6\xbb?\x04\x84\x14\xf7\xb5L\xb6?\x94f\xd3\x8d\x7fo\xbd?\x17Z\x05\xc6\x9e\xf2\xc0?'
p38
tp39
bsS's'
p40
g18
(g19
(I0
tp41
g21
tp42
Rp43
(I1
(I30
tp44
g28
I00
S"b\x97\xea\x9d\x93u\xfa\xbf1\xc4+/\x17u\x05\xc0\xb5!\\%\xb2\xb8\xf7?\x0bJ\x8f\x9c\r\x87\x04\xc0a\x1b\xd8,2j\xf3\xbf\xcccC2Y\xd6\x11@\xac\xc8\xc9\xef\xb7\x08\x03\xc0\x13\xe9\x19'Sf\xf6?k\x8d\xa1\xb4\x0c\xb6\xf8\xbfZM\x96\xce\x84\xc1\xe9?n\xff\x02D\xac\xab\x16\xc0s25@X:\x11@(\x08\xdfQF\x81\x18\xc0\xa4\x16uo%_\xf3?\xf41\x1d:\x1by\x03@\x1b\x86\xd2V\xff\xe6\x17\xc0\xfaO\x87\xbc\xda\t\t@l\xe0\x89\xe7Hj\xf6\xbfp\xe8\xf6\xc3b^\xf1?@\xe6\x06\xf6S\xda\xfe\xbf\xe9\xfb\xf1\xfd*{\xf0\xbf5\x83G0\xf1(\x07\xc0l\x92m\xb1\xffw\x06\xc0=f\x19\x83\xc0-\x05\xc0\xbb(\xaej\xa4\x9d\x13\xc0r\xe4\x93k$\xba\xf5?\xb4\xc1l\x8f\xca0\xf6?\xe5\xd1\xd0=dw\x13\xc0x\xb7\xd5\xfc\xf0A\xdd\xbf\xf3\xfaN\xb3G\xb6\x10\xc0"
p45
tp46
bsS'np'
p47
(dp48
g21
g18
(g19
(I0
tp49
g21
tp50
Rp51
(I1
(I30
tp52
g28
I00
S'!dJzW4\x02\xc0C[\x13k\x90\xe5\x06\xc0vu\x1a]\x8d\x92\xfa?\xbcE\x9bJ\x81Y\x06\xc0\xdd\xf6r\x93`\x15\xf4\xbf\x1bH\x8f\xcf\xa8X\x15@\xe8\xeb\x02\xe7\xd1\x8f\x07\xc0g \x8f\x15\x05\xe9\xee?@H\x8e\x1eN\xd1\xf0\xbf\x921\xe4u\xe6\xf4\xea?\xef\xd2\xe5]\xc6R\x1b\xc0\xa7\xc9\xbb~x\xe6\x12@g\x1a*#w\xa2\x1b\xc0\x13\xfd(\xfb{\xfb\xf5?2\x80\x1aG+R\x08@`\xe0V):\x87\x1b\xc0y\xe7\xccz\xed\x85\x0c@@Eh@sW\xf8\xbf\x03\xcf\xaf\x86`\x9c\xf1?=`\x14\xb7\xb2\xe0\x01\xc0\x18M\xa4:W\xb7\xf9\xbf0u\n\xee"\xeb\t\xc0\xe5\xe4\xdfhHN\x08\xc0\xda,\x1b\t~\xba\t\xc0\x13\xae\x17\xab\xcb\xa4\x16\xc0x\x82\xbb\x0e!\x8a\x00@u*\xbbT\x93\x8a\xfe?\\UoT\xe7R\x15\xc0>\xf8\x9a\xa5;}\xf2\xbf\x00\\\xa8\x9c}\xdb\x12\xc0'
p53
tp54
bsS'w'
p55
g18
(g19
(I0
tp56
g21
tp57
Rp58
(I1
(I30
I33
tp59
g28
I00
S'\xd9\xfe\xff0\x1c\xbf\xd5\xbf\x15\xc4\x8f\x8b\xc3)\xee?\xf7|\x80Fd\x0f\xbd\xbf\xcf\xcb\xc7\xcdb\x1f\xe5?PO\x19\xc6+\x8e\xe8?\x06:?y\xbfn\xda\xbfE\xb2Z\xe8\x94\r\xe9?;v\x94\xf3v-\xd6\xbf\xbeAy^\xa76\xd6?a|\xb7\xb1H\x03\xe0\xbf\x91\xe0\xeb?\xc2\x97\xe3\xbf5\xf8\x035\xd5\xc6\xb8\xbf\xdflx\xcb\x9b\x91\xe6\xbf\xd9p\x84\xfe\xbal\xe5\xbf\x840\x9b\x98\x14 \xea?Y0\xd7\xc6\x1f\xca\xd9\xbf\tEmA\x0e\x10\xdb\xbf0j\x9c2Yxr\xbf\\\xa6F\xe4C\x88\xd6?\x06\xa9X\xfa-z\xe5?\xf831L\xc1\xf3\xe4?\xbe\xf3\xe5\x83\xe9x\xac?._q\xe1&4\xda?\x87\x92\xe7\xf8\xa49\xdf\xbf\xc4\xa5\x99@\xef\x08\xc4\xbf\xcd\x9f\x1f\xd6\xb5\xb0\xc9?[\n\x00X\xf6\xd3\xe6\xbftK\xbe\xb0\x7f\n\xe3?E2\x03\xf7\x9cE\xeb?G\x8f\\d\xaf\x7f\xe1?\x9f\xa8)+\x009\xe5?v\x03\x1e\x8a!\xb9\xda?b]T\xa8^\x03\xc1?8\xe1"M\x9d~\xe3?\xb3~y\\\x86\xa6\xea?01a\xaf\x0f\xa5\xda?\xc5\xb8\xaa\xca#b\xd9\xbf\xc9A\xc3\xcay\xd8\xdc?\x99<\x95\x94\xed\xf0\xe5\xbf\xa9\x95G\xa0v\xc7\xe3?\x8f~\x90\xc2f\x07\xe5?\x15\xc5\x11\x97Q[\xc2\xbf\xf1z\x90,\xea\x1f\xdb?\xc1+\x87\x1d6g\xbb?\xee\xa2\xa3W\xa2r\xe0\xbf!\xe8\xdftQ$\xe4\xbf\x05\\\xc5\x0e@\x9e\xdb\xbf\x7fRI\xb8\xb4\x01\xa2?SnBFX\xd8\xe3?\xa4\x1c\x0ejrh\xb7?OG\x9b\xa9M\xab\xd8?\x0bP\x93\xc9t#\xbc\xbf\x8d>}\'\x93\x80\xcc?s\xe1lRYO\xed\xbf\x80{\xe3n\xc06\xca\xbfs\x9f\xa3\xbfz\xa3\xcf\xbf\x05\xbd\x93O\x85\xe5\xd8?\xfeXyYc\xe6\xe0?f\r@\xc7\x90\xca\xe6?y\xd5r=\xa9O\xd9\xbf\xadou\xb1\x91\x88\xeb\xbf\xa6\x17L\xfcq\x94\xed\xbf\xc2\x9cm-\xdd\xbb\xe9?\x03\x0e\xfd\xb8BR\xe3?4\x8e\x0b\xbbc\x95\xa7?l\xd9~$}c\xe5\xbf\xf9\xe5\x8bL\xa1c\xea\xbf\x86h3\xc7i\xfb\xe7\xbf\xcav\xe2t$\x89\x99\xbf\x8bW\xf5\xab\x9a\xab\xc8\xbf\xae\x0b(\xa7\xc75\xe8\xbf\xc7~\xa3\x07\x11\xfe\xd2?y\xda\x0b\x04\xe2\xed\xdf\xbfD\xa1\xee\xd9K\xdf\xb7?\xd0\x96\x87\x991\xfa\xdf\xbf\x89\n\x06\xc0\x9f\xb5\xd0\xbf\xfas\xe35i\xe9\xde\xbf\xc3\xd9\rN\xe6S\xea\xbfO<.\xaf\xe9#\xe2\xbf\x13\xc3\xc17\xe1\xef\xe3?\x96\x1c\'\x0c\xfe\xfa\x85?u\xdd\xe0C1\x12\xe4?\xf9*\x1b\x93Y\xaf\xd2?\xe2\xad\x8d\x0e>V\xd1?\x13\xb0\xd6\x85\xa3\x97\xe8?os\x1an\xfb\x8f\xe5\xbf\xebc[\xb2\xd2f\xd4?J\x99\xd3|\x15\xec\xbf\xbf\xc1\xd0\xa4\xf8\xc7\xb1\xd5?\xc8\xc1Z\x8f\xcbj\xea?g#\xae~\xc0\x03\xdf?\x03"\x99s\xe0\x8f\xe8?\x83\xa3\x01K\xf5%\xd3?\xf8&\xb9&TE\xc0?+\xbe\x93\xb6\x8b\xe7\xc5?\xdd\x92>G\xdc\xf7\xea\xbfs\xf3Nh\xe2\xf4\xe7?S\xa1\tk\xd0c\xe4\xbf\xbb\xb2\xe1\xfd\xed\xf7\xe2?\xd46,\x81b:\xe0?\xa6\x8d\xe3\xe1\x8cL\xa9\xbfo\xff\x7f\xda\xbc\xf4\xce?\x88U\xca\x17\xa2\xf6\xe8?b\xfe\x8e\xc8\x90\xa1\xe1?\xa1\x90)\x13\xa4x\xca?\xe1\xc1\x7f\xd1\xe7*\xe4?X2\xde\x059\x00\xc3\xbfBm\xfc\x97s\xdb\xec\xbfP\x01D\xc8\x96\x99\xed\xbf4\x0f\xe7\x80"A\xd5\xbf\x07"\xba$8o\xec\xbf\xed\x14r\xd4\xfb{\xe6?\'$\xf8~)A\xe9?\x15MAr\xe0\x84\xe6\xbf\xcb\xbf\x00\xa9.\xed\xe3\xbfZ\x01\xa0\x0e\x07\xa0\xe4?s\xf1\xea\xb7\x89\x08\xe7\xbf\x9f\xfaN:%\xfd\xd0\xbf\xf3\xc6<\x06{d\xc6\xbf\x1eTHr_w\xc4?^\x85\xf8\x05\x07\xcd\xda?\xed\xb5\xcb\xf0\xef\x81\xec?A\x84\xb9\xdenU\xbd\xbf\xe1hC\xbe\rp\xb4\xbf\xdb\xe5\xee\xfc\x11Z\xc9\xbf\xf5\xc9S\x14\xd6\xe2\xcf\xbfx\xfd\x17\x90\xb2s\xea?\xf9^\x16\xc1\xcc\xdd\xe1?{<K5\xfa\xd4\xb6?O\xec|\x05\x0e\xb3\xc6?\xd8\x90{G\x05\xd8\xd9\xbf|0A\x14*\x8c\xc4?6\x0eQ\x8bG(\xd3?\x15\x13\xdfO\x8e\x12\xbf\xbf@S\xd7\xf82^\xeb?\xa3p\xfb\x14\xa63\xa9?\x1d\x0e\xbdQ\x91@\xe7\xbf\xbd&n\xcd\x7fg\xe0?hE\x7f\x81\xf4\xf8\xed?I3Jb\xf6\x03\xe7\xbf}Y\xdb"\xd9\xcd\xd9?\x17\x97\xab\xd95g\xdd\xbfl\x86\xfc\xbd]@\xe3\xbf%\xed4F\x16\xaa\xac\xbf\xf1\x96\x93\x80\xf9\x9d\xdc\xbf}\x0e\xad\x90\x0fV\xdf?\xb36q\xed\xf7\x92\xd4?\xc9\x15\xf0\xb5\x11:\xb3?\xd29\xd3\xeb\x86\xe8\xd8?\xcf\xc8<Z\xa8\x1e\xe9\xbfH\x07\xf4\xa4,]\xc0\xbf\x83\x9d\xecf\xc1\xaa\xe0\xbf\x8c\x99\xee\xb49<\xed\xbf\x05\x03v\xbbq\xe4\xe8?\x1e\xc3\x89~\x07\x80\xe1\xbf]\xee\xab\xb8w\x04\xec\xbf\xb3s\'\xc5\xd3<\xe0?\xa0=\xda\xaf\xb3X\xd4\xbf\x98\xa5l\x91\xab\x0b\xcd\xbfU\x8f\xf2;+T\xe2?-\xb0\xeeQ\xa8~\xb1?8\xcd\x90Y\x0c\x10\xe7?\x97\xf0[\x04eL\xc4\xbf1\x17*(h-\xc5?H\x88P\xd8\xec\x91\xe5?;\x9a\xc4b\xf1\xd4\xe6\xbf~\x91\xc8\xd8W^\xdf\xbfNKD\xf8\xe5\xdf\xdf\xbf`|\xf0R\xc2B\xde\xbf\xf9\xc6\x87qv\xa1\xe5\xbf\xc8\xf3\xbe \xef~\xd1\xbf\xe0\xf6\x8d!`\xd2\xda?\x05OmI~\x02\xdc?\x8c\xe2\xee`\x10&\xe7\xbf\xe2\xbb\x86\r\xde\x03\xcd\xbf\x88\xff\n\x80\x83\x1e\xd4?\\\x0eE\xaa\x94\x83\xe6\xbf{_\x8f\x95H\x1d\xd3\xbf\x84\x9f\xb1\x0bu\xa4\xd2\xbfj\x07\xf3<B\xba\xdb?\xa8\xd8\xc2\xd8q\xfd\xe2?\xa9aO\xb1\x1f5\xaa\xbf\x88u\x90\xd9D\xaf\xdd\xbf\x93-\xde\xabU\xa0\xe4?~\xb4Y\xc9\xb5\xeb\xea\xbf\xac\xe9\'J\xd8\xe2\xe1?\xab~AV?p\xde\xbfg\'7\xd3\x16\xfe\xea\xbf\x9c:cJe\xd7\xaa\xbf\xd8l9\xe1@\x1c\xe8\xbf\xe0\xa5l\x99\xadw\xe4?\xad\xed\xd4\xcf\x8c.\xd9\xbf9\xc9x\xa3\x8c\xa7\xcf?\xd7}\x0fb\x81#\xdd?\xa6\xa2\x9d\x18\x82\x08\xe3?n\xec\xf5\xcb#6\xd9\xbfb\xbb\x08/\xf3d\xe8\xbf\x8e\xb4\xcd\xa7\xef\xb2\xe7?J\x01.\x80\xd7\\\xdc?\x19\x93h\xb5\xb3\\\xa2?\xafp\x1a\xd7=\xcc\xd1\xbf\xb1\n\x1c\x89\x92\x12\xe4?M?X\x82k+\xe2?\n}J:8\xee\xbf?\x07\xc1\xc5\xf2\xf4\x13\xc3?\xba\x03\x95\xcd\xc8S\xe7\xbf\x8f\x85\xb3b\x1f\xec\xeb?\'4\xd1]+"\xcd\xbf\xca\xd7\nj\x9c\xb1\xea?R\xc9\xf4\xcd\x15\xe5\xdb\xbf\x97\xdb\xd1Z\xbb\x91\xec?\x0cr\xe8\x0b\x86G\xe9?J\xfe\x1c\xa8\xf9]\xe9?M\xbby\x0b\x85\xcd\xdb\xbf\x1c\xd6I\x15\xa5\xcf\xd1\xbf\xb7\xe6\x93\x89\xc5\xdb\xe2?\xb9\x04-f\x97D\x9e\xbf\x90\xe57m\x9e\xdf\xa7?.Cr\xec\x02m\xd0?d\x8f\xbcL\x01Y\xda?\xa0@\xcd:d\xcc\x9e?VPB\x89e\xac\xc4\xbf\xcb\x0c~\x9b\\f\xe3?\x85\x19/\xea4\xfa\xeb\xbf!\xb1\xdc\xf6\x95\x0c\xec\xbf\x1f\xad<8/\xd2\xec\xbf\x08\x91\x92\x92\xd4\xab\xcf?\xd4v\xf7um\xe5\x85\xbfh\xc5\x88\'\xd9\xdc\xe6\xbf\xb2\xe9\x05\xa1\xc8\x89\xd9\xbf@\x82\x87xx}\xb0?ih\xe3\x92\x1e&\xa3\xbfn\xb4H\x0e\x87\xac\x96?\xec\xb0\x05x 8\xe7\xbfUb\xd7\xf6\xcfU\xc1?{\xa4\x9f<i\x18\xef?+h\x9b\xfdV\x8c\xe1?\x9f(\xd9e\x87\x93\xee?\xa3\xc8\xbf\x05o#\xef\xbf`f\xbe\x86I\xea\xcf?\x81\xba5\x91\xd4\xb9\xe5?\xa9\x93!\xe6-\x87\xec?\x90"$\x11\xd3\xc7\xec\xbf\xfa\x02\xe2A\xc5\xd5\xe1\xbf\xe9\x1dy\xb7>\xe2\xbd\xbf\xde\x81M\xa7\x11\xd1\xc6?\xf3\x92a8$\xd3\xe1?8\x9b0g\r\xde\xd1?\x13\x05\x0c|q?\xd8\xbf\xa5\xcf\xa1O_Q\xe8\xbf-\xf8\xe5x7L\xd5?\x06B^\xef\x9f:\xc0?ng\xd8\x95q\xfd\xcb\xbfcT\xd1\xa8<\xbc\x8b?\xdf\x9a\x01\x91\x1bP\xd4\xbf\xe1\x08]\xefe{\xe4\xbf\xfa\xa1$\x18[o\xe6\xbf\xdc%\xd4\'\x1f\xd4\xda?\x9ck\xc7\xfa\x92\x07\xbf?\x7f\xb0\x04\xb8\xfcZ\xc3\xbf!\xd7J\x0b\xf3\xa2\xe1\xbf\x9f\xd9\xf1\xc2@"\x8d\xbfW\x1f\\\x1d\x86\x8a\xe8?q\xde]6\x04\xea\xd4\xbf*\x9c\x0c\xb9\x17\xa2\xd0?\x89\x1c6Y\xeb\x87\xec?\x99\x1b\xb5\x83\xb0\xe6\xc8?\x05\xa3Nd-b\x86\xbf9}\xc8\xeb\x92\x10\xee\xbf\xad\x1e\xe0\xf0\x16\x9e\xdb\xbfI\xa9C\xfc\xad<\xe4\xbf\xb1W\xfa\x13Z!\xd9?\xe4\'\xc1\x83bt\xca\xbf\x9e\x979\x85\xf2\xfd\xd3?\xc4y\xb5\xaa\xb4\xe5\xe9?qM\xe2i\xff\x16\x94?d\xbb\xca\x1d\xf4v\xc1?\xa4\xbalP_\x07\xe9\xbf\xd6\xf0\xa7\xa5\x8eu\xcf?+4}\xdas\xa4\xe8?f#\x8ct\xe4T\xe9\xbf\x1fL6<c\x85\xeb\xbf\xe8z\xc6\x12\x1fS\xd8\xbf\xed\xcc\xcf\x91\xcd\x0e\xa0?d6o<%T\xe5\xbf\x10Y78]\xf9\xe6?x w\x13\xd8\xc5\xd2?\xcb\xe8"\xb0\xf5\xbb\xdf?S\xf64c\xb8j\xdd?r\xc7+\x15\xa8\\\xe4\xbfh^M\xb8\t~\xda?}\x03\x84`\xf13\x82\xbf\x96\xab \xb9\xf8Z\xd8?/\x98\x94E\xe4i\xc0\xbf\xc6D(j\x02\x8d\xe5?Y\x04\\u>M\xcc?\xf06w\x08\x168\xec\xbf6\\\xf0\x9d\xbd>\xe9?\x0e_\x81_\xa5\xf3\xd5\xbfN\t\xb5\x83\x16/\xd0\xbf\xe3r\x13Z\xcf\xc1\xea\xbf[\xa5\xb2\xd83\xfa\xde?\xe4\xcb\xc8Q%\xe4\xec\xbfW\xbe\x8e\xfe\xac\n\xe1\xbf\x9c7{A\xb4\x03\xc6\xbfn\xf3V\xae\xc5z\x9f?\xc8\x12\xfe\x18{\x80\xdc?4\x85iDI\x12\xea\xbf\x0b\xda\xac\x91\x80\xc7\xea?\xf0\xba\xd7\xbd\x9e\xc8\xe6?V\xfd\xa2\xf6\x0e\xa3\xd1\xbf\xd3\xc97Xo\xc7\xd8\xbf[&A\xc5\xb1%\xec?\xd3\t\x8b\xaf\x92\xf7\xdb?A_\r\xba\xbb\x98\xdb\xbf\xbf\'$\xdc\xf7l\xe3?\x1c\x88\xaa\xab,\x17\xd5\xbf\xb9\xe6xZa\xa8\xd2?I\xab\xe1HKv\xe3\xbftA\xf1\x0b\xd0\x94\xd6\xbf.\xed\x93\x82"\x97\xda?\xed\xca8\xe2\x9d\xdb\xc6?\x02\xb9\xb6\xe4^ \xe2\xbfC\x05;\x13\xd5<\xdf\xbfD\xb7j\xd8?E\xe6\xbf/\xf4\x9fn\xaf\xf5\xe0?"\x8ePr\x1c$\xd3\xbf\x07\xd4n\xc8\x88\x8f\xe2\xbf\xaaw\xb9\xde\x94\xa2\xd4?\x97gS\x0c4F\xdd?&\xe1W\xc3\xd3P\x9c?\xfb\xcc\x7f\x8f\x15\xc2\xe8?`\xa3\xcc\xbf\xeb@\xc6\xbfG\xf2i\xf0\xae\xcd\xd9?S\x8b}\xe4u\xb4\xed?b\x9f\x17\x07\xde7\xeb?q\xa8\x1f\xee\x0e\x92\xdc\xbf\xb1\xf7\x10\x0b\x15:\xe7\xbf\x8cui\xe7\xf3~\xe3?\xfer\x96X;v\xd8?\xea\xb4\x81|\xa8=\xa1\xbf\xfc\xb8zS \x0f\xd0\xbf\xb7\xe9n\xca\xea\x10\xe6\xbf\xd8\x8e[\xb3\x85&\xd0?\x11\x8ey,9\x8a\xdf\xbf9,U\xfe\x96\xed\xbb\xbfr{\xce\xbf\x95\xa1\xe1\xbf\xb1>u\xfcH*\xd1\xbf~\xa6\x02\xb0K\x93\xec?^\x97<\x929\xff\xd9?^v\x99!\xc1m\xbd?b\xfb\xe5\xcf\x7f@\xde?Y\xbc\xc1\xa3e\x96\xe3\xbf\xc7\x08W-\xac\x1c\xd6\xbf\xa3\xeb)\x0b\x8b#\xe5?=\xf0/\x88\xbb=\xe6?\x0e8a\x14\x94\xe7\xe3?g\x15\x0b\xdfl\xcd\xe2?\xdcEd\xd6\xea\xe9\xbb?\x91?\x94,\xbc\xf3\xe7?tez\xdaZ\x8d\xd2?v\xf5\x06\x1ei\xb0\xe7?f\xf5\x9c\xde\xf8\xca\xde?\xa7\xb5)}\n\n\x8c\xbf\xc7\xbaLF\x9e\xcd\xe0\xbf\x06\x14\x99\x83f\x89\xda\xbf\x86Pn\xe7y\xb9\xe3?#\x06\x9a\x9f\x98\x9f\xe9\xbf\x96\xa4\'S\x97\xb0\xd0?\xd8\xd3\x87\xb7\x01z\xec\xbfy\xf5 \xe8\xc2\x1e\xe1?\xf3\x10\xf2\xdc\xc1\xbb\xde\xbf.\xf2u\xb2\'\xb8\xda?\xb6&\x1c\x8a\x06\xba\xe2\xbf\xbd+\x91>\x06\x16\xda?\xb4\x81P\xe7\x87j\xb9?\x0c\x0b\xbb\x9a\xc5\xbb\xec\xbf?;\xed\xa3\xfe\xa5\xe8\xbf\x95KX\xec\x18\xf9\xde\xbf\xa2\xebp\xd9\xcfu\xdd?\x11\x95\xdf\xb2\xbd\xb2\xc5?\xfc\x9e\x8a\x99\x99\xa4\xec?=\xab\x185q\x00\xe7\xbfi\xed\xea\xcf3%\x9e\xbf\xa1\x83\xd9\x17q)\xe0\xbf\xcb\xd4!.\xff\xbb\xa4?\xac\xc3A=\xde\x99\xe7\xbf\x9f\xd7\xd6D\xfbH\xa2?\x90\xb5\x91\xab/C\xc2?c\x1cgbC\x05\xb2?\xc6\xcc\x89\xb0,8\xa5?\x11(Jt\xbe\xf0\xce?\xe7\x93@\x86\xef\xee\xbc?n\x88+\xa3\'\xb4\xea\xbf\x95\xa4\xf2\x1aiD\xe6?cO\xafG\x89\x05\xed\xbf\x8a\xc5\x8f\xfeA\xc8\xc6\xbfx\xb2`\xe1\x92\xe5\xcb?\xb4\x18\x0bK\x95\xc4\xdf?\xe9I\x8a\x91(\x93\xe2\xbf\xc4=\x88\xd2T\x01\xca?n\x94M\x0b\xdd\x04\xeb\xbfZ\xd8\x94Q{\xca\x7f\xbfZ\xa6\r5\xd5\x9d\xd3\xbf\xc1w\xc0\x80]\xf0\xe5?\x8b3\x98\xb3\xcek\xdd?X\rI\xbd\x96J\xe3?HGV\xbd\nE\xd1?d\x95\xdc$\xa7\x94\xbe\xbfT\x99$\x99\xb9\xdc\x98?\xb6o\x86\xdb07v?G\x11\xa9\x1e0\xb3\xd9\xbf\xe7\xda-\x1b\x8d\x9a\xec?\xad\xd7\xc3S\xbbo\xeb?^\xe8\x8a\xd9\xc0\x15\xc5?.\x06\xd7~\xd6\x02\xe6?\x81z\xb5\xa0L\xe0\xc4?\xe3\x99l\xc6B\xb1\xe2?0,G\x11E^\xe7?\xf9\x8e"G\xb6\xa9\xe4\xbf\rI\x14\x98\xd5"\xc1?\xabyh\x88\xec\xa0\xc4?\x86_Z\xd6\xa62\xa9?UO\x17\xc3\xbfk\xe9?\xdb\x90\x04]\xed\xe4\xe2?>\x8e\xd8\xf0j\x1f\xea\xbf\xc5|\xbd\x92&\x99\xe9?A\xa5\x9d&\xb6\xe0\xe4?X\xc5\xd6Ib&\xeb?\x99\xb9\x1d\x11\xdf\xb5\xe9?L=\xd0d\x7fF\xdb\xbf\x06f1\xa5Qq\xe6?Q\x97\x13t5\xb3\xed\xbf\x808\xe5\x0f\xca\xb4\xe7\xbf\xd1VU),\x08\xd8\xbf\x9bP\xe5\x19|N\x8f?\x85\xcf|\x1bAq\xe8\xbf\xea\xf1Kz\x98R\xcf\xbf\x10\x825S\xdf\xc1\xed\xbf\xff\t1\xa76\x84\xb1?\xa0g\xd1];\xfe\xe8?\x04\x0e\xa9\x16&n\xc8?#\xce\xe3Q&y\xea\xbf\xa28C\x02\x08\xf9\xd2\xbf\x15\x90-nP\x99\xec?OS\xc6\\aV\xd8\xbf\x8e\xee!w\x18\x15\xd2?\xd1t\xfcv\xd6p\xdb?u\x91I\xbc\x05\xd6\xe1?\xed\x0cfP\x88\x12\xc5\xbf\xe4\xbc2:|D\xa9?Y\xcer\x0f\x03R\xe6\xbfX\x8di\xf2\xf9r\xe6\xbfJ\xc8\x0f:9z\xb5?y\x8eC\x98jI\xd0\xbf\x83\xbfu}\x85\\\xcc?\x89\xb3\xf9\xa3\xa1\xc0\xa1?\xba\xc8{~+\xa9\xab?Q\xf9\xa7\x89\x84V\xe9?\xf7\xe9\xa9\xc5\\\x9f\xde\xbf\xbd\xf2\x8fP\xdaJ\xe0?\xa4B\xf3-c\xc2\xcf?\xac\xce\r\xe4\xe1\xd9\xd3?P\xc7\xf2p\xf0\x12\xd2?\xd1m\x14\xd9\xe0\xf4\xeb\xbf\xaa\xa3\xe1\xdc\xba\x1c\xcb?\x16S\x91^:\xe2\xde\xbf\xb1\xf3\x15\xc7s\xab\xe6\xbf\xd7\xcb\x06aE\xf8\xe1\xbfZ\x01\xe2-\xd9\xfe\xea\xbf+\x92^\x9c*e\xc3?\n\x94\x138\xed\xf3\xec?\x03\x8e?um(\xb5?\x99S[a\xa0\xfb\xe8\xbf%%\xe5\xba\'q\xca?\xda\x0e&#\xb5M\xcf?\x17;]#\x1d\xa1\xe3\xbfx\xda\xcb\xee)\xc5\xa8?"*9\xe9\xac\x1a\xd9\xbf\x8f\x05~>c\x8e\xeb?}S\xf5\xcd\xff4\xe8?\xc0\xf1\xd7\x0c-R\xe0\xbf#\xe8\xc26\xb7\xef\xcb\xbf \xd0\xcc\xda\xbck\xe1?)\x01Q\xd9&\x82\xee\xbfy\xfc<)\\M\xe0?>\xb7\xb5\xd8\xd4}\xb9\xbf\xb3u4\xb6\xf5\x17\xe5?\xe2\xf8\xf8\xf3an\xe1\xbf1<T\xad\xa4e\xde\xbf\xd1,OHiE\xd5\xbf%P\xa0#\r\xf0\xd9?\xda\xc3\xa1\xa9R\xef\xd1\xbf\x80\'SH\xe7\xf5\x80?\x91\x89\x93n\xdf\x13\xe4\xbf\xa9\xb52\xfb\x0c\xc6\xe0?~\xefno\xdc\xe9\xec?\xae;\xbe\x87$\xa6\xb7?<\x11\xb7\x00\xd9&\xd4?\x02\xb7c.\x9a\xb7\xe3\xbf}d\xbb\x91\x01C\xec?\x98n\xa0\xac2\r\xec?:Rp\xd5\x93A\xe1\xbfgX\xe0\xf7\xa4^\xc2\xbf\x8d\x9a#\xd0\xb3\xbd\xe9?\x07?U\x97\xca\xa6\xd5\xbf:\xa0\xc6\x8a;\xafs\xbf\x10G\x07\xdc\xa7\xbd\xe2?\xb3\x11\x01a\x98\x97\xc8\xbf\x0b0\xbf\xb9\x00~\xd1\xbfc&Bj\x8a\xe4\xd6\xbfDr\x1f\xfd\x0fV\xe8?\xf2,f\x87g\xd6\xe1?}\xd7f\xcb\xf5\xe1\xd1\xbf\xf6\xc4\x01\xe6\xb0\xdc\xdb\xbf\xa1\x99\xb9m\x88d\xe5?a\x97&\xa3\x87\xc1\xdf?\xaf\xe2(\x071\xc9\xb5?PS\xa9\x18<\xa9\xe7?W\xe4\x04\xfe\xa2\xc3\xd0?_\x1f\xb3RAU\xd2?3\xac^\x02 \x1a\xe9\xbfz\x87\xeb\x07E\xbd\xdf\xbf[>\nf\xd7i\xdf?\xc1\x9cyC-m\xde?D\xde\xad\xa5\x9a>\xde?\x08=t\xe0\xae\xdf\xd3?\x9e\xf0\xb5\x01\xbd\xcb\xe9?\xbc\xfe\xc1\xcf(\x9b\xca?K;\x8c\xd9\xecR\xe2\xbf\x18i\x99\xa07\x93\xe0?R\xcb\x91\xa2\xe8y\xe3\xbf)H\xe0\xc8\xb1\x1d\xb2?\x99\xf9\xc3\x1e\xcc\x91\xac\xbf3*\xc9\xf8Y\x1d\xea?\xb5\xf8\x17x\x9c\r\xec\xbf\x85\x0cy\xfb\x08\xc1\xd9\xbf\xf3f\xa6\xc6\xc91\xc0?\xeb4<\x9dY\xfb\xd6?\xbf\xeb|\x98mg\xe6\xbf\xad`\xe6\xb5[6\xc5?\xa5\x11J[\x85\xe6\xdd\xbf\xf0\xe7\xa6T\xfa\x87\xe5?v\xabee\x85q\xb7?k\x1bny\xdbK\xaf\xbf\x05\x10\x05\xf6\x1dt\xe5?\xb7\x80\x87F\x00\x08\xe2\xbf\xce\xe0_\xe4>\xdc\x81?\xfe\xcd\x0c\x1d\x04\x00\xeb\xbf\x08\xf3\xedc4\xa4\xc0\xbf\xf2\xc0\x0b\xbb\x07\x15\xe0?\xd6\\\xe7\xa2\xa8\x01\xec\xbf\xe7\xe4\xa2\x02\xb1\xa5\xd1?\xa1?\xa8s.\xee\xe0?/\xeb#\x1dk\x8a\xeb\xbf\xca\xb0)\xef\x10\r\xdb\xbf\xb1r\x1eI9\xf3\xae\xbfE\xf8\xc1\xc6!N\xd1?3HX\xa5\nN\xec\xbf\xe7\x18\rx\xffS\xeb\xbf\x8c\x8b\xda\x12|r\xe1?\x9b\xcf\n\x11+\x04\xf0?u\xbdP\xedZ\xb3\xe5\xbfD\xe78L\xb5\xc1\xc4?\x12<\xfe\x02\xe7\x85\xc0?\x14TW\xa9\x80\x0f\xbf?\x13\x80X#s\xd9\xd9?\'z\xae\x95R\xe5\xd5\xbffq\xd2C\xb5\xe8\xb7\xbf\x8a\x84 D\xc9\xfa\xb2?\x16\xba\x15\\`\xcd\xed\xbf\x86#zS\xbd\t\xd7?\x828\x8d\xf3w_\xbb?\xcd\xcb\xf8.e\xec\xe5\xbf\xf9\xf0\xf6\xee\x01\xee\xcc?k$w4\xa8R\xb4\xbf?(6\xb5\xdc\x1b\xcc\xbf\xd2\xc5\x88I\'\x10\xb1?\xb6MiO\x8b\xc6\xec\xbf~\xec\x1b\xf8\xda\x97\xe4\xbf\xae\xed\x8e5\xffI\xcb?0\x86\n2\x80S\xe0\xbf\xefa\x1a\x87\'j\xc9\xbf\x19qZe\x11<\xee?\x97\xd5\xe6\xbc\xf5\x8d\x89?\xab\xb2\x85V\xb7\x18\xe5\xbf1V"o*\xa5\xe6?N\xa4\xb3"\xa9\xf7\xe0\xbf\xf4g\xef\x80\xee\r\xd6?i\xea\x0c\xa1\xcbb\xed?L\xdb\xf0%\x83F\xe8?\xc6\x95\xd4\x03\xc7M\xcc?41\x8e\xf7\xb7\xdd\xe4?F\xa77\r\xe0/\xe7?\x9e<\xa90aj\xca\xbf^v^\xe6\x16\xc6\xe2\xbf\xc5D\x1dcy\x1e\xc9\xbfDT"\xf1\xf1&\xea\xbf\xd5\x91\x0f\xeb\x8d\xe1\xe2?u\xa3\x0fL/\x85\xd0\xbf\x0b\x99\x19\x88\xfe\xa9\xd9\xbf?\xb3\xd9\x8ca3\xd7?6\x13\x82\x02\x9f\xfa\xd6?N\xd4\xaba\xb8\xaf\xe2?\x8e\xb0\xff~Pp\xe2\xbf\xe08o\xb5\xdav\xee\xbfu\x1b{\x8dC\xa1\xd0\xbf\xc9\xdeu\xc0\xdd\x0f\xa8?l\xaa\xb1\xb6\x12\xf5f?\xdf\xcf\xea#X\xb1\xe8?<H<\x86\xec\xf3\xda?\x8eF|\xb2\x0e\x1d\xd8?\x87\x02\x9c\xd8\xdbG\xdf\xbf\xe7C\xa5\\@\xab\xd2?\xe3\x04\x17\x8e\x89\x1c\xeb?\xd3\x84\x89\xbfjL\xed\xbf\x01A\xa4\xd1M\x12\xc3\xbfliO\x83fU\xd0\xbf\xf8L\x9e\x9eU\xac\xe7?\xb6\x03\xa54\xbe\xd5\xe8\xbf\x04\xbf\xdb\x16\x9c\x11\xe6?\x86_\x83h\xc6\xe1\xa8?\xc0\xf6\xf5_\xf9/\xea?\xc5\x85\x1a;\xc9\x89\xc1\xbf\x90\x08\xddUd\x91\xe0\xbf\xf0n\xa4\xae\xce\x87\xd2\xbf{Y@\xc9\x82\xf9\xe6\xbf\x10\x0b\xcbV\x80R\xf0?\xe21c}\xe81\xcc?\xdb\x81\xec,D\xad\xdb\xbf\xd9\xfb\xe1\x02l0\xb3?\xc5\xfc4\xf9\xbe\xea\xe6\xbf\x8c\xec\xb2(s\x12\xe7?j\x06\x11\xb2\x1a}\xdc?\xd7,\xcb\x1a\xcc\xeb\xca?\x05(zf~\xe8\xc1?\x00`\x17\xc4`\xbb\xc6\xbf\x84\n\r\xbby\x8f\xae\xbf\xc1\x0c\xbb\xd9\xda\x8d\xd9?Ct\x8f+\x1c\xf1\xd4?\x89\x9f\xe5\x97\x0f\x9c\xc2\xbf\x95\xd1\xe2\xea.)\xe2\xbf$\xbagu(d\xd1?\xbch\xd0\x12q\xcd\xe6\xbf\x02\x9e\xb2\x00N\xf6\xd0\xbf\x8eB\x11\xd9\x12y\xe4?[C\x99\x1b\xda\xf8\xd6?\x1f#\xdac\x1c\x81\x9f\xbf`\x91\x89\xa8I\x81\xde\xbf\xc8.6\x8en\x82\xd8\xbf\x08\xc8\xa5\x07\xc9\x88\xe7?\x97\xb8~a\xb4\xde\xe3?MN\x88\xe8\x8f.\xeb?~D\x0e\xd4\x16[\xec?\xe3Q\\KC\xea\xeb\xbf\x06\x01\xb0\xd6\x86\x86\xe0\xbf\x9e\xecI\xb3&\x10\xee?:\x19p\x7fQ\xe5\xda\xbfU\xc0\xd4\xded\xb4\xc8?\x9a\xfa\x8fD\x13a\xe1\xbf\xdf\x91\xe6\xf6\x85\xf4\xc9\xbf\xdau\x01X\xe5"\xe3\xbf\xb6]D\x1a\x04\xb2\xeb?c\xd6K\x1b\x12\xfd\xdc\xbf\xe6\x00\xda\xad\x1e\xa7\xe4?\xfa\xf6\'*f\x92\xeb?\x93\xec\xce\xa7\x81O\xca\xbf\xf0\xab\x93z\x835\xa5?\xd0\xca\xcf1\xa4;\xe2?\x9ez\xaf?\xd9\x9c\xd4?\xb5PR\x8d\x0ef\xe1\xbf|\x07\xecE\xfc\x8f\xe8\xbf\xfaXG\x0c,\xae\xb0\xbf7\xfdx\xba\x92\x10\xe0?\xd8\xb2|\x9fcF\xd0?\xcc\xf6\x088\x08{\xd3?\x88\x041\xe6\xa8W\xec?\x12\xe7\xcd\xa4G\x8d\xcd\xbf\xea\xde\x90{\xdb\xf5\xea\xbfm\x818>\xc0\xa0\xca?NV\x8eq\xaa,\xb0?^\x98\x0f}\xf9s\xe4\xbf\xf9\'\xfa5\xe5\xfa\xe2\xbf\x86!\x02\xcd\xff-\xe0\xbf\xf4gB\xcc\xe8\xef\xeb?\x16z\x02\x7foa\xbd?\xf0r\xef\xc2s\xce\xe0\xbf[\x15\x9c\x16\x86I\xec?+t[\xf3\xfd0\xde?\xf3\xa3\xf1\x18p\xc6\xe2\xbf\xf4\x94k@\xc0 \xdb\xbf\xd7\x14\x19\xf4\xbd\xca\xb3\xbf\x9a\x8c\x95\x80M\x1f\xd9?\xbas\xcd\x08\xd7\x9b\xdb?\x1b2]lg\xae\xc7?\x91\xa2Q\x82\x85(\xe2\xbf&9U\x0c\xf3B\xeb\xbf \xa1W\x17\x14T\xdf\xbf\xf3\xb0Yw\xfbQ\xe6?\x8eQqoU\x97\xec?\xbat\xca\xd3\x87\xd3\xd2?\x05a\x0b\xf9\x93\x1e\xec?|_\xec\x14.\xc0\xd1\xbfx\xd3b5a8\xe2?\x9d7\xe0\xda\xfc\xe6\xc8?\xa09\xc46\x17\x90\xbd?\xb1vO+1[\xb4\xbf\xaa\x1e\x918\x85`\xea\xbfE\xd6\x00*P3\xb1?\xd6N\xdc\xbai\x1b\xe2?f\x93\n\xeb\x97)\xec?|"\x0bT\x9b\x89\xe4?\x14]\xe3\xc3\x10\x9d\xe6\xbf~\x12\x92?\xb1\xde\xc4\xbf\xd7\xb1\x07\x8d\xa9.\xdd?\xd7\x1e\xcf!\x80\x90\xe1\xbf\xd7\x18~P\x9d\xa8\xe4?\xdbJ\xe3\xabk;\xdd\xbf\x10I\xec\x1a\x80d\xd8\xbf\xad1\x192D\x92\xc6\xbf\x89\xfe0\xf4B\xbd\xe3?\xbfY\xf4\xe0T\x8f\xe2?\x15\x816\xfe\x9b\xa9\xc2\xbf\xd3\xaccw\n\x90\xab\xbfT\xe8\x03H\x91\xa8\xeb?\xdf\x1a\xbb=\xcb5\xb0?\xfd`\xfd0\xe3\x97\xd5\xbfG\xd3w\r\xd4\xac\xf0\xbfgB\x18\xb1!\x92\xc7?qu\xebz\xc88\xce\xbf$\xe6\xe92\tB\xf0?\xcc\xc8^\xaby=\xd7?\xd0\x9e\xa3\xc0\xa1\x1e\xd5?\xe6\xdbuu\xb8\x0e\xc2\xbf\xdb\xe1Z\x15\x99\xbf\xd3?\xd5\x7fH\x8d\x19\x02\xca?\x15\x7f\xd2\x9d\x1a\x13\xe2\xbf/\x8e5\xd8&\xf2\xce? \x15\x83\xa9\x9c\xdc\xb4?\\\x87\xc4s\xba"\xd1\xbfE\xd5p6\x15\x98\xda\xbf\xaa9\xa91\xcds\xd9\xbf\xf2\xf2\xff\xd0\xb7\xb5\xd7?#\xf1\xe9{\xaaD\xd5\xbf\x0841L\xbb\xea\xe8\xbf\xc3\x9b!`LG\xeb?,H\xc0A\xc7i\xce?}\x88\xd0\xcf\x8e\x08\xec?\r\xfb:\x88lq\xd0\xbf]G\x81]o\xe6\x99\xbf\x14gx\x86\xb6\x1a\xb5?M\x9a\'\xfa\xbd\x9f\xe3?X\xc4\xcdy\x9d\x10\xcf\xbf\x83\x19\xe8\xcd\xd7;\xe7?\xfe\xb4\x12J\xad\xb8\xea?\xb6M\x177TR\xef\xbfE\xebfD\xde`\xef?\xf0_m\xbfh2\xcb\xbf\x19\x1d\xa7\xd8|\xe5\xc4?\x80\xc5+\xa0\xd2\xd0\xcb\xbf\x8f\nXGu\xbd\xe3?\x1fT5\x80O\xd0\xc0\xbf|\x96#r\x1bn\xc5\xbf"\xa6\xf2\xfe\xf5\xe6\xef?\xb6\x98\xbc8_\xba\xc0\xbf\x8d\xb6\xbc\x1fc\x1a\xd8?\xabG#k\xcb)\xd5?\xde\x91\x91\xd4\xd0\x19\xdd\xbf0+@\x86\x85\x19\xd4\xbf#&\xa8\x93\xb82\x83?\rv\xed\xaax\xb3\xc3\xbf\xef\xc6\x9b\rQ\x81\xe4\xbf\xef\xbf\xb3\xa6\xe4\x9d\xd5?:\x8f\xd0\x95o<\xef?\xab\x049\xb4\xa8*\xed\xbf\xbeA,C\t\xdb\xc8?Z\x80X\xd1\x7f\xb7\xec?=\xfan\xea\xa2E\xba\xbf\x00d#\xd8\x99+\xee?q\x16x\xe8\xa0\x0f\xeb?pOZ\x02]\xbb\xe3\xbfY\x19F\xfa\xe0T\xde\xbf00\xf4\x88F]\xcc\xbf0\'^\x13\xe4"\xea\xbf9\x1b\x8b\x12\x85\xb7\xbe\xbfm\\\x0bG\xefK\xe1\xbf\x13fu\x85g`\xb4\xbfj\xd1\xb6\xef\x9f*\xd9?O|B\xc7\n\xa1\xe6?3?*A\xd3X\xc9\xbfV\x16`ht@\xe0?W\x11\xba\xaeR\xf9\xdd?\xfe\xd6\xc7J?W\xe0\xbf\xd0o\xc7\xf0y\xa3\xc6\xbf\x887V:78\xd5?\xb8O\xe0\x94=\xc6\xc9\xbf\x06\x1a\x91)\x8e\xfb\xa6\xbf\xd8kO\xc9/\xb9\xc6\xbf\xdeSwwS\x8b\xe8?\xd9b\x81#\x8c\x9c\xe2?\xf3\xe6\xe4S\xe6\xe8\xc6\xbf\xb7+\xae\x81\xf0\xa8\x89?\n\xd2-\x13\x8cg\xec?w\xe3\x9c\x1b\xcbk\xe7?\xf5\x0f\xda\x00\xdb\xd4\xe9?\x11\xdc\xf0C\xbf\x04\xd8\xbf\xd6\x0e\x94\xafC\x13\xd8?\x9e\x16\xe1\x91F\xae\xec?M\xa9(\x1f\xb4\xab\xe7?wd=\xbc\x1e6\xe3?\x14\xdf\x1a\x0e{>\xe7?:LQ\xfc\xd2\x94\xdf\xbf"\xc3$\xdb\xf4\x0c\xd3?\xdam\xd5\x82\xe2\xd9\xe6?\x81J\x8d\xcf\x00^\xbe\xbf\xdfW\xfb(\x89\xdb\xc4?\x03RR\xcf\x18\xec\xe4\xbf\xc2vl\x88\x8cF\xa1?\x90\xd9t\xcb\xdd\xf3\xc7?\xc1E)En\xce\xe0\xbf\xba\xef\x8frx\xc2\xd6?\xa4\xe9\xbe\xc6\x9d\x17\xe7\xbf\x04/\x8f\xed,\xfa\xd7\xbf<\xf8\x8arK\xf1\xe9\xbf\x1e\xec\xb8\x97\xf4\x88\xe9?\xf7\xe5\xec\xa6G\x0f\xee\xbf\xfdj\xb0\x86%<\xc7\xbf\x8a\xf2\x99\x1b(\x18\xc5\xbfC\x07\xfc\xea\xf2@\xdc\xbfn\x8f\xf13\xcd\x01\xee\xbf\xe9\x8c\x14\xe6\x00\x95\xde\xbf\x1b;\x85\x13\x94M\xb6\xbfw/-3Z\x18\xc1\xbf=\xff$W\x96\x8d\xad?,\x84\x8d\xa3|\xc8\xcd?\x1d\x86\x83\xdc\xd2V\xeb\xbfj,\n\r\xbe\xceF?&\x1f\x10\x7f\xf5\xbc\xd1\xbf\xf9\xe2\xa5\xf8\x07\x1c\xd8?m\xbd\xac\x1c\x97k\xce\xbf\n\xe2\xdf\x85)\x96\xed?\xe7\x15\xad\xac\xda\x17\xe2?\xf05\xdb\xe7\xc2\x8c\xe9\xbf\xfc\x9c\xabIqK\xe1\xbf\x06U\xd0\x07;\x80\xe2?\x83\xd6qB\x16\xc9\xc3?k\xf5\xcc\xdd5*\xd1\xbf\x1f\xbdc\x82\x18\xb5\xd5\xbfG7\x18\x1f\x0e\xfb\xc0?bY\xf2\xa1\xc3\xb7\xce?v\xe9\x8e\x0b\x9fv\x9f?\x98\x8bJe\x11\x16\xd7\xbf\xda*I\xec@\x9f\xe9?\xdd\xabj\xa3\xf7\xe7\xe2?;\x93)\x8e7n\xa8\xbf+\x99\xb7[\xa9\xc5\xec\xbf\x81\xacs\xbd\x08r\xee?\xbb\x01\x0e\x0c\xf2\x9d\xeb\xbf4\x11>A_\xd2\xa0\xbf\x88De\xc8"r\xe2?\xfa\x01,\xc3gT\xd3?Q\xfaZ-\x96g\xe2?*\xa2\x93\xdbXd\xe6\xbf\xf2S\x0b\x17|\xec\xdc?\xce\x02\xceJ\x00l\xd2?\x81\xfb\xa2\xff\xf2\x7f\xe8\xbf\x8f\x97PV\x07Y\xb2?g\x81\xf7\xad@ \xb6\xbf>\xa6\x04ibq\xe0?\xd7\x1f\x98^x\x0e\xd0\xbf\x13\xa1\x0b^\xdc\xad\xe6\xbf\xef\x93\xea[7N\xe1?\xdd\x96X\x0b\xbdh\xeb\xbf\xb7\x9c\xde\xfe\xc7\x13\xd3\xbf\x94\xe8\xd7^\xf8^\xd9\xbf\xc9uSY\xee5\xab?\xa5*\x98m\x7f\x87\xcd?G[.\xff\xa45\xe3\xbf\x84\xe1\x0e\x8a\xec\xab\xbe\xbf\x84jW9md\xd8\xbf\xab?\x02\x14S\xc2\xea?\xda\x15\xe2\xf4\x1bp\xe6\xbf\xb7]m\xf8\xda}\xeb?O\x9eU\x98V^\xda?6\xa9\xba\xb7\x972\xc0\xbf\n\\\xf84\xaf^\xea\xbf\xab\xb1%\xc24)\xd8?\xb3\xb1\x82\x0c*f\xc7\xbf\x17\xbe\x80e\xb2\xdd\xee\xbf\x92\xc4\tv\xc0(\xe0\xbf\xeb\xe8>\x9a\xce\xb5\xea\xbf\x11\xdb\x0eVI\x0e\xdf\xbf\xb16H{4\x80\xe8?\xa8\xf5\xee\x15\xea\x12\xd2?\x0e\x92\r\xac0/\xdc\xbf@\xde\x01\xaay\x00\x87\xbf\xa7\x1e\xdc\xfd\x18C\xe6?Ft~\xc1\x91\xec\xea?\xd5\xb3#]\x11 \xda\xbfqt\xbbA\xdd\xd0\xc3?W\xcde\xc3t\xed\xc4?\x97\x04W\xe1f\'\xe6?\xfe\x0c\x05\xb7O+\xe0?\xca\xf3\x95\xe7;<\xec\xbfd\xd3\xe5&\xa5\xcb\xd7\xbfW\x0c\xf6[\x993\xe9?\x94\xe4\xc5\xf0\x81I\xbd\xbf\xb5\x16<\x90=\xd5\xd2?\xf75\x8dN<\xd5\xd3?Q\x99\xd1\x06\x85\x16\xcb\xbf|~\x80\xddO\xe3\xeb\xbf\x15\x0c\x94\x8a\x9b\xa8\xd7?\xc4wr\xca2\x97\xd1?x\xd0\x96)\xa9\xb7\xe1?,\xda+\xf3\xae\x9c\xc9?\xdbuk\xc1\xd0-\xe4?\x1eT\x9el\x13\t\xef?\x0fK\xfe\x94\x06\x86\xe1?\x8e\xd5\x1d\x9dk%\xb4\xbf\xeb7g3 \x9a\xd2?\xca\xc5\x1f\x82\xc9\xe1\xdb?\x83\xc9V\x91\xdec\xdf\xbf|\xae\x02/\xdba\xdb\xbfu\xac\x86\xe9}O\xef\xbf\xc2L\xf4\x1d\xa5i\xe7?Hc\x1cf3\xcd\xe2\xbfB-\xad\x8fW\r\xe3?\x15~\xa4\xeeMs\xea?Wty\xdd\xf2Q\xca?\xeb\xd7\x06\xfd\x97\x00\xe5?\x0bt\xf9\xe7\xc6\xa6\xb3\xbf$\xc8O\xc0<\xd3\xe5?\x12_$\xf9\xf9>\xe1?\xc3\x96G\xdc\x1a~\xda?|#|3#\x9c\xe6?\xa6\xac\xd0\xd3\x03\x0e\xe4?S\xaa\xca\xcd\xcea\xcc\xbf\x86\xa6\x15\x9ff\xc3\xe9\xbf\xb55-\xac\xc8\xa3\xe1\xbf\x89Ae\xca\xe0W\xd4\xbfi\xe0\x94\xf5\xf4\xae\xd3?@\x11O3D\xc8\xe4\xbf_\xe99e:\xc3\xd1\xbfp\x87c$\x0fT\xc2?\xc7a\xf0uC\xe5\xdc?\x08\x9c\xc3\xf67+\xe4\xbfn`9\x1ez\xc2\xd0?T\xdb\xec\xaa\xdb\xb6\xd0\xbf\xb2nm2\xa7\xdc\xde\xbfb\xb2\xaaJ\x95\x9d\xde?`\x10U\x9c?$\xc8\xbf\x89\x94\xee\xb1\xc6\xab\xdb\xbf\xa7\x99\x86\xdc\xda\x85\xd7\xbfj]p\xd3*w\xcc\xbf\xbc\xfc\xcd(\xa7=\xea\xbf\x10;\xb8l\xfe1\xeb?\xc6?\x9c\xd2\xd7\x17\xea?\xfc_T\r\xeb:\xa9\xbfg\x81\xdag\xfe\xa0\xed?\xde{[JC\xc1\xd7\xbf\xb0G\x82\x0f\xf7>\xd3?C2b\x9a\x19\xd4\xea?\x020\x9c\x97\xf3\x13\xd9?PL\x87d#\xb2\xec?\xfc\xdf<\x1a\x1c}\xed\xbf\x90\x0f\xee?G\xc2\xe9?+\xf1\x88\x95\x14V\xd3\xbf\x9fR/{\xf1D\xd2?$|\x93w\xf6\xdd\xd2\xbf;r\x98N$\xa5\xe0?\x12\x07\x9b[)w\xe2?\xf6>\xb5\x89\xf9L\xd2?Jdz\xf3\x95\xba\xd1\xbf\xeb\x80\x98\xfa\xef\x1a\xda\xbf\x16\x913\xe1\xd6\x04\xdc?\xe9\xca\xec`\xe8[\xd8\xbf^\x0c\x9f\xfe\t\x8d\xe5\xbft\xc4\xbd\xa4\x12\x0b\xdd\xbf\x8b{O(\xae\xc8\xde\xbfR\x19m@\xb1.\xc5\xbf\'\xe2\xf1\x9a\xcdu\xe4?o.\xa3V\x13\xbc\xe6?\xe7\x83\xcf\x12xZ\xe6\xbf\xe5\xa2=\xd5\xf3\xa5\xce\xbfH\x12\x99#\xa7\xe4\xe6?\xb7\x94\xf5\xc0F,\xea?p+g\x9cul\xe0\xbf\xa2\x84\x85F\xba\xbd\xc0?\x83l\xd6\x11P\xe7\xc3?]a\x1d8\x16\xd7\xa5\xbf'
p60
tp61
bssS'transf'
p62
(ineurolab.trans
TanSig
p63
(dp64
bsS'out_minmax'
p65
g18
(g19
(I0
tp66
g21
tp67
Rp68
(I1
(I30
I2
tp69
g28
I00
S'\x00\x00\x00\x00\x00\x00\xf0\xbf\x00\x00\x00\x00\x00\x00\xf0?\x00\x00\x00\x00\x00\x00\xf0\xbf\x00\x00\x00\x00\x00\x00\xf0?\x00\x00\x00\x00\x00\x00\xf0\xbf\x00\x00\x00\x00\x00\x00\xf0?\x00\x00\x00\x00\x00\x00\xf0\xbf\x00\x00\x00\x00\x00\x00\xf0?\x00\x00\x00\x00\x00\x00\xf0\xbf\x00\x00\x00\x00\x00\x00\xf0?\x00\x00\x00\x00\x00\x00\xf0\xbf\x00\x00\x00\x00\x00\x00\xf0?\x00\x00\x00\x00\x00\x00\xf0\xbf\x00\x00\x00\x00\x00\x00\xf0?\x00\x00\x00\x00\x00\x00\xf0\xbf\x00\x00\x00\x00\x00\x00\xf0?\x00\x00\x00\x00\x00\x00\xf0\xbf\x00\x00\x00\x00\x00\x00\xf0?\x00\x00\x00\x00\x00\x00\xf0\xbf\x00\x00\x00\x00\x00\x00\xf0?\x00\x00\x00\x00\x00\x00\xf0\xbf\x00\x00\x00\x00\x00\x00\xf0?\x00\x00\x00\x00\x00\x00\xf0\xbf\x00\x00\x00\x00\x00\x00\xf0?\x00\x00\x00\x00\x00\x00\xf0\xbf\x00\x00\x00\x00\x00\x00\xf0?\x00\x00\x00\x00\x00\x00\xf0\xbf\x00\x00\x00\x00\x00\x00\xf0?\x00\x00\x00\x00\x00\x00\xf0\xbf\x00\x00\x00\x00\x00\x00\xf0?\x00\x00\x00\x00\x00\x00\xf0\xbf\x00\x00\x00\x00\x00\x00\xf0?\x00\x00\x00\x00\x00\x00\xf0\xbf\x00\x00\x00\x00\x00\x00\xf0?\x00\x00\x00\x00\x00\x00\xf0\xbf\x00\x00\x00\x00\x00\x00\xf0?\x00\x00\x00\x00\x00\x00\xf0\xbf\x00\x00\x00\x00\x00\x00\xf0?\x00\x00\x00\x00\x00\x00\xf0\xbf\x00\x00\x00\x00\x00\x00\xf0?\x00\x00\x00\x00\x00\x00\xf0\xbf\x00\x00\x00\x00\x00\x00\xf0?\x00\x00\x00\x00\x00\x00\xf0\xbf\x00\x00\x00\x00\x00\x00\xf0?\x00\x00\x00\x00\x00\x00\xf0\xbf\x00\x00\x00\x00\x00\x00\xf0?\x00\x00\x00\x00\x00\x00\xf0\xbf\x00\x00\x00\x00\x00\x00\xf0?\x00\x00\x00\x00\x00\x00\xf0\xbf\x00\x00\x00\x00\x00\x00\xf0?\x00\x00\x00\x00\x00\x00\xf0\xbf\x00\x00\x00\x00\x00\x00\xf0?\x00\x00\x00\x00\x00\x00\xf0\xbf\x00\x00\x00\x00\x00\x00\xf0?\x00\x00\x00\x00\x00\x00\xf0\xbf\x00\x00\x00\x00\x00\x00\xf0?\x00\x00\x00\x00\x00\x00\xf0\xbf\x00\x00\x00\x00\x00\x00\xf0?\x00\x00\x00\x00\x00\x00\xf0\xbf\x00\x00\x00\x00\x00\x00\xf0?'
p70
tp71
bsS'out'
p72
g18
(g19
(I0
tp73
g21
tp74
Rp75
(I1
(I30
tp76
g28
I00
S"\x85\x17'>Z\xbd\xed\xbf\x1b-\x06\xf0\xab\xb3\xef\xbf\xc1\xb2V[\xcb\xdc\xec?,\x10(]\xd0\x9f\xef\xbf/\xd7n\x96y\xce\xea\xbf\x01.\x8e\x96\xce\xfd\xef?H\xee\xa5\xd5\xa5t\xef\xbf\xdaQ\xae\xa8\xc4T\xec?\xaa{\xdf`/6\xed\xbf\x83\x96n\xab\x08V\xe5?q\xd4\x99\xe7\xcd\xff\xef\xbf\xe1\xc4\xb3\xa4\x06\xfd\xef?b\xcb\xd1\xfa\xeb\xff\xef\xbfVTmk\xde\xc7\xea?\xda\x8ch\xb5\x05\x83\xef?\xaf\x89\x95\xf0\xe4\xff\xef\xbf\xa5\x8bM\xf0\xbb\xe0\xef?\x08\x8dM\x8czV\xec\xbf\x15\x11\xb3@\xa7r\xe9?\xef\xf9\xfd\x7f\xd1\xac\xee\xbf,\xa7\xd6\x8b\x16\xc4\xe8\xbf\xca\x9a\xf3\xc5\x0c\xce\xef\xbf\xb0\xa9J\x88\xa9\xc4\xef\xbf\x87\xe27&1\xae\xef\xbf\xf8\xd4\xc5B\x19\xff\xef\xbf\xd4\xb0,\x0f\x80\x07\xec?\x1e\x8a\xb7\xe3Z=\xec?Z\x9f\r]\x07\xff\xef\xbfqx+vd`\xdb\xbf\x9f\xb0\xd6\xa8&\xfc\xef\xbf"
p77
tp78
bsbag0
(g8
g2
Ntp79
Rp80
(dp81
g12
g13
sg14
I30
sg15
I1
sg16
I1
sg17
g18
(g19
(I0
tp82
g21
tp83
Rp84
(I1
(I30
I2
tp85
g28
I00
S'\x00\x00\x00\x00\x00\x00\xf0\xbf\x00\x00\x00\x00\x00\x00\xf0?\x00\x00\x00\x00\x00\x00\xf0\xbf\x00\x00\x00\x00\x00\x00\xf0?\x00\x00\x00\x00\x00\x00\xf0\xbf\x00\x00\x00\x00\x00\x00\xf0?\x00\x00\x00\x00\x00\x00\xf0\xbf\x00\x00\x00\x00\x00\x00\xf0?\x00\x00\x00\x00\x00\x00\xf0\xbf\x00\x00\x00\x00\x00\x00\xf0?\x00\x00\x00\x00\x00\x00\xf0\xbf\x00\x00\x00\x00\x00\x00\xf0?\x00\x00\x00\x00\x00\x00\xf0\xbf\x00\x00\x00\x00\x00\x00\xf0?\x00\x00\x00\x00\x00\x00\xf0\xbf\x00\x00\x00\x00\x00\x00\xf0?\x00\x00\x00\x00\x00\x00\xf0\xbf\x00\x00\x00\x00\x00\x00\xf0?\x00\x00\x00\x00\x00\x00\xf0\xbf\x00\x00\x00\x00\x00\x00\xf0?\x00\x00\x00\x00\x00\x00\xf0\xbf\x00\x00\x00\x00\x00\x00\xf0?\x00\x00\x00\x00\x00\x00\xf0\xbf\x00\x00\x00\x00\x00\x00\xf0?\x00\x00\x00\x00\x00\x00\xf0\xbf\x00\x00\x00\x00\x00\x00\xf0?\x00\x00\x00\x00\x00\x00\xf0\xbf\x00\x00\x00\x00\x00\x00\xf0?\x00\x00\x00\x00\x00\x00\xf0\xbf\x00\x00\x00\x00\x00\x00\xf0?\x00\x00\x00\x00\x00\x00\xf0\xbf\x00\x00\x00\x00\x00\x00\xf0?\x00\x00\x00\x00\x00\x00\xf0\xbf\x00\x00\x00\x00\x00\x00\xf0?\x00\x00\x00\x00\x00\x00\xf0\xbf\x00\x00\x00\x00\x00\x00\xf0?\x00\x00\x00\x00\x00\x00\xf0\xbf\x00\x00\x00\x00\x00\x00\xf0?\x00\x00\x00\x00\x00\x00\xf0\xbf\x00\x00\x00\x00\x00\x00\xf0?\x00\x00\x00\x00\x00\x00\xf0\xbf\x00\x00\x00\x00\x00\x00\xf0?\x00\x00\x00\x00\x00\x00\xf0\xbf\x00\x00\x00\x00\x00\x00\xf0?\x00\x00\x00\x00\x00\x00\xf0\xbf\x00\x00\x00\x00\x00\x00\xf0?\x00\x00\x00\x00\x00\x00\xf0\xbf\x00\x00\x00\x00\x00\x00\xf0?\x00\x00\x00\x00\x00\x00\xf0\xbf\x00\x00\x00\x00\x00\x00\xf0?\x00\x00\x00\x00\x00\x00\xf0\xbf\x00\x00\x00\x00\x00\x00\xf0?\x00\x00\x00\x00\x00\x00\xf0\xbf\x00\x00\x00\x00\x00\x00\xf0?\x00\x00\x00\x00\x00\x00\xf0\xbf\x00\x00\x00\x00\x00\x00\xf0?\x00\x00\x00\x00\x00\x00\xf0\xbf\x00\x00\x00\x00\x00\x00\xf0?\x00\x00\x00\x00\x00\x00\xf0\xbf\x00\x00\x00\x00\x00\x00\xf0?'
p86
tp87
bsg33
g75
sg40
g18
(g19
(I0
tp88
g21
tp89
Rp90
(I1
(I1
tp91
g28
I00
S'?\xc4\xbb\x81hK\xf2?'
p92
tp93
bsg47
(dp94
g21
g18
(g19
(I0
tp95
g21
tp96
Rp97
(I1
(I1
tp98
g28
I00
S'\xd0Y{QCx\xb0?'
p99
tp100
bsg55
g18
(g19
(I0
tp101
g21
tp102
Rp103
(I1
(I1
I30
tp104
g28
I00
S'\xa0\xe0A\xc9^6\xcd?\x90O\xaf\xf8\xd4\x89\xd6?x\x8f\x13\xa9\xb8\x9f\xc9?\x9b\xea\xbf\x1a\xe1V\xca\xbf\x88\xa5\x9a\xbe\xca\xd1\xd5?\x02\xcf$\x14\n\x07\xd3?Z\xc6K~K\xcd\xc3\xbf<\x02R\x08Aj\xc8?\x12\xfa\x9c\x8aN\xbe\x92\xbff\x0b\xad\n\x97;\x98\xbfs\xa1"\xe6:M\xd7\xbf\x9f\x13\x81\x123Q\xc8\xbf3|\xb1\x8b\xee\n\xb4?\xc3/za\xe7\xd7\xc7?\xdfW\x0e\x8a\xa8\xd8\xd3\xbf\x81\xb9\x02\x0b\x84\xaf\xd6\xbf.|>\x82\xb9n\xc8\xbf\xa8\xb5mr\x9f\x02\xdd\xbf\x1e\xbdk"\\y\xc5\xbf\xdb\xab \rK\xeb\xb4?7\x85\xe7\xaeu\xf3\xc4\xbf\x1e\x9a]k2\xd1\xdc\xbfec\xc1S\xf5\x96\xa8\xbff\x1bt\xe1\x93\x8d\xc0?\xca\x0f#6\xfb\x7f\xd4\xbf%wzQ\xdc/\xab\xbf\xdb\n>2\xf3\x01\xd9\xbfU2\xd8pP\xb4\xb2?\x18\x95\xf4\xe4\'\xfe\xdf\xbfc\r\x88\x16\x10\x11\xae\xbf'
p105
tp106
bssg62
g63
sg65
g18
(g19
(I0
tp107
g21
tp108
Rp109
(I1
(I1
I2
tp110
g28
I00
S'\x00\x00\x00\x00\x00\x00\xf0\xbf\x00\x00\x00\x00\x00\x00\xf0?'
p111
tp112
bsg72
g18
(g19
(I0
tp113
g21
tp114
Rp115
(I1
(I1
tp116
g28
I00
S'\xac\x8b\xdc\xaa\x0f\x19\xea?'
p117
tp118
bsbasg14
I33
sg15
I1
sg17
g18
(g19
(I0
tp119
g21
tp120
Rp121
(I1
(I33
I2
tp122
g28
I00
S'\x00\x00\x00\x00\x00\x00\x00\x00\x00\x00\x00\x00\x00\x00\xf0?\x00\x00\x00\x00\x00\x00\x00\x00\x00\x00\x00\x00\x00\x00\xf0?\x00\x00\x00\x00\x00\x00\x00\x00\x00\x00\x00\x00\x00\x00\xf0?\x00\x00\x00\x00\x00\x00\x00\x00\x00\x00\x00\x00\x00\x00\xf0?\x00\x00\x00\x00\x00\x00\x00\x00\x00\x00\x00\x00\x00\x00\xf0?\x00\x00\x00\x00\x00\x00\x00\x00\x00\x00\x00\x00\x00\x00\xf0?\x00\x00\x00\x00\x00\x00\x00\x00\x00\x00\x00\x00\x00\x00\xf0?\x00\x00\x00\x00\x00\x00\x00\x00\x00\x00\x00\x00\x00\x00\xf0?\x00\x00\x00\x00\x00\x00\x00\x00\x00\x00\x00\x00\x00\x00\xf0?\x00\x00\x00\x00\x00\x00\x00\x00\x00\x00\x00\x00\x00\x00\xf0?\x00\x00\x00\x00\x00\x00\x00\x00\x00\x00\x00\x00\x00\x00\xf0?\x00\x00\x00\x00\x00\x00\x00\x00\x00\x00\x00\x00\x00\x00\xf0?\x00\x00\x00\x00\x00\x00\x00\x00\x00\x00\x00\x00\x00\x00\xf0?\x00\x00\x00\x00\x00\x00\x00\x00\x00\x00\x00\x00\x00\x00\xf0?\x00\x00\x00\x00\x00\x00\x00\x00\x00\x00\x00\x00\x00\x00\xf0?\x00\x00\x00\x00\x00\x00\x00\x00\x00\x00\x00\x00\x00\x00\xf0?\x00\x00\x00\x00\x00\x00\x00\x00\x00\x00\x00\x00\x00\x00\xf0?\x00\x00\x00\x00\x00\x00\x00\x00\x00\x00\x00\x00\x00\x00\xf0?\x00\x00\x00\x00\x00\x00\x00\x00\x00\x00\x00\x00\x00\x00\xf0?\x00\x00\x00\x00\x00\x00\x00\x00\x00\x00\x00\x00\x00\x00\xf0?\x00\x00\x00\x00\x00\x00\x00\x00\x00\x00\x00\x00\x00\x00\xf0?\x00\x00\x00\x00\x00\x00\x00\x00\x00\x00\x00\x00\x00\x00\xf0?\x00\x00\x00\x00\x00\x00\x00\x00\x00\x00\x00\x00\x00\x00\xf0?\x00\x00\x00\x00\x00\x00\x00\x00\x00\x00\x00\x00\x00\x00\xf0?\x00\x00\x00\x00\x00\x00\x00\x00\x00\x00\x00\x00\x00\x00\xf0?\x00\x00\x00\x00\x00\x00\x00\x00\x00\x00\x00\x00\x00\x00\xf0?\x00\x00\x00\x00\x00\x00\x00\x00\x00\x00\x00\x00\x00\x00\xf0?\x00\x00\x00\x00\x00\x00\x00\x00\x00\x00\x00\x00\x00\x00\xf0?\x00\x00\x00\x00\x00\x00\x00\x00\x00\x00\x00\x00\x00\x00\xf0?\x00\x00\x00\x00\x00\x00\x00\x00\x00\x00\x00\x00\x00\x00\xf0?\x00\x00\x00\x00\x00\x00\x00\x00\x00\x00\x00\x00\x00\x00\xf0?\x00\x00\x00\x00\x00\x00\x00\x00\x00\x00\x00\x00\x00\x00\xf0?\x00\x00\x00\x00\x00\x00\x00\x00\x00\x00\x00\x00\x00\x00\xf0?'
p123
tp124
bsg33
g36
sS'trainf'
p125
g0
(cneurolab.core
Trainer
p126
g2
Ntp127
Rp128
(dp129
S'_train_class'
p130
cneurolab.train.spo
TrainCG
p131
sS'__module__'
p132
S'neurolab.train.spo'
p133
sS'params'
p134
(dp135
S'epochs'
p136
I3000
sS'train'
p137
(dp138
S'rr'
p139
I0
ssS'goal'
p140
F2e-05
sS'show'
p141
I500
ssS'defaults'
p142
(dp143
g136
I500
sg137
(dp144
g139
I0
ssg140
F0.01
sg141
I100
ssS'error'
p145
(lp146
cnumpy.core.multiarray
scalar
p147
(g28
S'6\x1e\xcb\xe6d=_@'
p148
tp149
Rp150
asS'__name__'
p151
S'TrainCG'
p152
sS'__doc__'
p153
S'\n    Newton-CG method\n    Using scipy.optimize.fmin_ncg\n\n    :Support networks:\n        newff (multi-layers perceptron)\n    :Parameters:\n        input: array like (l x net.ci)\n            train input patterns\n        target: array like (l x net.co)\n            train target patterns\n        epochs: int (default 500)\n            Number of train epochs\n        show: int (default 100)\n            Print period\n        goal: float (default 0.01)\n            The goal of train\n        rr float (defaults 0.0)\n            Regularization ratio\n            Must be between {0, 1}\n        \n    '
p154
sbsS'connect'
p155
(lp156
(lp157
I-1
aa(lp158
I0
aa(lp159
I1
aasS'errorf'
p160
(ineurolab.error
SSE
p161
(dp162
bsg65
g18
(g19
(I0
tp163
g21
tp164
Rp165
(I1
(I1
I2
tp166
g28
I00
S'\x00\x00\x00\x00\x00\x00\xf0\xbf\x00\x00\x00\x00\x00\x00\xf0?'
p167
tp168
bsg72
g115
sb.