ccopy_reg
_reconstructor
p0
(cneurolab.core
Net
p1
c__builtin__
object
p2
Ntp3
Rp4
(dp5
S'layers'
p6
(lp7
g0
(cneurolab.layer
Perceptron
p8
g2
Ntp9
Rp10
(dp11
S'initf'
p12
cneurolab.init
initnw
p13
sS'ci'
p14
I35
sS'co'
p15
I45
sS'cn'
p16
I45
sS'inp_minmax'
p17
cnumpy.core.multiarray
_reconstruct
p18
(cnumpy
ndarray
p19
(I0
tp20
S'b'
p21
tp22
Rp23
(I1
(I35
I2
tp24
cnumpy
dtype
p25
(S'f8'
p26
I0
I1
tp27
Rp28
(I3
S'<'
p29
NNNI-1
I-1
I0
tp30
bI00
S'\x00\x00\x00\x00\x00\x00\x00\x00\x00\x00\x00\x00\x00\x00\xf0?\x00\x00\x00\x00\x00\x00\x00\x00\x00\x00\x00\x00\x00\x00\xf0?\x00\x00\x00\x00\x00\x00\x00\x00\x00\x00\x00\x00\x00\x00\xf0?\x00\x00\x00\x00\x00\x00\x00\x00\x00\x00\x00\x00\x00\x00\xf0?\x00\x00\x00\x00\x00\x00\x00\x00\x00\x00\x00\x00\x00\x00\xf0?\x00\x00\x00\x00\x00\x00\x00\x00\x00\x00\x00\x00\x00\x00\xf0?\x00\x00\x00\x00\x00\x00\x00\x00\x00\x00\x00\x00\x00\x00\xf0?\x00\x00\x00\x00\x00\x00\x00\x00\x00\x00\x00\x00\x00\x00\xf0?\x00\x00\x00\x00\x00\x00\x00\x00\x00\x00\x00\x00\x00\x00\xf0?\x00\x00\x00\x00\x00\x00\x00\x00\x00\x00\x00\x00\x00\x00\xf0?\x00\x00\x00\x00\x00\x00\x00\x00\x00\x00\x00\x00\x00\x00\xf0?\x00\x00\x00\x00\x00\x00\x00\x00\x00\x00\x00\x00\x00\x00\xf0?\x00\x00\x00\x00\x00\x00\x00\x00\x00\x00\x00\x00\x00\x00\xf0?\x00\x00\x00\x00\x00\x00\x00\x00\x00\x00\x00\x00\x00\x00\xf0?\x00\x00\x00\x00\x00\x00\x00\x00\x00\x00\x00\x00\x00\x00\xf0?\x00\x00\x00\x00\x00\x00\x00\x00\x00\x00\x00\x00\x00\x00\xf0?\x00\x00\x00\x00\x00\x00\x00\x00\x00\x00\x00\x00\x00\x00\xf0?\x00\x00\x00\x00\x00\x00\x00\x00\x00\x00\x00\x00\x00\x00\xf0?\x00\x00\x00\x00\x00\x00\x00\x00\x00\x00\x00\x00\x00\x00\xf0?\x00\x00\x00\x00\x00\x00\x00\x00\x00\x00\x00\x00\x00\x00\xf0?\x00\x00\x00\x00\x00\x00\x00\x00\x00\x00\x00\x00\x00\x00\xf0?\x00\x00\x00\x00\x00\x00\x00\x00\x00\x00\x00\x00\x00\x00\xf0?\x00\x00\x00\x00\x00\x00\x00\x00\x00\x00\x00\x00\x00\x00\xf0?\x00\x00\x00\x00\x00\x00\x00\x00\x00\x00\x00\x00\x00\x00\xf0?\x00\x00\x00\x00\x00\x00\x00\x00\x00\x00\x00\x00\x00\x00\xf0?\x00\x00\x00\x00\x00\x00\x00\x00\x00\x00\x00\x00\x00\x00\xf0?\x00\x00\x00\x00\x00\x00\x00\x00\x00\x00\x00\x00\x00\x00\xf0?\x00\x00\x00\x00\x00\x00\x00\x00\x00\x00\x00\x00\x00\x00\xf0?\x00\x00\x00\x00\x00\x00\x00\x00\x00\x00\x00\x00\x00\x00\xf0?\x00\x00\x00\x00\x00\x00\x00\x00\x00\x00\x00\x00\x00\x00\xf0?\x00\x00\x00\x00\x00\x00\x00\x00\x00\x00\x00\x00\x00\x00\xf0?\x00\x00\x00\x00\x00\x00\x00\x00\x00\x00\x00\x00\x00\x00\xf0?\x00\x00\x00\x00\x00\x00\x00\x00\x00\x00\x00\x00\x00\x00\xf0?\x00\x00\x00\x00\x00\x00\x00\x00\x00\x00\x00\x00\x00\x00\xf0?\x00\x00\x00\x00\x00\x00\x00\x00\x00\x00\x00\x00\x00\x00\xf0?'
p31
tp32
bsS'inp'
p33
g18
(g19
(I0
tp34
g21
tp35
Rp36
(I1
(I35
tp37
g28
I00
S'\xf9\x18\x9c\x8f\xc1\xf9\x98?i6\xdd\xf8\xf7\xd6\xb1?\xd1*0\xf6\x94\x87\xc8?7\xdd\xf8\xf7\xd6\x11\xc4?\xb1\xa7<\xc4\\h\xc5?\xda\x95\xa8]\x89\xda\xd5?\xee\x8c^\xaa\x9f\x13\xd6?_\xcbd\x91\x03\x84\xd4?\xfb\x18\x9c\x8f\xc1\xf9\xa8?\r\xef\x8c^\xaa\x9f\xa3?\x0e\xef\x8c^\xaa\x9f\xc3?\xbb\x12\xb5+Q\xbb\xb2?\x04\x84\x14\xf7\xb5L\xb6?\x0e\xef\x8c^\xaa\x9f\xc3?8\x1f\x83\xf318\xbf?\xbb\x12\xb5+Q\xbb\xb2?\x9e\xd1K\xf5s\xc2\xca?\xa6\x1b\xff\xde:\x82\xd2?\xda\x95\xa8]\x89\xda\xd5?B\x8a\xfbZ&\x8b\xcc?L\xf5s\xc2\x1a\xde\xc9?-r\x80\x90\xe2\xbe\xc6?i6\xdd\xf8\xf7\xd6\xc1?C\x8a\xfbZ&\x8b\x9c?\xc5}-\x93E\x0e\xb0?\xe6B\xab\xc0\xd8S\xae?M\xf5s\xc2\x1a\xde\xb9?\x0e\xef\x8c^\xaa\x9f\xb3?\xbc\x12\xb5+Q\xbb\xc2?M\xf5s\xc2\x1a\xde\xb9?\xb1\xa7<\xc4\\h\xa5?\xf1\xad#(\xcd\xa6\xbb?\x04\x84\x14\xf7\xb5L\xb6?\x94f\xd3\x8d\x7fo\xbd?\x17Z\x05\xc6\x9e\xf2\xc0?'
p38
tp39
bsS's'
p40
g18
(g19
(I0
tp41
g21
tp42
Rp43
(I1
(I45
tp44
g28
I00
S'\xf6FV\xb7\x1e\r\x1b\xc0"Az\xba0\x0f\xe0\xbf\xb8l"\xb6\xf5I\x16@\xd3/\x15`^\xb9\xf7?O\x9c>\xad\xd3[\x05\xc0\x80\xd8O\t\x94A\x19@\xcfP\xa9\x1e\x88\x93\xf3\xbf\xd6\xa03\x9a}\x8b\x00@9\xe7\xbe\xbc\r,\x11\xc0m5\xb2S\xbb\xe3\x12@\x93\xe3\x8a\x15\xd6\x82\xfa\xbf\x07l\x164\x9ag\x0f\xc0\x80\xee\x90\x12\x99[\xf3?\xa8>P\xcbn\xf3\xfb\xbf\x88\xd2\x10\x05\xab?\xfc?*e\xe1\xd8\xaa\xae\n\xc0z3 8A\x97\x05\xc0\x00\xac(b\x9e2\x17\xc0\x94@\xc3x\xb0\x11\x00@\xec\xd8s`\xdf\xd3\xec\xbfR}\xf8e\xc5\x12\x00\xc0 \x80\xed \x92f\x02\xc08\xa5z\xa5\xe2\xc3\xd4\xbf\xe2\xf0$\xf3?\x8a\xf9?Dg\xce\xbf\x1b\x91\x04@\x00$\x06\xaa\xb9)\x89?J~\xb1j\x1f\xf6\xef?\xe0\x8ap\xea%\xd8\xde?}\xdc\xe0\xb3\xd3\x1a\x10\xc0\xf4e\xf5\xe7{-\xd3?\xa8&\x0b\xea\xe8\x11\xb2?d\x95`)\x9f\xe8\x1e\xc0\x0e\xddw\x01\x85\xd4\xfc?D\xb5q\x0be\x00\xf7\xbf\x04fG\t\xb7\xf7\xe6\xbfN\xd0\x96\x841\xe9\xe0?\x849O?\xa8\xc9\x11\xc06@\x81\xc5\x123\x14@\x12\x952\x87\xee^\xe7?\xa5\xff\x1a\xffiM\xe0?\x85\xac\xad\x83\x90X\xf2?\xfd\x03\xaa(\xbde\x03@\xde\xcb\xea\xf6\x0bU\xe3?\xdc\x9d;\xb0\xad\xf4\xfb\xbf\x00\xff6\xba\x12N\xf9\xbf'
p45
tp46
bsS'np'
p47
(dp48
g21
g18
(g19
(I0
tp49
g21
tp50
Rp51
(I1
(I45
tp52
g28
I00
S'\xae\x9e\xf8\x04\x00\xf6\x1c\xc0\xb6djb]u\xc6\xbf\x94\xf5\xf3\xd5L\x98\x1a@t\xb3l\x89\x8b\r\xfb?\xf4w\xc0{\xf4\xe8\x06\xc0R.\x17*\xa7c\x1c@S\x18u\x90\x92\xe7\xf7\xbfD\xcd\'u{Z\xfb?G\xb5?i\x8c\xec\x12\xc0\x9d\x94$\'{p\x14@\xa9\x8b$p\x1a\x84\x00\xc0e\xd7\xfd\x86\x9c\xc9\x12\xc0\xde\xed\xf4M$%\xfd?R\x08\xb7\x14=\x8e\xf5\xbf\xd7\x0b\x0f\xf9}c\xfb?1\xdb\x1cN\x0b\xeb\x0c\xc0\xb6\xe3\\"\x88\x88\t\xc0OW\xfdg$\x1b\x1a\xc0@\xde\xbf\xc3\xb4\x0c\x00@\x07cd\x1a\xad\xfa\xef\xbf0\xf0+\x91D\xfe\xfb\xbf\x90\xa9(`\xd0-\x05\xc0^\xc0\xeb\xf3%\xf6\xe8\xbfV6(%\xe0\xdf\xf8?j(5\xba34\x03@\x9f\x97EU\xc3@\xe1\xbf&\xa0\xbf\x02g\xc0\xf4?J\xa03\xdc\xde\xd7\xd2?\x0f2\x86n\xb7\xe5\x13\xc0|\x8dAk\xb3\x81\xe1?\x92\xa2\x07\x00\x03\x0e\xde?\x84\x95^\t\x1b\xed!\xc0)I\xfa\x17\xbe\x85\x05@\x10\x86\t\xe65\xb1\xfb\xbf\x91+\t\x9fj\xa8\xeb\xbf\x03\xa9J\x1b;\xec\xe2?$\x0cu@M\x99\x15\xc0\xa2~\xf0\x1bg\xf0\x17@\x15!\x11\x99\xde\xf8\xe1?\xa4\xedd\xfc\xb78\xca?\t\x18A\xde\x17\xb3\xf4?z\xe2v\x1d\xdd\x05\x08@\x93q\x98\xf1\x1f8\xdd?\x9c\xbb\xae\xff=\x8d\x00\xc0\xa5\xec\xa7"\xcd\x97\x00\xc0'
p53
tp54
bsS'w'
p55
g18
(g19
(I0
tp56
g21
tp57
Rp58
(I1
(I45
I35
tp59
g28
I00
S'y:\\Fn\x0f\xb1?{\xbd\xf0\xec\xd0\xdf\xec?}\xe0\x8c\xad\x11\x03\xe6?\xb9\xaa\x8d\xe1\x10\xee\xdc?\xc92>\xf6\x16;\xe5\xbf\x948e\xcaS\xce\xe2?\xae,\x0bG\x10\xf9\xe8\xbfdT\x0b\xf9\xe7\xb2\xee?\x01\xe4\x96\xf6\xd9\xb3\xdb?\xa6\xa6c\xba>]\xe1?\x00ml\xc7\xdd&\xd8\xbf\x10\xde\x02u\xe3\x7f\xe8?\xcb~\n\x0c|\xba\xc0?\xb9\x82\xf4\xb7x\x84\xdd\xbf\xf0OQ;\x93\x1f\xeb?iWcAl\xd4\xd7?\xd0@g\xd7\xf2{\xe0?\xfc\x94\xc0\x0bn\xf7\xdc\xbf\xc6_\xa4T\xb33\xed\xbf\xfb\xdf%H4\xab\xdf?\'\xe4[\xc5)z\xad\xbf\xde\xc9\x16\x11\xa0\x8d\xd8?D\xdd\x15\x8c)-\xde?\x8c\xa2\xdd\xcd\xc5\xde\xc6?j\xc0 \xd5\x02\x8d\xdd\xbf\x192{\\\x88\x17\xd2?\n~\xea\xca\xe3l\xd1?\xf1#\x1fk\xd3/\xcf\xbf]\xf2x$\xe9t\xd0?l\xb03,"\x9b\xd6\xbfQ_S{D>\xdc?@\xa4^*\xfc6\x92\xbf\xdb\xddsP\xef\xfb\xd1\xbf\xe3\x90h\n\xce\xf5\xeb?\xcf\x8eQ]\x8eD\xc6\xbf\x87\xa1\x06\xde(d\xe8?\xfa\xcfT\x83Xr\xe6?2"\xd0\xef\x02B\xea\xbf\\n(\xe3@\xc7\xeb\xbf\xfc\x00a\xcc\xd4x\xe8?\x93\xa1\x8b\x83^m\x84?\xe4\xed"\xb7\xd2\x01\xe1?\x98C\xecnZ\xaa\xd7\xbf\x7f\xdd4\xe1\xe3O\xe4\xbf\x9d\x7f\xd0\xc2\xed\xa5\xe5?\xc2\xf0+Uy\xc5\xe4\xbf\x1a.\x8d\x0f\x96\xa6\xd5\xbf\xdc\xb5\x90V\xbdM\xe7?#\x97D\x8e\xa8\x92\xc4\xbf:Z\xde\xe6n\x9e\xf0\xbf<\x988\x0c\xe3b\xc3\xbf\x1cP,H\x82\xc2\xd4\xbf^\xd4\x18Y\xc8\xc6\xbc\xbf{\xb9K\xff\xbc\xdb\xcc\xbf\x17\xe8%@\x07\xec\xb5\xbf\xd8qR\x19\x90\xe5\xd7?\xaa\xfb\xa1\x14\r\xa5\xd5?\xb8u\x03~,\x86\xd4\xbf\x91S\xdb\xf6\x80\xc4\xe9\xbf\xbfxF\xadF3\x80\xbf\xbe\t\xe9v\xed\x88\xe3?\xaamd\xcd<\xb3\xdd?.C\\\xeb\x18\x1f\xb3\xbf\x02L\x9ac\xe0\xd7\xc7?F`\xf6\xce\xda\x02\xd8\xbf,\xd6^\xa8\xf8\x12\xd3\xbfc~T_0[\xe2\xbf\xae^\x98Uw\'\xe5\xbf\xda\x13\xed\x8c\xb7n\xc6?\xaa\xb8\x89\xdf4s\xe9?\x83\xb4\x0f\xa3B6\xd6?\xd2a%L\xed;\xde\xbf_\x01\x9c\x1dt\xeb\xea\xbf\x11m\xb4*\xdc\xea\xe7\xbf\xa4\xc1\x04\x81(\x9a\xba\xbfi\x01\x96\xa4\x1b\x10\xe6\xbfo\xfe\xfdG\x12\xe1\xa1?3\xea\x8f49\x93\xe7?\x84~\x80\x05V\x0b\xaf?Z\x96NT\xc4\x8f\xe3\xbf\xf5\x07\xa2\x89\x0b\x89\xd9?\xf0\xdc\xe8~>E\xe3\xbfbdi\xf2\xa1\x91\xdc?\xb4\x84]0G}\xbe?\xcf\xa2\xe7\xa7\x16\xf0\xc9\xbf\xc6\xf8\xdeV\x1a\x93\xd2?\x96?\xe1\xb68\xd9\xde\xbfC\x0b\x0c\xca/\x94\xd2?\xe9\x9fN\xbd\xe6h\xcc\xbf\x8f\xf8\xecu\x0b\x1a\xe8\xbf\xef8\x11\xa3\xdcY\xe6\xbfq\x05%\xa1\xed\x18\xd1\xbf?\xa71k\x13\xf2\xe2\xbf*`N`\xad\x0c\xd6\xbf\x0c\xad\x93{G\xba\xa8\xbf\x94\xec\x99\xe9\x02\xfc\xdc\xbf\x05\xd0\xb7\xfc1\x95\xe7\xbf/d\x83a\x19\xee\xe9\xbff\x02\x8f>\x8c\x91\xc5?\xc0\'\xda\xb4"A\xd1?\xd5.~\x0b{\xa6\xe6\xbf\xa7xq\xb2\x08\xde\xd4\xbfiyp\tp@\xec?\xd0\xf3\x95\xde|\xb9\xe2\xbf:2\xe4\x7f\x8e-\xea\xbf\x01\xe2+$\x05\x1f\xcf?I\xa2i\xd2\xb6\xb0\xd4\xbf\xa5zT\xf1\x0b\xf3\xb1\xbf<2\x90;\xd8L\xeb\xbf\x9f\xf0\x0c\xb0%e\xe0?e\t\x9a\xd1\xacf\xb0?`\x92\xbf\xfe\x9b9\xe6\xbf3\xf0=\xfcf0\xe1?\x9a5mw\x90b\xe9\xbf\xb8w\x85\x8dS\xd0\xde\xbfYAq\x1e\xec\x1c\xd8?U\x87\x9f\x9b\x01|\xe1\xbf\xdad\x91\n\xf4c\xe7\xbf+os\xa5\xf2f\xe6?&+/\xa4j\xa1\xe5? \x9e\r^l\x82\xe8\xbf\xbd-\xd1A\x88\x04\xc6\xbfp\x1d\xe8\xf9++\xe3?\x8a]\t\xd7hZ\xe9\xbf\x8f$\xe1n\x1d\x01\xe4?\xb0\xe8XcB\xe8\xc9?\xad\xff\x11\x0fT\xd1\xa3?\xe5\xacOm\xa4J\xde\xbf\x91\xa7\xc2~im\xcc?\xed\x1f"\xad\xee\xe3\xe6\xbf\x83{-\xbdY\x88\xe6\xbf\xa4\xc3\x88x&\xdb\xd1\xbf\xfc\xdf4\x8a\xe9\x1b\xd8\xbf\x15\x98w\xa1\x16\xe6\xe5\xbfn\xea_\x11)M\xcc?%%\x98.\x12\xfa\xdc?\x80\xf9\x1e\xc3\xc6p\xe1?\xd5\xe7\\\xd1\xd2u\xc7\xbf\xde\xe8\xf5\xae\\S\xd0\xbfc\x05\xb7\x85iB\xe3?T|!\xdc\xb05q\xbf\xfc\x14I$\xfb\x0e\xd0?\xd0\x8a\xa7:q&\xc5\xbf\x11j`\x99"\xee\xe4?.\xf7\x8d[\xc1\xf7\xd9?"S\xf0\xf8\x85 \xdd\xbf\xf7Z\x8f%\x11\xc4\xe2\xbf\xd8$\x06\x13\xb2\xfd\xe3?\x13\xb9*\x9f*\x02\xa6?\xa1 \xc2\xcct\xef\xd6?\xd9)\x1b\xf9\xaa\xab\xe0\xbfJA[\xadi\xde\xe1?4}A\xbb=\x95\xcb\xbf\xc7\x7f\x13}\xb4g\xe9?\xbb5\x8d7\xd3\x0c\xce\xbf}\xa47\xf1\'\xe6\xed?\'\xeaf\xc3\xa7#\xdb?\xf1\xf34CD\xc7\xe3\xbf\xe0I\x1d4\r\xc3\xd1\xbf\xd8=\x9c(G9\xdf\xbfF\xf3\x7f\'\xb1|\x92?\xd4\xf0\xc9\x1e\xb4S\xce?\x82\x12u%j?\xee?\xea\x01\x19\xe1\x9c*\xbf?\x81\x06\x93\xc6u\x8c\xe2\xbf@\xb4\xaf\x91\xc8\xba\xeb?p\xb6\xdd\xcaA\xfc\xeb?\x0c\xb8\xbd\xd8\xfd\x90\xe1\xbf\xbe\xe4\xbb-\x14\xe7\xe7?\x1d\xd7c\xbaJ1\xe4?\x1b\tX\xb2+\x96\xde\xbf5\xdb\x11\xca\xdb\x92\xbb\xbfq\x84\x01\x80\xcee\xcb\xbf\x87\x02\xa5C8\x8c\xe0\xbf\x02w\x87\xd3\xaf\xde\xde?\xab\xd6f\xa1\x03L\xe2\xbf\xd6\xc1=x\xc67\xe4?\xb2\x9e\x0f!X\xb3\xe4\xbf\x9cI\x9a\xa2\xad\xc9\xc7?eX\x0b\x88\x90\xfa\xdc\xbf\'\xed\xa5\xda\xf6\xea\xbb?8\xe3%\x13;\xcf\xe9\xbf\x9f\xc2\x14)\xa7?\xa5\xbf\x85`\xa3\x80\\\xbb\xe7\xbfhQ\xc3\x9ch\x9e\xea\xbfg\xa1\xd2\xb0\xf5\xe2\xb5\xbf\xbe\x8afn\x159\xce\xbf2\xf5\xdbk}\x92\xea?\x00a_\xf2V\x7f\xe7?B\xd10\x95\xc1\xad\xde?\xb9o\x9bU?G\xd6?\x0b\xd4\xfd\x8ar\x87\xd5?\xcb\xd84\xe7\nT\xe5\xbfz\xee\xba\xa8.\xa9\xe1\xbf\xa2&8(\xa2\n\xe1?(\xd23\xa58\x87\xe5?\xe6;\xf1\x92}[\xc8\xbf]~\xa3\xd24\xea\xe3\xbf\x97py\xe194\xca\xbf\xbd\xe4\xd3\x9bM\xbb\xb9\xbf,\xe5\xd7\xfd\x02\xdd\xe4\xbfE\xb1(P\rx\xe5\xbf\x92C\xa8%\x1ej\xe4\xbfU3\x157R\xdc\xd5?\xb3\xb3\xec\xc0\xf8\xf2\xe3\xbf\xb1\x95\xae\x94{\xe0\x98?MSc"\xda?\xc3\xbf\x024\xfb\xc0\xf3\x99\xd8\xbf\x0b\xf2MB\x7f[\xe5\xbf\xd6:\xe5\xa0qw\xe2\xbfG\xa3\x1b\xf1\x0c&\xec\xbfV+\xa8f\x1d\x80\xe5\xbf\xd6\x13\x1e\xa5%\xd0\xb4\xbf\x15?\x03\xe29,\xe7\xbf\xe5\xc6=\x08.\x0f\xa9\xbfPx]zmL\xd3?\x83U\xa8T#\xde\xe2\xbf2\t\x1c\xaa\xf2C\xd6\xbf\x8fy5\xfa\x8a\x07\xe1\xbf\xdd,\x19\xc8\x92\xda\xbd\xbf\xee\xa2d\x16\x03\x8f\xe9\xbfR{\xd1\x9e\x927\xe7?5\x81+J\xb5\x15\xd0\xbf\x8b\xf1\x07\tg@\xe4?\xff\x9cg\xf6\xeb\x19\xdc?KA\xd5!\xb9p\xe3\xbf/i\x7fX)\xa2\xa0\xbf\x06\xc1\xa4\x16\x0c\xe1\xe5?\xf5\x06\xa7\x8byx\xe9?#\xc73\xc8g\xad\xc0?mgkY\x97\xaf\xe7\xbf\x0f\x03\x97\x00\x85\xcf\xdf?\t\xfd\xed\x82Qo\xe6?\x89\xef9f\x8cw\xe1?\x11\xb16\x94\xab\xe1\xe2?\xfa\xf9\x84T\xc8<\xe0\xbf\x1da\x19\xac\xa9\xae\xc5\xbf\xc2\xb9\xbd9\x16N\xe4?*\xccj\xbd\xa5\x83\xdf?dGn\x96\x87\xbf\xdb?\xdd\x1d\xa2\xd6L\xb0\xd5\xbf\xe9\x81\xdbA\x8b\x18\xdd?3\x98\xe3\x0b\x7f\xe7\xdd\xbf\xd7Nt\xaf9f\x90\xbf\xaa\x19\xfaEX\xf3\xb9?\xa1\x89\xe6\xedpl\xe2\xbf\x11[u{\xc6\x1c\xdc\xbf\x9e\x1f\xf1=W\xeb\xda?\x1d{:\xa3\xcd\xdd\xc6\xbfJm\x9d\xec\x8b\xc0\xe7\xbf|=\x8c_\xb8\x03\xdb?P\'\xdd>[\xf1\x9d\xbf[\xa4\xdf\xe4\xcb\xb7\xad?G\x13e98\xb0\xed?\x0e\x11\x83\xbb \x80\xcb\xbf-S=\xebh}\xf2\xbf\x1e\x13\xe0ww%\xbc\xbf\x7f\xf2\xae\x13 \xcc\xe3\xbfB\xc6\x1d\xfe5\xf0\xe6?\x00\xe9\xa1ah\xf7\xf8\xbeT)%O`\xd4\xec\xbf\xea\x9c\x01\x87\x8f\xb6\xd7?u\xa9Ss{P\xd5?\xda6\x99B\x1dB\xed?,\x0f\x9dt\x1c\xd3\xd6\xbf\xd6]$h\xf4A\xe3?M\xd3WF-\x93\x8a\xbf\xdc\x00\xf9[\xca\xbb\xdd\xbf\xd8=\xf7\xba*L\xda?\x1f\xbcxbTy\xda\xbf\xfb\xf1\xbdk\xa1\x10\xd6\xbf\x08\x89\xecM\x9bL\xd4?H"\'\x19)R\xa1\xbf\xbcZ\x14\xe3C\xb3\xcd?\xb9\xdd\xab\x1d\xc60\xf0\xbf\x9b\x12\xcez\x0c\xe7\xd3?\x85}\x97\xe6\x84J\xc4\xbf}{<\xa5HX\xe8?\xa4\x02\xe1\xcaJ\xb9\xd3?\x11\xaf\xe6\xe5\xf0\x14\xa2\xbfs\\\xd4\xf1\xf5\xde\xe1?G\r\xc3`\xef\xc6\xdf\xbf\xbd\xf4\xed\xce\xb7\xe6\xd3\xbf\x96\x17\xcb\xf2TU\xe2?\x9b*\xdca\x01~\xdd?\xb3\xb2{7Q\x98\xe3?\x119\xf1D+\xa4\xe4?+>y\xd8)I\xe1\xbf\xf9\xaf0}\xe8\xef\xdd\xbf\xc9~\x1aG\xd0+\xe1?\x15\xae9\xaf\xab-\xe6?I\xb3tx\xe7\x8e\xe2?\x9d!\xfcv\x13\x1c\xea\xbf\xc7\xb86sA3\xaf?\x82\xb4x\xebk\x8d\xc1?\xe42\xa9,Vh\xe5?\x00\xc2\x05\xdc|\x9c\xe2\xbf\xd6\xa7\xcf)\xa1d\xe4\xbf\x95x\xbeY?S\xe4?H8[T\x10a\xdc\xbf\x9e\xd6,f\x15\x8a\xe6?Xz\xc1\xeaf\xcf\xb5\xbf>\xbd\xfaC\x8c5\xe0?\xe9H\x84`r3\xea?\xe6\xed\x88]\xea\x80\xd2?\xce\x03\xf61\xcar\xe4?\x97zV\x12wX\xe0?fB\x98\xd8\xce\xcf\xd5?c\x9f9\xc7\x16\xd9\xd0\xbf\xcck|\x8bK\x01\xde\xbf\x88\x17\xe3\xfe\n\xbb\xde?\x04\xc1\xbf\xc35a\xb6\xbf\xc3\xf02\xa0\xadh\xe9\xbf\xa7rn\xbc\x86\xa4\xda\xbf\xdc#rZ~I\xce\xbf/\n\x03R\x94\xd9\xe4\xbfSc\xf8\xcc\x145\xe0\xbf\xc0\xd4\xba\xbf\xd6\xb4\xd9?-\x92\xf1\x91\xff\x11\xe6?\xc8B\xa5d\xb2.\xdb?\xb5\xfd\xe8x\xbbO\xe7?Ii\xda$a\x8b\xeb\xbf\x1e\x82\xf1\x88\xd8*\xe5\xbfL\x81EQ\xad\xe3\xba?\xac\xe2)\xa2K\xe9\xc5\xbf7\xac\x08\x1b\xa7\xea\xeb\xbf\x8dO\xb8\xa3\x9a&\xcd?n\x9b\xc9\x19L\xd3\xb7\xbf5sh\xec\tH\xd1?fX*\xc1\xe9\xed\xc5\xbf\xc3coHaC\xde?\x93\x16\xea\x82D\xe6\xa4\xbf\xcek\xcfp\x1a?\xd5?/\xb5\xd5A\x10\t\xe9?>l\xb3\xc7fN\xce\xbf/\xe7\x00dFU\xea\xbf\n\x9f\xd4v\x01P\xe4\xbfm\x9fl\xb30\xa5\xd9?mJh\x98\x1c\x1d\xc0\xbf\x84\x14P\xc5\x8d\xfc\xe2?\xdf\xe9\x1c\x0e\xaf\xc7\xe4\xbf`\xe8\x1a\xd7?\xcd\xe4\xbf\x84\x0bu\x8f\xb0h\xe5\xbf\xb1\xaeo\x17\xf8y\xbd\xbf\x8c\xd7\x94\xeeM\xae\xd1\xbf=\xb7\x17\x03\x97;\xdd?57vp\x968\xe1\xbf\xdf\xec\xa9.\x8a0\xeb\xbf\xd5\xe3(\x8a\x18\xaa\xe3\xbfL&\xb0\xd8\xc9,\xb5?\xb7\xba\xbav4y\xc6\xbfd\x19\x97\x0f\xd7\x00\xc7\xbf\x8e\x81\xb6\x00fu\xe2\xbf\xe6\xdf\xb5\xe4\xc1\xe9\xe5?7,_\xc2\xcfE\xe5?\x80\x16\x1f\xbd\xa2\x1a\xd9?\xfe\x87A\x88>f\xe4\xbf/B\xe5\xd9L\x93\xcd\xbf\x01^\xf0vc\xec\xe5?\xc7\xb7\t\r\x04P\xe6\xbfB0\xaa\xe4P\t\xd4\xbf\x1b?\xef\x0eM\xa7\xe8\xbf\xa3:b|\x8e\x03\xc0?\x10\x1a\xd0\x83\xa5\xaf\xe4?\xb6\xbf\xc1\xb9K\xcc\xeb?+\x18\x12\x07\xbe\xe8\xb2?\xcf\xed"\x05]y\xd0?\xbc$@\x12rC\xd7\xbf\xe2\xa1\x82\xc1\xe6\x08\xdc\xbf\xb4Y|\x00N\xd4\xe3?\xa0\x98\xf7\xcf\x89\x9e\xe2?8h\xa1\x98\xfd\x1d\xd0?\x81\xa8\xb7\xac\x95\x0c\xde?\xdcya*\xa4\xf2\xe1\xbf\xa2b\xaczg\xb4\xe7?5[\x83\xc2\xd9\xe2\xcc\xbfD\x05)\xc5E\xb3\xe9\xbfF\x82\xfeGik\xdb\xbf\xb9.\x95\xa7\xc0\xb7\xdf?xi\xd8d\x9dd\xe8?\x896\xa2\xdc\x02$\xd0\xbfY\'j=\x94\xe6\xd0?`>\x94A\x00\xd4\xd3?\x11\xae\xacnhA\xc5\xbf@\x92f^mH\xea?\x82\ng\xcb\x08b\xe9?\xb1\x97\xe0AZ\xee\xd4?\xe1Z\xf4%\xb0\x9d\xe1\xbf;\x9eX\xc2\x10$\xda?\xb8\xbf!\x88\x07i\xec?f\xf3\x87\x80\x97\xb1\xeb?N\x9e\xc0i\x0b\xb5\xc7\xbf\rd\x1f\xea\xb0i\xe6?\xf6i\xc0\x9d\xac\xba\xbe\xbf\xc9g\xbdi\x12c\xb2\xbf_\xc5\toQ<\xe2\xbf \x10\x11F\xb3\xae\xeb?\xdc#m\n\xfb\xf8\xe5\xbfs?\xa2\xa6<R\xec\xbfA\xae\x81j?\xf9\xcc?\x8f\\\x8f\x15\x9ah\xe3?\xd3!\x8a\x00\xf0\xa1\xcd?\xe1"Q\x15\xbd\x80\xd8\xbf\xb8e\x9f\x10\xd1T\xe4?\xc6\\\xff\xfae\xbc\xc8\xbf\xc4\xa7;?Oi\xd9?a\xfb\x15\xcb\xf6]\xe0?\xfb\x18#z\xfd \xb9\xbf\xa5\x93#\x04\x0fp\xb8?\xd7\x084\x88\xa9N\xe0\xbf\xf3mB\x909\xfb\xdd?\xd0dq\xb1`\xdc\xdd?\\\xf5A%\xdf\xdc\xd4\xbf<L\n\xa5\xee\xd3\xc3?\x15\xb8\rI\x11\xd3\xda\xbf\xf6\xb9t\'B\xb7\xd0\xbfu\xa8\xf5\x81\x12\xf3\xd8\xbf\xe5[\xe9H\xdfP\xe8?D\xd0\xe8\xde\x97\x00\xe1\xbf\xaa\x12\xd4F\xa77\xe8?&;\xd2\xe60\xa8\xe0\xbf\xc4\x88\xa8\xb3\x87\xb3\xe3\xbf\x19\xda\x964|\xcdj\xbfr\xe2\xa5.[\x8b\xb9?/\xfdq+\x8e\xc7\xe8\xbf\xe61\xf5\\\x85\x9e\xe1\xbf\x83\x07]\x1d\xb1\xbd\xef\xbf\xac\x9eR\x07\xc9\xf4\xcd\xbf\xba=\xaas\xce\xb7\xce?\xb6\xa0\x08\xf4|\x16\xe1?\x88\xdf\xd6\x04Z\xfe\x92\xbf\x12\xfen~r_\xe3?\xab5\x9b\x9f\x88-\xe4?\x91\xe0\x9bDFl\xd9?^\x92\xf2\xf2#\xe9\xce\xbfJ\xe5{5\xeb5\xec?\xb2\xc1\xbe\x11\xca\xf0\xe7\xbf\xb3\xfaQ\xe8\xe41\xbf?xO\xa1$\xee\xbd\xd1?M\xba\xb6\xf4\x7f\x10\xd6?\xd1\x8e\x9a\x96\x81\x12\xe7?\xcb\x93\xcdn3$\x95?\x99H\xd7+eR\xe3\xbf\xb49\xcf\xc8\xf2\x9c\xe7?\xb1\xa14\xc1\xf7\xe5\xea?\xcbD\xa7\x84E~\xe8?\xf3\xf0\xb1\xfc m\xe2\xbf\x9c\xb1\xbfP\xb9j\xcc\xbf\x80\xcf\x7fs\xc6\xd6\xb3?\x81\xc0\x14\x02\x95A\xca\xbf\xed\xbb\xca\xaa\xea\xa2\xd5\xbf\xa1B/\xa1\x08.\xe2\xbfA$\x8d\x12z\x93\xd4\xbf\x19\x08$\x9b\xbd\xd0\x97\xbf\xbe\x88\xa5m\xe2:\xe9\xbf\xe3\xe1\xf5R\x16Y\xa3?\x06\xd1\xec\xfd\xca\x15\xd7?\xe9\x94\x1bC\xd01\xd7?\x8b^\xf7\xd5\x08\xa1\xdb\xbf\x1c\xc07\\4\xb2\xc7?\xa8zE\xad\xac\x06\xd9\xbf\xf0boL\x97\xea\xdb\xbf\x84x\x00q_\x84\xea\xbf\xd8\xd6\x8e;\xc8\xa0\xea?\x9d\'\xb5\xf8c]\xd2?\x1fo\xaa\xc6\xb0\xf9\xde?\xab\x06\x18\x99\xfbp\xd4?\'\xbb5~5&\xd4\xbf\xdc\xdc\x10 \x13b\xae\xbf\xb1+\xde\x92\x85\xda\xe5?e<\x99\xa0\xd1\xfb\xdf\xbf&\x84\xc2\x84\x96\xc9\xec\xbf\xc01\x92\x1ad\xa0\xe2?\xe0\xa1=\x1c\xb9\xc0\xd9?\xfaa\x04\x7fs\xae\xde?\xa4x\xdd.\xeb\xbe\xed\xbf\xed\xbf\x80\xe7\x14\x89\xd8?\x1c\xcb\x81\xdd \x03\xe6\xbf;\x964\x9b%\xf5\xdc\xbfbD\xd2H_}\xe0?|*\xfbH\x9ca\xdf?I\xb4C\x98\xb5\xa3\xd6\xbf\'\\A\xc4\x83\xf1\xd9\xbf\xfd\xa8=\x0b\x0b\xdb\xd0\xbfpd\x0eM\xa0\x93\xdc?u\x9b5\'\xeb\xc1\xe9?M\xb1\xad\xa4\x85\xf5\xe6\xbfpg\xf5Q\x9e\xfe\xd5\xbfPk\xfcM\x8e\x82\xe1\xbf:x[Qm(\xe1?r\x19\xaa\x90:\xbc\xe9\xbf\x1bs\xf6Z\xc2\xe3\xe3\xbf\n\xcc\x8dw\xe9ar\xbfaB\xc5\x1d\xd5\x95\xa8\xbf\xd9i=\x11y\x1b\xe0\xbfA`\r\x0e\x87\xf3\xa1\xbfU\x87D\xc9\nm\xd6?\xcbiD8\xa0I\xd8\xbf\x10\x83\x92!#\x0b\xe9\xbf\xd0\xc4\xadnj\xf7\xea?\x00&g\x95\xc3-\xd6\xbf\xbc+\x9f\xbb]\x81\xe5\xbf\xa3\x0e`\xfa\xd5F\xd3?\xe3\xe9 \xe7\xf6\x16\xda?\x99}.\x8e\xd5o\xc5?\x1e\xc9\x9e(\xcaJ\xe2?\xc8t\x95\xf8\xc7\xd0\xe2?\xe0g\xf0\n\xff\xb4\xeb?\x11\xa2s\xee\xba\x91\xd2\xbfS&VR\x18\xa3\xeb\xbf\xc3\xf9^\x93\x17\x19\xc7?\x86\x1ce!\xd8`\xc7?\xdc\xf9\xd3\x9dMm\xda?\xa38q\xa3\x1c\xd0\xd3?\x04^}\xb0\x9e<\xdd\xbf3_\xea\x1d\x14\xa4\xe0\xbf\xca\xaa]\xfa\xfc\xbf\xca?\x9b\x9a`fo\x89\xa2\xbf\xc9\x89\xb6\xcabM\xe8\xbf\x7f\xb8xkS\xf8\xe6?\xf2d\xfb\xf1e?\xe6?(4\x11\xf9C\xdf\xe4\xbf<p\xec\x8a\xec\xa0\xc5?\xfc\xb3XC\xfa\xb5\xe9?\xe44\xfdW\x9d\xc6\xc6\xbf\xf9gI\xec_\xfb\xe1?\x01\x1f\xfc\x81:\t\xd5?\x0b3\xc4Ot\xb7\xde?\'\x15\xce\x11<\xd7\xda?\xbc\x0b0\xd1\x9b\x80\xe0\xbf\x15(G/k\xbc\xb2\xbf\x9fG\xeda\xb7\xd8\xe5\xbf\xb8\xe1X\x82_\xf8\xd3?\xbb\xbf-G\xeb\\\xd2\xbfM\xdc\xf0\x9d\xf0\xe5\xe1?\xd5\xa3{\xf0S\xf2\xe3\xbf\xe7:\xca\xaf\xdf\xff\xe2\xbf\x93N\xa6\xc3\xc4\xd2\xdb?f\xcb\xfb\xb8\xeb\xd0\xe6?\x18\xfa\xc0\xecs\x94\xc6?\x85(\xd7X\xfbO\xd4\xbfC+\x02X\xf0\x8c\xd7\xbfC\x90\x0f@)%\x91\xbf\x90\x9a\xc9\xae\x8b\xfc\xd3?\xa2\xa6\xd3\x9fF\x84\xea?\xdc\xca\xea \xc8l\xc3\xbf\x819\t\xc8\x87\xcc\xe7?f\xfaI\x02\x17\x8c\xed\xbf[\xedg0h1\xe7?\xc1\xc2^{\xc1\x03\xec\xbf{,Z\x7fR\xf8\xd4?}\xf51Y\x1b\xda\xe2?\t\xd2\xaf\x19P^\xcb?"\xb3\xb3\xbd6\xb8\xea?\x06\xfe)\xe7UZ\xeb\xbfW\xb6\x8b\xf5]\xea\xdd?V\xc0s\xff\xc1\x8c\xc6\xbf\xcep\x9fZs!\xe0?`\xe5\xf4\xb3\xf0\x1fR?\xae\x8dP\xc3\xafE\xa5\xbf4F`#k\xaa\xe4\xbf\xa8\x81SYc\xb7\xe8?xEOW\xe6\xf3\xe5\xbf\xbb\xad\xf7Ig\xcf\xec?\xec\xeb`lf\x97\xc7\xbf\x96\x9c\x9f\xd3@\xcbb\xbf\r\x9e\x15U\xd0\xee\xa6?\xd2\x89y\x9d\xbf\x19\xe1?\xed\xe7\xe62\xebg\xd7?\xd8\xf2\x8ff\xc4\x0e\xdb\xbf9\x1d\x84K\xf1\xc5\xe2\xbf\xde|\xa2\x15\x90!\xbc?"C\xd4k\xe0k\xe4\xbf\x10@\xa6{\x9b\xbb\x86?\x10\x91\r\x08\x93\r\xf0\xbf\x98\xc8\xb5FG\xeb\xdd?w\xd4\x1b\t\x05\xc9\xe7? \x90\xaf\x19]\r\xea?\xaa\x1e\xf7\xcb\x8ao\x95\xbfe\x98\x17Z[\xf7\xe7\xbf\x17\xae9x-\x94\xe5?\xec\xf2\xef~\xc9"\x94?\xad"\x97L\x8ey\xd6\xbf\xbeQ\x1f\xd9\x8d\x81\xe6?\x060\xd0\xd0%\x12\xe2?\xb4\xc8\x8c>6\xb1\xd7?^\xc5\xe4\x1c$\xe8\xd5?s\\\xc8\xece-\xe1?\xa1\xf1\xe1q\'C\xdb?\xf2\xda<D\x08c\xd8?y.\x0f\x0ct\x8f\xd9?\x98\x0b\x97\xc4\x1b\x07\xb9\xbf\xf1\n\x9b\x0c\xa6\x18\xe2\xbf\x13D\xa4\xa0\x03\x8a\xd3\xbf\x1aM\xb1K\xfai\xcc?0[&Yi\xac\xb7?E\x13&Ka\xe2\xe5?\xc7\xb9\xe8\xeca\x83\xec?_\xda\xddK\xdaC\xce?\xeehyY21\xed\xbf\xde\x16\x10\x02\xb53\xa3?\xc5\x029!T\xde\xdf\xbf\xf7\xd1&\x08\xd1\xb9\xe7?\xc6\xd58\xbd\xfa\xd2\x9a\xbf.\xbfRg\x1a\xe5\xea?\x9a\x90\xc7p\xf8\xb1\xc6\xbf,\xebE\xcf\xb4\xd6\xd4?_x\xb0\x16\x10\r\xee?\x89>\xc1\xe1\xb7\xc1\xdc?\xd4D\x1d\xb0\x0c8\xee\xbf\xb0\x92A\xa8\xe0?\xd9\xbfe{\x85l\xf9\xe8\xe1?\xb0>\x96\x94}k\xde?{\x16\xf2Fj|\xd7?J\xf2\x1d\xee4w\xb2\xbf\x0f\n3\xebW\xfd\xbb\xbf\xfe>\xc9\x81\xef-\xe2\xbf\x95\xce;\x8b\xc4b\xc9?H\x8d\xd8A\x1a\xed\xd9?\x8bq\xf8&6:\xd0\xbf\x8b\xc9?\x07\x02\xe2\xee?=\xdeC\xf6\x83\xc9\xd8?\x9b\x97m\x98,\x1b\xe7?\x1aU\xa5t+\xb2\xd1\xbfb8\xcc\xd0\xd3h\xd0?\xb29\xc7\xc6"\x87\xd9\xbfh\xfal\x8aU\xe9\xd1?\xcc\xc3Hx\x94\x0c\xe6?[g\x11\xe4\x16\xf0\x85\xbf\xdb\xdf\xcc\xe6\x0bT\xd1?\xd5>\x06\xb8\x92\xff\xb4\xbf\xa1wl\x0f\x1d\x0b\xdf?\x8a\xdc\xa0\xfb\xaf\xc3\xe1\xbf\xcf\xb8\xd4\xd5\x99\x93\xed?\x82\x9f\x0f\xbe+\xab\xec?}"z\xbf3\xf5\xe0\xbf\xa3\xa3\xd2\xa7\x14d\xd8?d\xe2U\x94hF\xe4\xbf\xfcr\xbai\x8fC\xdd\xbf\xe4\x96w\xf8L\xe8\xc3\xbf\x00\xbfd\x18\x19\xa1\xc1\xbf\xa5\x12c\x05O\x97\xe0?z\x15\xc7\xe1\x91<\xd5?\xfc,\xa1U\x80\xaa\xcc\xbf\x8cJ\x12\xe2\xe7\xcd\xe2\xbf\xa2\xee\x86\x0e\xcb\x7f\xb9\xbf\xbc!\t\xa9\x19D\xf0?\xb5\xf0\xea\xf7\xc1\x18\xe8?\xcbGP\xc6\xe0\n\x9d\xbf85\x13ZX\x1f\xd3\xbfD\x00\x9e\xc4\xc7^\xd7?\xdd\xac\x87BK\x14\xd2?\xd7}:\x11\x97\x1f\xae\xbf\xdc)\x15\xa0\x1f#\xc6\xbf\x19DA\xb6\xd1\xb5\xe2\xbf\xe8\xe3#!\xecN\xda?\xf4 \xf8_\xb2\x99\xdf?\xaaO\xea?a,\xe5\xbf\xcfZbU\xed\x95\xca?\xd6?~\xa1\xa3\xa3\xed\xbf\x9e\xad\xb2\x91\x15\xb3\xac\xbf\xee\xe8r\x80NB\xec\xbf\xaaj\x17\x7f\x88U\xdc\xbfH\xd9\x93\x16\xf7\x99\xe2\xbf\x86\x8a|\x91"~\xda\xbfy\xea\x0e%t{\xcd\xbf\x0e\xd3\x1f|\r\xe6\xc0??\xbf\x0c\x04\x9d\xec\xec?\x88\x8b\xe7\xd1EZ\xe0\xbf3W\xa1oI\xf3\xac?\xbfaO\xadEo\xd1?\x98\xac\x01y6&\xea?7(J\xce\xb9g\xe8\xbf\x9b\xea\x82\xe6:\xa1\xe7\xbf7p7yLr\xe7?\xb6\xa2\\\xda4\xd7\xcd\xbfP\xb7\x9a\xaaz{\xe5\xbf0\x94\x8b\xe48ld?k *\xef\x7f\xf0\xb2?\xbex\xda\xd0u\t\xe4\xbfL\xa5\xd3)\x8c\xf6\xd8?N\xa3\xad\x83\x9e\x1c\xe2\xbf\x9f\xce\xee]py\xd1\xbf=q^\xed\x1d\xe3\xda?\x97\x10\xd3#E\xf5\xea?0\x93iu\x83\xe0\xd2\xbf\xfc\xac\xed\xdbX-\xed\xbf )\xa2^\n\x8b\xd3?X\x99W\xd7""\xc4?\xd5\x99\xb8\x98\x8e\xe6\xdc?\x06\xde\x12\x13D\xf5\xce?\x17c\x04\x93\xf1\xc5\xe0?\x86\xd7J.\xa5\xea\xce?\xd3\xc2\x06^b\x0b\xed\xbf\x7f\x97\x94=:\x1a\xe0?\xe25~\xceIN\xdd?e\xea\xb7\xd8\xe7\xef\xe4\xbf\xdf\xf83\xf3\xc5S\xd6?\x9d\x10TJFw\xd2\xbf\xde\xeeW\xef\x07\x04\xda? \xb2\xa6R\xe2\xf6\xea?\x12\x1c\xe0\x0c\xb6\x18\xea\xbf^\x1dR\xf5P\\\xa3?\xb4\x87\xea\x08"k\xca?C\xcc\x05MN\xc4\xeb\xbf\xe1S\xdb\xeb\xf9\x0c\xd4?VJ\xfa\x0f\r\xc0\xd8?\x9e5@\xbcw4\xc4\xbf\\J\xcb\xcbpp\xea?e\x91\x07\x8aj\x8d\xeb?\x9d\x14\xff\xdf4R\xd9\xbf\xb8\x8e\xab\x91\x9f\t\xd8\xbf\x05hLT\xbf\x83\xc0\xbf\xb5D?t\xb6:\xd2\xbf\x91I\xaf\x94oI\xaa?\xa9\x08\xa0&\xdbe\xbb\xbf-\x1f\x08\xe9=W\xdd\xbf\x1f^\xd1\x9bTk\xe7? \xd4\x9b\xcfOk\xb3\xbf\xce\x1dh\xde\xfa\xc6\xd7\xbf\xa8n\xceVD$\xe9\xbf46w\xbe7\xae\xb8\xbf\xa9\xf6\xbc\xee\xa4\xed\xb0\xbf2\xaeu\x86\xe5\xb4\xe6?\xae\xe8\xb1\xc2\xc1\x12\xe2?]\xc8\x1f@\xc8R\xbe?\x1fD \x80\x13s\x90?k\x06q\x8e\xe2\x16\xeb\xbf\xccy_O`3\xcd\xbf\xe0l=~*O\xb1\xbf\xb3q1\x86\x81Y\xe4?\xaf\x99 \x92N\x8c\xe2?;\xe4\x9f\x8f"Z\xe3?~\xf0\xc1x\x15\x9d\xd1\xbfg\x92\x011S\xbb\xee\xbf\xa9\xba\xf7\x827\xfd\xe1?x\x13\x14\x1b\x8a\x1e\xd1\xbf&J\xf4\x98\x1b\x00\xd0?\x9e@,L\x19\xfa\xd4?\x08\xb4x\x85\xa1\xce\xe7?\xb1\x1ehe\xf0c\xeb\xbf\xd0\xef\xeaGHR\xd9\xbf_\xd3\xd6H\xaae\xdf?\x7f?\x17ZZS\xd3\xbf\x1cUnY\x86?\xe4\xbf\x90\x80\xdb\xb4\xd7\xb0\xba\xbf o\xff`5\x16\xd0?N\xe05\xe2 \x0c\xd4\xbfC\xecD\xf3\xa5\xc1\xe9?\x9f_\xde\xc7y \xe4\xbfrH\xfd\xfbCJ\xe4\xbf\x11)\xed]\x9d\xcf\xe7?\x1f\xcb\x9c\xf2\xb0\x1f\xe0?\x1b\xfbK\x9f\xfe\xcf\xb3\xbfW;\x9a\xd2\xa4\x89\xd6?vB\x98\xb9\x08p\xb0?1\x13\xad\x07q6\xde?K\x1d\x98\xe8\xcat\xd6?\x02\xc1\xbe*\x8e0\xe5?\x06Fz\xa0D\x9e\xe0\xbf\x8ef\x86\xd9o\x8c\xe5?\x86\xae9v~X\xc8?\x0b\xf8\xdb\xd6\x8bm\xe8?w\xf9[\xcby\x11\xeb\xbf\xd4\xfb\xf6}\xdc\xca\xdd\xbf\xe2\xee\xc2\xaeM\xed\xe3?\xf6\xe0\x15\xa63A\xdf\xbf`\xc9\xbf\x1a\x9f\xcak?\xd6\x0c\xf9RBp\xeb?I\x17<\xe2i\x8f\xd3\xbf\xcd7\xae\xc1\x9e\xf2\xc4\xbfx\xeb\xedF\xae\xee\xd4\xbf\xfb2\x96g\xd5\xe4\xe3\xbf\xf4\xef\xd3\xcf\xdb\x0b\xdc?\xb4X\xa7W8\xf8\xe7?jp\xe7\xdbUL\xd0?\xe1\x9f\xa9\xb3=O\xba\xbf\xf2\x84\x05\xfb\xe4\xd5\xd7?\xed\xd2\xf2z\xf9\x1a\xe4\xbf\x11!i\xc4\xafv\xca\xbf:tZ-\x18]\xe3\xbf\xf5\xc3O\xeb2\xca\xe3?S\xc0\x0b\xa9\xfax\xea?\x8eo\xd3l\x01\xb3\xe7?\xe8bo?\xe4p\xeb?\x95\x04\xde\xb4\x98\x1f\xe5?\xd7\x7f\xcf\xbf\xcc\xfa\xd1\xbfU\x82,\xc1s\xc5\xe3?\x078\xe4K\xdd\x1e\xdf\xbf\x8b#\xdc\x0f\x0ch\xe0?"l\xae\xb8ii\xbb\xbfC\xe5\xa2\xc32\xca\xe1\xbf\\X\x0c\xfa]K\xe5?\xbbd\xe4}T#\xe5\xbf\xabY\x15\xeb\x16\x03\xd9?\xc5\\N)O\xe6\xe2\xbf\xb3\xb0\xd7\xfc\xbcg\xe3\xbf>\x89\x8f\\lD\xee\xbf\x1d\xb0e\xb7\xdc\r\xa3?=D}\x07"\x00\xd3\xbf!\xed\xf1\xaa\xca\x11\xe2\xbf\xdb\x8c\x0c\x93\xf5\x00\xc6?Idh\xa2i\xb4\xd5?\x91\x0b\x8a\x80\xc2V\xc8\xbfZ\x17\x81Z!\x00\xef?\x12\x8f<|"W\xe4\xbfu\xfa \x81h\xd8\xd1\xbfZ\xc1\xbb!+\xa1\xd9?\x88\xfb\xbcJ\x10\x07\xb9\xbf\x9d=Qup\x9f\xe9\xbf\xdd\x0cU\xd1+P\xaa\xbf\x0b\x7f\xb7\x0f\xf0\xf7\xa8\xbf\xba-`\x82\x17\xa6\xdf?\xa6B\xc3\x96\x10\xe3\xe5?\xc9#C{\xa8\xc7\xe7\xbf`\xf2\x92\x7f\xf1K\xe0\xbf\xcf_6Oj]\xe7\xbf\xb0q\x87\xdcJx\xd8?\xff\xcfO\xbayd\xd9?\xd3\x1a\x8eH\xffl\xd1\xbf\x14\x05\x8a"\x8fu\xe8?5S8\xcfZ\x0f\xc8\xbf\xc6\xa0\x9ff\xdbc\xea\xbf\x85\x9e\xa5\x8d\x1a\xd3\xe9?\xf2\x01\x9c\xf9z\x01\xdb?:\xa9mg\x96\x95\xcf\xbf\xe2\xe4U\x03\xaeW\xe0?\xf9\xe1\x14\xff\xda\xfb\xda?\xd8\xc8\xc3(\xa1\xb1\xe3\xbf4\x9c\xaa\x04@\xb6\xe5?5|Q\x15n\x12\xc3?\xf7zR\xcb\xcf\xd2\xe7\xbf\xd7^aE%_\xd4\xbf\xc4\xc4\xe97J\x97\xcc\xbfp\xbb\\Rf\x96\xb6\xbf\x86z${\x81m\xe7?\xa5\x9e/\x8bkt\xe9\xbf[XW\xbasu\xe5\xbf\x05\x1cB#3\x05\xd0?\xb9\x96\xe7/p\xf4\xd0?\x9f\x88\xd2y\xc0\xaf\xbd?[F\x8a\xb2sY\xe9?wO\xf3\xd2\xfb\x8d\xe8?\xd1\x8es\xce:\xe6\xe3\xbf\xa2j\x19B\x94\xf9\xc9?\xadUR\xafV\xc2\xe0\xbfS\xce\nLW\xa7\xc7?foT\x93\xb3\x01\xea?\x90\xce\xbep<\xfb\xb1\xbf\xfb1\x0e!lE\xe6\xbf\xe3\x95\t\x1c<J\xd2?\xa4\x0b\xdd\xea\xd2\xc6\xe4?[\xd7\xfe\x1f\xfe\xf4\xde?\x95\xef\xb2\xa9\xb5U\xdc\xbfj\x95\x8f\xbc6\xd5\xea\xbf\xbd\xc1\x84\x06R\xec\xe6\xbfR+%\x19\x19Q\xe3\xbf\x87\x96\xd9:\xdc\x0e\xd1\xbf\xc4\x03\xdavT\xc0\xc7??\xc0K\xe4\x1e\x12\xe6?\xcb\x07F\xd6$\xc2\xeb?\xc8\x87E\xb0?\x91\xd9?\xb9\xd6\xd7TQK\xac?\x03\x9e~\xc4\x98f\xb3\xbfG\x16D\xc8}\x04\xc1?\x05A\xb7L\xe3t\xea\xbfe\x99-o\xa8\'\xd1\xbf\xc6\xbd\xb9\x91*\x1d\xac\xbf\x14;\xe7\x897\xa0\xd7\xbf\xbd\x07\xb0\xc9{\xef\xc7?\\]\xb7\x1dw\xf5\xe1\xbf\x888\xbe\xb4\xa9\x01\xdf\xbf\xb75\xbb\x10\xfe\x87\xe8\xbf\xbaw\x9aU\x19\xb6\xdd\xbf\xf1N\xa8)SC\xd3?"\x8a+>\xc5\xec\xc7\xbf\xbe\xc7G\x9c\x1a5\xc7?\x1b\xe8K\t\xe9\xac\xd4?E\xbf\x98\x17WK\xea?\x9aG\x1f\xf4|\xd0\xd8?c\xf7\x8e\r\xe4\xb3\xcb\xbf1\x0f\xbd\xc1\x064\xe6?\xa5&\x90\xb5\x86\x8f\xbb?\xc6\x92\x87\x85\rE\xdb?\xa4\xe3\x97G~1\xea\xbfS\xd3h\xf0\xba\xdb\xe7\xbfM&u#\xcd^\xe2\xbfW\x95lrZ\xf9\xa6\xbfP\xc5sg\xa9\x82\xe4?\x8c\xe4\xc41\xe2\xb9\xb3?\xf8\xbc\xcb\x1c\x8dw\xe9\xbf\x87z!\xef\n\xd1\xec?A}\x0c\xd0\x04\x81\xce\xbf\xaa\xb8tHH_\xd9?\xdc\x19D\x92\xb1\xf0\xd8?\x15\xf0\x16\x08\xd2\xb2\xe7\xbf\xa5\xbf\xf9\x85\xb0\xe7\xcc?x\x89YO\xde\x13\xd8?g\x88\xa9k\xb5\x93\x9d\xbf\xfa\xdf\xe2\xbaS\x9d\xbb\xbf\xfdKT\xfa\x96\xee\xec?w\x90!\xaf\xe3\x11\xda\xbfA\x1f\xc1V&\xcd\xe4?U\xb9fL\xa6\xfe\xa9\xbf\x07*:\x8ay\x9b\xe0?\xa4\xe0\x9b\xd3!\xe5\xe3\xbf\x11\xe2\xb4\x04OC\xb1?\x18CHkv\x91\xdf?\x93*jK:\x87\xea\xbf>"\xf6z\xdc\x1c\xe9\xbf[O\x84\x90\xbf\xcc\xb4?1\x1c\xe0\xa2G\xcf\xda?\x1b\xd3\xa3\xd8\n\xc5\xae\xbf\xb61\x8f\xb4\xbf\xc5\xeb?[\x8f\xc7\x14\x8d|\xe7\xbf\x98\x17\xc7\x9d6K\xd5\xbfkF\x10\xdc\'\xda\xde\xbfy\xceR\x08b\xe1\xbe\xbf\xac-i\\2\xc9\xeb\xbf\xc0\x9d\xb61\xdb\x05\xd4\xbf\xefI\n\x88\xa0\xdf\xe8\xbfAe\\\xba\x9d\xc9\xe1\xbf\x1d*\xf4\xa3\x88\x92\xe1?B\x99\xe1\xa5\xcf\x9d\xe3\xbf\xc5\xd7\xb9\xd0\x11\xdd\xe8?\xf1\xa3\x1c\\\xd8\xac\xe1?\xac\xcc\xd5\x8e]\x08\xdb?\x9b\xe2\x98\x9d\x02\xd0\xe5?\x7fm\x12\xd8\xf2\xde\xde\xbf\xe3\xe3\xee k\x0e\xe1?\xf5\xbeyU\xa3\xf4\xe3\xbf\xfb\x1e\xda\xbfg\xc9\xd9\xbf\x16\x86s\xf9vM\xb8?1uN\xb0T*\xe7\xbfN\r8\x1e\xa1\xf0\xd1\xbf\xc6v\xea/F\x95\xde?\xf6\x063_\xe4y\xcc\xbf\xa8(\xfa\xc7\xfe\xa9\xda?H\xb1Z+h\xf3\xda\xbf\xcb\xfe\xcd\x1e\xb0c\xe2\xbfA(\xfd%\x17\t\xcc\xbfv\x03g(2G\xe2?\x95\x80\x93\xab\xbb\x93\xcd\xbf\xf9t.\x95\x9e*\xeb?\xc9\xcf\xe0\xbc\xce\xbc\xd6?@\x96\x8dA\xd6\xfd\xe3\xbf*\xacC\x00\xd5u\xd8\xbf?\xbft\x13;L\xdd?wp5T>^\xe4?9\xf4\xbf\xfd\xbf\x83\xea\xbf;\xec\xc26\x05L\xe4?\x90\x89*yD\xa5\xd4\xbf\xdc\xcd\xae\x0f\x13\xa2\xd7\xbf$\x95\xe7\x98?\xd1\xe4?\xa7FC\xa7G\xad\xda?\x14\x82\xb5\x16\xe2\x13\xcf\xbf\xb6b\xac6;\\\xa2?\xce W\x87\xa4*\xe1?\xe4\x08\x8bu\x9c\xc3\xe8\xbf\xfe\x9fy\xff[\xe7\xde\xbf\xe1\xff\xf7\x0b\x01x\xd7\xbfT<\xf3\x18#@\xe4\xbf\x19L\xdc\x9f\x17\xac\xd5?&\xd6}\xb5\xc10\xe6?\xe6$\xd6\x15\xbdK\xe2?2\xdbU\x0c\xdd\xb9\xd2?C\xb8\xa8;}\x80\xaf?w\x91\x1c\x8d\xa4t\xdb?\xb1{\xa9>X3\xec\xbf\xe2\x07\xe6\xf2\xa5\x1b\x8f?\xdeh\xca\xc0\xc8\xaf\xb8?\xb4\xb5\r\x9d\xd9\xbe\xeb\xbfp\xafL#\xb7\x9c\xee?\xe9T\x8f\x8a\x05\xb3\xda\xbf\x91"\xb1x0\xa8\xc4\xbf\xd2\xbcK\x81\xde\xbf\xe4?v\xb3\xae\x8a\x1e\xe0\xdc\xbf\xa4mp!K\xa3\xdd\xbf\xf2\x9b<\xc3\'j\xd2?\'\xf4oC\xc7\x1c\xc0?Yg\xf6K\x9ae\xc3?&d2\x0c\n\xc5\xe0\xbf#\x0cn\xc6"\xcb\xaa?\xe6\xf6y\xc8>%\xd0\xbf\xc8\xafF4\xd9V\xe3?\xb6<\xfc\xaf\xddd\xc2\xbfU\xbe\xcf\xee\x8f\xfa\xc5?\x87\xa7X\x7f\x10\x85\xc1?I\x81J*\x11\xb3\xec?\xa1\xd6\x08\x8e9\x94\xe8??\x15=\xad\x83\xd9\xdf\xbf\xcb\xa1\xfa\n\x1d\x8f\xdf\xbf\x8f\xa4m\xbc\x9f\xf6\xe7?P\xdd8!w\xe6\xdc?\xeb{\x01:\xfb\x88\xe6\xbfI"\xeeAn)\xe3?\x9e\xef\xf8\xb7\xf6Z\xce?\x8c\xf6[z\xad\xf9\xe3?\x0f\x0eJ\xb8t\xc9\xc0?\x06\xb5>H\xb1\xe8\xd2?\xe4\x1b\xfd\xe1W\xfb\xed?yWC?i\xa0\xe5?\xddL\xd6T\xd2\x8e\xd4?\xb2=\xa3\x9c%\x01\xca\xbf\x8fk\xf2\x08\xcd\x81\xce?\xb1_\xa8\\\xc9b\xe2\xbf\x10\xcc\x85\xeb\xffA\xe9?I\x97\x0b\x03\r\xce\xcf?\xc2\xbcM\xb0\xc5\x18\xe4?\xbf,\x1a\x9f\xeb\x10\xd9\xbfs\xa0y.\\\xbc\xa5\xbf\xca\xde\x0eJ\xc1A\xe1?WZ<\xaf\xe1\x01\xed\xbf\xf0%\xb9\xb7\x8d6\xe5?\xf2+;\x17\xd2\xa0\xe1\xbf\xd0Ww&\x1e!\xe7?{\x96\xf9\xf2\xc6\xb2\xcb?z,T\xb1-\xfc\xe9\xbf\xa1qr\xe5\xcc\x88\xc4?\xdaB\xb8\xbc\xa2\xac\xc0?\xf6K{^\x87\x1d\xe1?H\xcav\xa4\x1d\xc3\xa2\xbfs\xc5 \x05C\xb0\xdb\xbf\xf0U\x9f=c\xe1\xc9?N\xc6"\xc4\xba%\xec?\x8b\x9f\xbc\x89h\xaf\xd7?\x12\xaf\xb8\xac\x18l\xe3\xbfq\xee\xd68\xdbm\xee?j;\xc2e\x91\xfe\xca?G\xe3B\x11\x1eo\xeb?N\x19Eu\x1f\xf3\xce\xbf\xdcZ\t\x12\xb3\x1b\xb9?\xbf@\xf3\\\n{\xd6\xbf^2Wx\x14s\xe4\xbfs\xac\xd7\xe2\xfe\xb9\xe2\xbfG\xfb\x97\x99\xa9\x04\xde\xbfg&\xdf\x80\xab+\xd0?!\x95m\xea\x18\xb2\xe2\xbfn\x93[#\xabT\xd5\xbf(q\xe5L\xe0\xa8\x9e\xbf\x90[\xd9\xfc\xfaV\xdb?f#Z\xc3, \xd8?h\x05z\x10\x15\x93\xe0?\x1e\x93R*f@\xee\xbf\xc5\x18^}\x07\xd9\xe7\xbf\x97zN\xa6_\xfb\xe5?\x9b\x11\xfcD;\x95\xc8?A\n<\xb3\xbd\xd2\xca?!*\xf1\t\xd7 \xef?L\xf7\xdcg\xe2\x91\xd4?\xdd\xcc\xef\x05V\xfd\xe1\xbfE\xecr\x15\xa1P\xdf?\xe2Ni9c|\xdb?\x89\r|\xda\xa2\xd2\xda\xbf\xe8\x9d\xb3\x9b\xec\x82\xdb?\xe8Q\x96\x03\x96\x9f\xe9\xbf8Y\x9dx\x93\'\xac?\t\x9e\xd4\xb2<\xe0\xc0\xbf\xb0,#a\tx\x84\xbf\xad,S\xb70\x98\xc5\xbf\xfeP*\xacw6\xe3\xbfv\xf4A\xa6\x8ay\xea?\x14H\x85i\xa8\xe1\xe0\xbf\xb2\xd6\xeb\x1ac`\xc6\xbf\xc9\x9c\x1e\x85a\xfa\xc1?g\xfe\xb2\x16\xb6N\x87?Y\x17\xed\xff\x88\xec\xe3?\x13\xb6\xa0\xbda+\xe1?\\\xdf\x1b\x01ub\xdb\xbf\x9e\xfa\x94\xa5\x1e&\xea?sz\xd0\x01ou\xe3\xbfY\x81G\x04\xc7\x19\xeb\xbf[G\xdc\xcc\x8bS\x87\xbf\xa3\xbd\x17\xb3\xaa\x9b\xe4?\xfb$2\x0f\x1dd\xe7?$\xe7\xa0\xb0\x99\x89\xe9?\xdc{\x8b\x90\x06\xd7\xe5\xbf\x14g\x7f:\xcb\xfe\xe1\xbfu!\xe5}\x0fg\xdd?\xf9\x83\xbfu\x93\xca\xe1\xbf\x88\xf0N\xb9\xc4\xca\xd9\xbf\\\xad"\xff\x1c>\xe9\xbf\xbf~\x0b\xfb\x83\xf9\xb2\xbf"m\xeeCV\xdc\xe0\xbf\x8c\xa2Z\x11\x94\xae\xa4\xbf\x86\xc6Xt\x14\x0e\xe3\xbf\x1f\x8b\xb0\x88\x9b%\xe3?m\xd4-+,o\xee?&\xdf\x86\xb9tU\xc6?\xa2\x98\xcd\xb8\x0b\x18\xe6\xbf=\x98^\xb9\x9a\xed\xac?~p\x0c\x95a_\xef?\x18\x01\xf6c\x1b\xf6\xe5?#z\x12&7n\xe7?\xb5\xd1\xab\xc9%\x12\xe6?\'\xfd\x1f\x96>l\x84?\xad\xc4ib\xfbu\xa6?+\xd5\x80\xb7\xd5_\xa5?\xae*\x07\xc8\x93\x1b\xe7\xbfp\xc5\xfbA\xedQ\xe1?"\xec\x98\xe2\xbfL\xd7?\x87\xd6\xbd\xdb&H\xb0\xbf\x7f\x8c\x08\'n\xc4\xb9?EUde\xc1O\xd6?:\xb1\xb2U\xcfa\xba?\xa0\x0f%\xb9\r\xd3\xba\xbf\xb9d\xb3B1\xb7\xd2?\x8a\xe1\x8e\xf0\xc8d\xda\xbf^E#\xcc\xa3\xd6\xd0?\x01\xdf\x19;A\xc6\xa2\xbf*j\xd4/2\x16\xa3\xbf\xf5o.\xaaj\x16\xed?\x0c\x07\xd2\x9e\xa1*\xe2?3+k\x04\x98\xc2\xc5?\x95\x10\x82H\xd5m\xdc\xbf_&N\x15F4\xe7?r\xcd3\xf2\x98\x80\xeb?\xa66\x19ob$\xed?\xdf\xf0\x02d4F\xdf?\x16\x1c\x8f\xcc\x1a\x8d\xc6\xbf=.\xec\xacd:\xc1\xbf\xf7+L\x08-\xff\xcc?\xc4\xe1\x1e\xa8\xcf\x02\xe9\xbf\x88N\xa03\x15\x9a\xd9?|\xa6\x08S7\xab\xe2?<\x8e>#\xa8\x14\xd4?\xc1L\xd0\xdb\xf7\xf3\xe2\xbfL\x07\xdf\x8a\xab\x80\xe9\xbf\xf4X\xe2\xb4y\xf1\xe8?L\xe7\x7f\xf8y\xe9\xda\xbf^\xc1\x15\xf9\x94s\xeb\xbf\xa8\xb2\xc0\x0b\x18\xc0\xe9?\xb2\xd3\x00\x06J\xfa\xe0\xbf\x86\xcc,H;e\xc2?8\xc2\x8e\xd6\xc0I\xcc\xbf\xf4\xb6\x1c8\xd4\xa7\xdd?\xea\t \xa47\x16\xaa\xbfP/y\xc8\xa2\x95\xe4?_\xdf}t\xa1\'\xe1\xbf\'\xad\xcb\xd7"^\xe4\xbf0\x9b\xf9wry\xda\xbf\xcc\x8c\xf9a\x15,\xcf?\x7f\x9a\xe1_\tp\xdc\xbf\x1ak\xd6rq\x06\xe0?\x7f\x15fQ\xf5g\xa2?\x16O\xb7wQD\xe0?u`\x8a\xc0o\x01\xec\xbf\x922\x9c\x1d\x08/\xe2\xbf\x1f\xd4\xbes\xb8\xd5\xec\xbfz\x1e\xfeZ\xafb\xe0?,1\x1b\x8f\x89j\xd7?\xbe\xb3\xae\x1d\xa8\x9e\xb6?\x8f"\x17\xe9\xc8\xd7\xe4\xbf\x1dC\x10+\xd2\x9a\xd3\xbfO\xeb\xb9/\xe5t\xa7\xbf\xceQ^r\x9e\xdc\xe4\xbf\x11\x08\xbd?B\x86\xc6?\xfc\x02\xcf1r\xe4\xe4\xbf\xcbz\x1eu\x8a\xe3\xd9\xbf\x8a"0\xe8\x93\x91\xe6\xbf\xe3\xd1+\xc8\x98\xf0\xc1?\xd4H\x1dm\xa52\xc3\xbf\x04*\xa1l\xc2A\xc7?\x19\x99\xafcT\xe6\xb3?\x15\xd8\xa9\xe3\xf3)\xe4?\xb2\xbe\xca\x8f\x9b\xb9\xdc?^=6@VH\xb0\xbf\xe7\x02\xdb5\xdf\x00\xea\xbf\x0fI\x9c\xa9\xe4+\xed\xbf}n\xb2\x03\x829\xef\xbf\x18\xf7\xc0\xb8\xa7\x1f\xd1\xbf\xae\xd3\xff\x06v*\xcf?^W\xac\x84\xf1h\xd8?\x94xN{\xc32\xe7?E-\xe8\x0b\xa1\xdb\xe7?tqn\xfb-\xa5\xd1?\xd6\xf1<\xe0)\xb8\x98\xbfW\xd6Q\xc3\x10\xc3\xc9?\xc6\xa5\t\xab\x9c{\xcf\xbf\xc5G9n\xb4\xd5\xd7\xbf\xea\xba\xa4\xeeY\xdb\xea?\x0c]H\xd6g\n\xb0\xbf\x0b\xb7&Ur:\xe4?\xa1\x9a,C\xb3\xee\xeb?\xb5?\xc6\xcd\x02S\xd4?\x18\x0b\x9d\xb6\xf9h\xd7\xbf\xff\xe8_B\xef\x98\x90\xbf\x91\xd0\x1c\xbe\xb3\x1d\xe8\xbf,o;\xec\xedd\xe8?\x00d\x8c\xcd\xbe\x1c\xe2\xbf1\xfej!l\x85\xe9?M\xf8L0\xbav\xdd?\xde\xfa\x14)\x1c]\xe4?\xcb+\xa2\x8e\xab\xd0\xd8?\xf4\x9e(W \xe7\xdc\xbf\xcf\x19\xf6,n\xf8\xcf\xbf\xe8\xb9\x94\x186?\xe2\xbfo\xcb\xbf\x87\xf7.\xe7?\xc5\xb0\xb1\x1f\xf5\xa0\xe1\xbfQ`\x1akS\xf5\xe3\xbf&\xae\xa9\x07\xa2\xe1\xe7\xbf\'\x14M\xe1\xdd\x95\xe4?\x8d\xaajI?\x1b\x81\xbf\xf6\xc9\x8c#\x01\x1d\xcb?,\xc5\x89\xf6\x9a%\xcc\xbf\x8b|0q\x87\xc1\xa6?}i5\xce\xd03\xe4\xbf\x92\x9c\x81=\x1e\x18\xc9?h\x9a\xedaMo\xe5\xbf\xd3\xfas\xb1\x0fz\xed?!\t\r\xb8\x8cP\xa9\xbf\xde\x81\x82\xdb\x0c\x04\xd7\xbf\x7f\xd7\x98\xc8Q\xc9\xe6?\xb5A3\x03z\x86\xd3?.ky\x17\xc6\xbf\xb3\xbf\xbf\xc2\x9d\xe6\xc7*\xeb\xbf.N\xe4\xae^m\xd4?1\xd9Q\x08=\xa9\xdf\xbf9\xe9\x80\xd9\xff\x9f\xea?\xe8\r)\x91g\x06\xd7\xbfwM\xe2\xc2\xde\xa4\xd9\xbf\xd2\xe1\xbd\x88\x80W\xde?\xb4\x9cD\x89Q8\xe2?\xbd\x83\xc4\xb0\xe0\xb2\xdf?\xc3\xbf\xfbd\xeb\x8a\xd6?\x02\xa7\'\xc7\xfc\x9d\xe8?\xe6\xc4\xfe\xf6\x13\x19\xe9\xbf\x8fK*\x8b\xfe\xf7\xbe?1@)\x83\x93\xec\xe4\xbf\x8bd8\xfc\xa0\xcb\xe0?p\x1a"}7\x07\xe3\xbf\t\xb9\x98\xc0\x97\xad\xd8\xbf\x1d\xa0\xa9\xeaN\xc6\xe8?\x02\xc18\x990g\xe7?\x1b\x96\x8f\x8b\xa2\xba\xe8\xbf\xec\xcb\x85\xf0\x1bG\xd7\xbf\xe3\x83\xd3z(\xe2\xb2\xbf\xe9\x12\xdb\xa7Fl\x9d?\xa6\xbd\xa9\x1d\x93}\xe0?\t\x82\x94^i\x1f\xcc\xbf\xa8\xe0l\xe4\xa7;\xde\xbf\x82\xfd\x9e~1\x1c\xd9?\xb32\xc28\xee#\xd8\xbfTb?w\xfec\xbe\xbf\xdc\x81sy\xe0\x9c\xe1?\xd1*\x87 \x18J\xe5?\x8d\x1f\xcb9\x14\xdf\xc2\xbfK-\xbe\xf7\xba(\xea\xbf2GLu:\xc3\xe5?)^M\xc5\xee1\xb5?v\x0bF\xc0\xaa\x14\x82\xbf\x15\x02\x92\x02\x13\xf6\xe2\xbfM0\xf501\xaf\xeb?\x00\xabow\xef\xda\xdd\xbf\xc2\xde)\xf6%\x14\xe3?\xa4\xce\x1f\xb2%\xf8\xe4\xbfC\x01s8\xaf\xab\xe0\xbf-\xc5\x19\xc6P|\xcf?\x8c\x99gK\x90\xed\xbb?}\x17D\x1c\x1a\xb6\xdf?\xb4p\x839\x8fq\xe0\xbfNZ\xda\x07l\xd5\xd8?\xc3?\xa3\xfb\xc8\x96\xe1?\x9e\xd7%\x8e\xe7\xf6\xd8?\xc2l\x08+\x06$\xb8?\r\xe4+\x8cBi\xe8?\xed\'\xab%\xe5\x9b\xeb?\xf3\xc6\xb1\x93\xe7/\xba?Z\xe6I\xd0\xe2B\x98?\x98v\xcc\xa2\x03\xa0\xe4?ShT]\xf2|\xb4?\x85\x83>\xc2\xf90\xf0\xbf\xb0 ?_\xbel\xb1\xbf\xea\t\xc2\xa2]z\xf0?+\x04\xae\xb8F\xf0\xed?\xde\xd5Z\x83~Q\xd6?\x89\x16d\x15\x94v\xd5\xbfQ\x88\xf2\x06\xb2\xae\xdb\xbf\x88\x86\x89\xfd\xefM\xb6?\xf1\xff/\xfb\xf8@\xda?\x14G\x17\x1b\xc4@\xce\xbf\xbcMc\xf8m\x96\xd1?\x86\xf1{\xb5\x9c\xdd\xba?\xc3\x0bMgU\x85\xdb\xbf\x05\x9cs\xf1\xfcA\xda\xbf9\xf9\xcf \x10Z\xd2?N\xb0\\<\xb7\x85\xd6?\x0c\xa1\x07\x8eI\xaf\xc6\xbf\xe0N\xa4K\xa7\x1f\xc6?\xde!Z\xcc\xc5\xe2\xe0?\xf5\xa7\xe9\xf7\xa0J\xee?S!2\xd1\xb0i\xeb\xbf\x93\xbb"}\xce\xfd\xd0?\x106v\x80V\x7f\xec\xbf\x8em\xb9<\x1co\xc3?\xf8\xae\xd2\x83*\x96\xd3?s\xf8\xe1\x9b\x1f\xa5\xe9\xbf\xac\xfe\x9b\x9c\x11\xc9\xc2\xbfd&\x96\x9e5R\x93?\x02\xe4]J<\x9f\xcc\xbf\xa8\x1a\xce\xadUs\xdf\xbf\x0f\xca\x88\xf1\r\x83\xe0?\xd6k\xcb\x141m\xcb\xbf\xab\xe7\xb4\xe4W\x92\xe4?\\-{\xb2\xdaJ\xb8\xbf\xf2\xf8\xf0;\xb0\xbd\xc7?`\x08\x80*\xb2o\xa9\xbfN\xc3\xb5y;\xa3\xdc\xbf\xe1\xa8\xe3\x88\xbd\x07\xe7\xbf\x02\xc8\xf6\\\xba\xaa\xcf?z\xa9\xaa\xda\x16o\xc8\xbf+\xaf\xdf\xbb\x08\xd8\xe8?\xf5PYk\xdc\x91\xe1?\x8e_\xbe\xb3\xf99\xec\xbf>\x1c!F\xfb\x94\xe3\xbf\x04\xcc\x06)\x88\xbc\xdb\xbf[oxCf\x9a\xda\xbf\x13\xd09i:\x04\xe8\xbf\xd9^\xb0gc\xe5\xc6?q U<\xc5\n\xec?z\xbbd\xc3)\xe0\xe0?\x1d`\x18\xe0\xb1\xd9\xcb\xbf$\x8c\x87\x88\xa4\xdc\xdb?\x98;\x91V\xfb\x7f\xd2\xbf\x0b\xb3\xeaX\xec_\xec\xbf\xf0\x9c{\r,\x1d\xd2?\xba\x9e\xa4#\x95\xfa\xeb\xbf\xe5\x0b\x978\xeau\xe9\xbf\x18\x1aG@\xd5b\xe1\xbfs\x9a<\x88<K\xdc\xbf\xb7\xe4j(\x86m\xe1\xbf\xf9Rt:\x8e\xee\xca?\xa9j\xcd\xeb\x90\xd3\xb9\xbf\xa7q\xc2\x84b|\xd2\xbf\xe09~@\xf5\x88\xa7\xbfi\xbev\x81\xf9\xc9\xd6\xbfPw\xdd\xf6\xa1t\xed?\x1c\xa3\xce\x9ds\xbb\xd9?p\xfaN\n\x8d\x95\xe5\xbf\xaf\xf7\rl\xc4?\xdd?\x9e\x07\xb6\xeb\xd2\xaa\xe3?\x81D\xf4\xc2g\xa9\xdd\xbf9\xf1O\xace\xa9\xe1?\xca)5! \xfc\xe6\xbfu\xcd\xd4\x82\xa8\xca\xdf\xbf\xad\xb7,\x0f/\x10\xe3?.\xc0\x10\xeb_\xae\x96?h&@\x8e\x90\xe1\xe0?\xdb\xbe\xd0\xb6\xf9\xda\xe3?\xc57)\x13\xac\x0f\xe9\xbf\xb9\x84\xf0\xd9\xf3\x9d`\xbf\xfc7\xf5u\xe7\xce\xea\xbf\xcc\xd6\xe5\x96\x1d\x1c\xdb\xbf\xdaZ*\xcd/\x8f\xdb\xbf \x82\x802\xce,\xe8\xbf\xf8\xd7H\x9e\x98\xd6\xe7\xbf\xad\x1b\xbc\xfd\xdcz\xe6\xbf"\x16.\x8e\xa2\x1f\xd6?`\xe5\xf4\xaf\xa7\x95\xc6?4\xc1Zk\xdc \xb3?\xe7\xfe\x17\xa0\xa8\xe6\xde?\x92(\xc8\xc3\'0\xe4\xbf\x1eBe\x04E\xf8\xd8?\xefA\xb6MU\xe0\xe6?\xe2\x9cNAX\xd2\xb1?\x9fC\'p\xbe\xda\xe8\xbf\x95\xd3&\x19yz\xd0?8\x1f\xdd`\xb65\xb5?\x15V\x7f\xb6\x91l\xe9\xbf\xce\x1e\x99==3\xd6?\x18\xea\xa8\xbd\x1a\x87\xc6\xbf\x85\x82\xd8}\x89\xca\xd1?\xe0\xd7Z\x90U\x00\xe2?\x8b\x15\xc4\xfd\x19\x91\xe0\xbf\x81\xf4\xd1\xe5\xf1\x8e\xd5\xbf\x19\xe1\xb8\x1c\x80K\xe7\xbf\xd6\xc5\x07\xee\xdf9\xe1\xbf5\x9c\n\x8a$\x0f\xe5\xbf\x01\xe3;\x94mZ\xba\xbfu\x8c+\xd0p\xae\xe9\xbfU\xd3N\xbfM\xbe\xdb?\xcf\x81\x03\xd7]\xf7\xa0?\xab\x86R\x83\xf4J\xe1\xbf\xbaE9\x94V\xcf\xee?\xd0\xea3\xb0\xe1l\xea?\x04;#a\x94 \xc2\xbf_z-\xdc\xad\xf1\xe8??y\xc3t\xc3P\xda\xbf{\x9b\x07mrz\xe9?\x0c\xba%\xae\x14\xeb\xda\xbf"$\xac\xf1L\xea\xcb?N\xf6\xbf\xe2\x7f@\xd4?\x9duyK\xc2\xb4\xbe\xbf6C\xce3\xff\xbd\xdf\xbf{\xc6\xba\n\xe9\xa3\xc7?\xd9\xd6\xd4\xadJg\xb8?\xa8\xe8\xedO\x8c\xbe\xb9?2\x1c3f\xbeN\xd3?\x1fY\xf8\xfe\xb0\xbb\xe6\xbfz\xc8^\x81g\xe3\xeb?/C\x00\x05\xb7\x9a\xea?\xbd\xe1\x1a\x93\x99\x98\xe0?#TnaU\xe1\xe0\xbf\xf6h\xeb\x8c8\xd6\xce\xbf\xff\xeaL\x13.\xb9\xe8\xbf\xbb\xb6m\x13A3\xe9\xbf\x99\xa9\xb3\xd1[\xbb\xd3?\xd0\xb5\x85\xecf8\xda\xbf\xda\x95\xda[H\xd0\xe7?\x1e\x99\xe3\x88 _\xe3?_r\x9d\xb5\xae\x9e\xd1?\xb3\xeb\xf9e\n=\xe4\xbfK/\n\xbd\xb4F\xe2?\xf4\xbc\x13\xdb#L\xd9\xbf\xbau\x1c\x13.\x80\xa7\xbf\x14\xc2{\x19\x89/\xe0?_\xfam\xc9\xe86\xdf?\x97\x93\x99\x08\xcdW\xe8?\xb8\xe1\xfd\x11\x8c\xa1\xc8?\x84\xfe`\xe5\x8f\x02\xe7\xbf\xd9\xe4\'\xc5\x8a#\xc9?\xf6\xdb,p\xa6\x91\xe8?\x8d\rO\x81\xa13\xac\xbf\x98\xfa\xfe\x93\x9b\xd6\xd7\xbf\xeb\xd3v\x86\xd5\xe6\xe7\xbf\xa1\xb78\x91C<\xe4\xbf\x00,t^b\xa8\xcd?g\x04\xb6k\x07\xaa\xd1?F\x97]f\xf8\x8f\xd2?\xa1E\x87\xd8h/\xc5?\xda\xcc\x8b\xee\x88\xf4\xe6?6{cl\x7f\xae\xd0\xbf\xd9\xcc<\x08\xbb\xf3\xc4?\xf99N\xbf\xfd\x10\xe7\xbfVD;\x1b6\xdf\xda\xbf\xfe\xce\xe2\xabK}\xe8\xbf\xd9\xf7\xed\xa8\x18^\xd7\xbf\x08\xad\xea2\xe3\x9e\xe3\xbf\x9f,\xb4\xf7\xa6\xc1\xc3?%^\xc3R\xaa\xa6\xcc\xbf\xd4*\xce+J\x00\x90\xbf\x9a\xe6&V\xde\x98\xd3?la*\xe7\xccm\x98?Q>\xf7t\xb3/\xe2\xbf\xbd\x8b!u\xad\xd3\xd8?F\x00\x8c\xd7o\x8e\xec?t\x9f7\xc2\xd2?\xe1?(\x0b?4S\xd6\xdf\xbf^N\x89\x1e\xea\xf8\xe9\xbf\x85\xcb\xd1\xbb\x90h\xdb?[\x17\xe1\xb5\xd0u\xef?)8\xe1$n\xd1\xd6?\xb0E??\xa2G\xeb\xbf\xe7\x19\x07\xb4\xa5&\xb6\xbf\xb7\x96z\xed\xe8\xd8\xc0\xbf\x1f&n\xaf\x0c\xba\xe9\xbfQ"P\x94\x18\x87\xdd?\x07&\xa9\xed8\x88\x85?\x93\xef4\xf5\x9f\x05\xdf\xbf\xe1\xab\x86\xfb\x1c?\xef\xbf\x8d\xff\xa40\x8f\x98\xe6\xbf\xc0RG/Q&\xed\xbfn\xdd\xa6\x8c\x9c\xe1\xd0?\xd3F\xebL\xaf\xb6\xb3\xbf\rB3\xc5\x05B\x98?\'\x86\xae\xec\x9b\xae\xdb\xbf}\xc0Y{\xdb/\xd0\xbfE2"M\xa9?\xcc?\x82\xbb\x96^&\xbd\xe1\xbf1\n\x87\x9dZi\xd0\xbfQ\x07\xf9\r\xfcy\xe9\xbf\xf4(\xd6\x96\xf3F\xe0\xbf\xa9\x1a\x94\xe4\xfb \xe8\xbfs\x91\x9d\x84\xbf=\xe8\xbf\xb1\xcaG\xfc\xa1`\xa2?\x1b<\x80\xfa@^\xea?\x8ek\xeb\x9bO\xf7\xc4\xbf\x85\x10C\xebr\xb9\xe8?\xfe\x86\x16b\x8a\xee\xc0?\xf8\n\xc9\xc1\xfe$\xd8\xbf\xdd\xf5\x84\xf1\x9e\x8a\xb7\xbfV\xdedFR<\xc0\xbf\xe0\xd3\xde?p,\xe8\xbf\xc3\xd9\x98\x9c],\xe3\xbfU\x89\xb3\xc5\x01\xd0\xcc?n\xdd\x00T\xda\x80\xdf?\x9f\xe6\x0e\x18~\xb3\xea?t/\x08\x9b-\x7f\xc9\xbf<\xdc1\xc9\x00&\xe9?\xa3N`n\\G\xe2\xbf\xd2.\x84\xedd-\xe5\xbf\xcb6E\xdb"\xf4\xe8\xbfi%\x93G\xe5\x86\xda?\x17\x10/\x9f\xb8#\xd2?~3\x1d^\x1e\xb2\xca\xbf\xb6\x8b\xa9\x19\xbd\xa4\xe1?\x06\xa69 C\x84\xd4?*x\xc7\xfa\xff\xc6\xe0?7"\xa7\xd6\xd6\x05\xbd\xbfk\x8d\xce\xec\xcf{\xc8\xbf\x7f\xd0\x855\xe9\xb3\xe2?\xaa\xfd\xf3\x19kD\xe0?\xf9%9\x84\x166\xdb?\xb9\xd2c\x1d\xe3i\xe1\xbf\x92\xdf}\xe0\x89l\xd7\xbf\x02@\xe96v_\xe7?.8"\xdd9u\xdf?\x034\xa5\xea\x0f\x96\xe9\xbf+o\xb5W\xc7\x85\xcd?G\xd7Jqv\xc5\x97?\xc0\xeb\xe1\x80\x91\xaa\xce?\r6c\xa4\x918T\xbf\x9b\x1d8\x96[\x02\xe0?\x8a\x1279\x98m\xf0\xbf\x96)a\xb1\xdbl\xb0\xbf\xe3\x0e\xca\xacL\x94\xe3?\xc7W,\xa1\xc7\xec\xe1\xbf\xaeIV%\x82\xee\xcd? \xfc\xb7\x86\x91\xeb\xd1?w\x8c\xd78H\x9d\xe4\xbf.\xab(0o\x01\xe4\xbf\xfb\x99\xcf,\x0b=\xc6?Dp\xd1o\x12\x9c\xc7?1\xa10\x96\xfe\x8c\xdd\xbf\x08\xc5\x7f\x19\x83R\xba\xbf\xa6\xf0\x83OP\x17\xe2?tC\x0f\xfbOf\xe5\xbf_"\xf4U\x13c\xe1?bm\x94|\xda\xb5\x98\xbf\xcc\x08\xe4\xd1\x8d\xbe\xe2?\x87\x02r\xfe,\xb0\xe4?\xda3\xbd"\xba\x13\xdf?N\xb5\xeb\x82\xa1\xb2\xdb\xbfXY\xc0\xd9\xec\x9c\xd6?\x9a\xdf\x9a\xe7\xbb\xe8\xdf\xbf\x89R\x1d\x90\xf01\xde?\xc5 z\x9a\xee\x9f\xe5?I?^\xd4\x91\xbc\xe2?M\xce\xe7o[\xca\xe6?`\xfe\x8e\xa5\x99\x19\xe7\xbf$\x0c"\xbb\xa7I\xe4?\x18\xeco\tX7\xcb?\xdf\xcbf,\xab`\xd2?ZS\xd9\xb2\x96g\xd6?=\xcb\x14\x16\x9c\xde\xe8\xbf;\x19\xff(\xbe\x06\xe8?\xdb5f\xa4\x16\xec\xc7?\xec6\x83\x94\xc7D\xb2?\xff^$j1\xb1\xdf\xbfp\xc5\x8cw\x0e\xf9\xe2\xbf\x06\xcc\xe0\x07\x17\xc2\xe0\xbf\n}\x00b\xfa.\xd7?\xfc\xf2\xfd"\\J\xe8?Z\xfe|&p\xe9\xe8?c\x86f\xe6\xd4\xee\xd7\xbf\x1e\x10QD\xae\xef\xe8\xbfT\x03\xe2\x07Q\x8f\xc7\xbf\x94\xe1i\x05W0\xd4\xbf\x8d}\xa9\xfeZS\xe1\xbf\xe0n5\xd1s\xaa\xb3?\xf6\xec\x14\x8f\xf2\xf4\xca?\xa9\x0e\'G\xf7\x91\xe8?NS \x95\x03\x14\xe3?\x94q\x8dC\x9e\xd1\xe0\xbf\xaa\x10\x0f\x98!\x02\xde?f\xa5\xa6\x90\x98_\xe4?\xd6?Y\xd8uK\xe7?\xa6\xa6\xe1y\xef\x7f\xc7\xbf\x87\x11\x05\x98z\xea\xe7?T0\xeaZ\xbfy\xe9\xbf\x19\xb7\xbc\x98\x92\x92\xc2\xbf\xe9\x0f9YH\xfd\xdd\xbfrm\xfeR|/\xe0?E\xdfR\xabj{\xd9?\xb5\xcc\x15\x88\xf5(\xc1?'
p60
tp61
bssS'transf'
p62
(ineurolab.trans
TanSig
p63
(dp64
bsS'out_minmax'
p65
g18
(g19
(I0
tp66
g21
tp67
Rp68
(I1
(I45
I2
tp69
g28
I00
S'\x00\x00\x00\x00\x00\x00\xf0\xbf\x00\x00\x00\x00\x00\x00\xf0?\x00\x00\x00\x00\x00\x00\xf0\xbf\x00\x00\x00\x00\x00\x00\xf0?\x00\x00\x00\x00\x00\x00\xf0\xbf\x00\x00\x00\x00\x00\x00\xf0?\x00\x00\x00\x00\x00\x00\xf0\xbf\x00\x00\x00\x00\x00\x00\xf0?\x00\x00\x00\x00\x00\x00\xf0\xbf\x00\x00\x00\x00\x00\x00\xf0?\x00\x00\x00\x00\x00\x00\xf0\xbf\x00\x00\x00\x00\x00\x00\xf0?\x00\x00\x00\x00\x00\x00\xf0\xbf\x00\x00\x00\x00\x00\x00\xf0?\x00\x00\x00\x00\x00\x00\xf0\xbf\x00\x00\x00\x00\x00\x00\xf0?\x00\x00\x00\x00\x00\x00\xf0\xbf\x00\x00\x00\x00\x00\x00\xf0?\x00\x00\x00\x00\x00\x00\xf0\xbf\x00\x00\x00\x00\x00\x00\xf0?\x00\x00\x00\x00\x00\x00\xf0\xbf\x00\x00\x00\x00\x00\x00\xf0?\x00\x00\x00\x00\x00\x00\xf0\xbf\x00\x00\x00\x00\x00\x00\xf0?\x00\x00\x00\x00\x00\x00\xf0\xbf\x00\x00\x00\x00\x00\x00\xf0?\x00\x00\x00\x00\x00\x00\xf0\xbf\x00\x00\x00\x00\x00\x00\xf0?\x00\x00\x00\x00\x00\x00\xf0\xbf\x00\x00\x00\x00\x00\x00\xf0?\x00\x00\x00\x00\x00\x00\xf0\xbf\x00\x00\x00\x00\x00\x00\xf0?\x00\x00\x00\x00\x00\x00\xf0\xbf\x00\x00\x00\x00\x00\x00\xf0?\x00\x00\x00\x00\x00\x00\xf0\xbf\x00\x00\x00\x00\x00\x00\xf0?\x00\x00\x00\x00\x00\x00\xf0\xbf\x00\x00\x00\x00\x00\x00\xf0?\x00\x00\x00\x00\x00\x00\xf0\xbf\x00\x00\x00\x00\x00\x00\xf0?\x00\x00\x00\x00\x00\x00\xf0\xbf\x00\x00\x00\x00\x00\x00\xf0?\x00\x00\x00\x00\x00\x00\xf0\xbf\x00\x00\x00\x00\x00\x00\xf0?\x00\x00\x00\x00\x00\x00\xf0\xbf\x00\x00\x00\x00\x00\x00\xf0?\x00\x00\x00\x00\x00\x00\xf0\xbf\x00\x00\x00\x00\x00\x00\xf0?\x00\x00\x00\x00\x00\x00\xf0\xbf\x00\x00\x00\x00\x00\x00\xf0?\x00\x00\x00\x00\x00\x00\xf0\xbf\x00\x00\x00\x00\x00\x00\xf0?\x00\x00\x00\x00\x00\x00\xf0\xbf\x00\x00\x00\x00\x00\x00\xf0?\x00\x00\x00\x00\x00\x00\xf0\xbf\x00\x00\x00\x00\x00\x00\xf0?\x00\x00\x00\x00\x00\x00\xf0\xbf\x00\x00\x00\x00\x00\x00\xf0?\x00\x00\x00\x00\x00\x00\xf0\xbf\x00\x00\x00\x00\x00\x00\xf0?\x00\x00\x00\x00\x00\x00\xf0\xbf\x00\x00\x00\x00\x00\x00\xf0?\x00\x00\x00\x00\x00\x00\xf0\xbf\x00\x00\x00\x00\x00\x00\xf0?\x00\x00\x00\x00\x00\x00\xf0\xbf\x00\x00\x00\x00\x00\x00\xf0?\x00\x00\x00\x00\x00\x00\xf0\xbf\x00\x00\x00\x00\x00\x00\xf0?\x00\x00\x00\x00\x00\x00\xf0\xbf\x00\x00\x00\x00\x00\x00\xf0?\x00\x00\x00\x00\x00\x00\xf0\xbf\x00\x00\x00\x00\x00\x00\xf0?\x00\x00\x00\x00\x00\x00\xf0\xbf\x00\x00\x00\x00\x00\x00\xf0?\x00\x00\x00\x00\x00\x00\xf0\xbf\x00\x00\x00\x00\x00\x00\xf0?\x00\x00\x00\x00\x00\x00\xf0\xbf\x00\x00\x00\x00\x00\x00\xf0?\x00\x00\x00\x00\x00\x00\xf0\xbf\x00\x00\x00\x00\x00\x00\xf0?\x00\x00\x00\x00\x00\x00\xf0\xbf\x00\x00\x00\x00\x00\x00\xf0?\x00\x00\x00\x00\x00\x00\xf0\xbf\x00\x00\x00\x00\x00\x00\xf0?\x00\x00\x00\x00\x00\x00\xf0\xbf\x00\x00\x00\x00\x00\x00\xf0?\x00\x00\x00\x00\x00\x00\xf0\xbf\x00\x00\x00\x00\x00\x00\xf0?\x00\x00\x00\x00\x00\x00\xf0\xbf\x00\x00\x00\x00\x00\x00\xf0?'
p70
tp71
bsS'out'
p72
g18
(g19
(I0
tp73
g21
tp74
Rp75
(I1
(I45
tp76
g28
I00
S'\xb5 0e\xfa\xff\xef\xbfg\xc7")3\xab\xdd\xbf.\x0b\x04_\xc3\xff\xef?\x02:#\x95\x0b\xdd\xec?\xc3\x86\x040\xc6\xb1\xef\xbf\xde\xe1\x99?\xf2\xff\xef?\x1a\xd2;\x9e\xec\xe6\xea\xbf\x84\xf1x\x81@\xfe\xee?#\x97\xcb\x18\xf1\xfc\xef\xbf8\x15\xf7@\xb4\xfe\xef?\xae\x1ew\xac\xf4\xc0\xed\xbf\xf2\r\xc5\xd0\x9f\xf9\xef\xbf;\x15\x19\xbb\xbd\xc5\xea?\xc6\x9b\x15)\xe1\x1c\xee\xbf\xf1\x8aa\xd9\x07.\xee?P\r\x82\xbbA\xeb\xef\xbfH\xc8\x9d7*\xb6\xef\xbft\xdb\xe5\x82\xd9\xff\xef\xbf0\xabz\x87E\xde\xee?|o8\x91Z\xef\xe6\xbf\xf4\x02\x1du\x92\xde\xee\xbfT:\xb8\x02\xfa\\\xef\xbf\xfb\x1fq\xc2\xe1\x10\xd4\xbf\x11\xa1z\xeb\xaby\xed?\x86g0\x93\xbf\xa0\xef?\xfb~\xd6\xaff)\x89?\x89\xc2\xaf\xca\xd3Z\xe8?\xb9\x8fE(\xb9\xa8\xdc?\x1b\xf5\xcd7\xc9\xfa\xef\xbf,\xca\xbeg\xa2\x9f\xd2?wv\x15\x12>\n\xb2?\x96\xb1x/\xff\xff\xef\xbf\xeak\xff\xb2\xd4M\xee?B\x95p\x0f3\x95\xec\xbf\xb3\x8f\x12\xed:\xb2\xe3\xbfUq\r\xf1A\xfd\xde?\x13~\x08\x80\xc0\xfd\xef\xbf\x90\xda\x0f\xaaS\xff\xef?[\xbeC\xc2\xd8\xf1\xe3?\x9c\xae \x06\x8f\x0c\xde?\xebg\xdah\xd9!\xea?K2\xb1\x92\xa7\x80\xef?\xda\xc8\xa3\x8a\x8aG\xe1?\x85\x99\xe8%*\x1d\xee\xbf\x0b|\xbdA.g\xed\xbf'
p77
tp78
bsbag0
(g8
g2
Ntp79
Rp80
(dp81
g12
g13
sg14
I45
sg15
I1
sg16
I1
sg17
g18
(g19
(I0
tp82
g21
tp83
Rp84
(I1
(I45
I2
tp85
g28
I00
S'\x00\x00\x00\x00\x00\x00\xf0\xbf\x00\x00\x00\x00\x00\x00\xf0?\x00\x00\x00\x00\x00\x00\xf0\xbf\x00\x00\x00\x00\x00\x00\xf0?\x00\x00\x00\x00\x00\x00\xf0\xbf\x00\x00\x00\x00\x00\x00\xf0?\x00\x00\x00\x00\x00\x00\xf0\xbf\x00\x00\x00\x00\x00\x00\xf0?\x00\x00\x00\x00\x00\x00\xf0\xbf\x00\x00\x00\x00\x00\x00\xf0?\x00\x00\x00\x00\x00\x00\xf0\xbf\x00\x00\x00\x00\x00\x00\xf0?\x00\x00\x00\x00\x00\x00\xf0\xbf\x00\x00\x00\x00\x00\x00\xf0?\x00\x00\x00\x00\x00\x00\xf0\xbf\x00\x00\x00\x00\x00\x00\xf0?\x00\x00\x00\x00\x00\x00\xf0\xbf\x00\x00\x00\x00\x00\x00\xf0?\x00\x00\x00\x00\x00\x00\xf0\xbf\x00\x00\x00\x00\x00\x00\xf0?\x00\x00\x00\x00\x00\x00\xf0\xbf\x00\x00\x00\x00\x00\x00\xf0?\x00\x00\x00\x00\x00\x00\xf0\xbf\x00\x00\x00\x00\x00\x00\xf0?\x00\x00\x00\x00\x00\x00\xf0\xbf\x00\x00\x00\x00\x00\x00\xf0?\x00\x00\x00\x00\x00\x00\xf0\xbf\x00\x00\x00\x00\x00\x00\xf0?\x00\x00\x00\x00\x00\x00\xf0\xbf\x00\x00\x00\x00\x00\x00\xf0?\x00\x00\x00\x00\x00\x00\xf0\xbf\x00\x00\x00\x00\x00\x00\xf0?\x00\x00\x00\x00\x00\x00\xf0\xbf\x00\x00\x00\x00\x00\x00\xf0?\x00\x00\x00\x00\x00\x00\xf0\xbf\x00\x00\x00\x00\x00\x00\xf0?\x00\x00\x00\x00\x00\x00\xf0\xbf\x00\x00\x00\x00\x00\x00\xf0?\x00\x00\x00\x00\x00\x00\xf0\xbf\x00\x00\x00\x00\x00\x00\xf0?\x00\x00\x00\x00\x00\x00\xf0\xbf\x00\x00\x00\x00\x00\x00\xf0?\x00\x00\x00\x00\x00\x00\xf0\xbf\x00\x00\x00\x00\x00\x00\xf0?\x00\x00\x00\x00\x00\x00\xf0\xbf\x00\x00\x00\x00\x00\x00\xf0?\x00\x00\x00\x00\x00\x00\xf0\xbf\x00\x00\x00\x00\x00\x00\xf0?\x00\x00\x00\x00\x00\x00\xf0\xbf\x00\x00\x00\x00\x00\x00\xf0?\x00\x00\x00\x00\x00\x00\xf0\xbf\x00\x00\x00\x00\x00\x00\xf0?\x00\x00\x00\x00\x00\x00\xf0\xbf\x00\x00\x00\x00\x00\x00\xf0?\x00\x00\x00\x00\x00\x00\xf0\xbf\x00\x00\x00\x00\x00\x00\xf0?\x00\x00\x00\x00\x00\x00\xf0\xbf\x00\x00\x00\x00\x00\x00\xf0?\x00\x00\x00\x00\x00\x00\xf0\xbf\x00\x00\x00\x00\x00\x00\xf0?\x00\x00\x00\x00\x00\x00\xf0\xbf\x00\x00\x00\x00\x00\x00\xf0?\x00\x00\x00\x00\x00\x00\xf0\xbf\x00\x00\x00\x00\x00\x00\xf0?\x00\x00\x00\x00\x00\x00\xf0\xbf\x00\x00\x00\x00\x00\x00\xf0?\x00\x00\x00\x00\x00\x00\xf0\xbf\x00\x00\x00\x00\x00\x00\xf0?\x00\x00\x00\x00\x00\x00\xf0\xbf\x00\x00\x00\x00\x00\x00\xf0?\x00\x00\x00\x00\x00\x00\xf0\xbf\x00\x00\x00\x00\x00\x00\xf0?\x00\x00\x00\x00\x00\x00\xf0\xbf\x00\x00\x00\x00\x00\x00\xf0?\x00\x00\x00\x00\x00\x00\xf0\xbf\x00\x00\x00\x00\x00\x00\xf0?\x00\x00\x00\x00\x00\x00\xf0\xbf\x00\x00\x00\x00\x00\x00\xf0?\x00\x00\x00\x00\x00\x00\xf0\xbf\x00\x00\x00\x00\x00\x00\xf0?\x00\x00\x00\x00\x00\x00\xf0\xbf\x00\x00\x00\x00\x00\x00\xf0?\x00\x00\x00\x00\x00\x00\xf0\xbf\x00\x00\x00\x00\x00\x00\xf0?\x00\x00\x00\x00\x00\x00\xf0\xbf\x00\x00\x00\x00\x00\x00\xf0?\x00\x00\x00\x00\x00\x00\xf0\xbf\x00\x00\x00\x00\x00\x00\xf0?\x00\x00\x00\x00\x00\x00\xf0\xbf\x00\x00\x00\x00\x00\x00\xf0?'
p86
tp87
bsg33
g75
sg40
g18
(g19
(I0
tp88
g21
tp89
Rp90
(I1
(I1
tp91
g28
I00
S'\xfa\xe9\x19\x80h\xe9\xc9?'
p92
tp93
bsg47
(dp94
g21
g18
(g19
(I0
tp95
g21
tp96
Rp97
(I1
(I1
tp98
g28
I00
S'L\xd1\xc2\xa0\xcb\xa5\xb1?'
p99
tp100
bsg55
g18
(g19
(I0
tp101
g21
tp102
Rp103
(I1
(I1
I45
tp104
g28
I00
S'.a\xc9%\xb0k\xd8\xbf\xf7:\x04N\x1d?\xc1\xbf\xbb\xfeo\xfe\xd0\xdf\x94?\xc0\x1d~\xd8\xcbj\xac\xbf\xf3\x82g\x8a\x02\x10\xbe?0\xb8*\x83\xb4\xda\xc8?\xf1\xcb\xb5\xca\xdb\x81\xc1?q\x87\x03\x0c25\xc3?\xcfY\x14\x97\xd8T\xcf?\xccn\xe5\xb3\x03)\xc3\xbfw\x00\t\x81B\xd4\x8e\xbf\xfe\xef r]5\xcc?\xb3\x1c\xe8\xc6\xd6#\xc8\xbf\x1d\x17)\xce\xf2\xab\xa5?L?9\x19\xe0u\xb3\xbf\x13\x93\xc4Q9Y\xa0?Rgw\x0e\x8a\x8e\x9d\xbf\x13\x02h\x0f\x1f\x0c\xaf?\xd9\x86\xe3\xb2:\xaa\xb6\xbfz\x12\xbb\xe55\xd7\xa4\xbfI\xecB\xcf\xecO\xc5\xbf\xbe\xd7\xd9u\x00\xb1\xc6\xbf\x8d\xbf\xd4\x8d2?\xc2?\xea;\x02G\xd1/\x8d?\x89;6\xa0\xbaG\x86?\x1c\xf8\xa6\xab5@\xa4\xbfL?\xcf\xc0\nS\x95?83\xa4\xff\x05u\xab\xbf\x9d\xe3\x92m\xac\x07\xd7\xbf\xbeg\x13LM\xb7\xc6?l\x80\xc0\xd4\xf4\xe5\xa8?\x11{U\x1a\x86\x9a\xc6\xbf*\xabO\xf2L\x18\xc0\xbf\xd5\x08\x8a\x12\xb7\x9c\xd5?\xa7\xdcwE\xfbu\xbb\xbf^\xcci\xe8\xd1\xc3\x88?S\x92\xb2\xef\xa1\xed\xa9?\x8dj\xe2t\xd6\x97\xd0?\xde\xc8\x90\xdf\xccP\x94?\xc6\x16\xde=:\xc0\xb7?}:\xee\xb9;\x1e\xa6\xbfC\t\xccD\xdb\x80\xc2\xbf\xed\xe9\x87\xc2w\xfe\xbc\xbf\x9c\xe8\x8c\x88>O\xac\xbf\xfb\xb8\xa8\xac\xc4\x0b\x9b?'
p105
tp106
bssg62
g63
sg65
g18
(g19
(I0
tp107
g21
tp108
Rp109
(I1
(I1
I2
tp110
g28
I00
S'\x00\x00\x00\x00\x00\x00\xf0\xbf\x00\x00\x00\x00\x00\x00\xf0?'
p111
tp112
bsg72
g18
(g19
(I0
tp113
g21
tp114
Rp115
(I1
(I1
tp116
g28
I00
S'\xef\xc4\xc8\xb0A\x90\xc9?'
p117
tp118
bsbasg14
I35
sg15
I1
sg17
g18
(g19
(I0
tp119
g21
tp120
Rp121
(I1
(I35
I2
tp122
g28
I00
S'\x00\x00\x00\x00\x00\x00\x00\x00\x00\x00\x00\x00\x00\x00\xf0?\x00\x00\x00\x00\x00\x00\x00\x00\x00\x00\x00\x00\x00\x00\xf0?\x00\x00\x00\x00\x00\x00\x00\x00\x00\x00\x00\x00\x00\x00\xf0?\x00\x00\x00\x00\x00\x00\x00\x00\x00\x00\x00\x00\x00\x00\xf0?\x00\x00\x00\x00\x00\x00\x00\x00\x00\x00\x00\x00\x00\x00\xf0?\x00\x00\x00\x00\x00\x00\x00\x00\x00\x00\x00\x00\x00\x00\xf0?\x00\x00\x00\x00\x00\x00\x00\x00\x00\x00\x00\x00\x00\x00\xf0?\x00\x00\x00\x00\x00\x00\x00\x00\x00\x00\x00\x00\x00\x00\xf0?\x00\x00\x00\x00\x00\x00\x00\x00\x00\x00\x00\x00\x00\x00\xf0?\x00\x00\x00\x00\x00\x00\x00\x00\x00\x00\x00\x00\x00\x00\xf0?\x00\x00\x00\x00\x00\x00\x00\x00\x00\x00\x00\x00\x00\x00\xf0?\x00\x00\x00\x00\x00\x00\x00\x00\x00\x00\x00\x00\x00\x00\xf0?\x00\x00\x00\x00\x00\x00\x00\x00\x00\x00\x00\x00\x00\x00\xf0?\x00\x00\x00\x00\x00\x00\x00\x00\x00\x00\x00\x00\x00\x00\xf0?\x00\x00\x00\x00\x00\x00\x00\x00\x00\x00\x00\x00\x00\x00\xf0?\x00\x00\x00\x00\x00\x00\x00\x00\x00\x00\x00\x00\x00\x00\xf0?\x00\x00\x00\x00\x00\x00\x00\x00\x00\x00\x00\x00\x00\x00\xf0?\x00\x00\x00\x00\x00\x00\x00\x00\x00\x00\x00\x00\x00\x00\xf0?\x00\x00\x00\x00\x00\x00\x00\x00\x00\x00\x00\x00\x00\x00\xf0?\x00\x00\x00\x00\x00\x00\x00\x00\x00\x00\x00\x00\x00\x00\xf0?\x00\x00\x00\x00\x00\x00\x00\x00\x00\x00\x00\x00\x00\x00\xf0?\x00\x00\x00\x00\x00\x00\x00\x00\x00\x00\x00\x00\x00\x00\xf0?\x00\x00\x00\x00\x00\x00\x00\x00\x00\x00\x00\x00\x00\x00\xf0?\x00\x00\x00\x00\x00\x00\x00\x00\x00\x00\x00\x00\x00\x00\xf0?\x00\x00\x00\x00\x00\x00\x00\x00\x00\x00\x00\x00\x00\x00\xf0?\x00\x00\x00\x00\x00\x00\x00\x00\x00\x00\x00\x00\x00\x00\xf0?\x00\x00\x00\x00\x00\x00\x00\x00\x00\x00\x00\x00\x00\x00\xf0?\x00\x00\x00\x00\x00\x00\x00\x00\x00\x00\x00\x00\x00\x00\xf0?\x00\x00\x00\x00\x00\x00\x00\x00\x00\x00\x00\x00\x00\x00\xf0?\x00\x00\x00\x00\x00\x00\x00\x00\x00\x00\x00\x00\x00\x00\xf0?\x00\x00\x00\x00\x00\x00\x00\x00\x00\x00\x00\x00\x00\x00\xf0?\x00\x00\x00\x00\x00\x00\x00\x00\x00\x00\x00\x00\x00\x00\xf0?\x00\x00\x00\x00\x00\x00\x00\x00\x00\x00\x00\x00\x00\x00\xf0?\x00\x00\x00\x00\x00\x00\x00\x00\x00\x00\x00\x00\x00\x00\xf0?\x00\x00\x00\x00\x00\x00\x00\x00\x00\x00\x00\x00\x00\x00\xf0?'
p123
tp124
bsg33
g36
sS'trainf'
p125
g0
(cneurolab.core
Trainer
p126
g2
Ntp127
Rp128
(dp129
S'_train_class'
p130
cneurolab.train.spo
TrainCG
p131
sS'__module__'
p132
S'neurolab.train.spo'
p133
sS'params'
p134
(dp135
S'epochs'
p136
I5000
sS'train'
p137
(dp138
S'rr'
p139
I0
ssS'goal'
p140
F2e-05
sS'show'
p141
I500
ssS'defaults'
p142
(dp143
g136
I500
sg137
(dp144
g139
I0
ssg140
F0.01
sg141
I100
ssS'error'
p145
(lp146
cnumpy.core.multiarray
scalar
p147
(g28
S'\x9f\xc1\xa9quA@@'
p148
tp149
Rp150
ag147
(g28
S'T\x80#\xc7Js0@'
p151
tp152
Rp153
ag147
(g28
S'\xe5\x1c!\xad\x90\x1c0@'
p154
tp155
Rp156
ag147
(g28
S'\xf1\x02p\xb0B\xba/@'
p157
tp158
Rp159
ag147
(g28
S'\xba8b,\xb5\xf0,@'
p160
tp161
Rp162
ag147
(g28
S'\x19\xe7(\x13\xa3\n*@'
p163
tp164
Rp165
ag147
(g28
S'\x12\xf4\xbd\xae\xaa\xed(@'
p166
tp167
Rp168
ag147
(g28
S'z\xef\x16\xaf\xa0\x9b(@'
p169
tp170
Rp171
ag147
(g28
S'Fa\xc2\x8e\xae;$@'
p172
tp173
Rp174
ag147
(g28
S'D\x04\xa9\x86\xd0-$@'
p175
tp176
Rp177
ag147
(g28
S'\x96\xf6\xeav\xf5b#@'
p178
tp179
Rp180
ag147
(g28
S';9\x07t\xf9E#@'
p181
tp182
Rp183
ag147
(g28
S'ccc\xf6\xd8I"@'
p184
tp185
Rp186
ag147
(g28
S'\x16\xe3w\xba10"@'
p187
tp188
Rp189
ag147
(g28
S"\x82,\x8e'\x9f\x1e!@"
p190
tp191
Rp192
ag147
(g28
S'?\xca\xc3\x96\x1d\xde @'
p193
tp194
Rp195
ag147
(g28
S'\x94\x1d\xec\xd5\xc1~\x1e@'
p196
tp197
Rp198
ag147
(g28
S'\xe8R\x13"\xf3g\x1e@'
p199
tp200
Rp201
ag147
(g28
S'\xf7\x8bj(\x04\x11\x1e@'
p202
tp203
Rp204
ag147
(g28
S'\xf6h\xaa\xbd\xc1\xa5\x1d@'
p205
tp206
Rp207
ag147
(g28
S'\x07"\xe64\xb8\x9f\x1d@'
p208
tp209
Rp210
ag147
(g28
S'\xad\x16\x859\x03\x13\x1d@'
p211
tp212
Rp213
ag147
(g28
S'\xea\x93\xf9\xceU\x0f\x1d@'
p214
tp215
Rp216
ag147
(g28
S'\xca\x96nzw\xb5\x1c@'
p217
tp218
Rp219
ag147
(g28
S"L\xb2\x05'\xd0\x9b\x1c@"
p220
tp221
Rp222
ag147
(g28
S'\x8f\xad/\x9e\x04\x8c\x1c@'
p223
tp224
Rp225
ag147
(g28
S'\x96\xdf\x14@\xad\x89\x1c@'
p226
tp227
Rp228
ag147
(g28
S'\x8a\x9e\x1c{\x83!\x1c@'
p229
tp230
Rp231
ag147
(g28
S'\x96\xc3\rZ\x8b\x13\x1c@'
p232
tp233
Rp234
ag147
(g28
S'\x8d\\\xd9\x04\x00\xc0\x1b@'
p235
tp236
Rp237
ag147
(g28
S'L\xb6@\xadA\xbe\x1b@'
p238
tp239
Rp240
ag147
(g28
S'\xd0N\xab\x8d%\x91\x1b@'
p241
tp242
Rp243
ag147
(g28
S'\xbc0\x97\xa1\xf6x\x1b@'
p244
tp245
Rp246
ag147
(g28
S'B\x83\x82\xe7ur\x1b@'
p247
tp248
Rp249
ag147
(g28
S'\x94a\xbe\x94\x8cE\x1b@'
p250
tp251
Rp252
ag147
(g28
S'\xe4\xc24\x9b\x8bC\x1b@'
p253
tp254
Rp255
ag147
(g28
S'~i\xb8y\x8e=\x1b@'
p256
tp257
Rp258
ag147
(g28
S'\x0b\xde\x1c8\xf2\xe8\x1a@'
p259
tp260
Rp261
ag147
(g28
S'\x1dh\x1c\x8c\xb0\xe3\x1a@'
p262
tp263
Rp264
ag147
(g28
S'\xbam\xcd\xa3\xad\x93\x1a@'
p265
tp266
Rp267
ag147
(g28
S'twV9s\x92\x1a@'
p268
tp269
Rp270
ag147
(g28
S'\x0f\x82\xa3\xd9V}\x1a@'
p271
tp272
Rp273
ag147
(g28
S'\x8a^Ydm|\x1a@'
p274
tp275
Rp276
ag147
(g28
S'\x96\x7f^\xe3Iv\x1a@'
p277
tp278
Rp279
ag147
(g28
S'\x1fZ\x9df\x8dt\x1a@'
p280
tp281
Rp282
ag147
(g28
S'\xacd\x97\xde\x1bl\x1a@'
p283
tp284
Rp285
ag147
(g28
S'\xda\xab\x8a\xfbDk\x1a@'
p286
tp287
Rp288
ag147
(g28
S'\x07"\xca#d_\x1a@'
p289
tp290
Rp291
ag147
(g28
S'\xa82\xa1m\xb9W\x1a@'
p292
tp293
Rp294
ag147
(g28
S'\xb6\xca\x95\xac\xefM\x1a@'
p295
tp296
Rp297
ag147
(g28
S'\x18\x18T\x16\x82M\x1a@'
p298
tp299
Rp300
ag147
(g28
S'\xfe\xea\xb9\xa2\xb0=\x1a@'
p301
tp302
Rp303
ag147
(g28
S'\x80!w L;\x1a@'
p304
tp305
Rp306
ag147
(g28
S'\x96\x89|\xa0\xa8-\x1a@'
p307
tp308
Rp309
ag147
(g28
S'U\xb8\x19F4,\x1a@'
p310
tp311
Rp312
ag147
(g28
S'x\xae\xd3\x045(\x1a@'
p313
tp314
Rp315
ag147
(g28
S'/\xe2\xd7\xf0\xa8%\x1a@'
p316
tp317
Rp318
ag147
(g28
S'\xca\x18\xb7\xc0\xc9\xec\x19@'
p319
tp320
Rp321
ag147
(g28
S'\x86^\xd8\xc6h\xde\x19@'
p322
tp323
Rp324
ag147
(g28
S'u{\xeaI(;\x19@'
p325
tp326
Rp327
ag147
(g28
S'\x1ft\xb6?\xf74\x19@'
p328
tp329
Rp330
ag147
(g28
S'"Y\x87\xbc\x8c,\x19@'
p331
tp332
Rp333
ag147
(g28
S"\xea!\x12$J'\x19@"
p334
tp335
Rp336
ag147
(g28
S'\x04\x1a\xae\x15\x9e#\x19@'
p337
tp338
Rp339
ag147
(g28
S'\xeb\xc2x\xa9\x83\x16\x19@'
p340
tp341
Rp342
ag147
(g28
S'\xb8\xa5E\xa9\xbf\x15\x19@'
p343
tp344
Rp345
ag147
(g28
S'\xc4\x0e\xe4\xe4\x8b\x01\x19@'
p346
tp347
Rp348
ag147
(g28
S'\xbb\xb0Xl\x08\x01\x19@'
p349
tp350
Rp351
ag147
(g28
S'\xe65\xb1\xc1\x95\xf5\x18@'
p352
tp353
Rp354
ag147
(g28
S'\\@\xdc\xedw\xf5\x18@'
p355
tp356
Rp357
ag147
(g28
S'\xb9=\x01\xab-\xf4\x18@'
p358
tp359
Rp360
ag147
(g28
S'X&\xef\x96\xd7\xf3\x18@'
p361
tp362
Rp363
ag147
(g28
S',q\x9d\x12\xc9\xef\x18@'
p364
tp365
Rp366
ag147
(g28
S'\x82]\x01\xf0\x8e\xef\x18@'
p367
tp368
Rp369
ag147
(g28
S'y\xf7\xc3n7\xe9\x18@'
p370
tp371
Rp372
ag147
(g28
S'\xfeP\xf5\xd6\x97\xe8\x18@'
p373
tp374
Rp375
ag147
(g28
S'\xa6\xa3\xba\xd6\xf4\xe2\x18@'
p376
tp377
Rp378
ag147
(g28
S'\xba3pK\xb5\xe1\x18@'
p379
tp380
Rp381
ag147
(g28
S'\x88p\xb2\xca\xf9\xda\x18@'
p382
tp383
Rp384
ag147
(g28
S'*\x0c\xbfZ\xe2\xda\x18@'
p385
tp386
Rp387
ag147
(g28
S'+^%\x8bo\xd5\x18@'
p388
tp389
Rp390
ag147
(g28
S'\xda\xfe\x903J\xd2\x18@'
p391
tp392
Rp393
ag147
(g28
S'4\xdf!\xb4k\xcb\x18@'
p394
tp395
Rp396
ag147
(g28
S'\xc8\xf6r\xacw\xca\x18@'
p397
tp398
Rp399
ag147
(g28
S'Z\xaf>\x82a\xbc\x18@'
p400
tp401
Rp402
ag147
(g28
S'z#\xbe\x04\xd2\xbb\x18@'
p403
tp404
Rp405
ag147
(g28
S'\xa0\x8d\r~\x1f\x93\x18@'
p406
tp407
Rp408
ag147
(g28
S'\x02\x04\xbdJr\x91\x18@'
p409
tp410
Rp411
ag147
(g28
S'\x04\xbc\xb42TQ\x18@'
p412
tp413
Rp414
ag147
(g28
S'v\xee\xc1\x1fEP\x18@'
p415
tp416
Rp417
ag147
(g28
S'\xb2\xba84\xd90\x18@'
p418
tp419
Rp420
ag147
(g28
S'\xe3\xfdHR\xfa\x1d\x18@'
p421
tp422
Rp423
ag147
(g28
S'\xfc\xf7uqY\x11\x18@'
p424
tp425
Rp426
ag147
(g28
S'RU\r\xc0\x07\n\x18@'
p427
tp428
Rp429
ag147
(g28
S'T\xcb\xaf\xfc\xb0\xd9\x17@'
p430
tp431
Rp432
ag147
(g28
S'\x85\xf4\xca\x06\x1b\xd9\x17@'
p433
tp434
Rp435
ag147
(g28
S'5\xec\xbd\x0fF\xb8\x17@'
p436
tp437
Rp438
ag147
(g28
S'>\x01\xbc\x0c\x8c\xb7\x17@'
p439
tp440
Rp441
ag147
(g28
S'\x85O3\x9e\xba\xaa\x17@'
p442
tp443
Rp444
ag147
(g28
S'z\xc1;\x06O\xa7\x17@'
p445
tp446
Rp447
ag147
(g28
S"o\x85,'\xbb\xa2\x17@"
p448
tp449
Rp450
ag147
(g28
S'`\x10\x13\xafu\xa2\x17@'
p451
tp452
Rp453
ag147
(g28
S'\x9ff\xdbj\x99\x9e\x17@'
p454
tp455
Rp456
ag147
(g28
S'M\xdb\xdb\x03D\x9d\x17@'
p457
tp458
Rp459
ag147
(g28
S'r}u\xc7\xe9\x98\x17@'
p460
tp461
Rp462
ag147
(g28
S'\xe2\xd7\xf9\x1e\x9b\x86\x17@'
p463
tp464
Rp465
ag147
(g28
S'\xe8bv8\x8c\x85\x17@'
p466
tp467
Rp468
ag147
(g28
S'b9l?}~\x17@'
p469
tp470
Rp471
ag147
(g28
S'\xda\xbd\xc5\x8f\xc4|\x17@'
p472
tp473
Rp474
ag147
(g28
S'\xadj\x1a\xealu\x17@'
p475
tp476
Rp477
ag147
(g28
S'\xe8\x1d\xe2\xf5Ps\x17@'
p478
tp479
Rp480
ag147
(g28
S'\xcaB\xa8\xb7ip\x17@'
p481
tp482
Rp483
ag147
(g28
S'f\x01\xe7I]p\x17@'
p484
tp485
Rp486
ag147
(g28
S'\x99\xab\xd6\xcb\x9dl\x17@'
p487
tp488
Rp489
ag147
(g28
S'\xa0\xbe-\xd2\x99k\x17@'
p490
tp491
Rp492
ag147
(g28
S'o\x069\x00\xeaf\x17@'
p493
tp494
Rp495
ag147
(g28
S'a\x91\x9e\xa1\xc5f\x17@'
p496
tp497
Rp498
ag147
(g28
S'\xd0D\xd5\t\xa8_\x17@'
p499
tp500
Rp501
ag147
(g28
S'\xf4)\xc1?\xce]\x17@'
p502
tp503
Rp504
ag147
(g28
S'\xc2\xcc \xae\\U\x17@'
p505
tp506
Rp507
ag147
(g28
S'\xe2\t\x03\xad\x06U\x17@'
p508
tp509
Rp510
ag147
(g28
S'\x91B\xc7;\xbbS\x17@'
p511
tp512
Rp513
ag147
(g28
S'\xc6\x16`\xf7bS\x17@'
p514
tp515
Rp516
ag147
(g28
S'ff\x7f\x02OR\x17@'
p517
tp518
Rp519
ag147
(g28
S'\xbe\\\x00h\xe1Q\x17@'
p520
tp521
Rp522
ag147
(g28
S'\xfa\x98\xdb \xbbP\x17@'
p523
tp524
Rp525
ag147
(g28
S'&;>?9P\x17@'
p526
tp527
Rp528
ag147
(g28
S'\xc4\xa0\tx\x14O\x17@'
p529
tp530
Rp531
ag147
(g28
S'\xa9\xaa\x0e\xe2yN\x17@'
p532
tp533
Rp534
ag147
(g28
S'\xb6C\xa7\xdc\\M\x17@'
p535
tp536
Rp537
ag147
(g28
S'd\x98\x100\x9eL\x17@'
p538
tp539
Rp540
ag147
(g28
S'Z\xaa\xc6_\x9fK\x17@'
p541
tp542
Rp543
ag147
(g28
S'\xb5"\x92J\xf9G\x17@'
p544
tp545
Rp546
ag147
(g28
S'4FM\xac\xcc<\x17@'
p547
tp548
Rp549
ag147
(g28
S'&|\x90\r9<\x17@'
p550
tp551
Rp552
ag147
(g28
S":\xcc'\xd5\xa8\x18\x17@"
p553
tp554
Rp555
ag147
(g28
S'\xc5\x87`\xaf\xed\x17\x17@'
p556
tp557
Rp558
ag147
(g28
S'\xc8\xacE\xe5\xfb\xee\x16@'
p559
tp560
Rp561
ag147
(g28
S'yPH\x1c\xde\xed\x16@'
p562
tp563
Rp564
ag147
(g28
S'\xc1\xba\x1d\x9f\xd9\xdd\x16@'
p565
tp566
Rp567
ag147
(g28
S'\x0e\xa2\xa5v2\xdd\x16@'
p568
tp569
Rp570
ag147
(g28
S'%\xce\x1ft\xaf\xd4\x16@'
p571
tp572
Rp573
ag147
(g28
S'\xda4\x08<z\xd4\x16@'
p574
tp575
Rp576
ag147
(g28
S'l\xfa\xdb}\xde\xcf\x16@'
p577
tp578
Rp579
ag147
(g28
S'^\xcei3\xc0\xcf\x16@'
p580
tp581
Rp582
ag147
(g28
S'V\xc8\xf0&|\xcb\x16@'
p583
tp584
Rp585
ag147
(g28
S'\x02\xfb\xc4\xcd2\xcb\x16@'
p586
tp587
Rp588
ag147
(g28
S'"\xda\xebzE\xbf\x16@'
p589
tp590
Rp591
ag147
(g28
S'V\x06zC\xa2\xbe\x16@'
p592
tp593
Rp594
ag147
(g28
S'\x15j\xc0\xf9\x97\xb5\x16@'
p595
tp596
Rp597
ag147
(g28
S'\x02a\x03;J\xb1\x16@'
p598
tp599
Rp600
ag147
(g28
S'\xc5\xa9^J\x8b\xae\x16@'
p601
tp602
Rp603
asS'__name__'
p604
S'TrainCG'
p605
sS'__doc__'
p606
S'\n    Newton-CG method\n    Using scipy.optimize.fmin_ncg\n\n    :Support networks:\n        newff (multi-layers perceptron)\n    :Parameters:\n        input: array like (l x net.ci)\n            train input patterns\n        target: array like (l x net.co)\n            train target patterns\n        epochs: int (default 500)\n            Number of train epochs\n        show: int (default 100)\n            Print period\n        goal: float (default 0.01)\n            The goal of train\n        rr float (defaults 0.0)\n            Regularization ratio\n            Must be between {0, 1}\n        \n    '
p607
sbsS'connect'
p608
(lp609
(lp610
I-1
aa(lp611
I0
aa(lp612
I1
aasS'errorf'
p613
(ineurolab.error
SSE
p614
(dp615
bsg65
g18
(g19
(I0
tp616
g21
tp617
Rp618
(I1
(I1
I2
tp619
g28
I00
S'\x00\x00\x00\x00\x00\x00\xf0\xbf\x00\x00\x00\x00\x00\x00\xf0?'
p620
tp621
bsg72
g115
sb.