ccopy_reg
_reconstructor
p0
(cneurolab.core
Net
p1
c__builtin__
object
p2
Ntp3
Rp4
(dp5
S'layers'
p6
(lp7
g0
(cneurolab.layer
Perceptron
p8
g2
Ntp9
Rp10
(dp11
S'initf'
p12
cneurolab.init
initnw
p13
sS'ci'
p14
I46
sS'co'
p15
I55
sS'cn'
p16
I55
sS'inp_minmax'
p17
cnumpy.core.multiarray
_reconstruct
p18
(cnumpy
ndarray
p19
(I0
tp20
S'b'
p21
tp22
Rp23
(I1
(I46
I2
tp24
cnumpy
dtype
p25
(S'f8'
p26
I0
I1
tp27
Rp28
(I3
S'<'
p29
NNNI-1
I-1
I0
tp30
bI00
S'\x00\x00\x00\x00\x00\x00\x00\x00\x00\x00\x00\x00\x00\x00\xf0?\x00\x00\x00\x00\x00\x00\x00\x00\x00\x00\x00\x00\x00\x00\xf0?\x00\x00\x00\x00\x00\x00\x00\x00\x00\x00\x00\x00\x00\x00\xf0?\x00\x00\x00\x00\x00\x00\x00\x00\x00\x00\x00\x00\x00\x00\xf0?\x00\x00\x00\x00\x00\x00\x00\x00\x00\x00\x00\x00\x00\x00\xf0?\x00\x00\x00\x00\x00\x00\x00\x00\x00\x00\x00\x00\x00\x00\xf0?\x00\x00\x00\x00\x00\x00\x00\x00\x00\x00\x00\x00\x00\x00\xf0?\x00\x00\x00\x00\x00\x00\x00\x00\x00\x00\x00\x00\x00\x00\xf0?\x00\x00\x00\x00\x00\x00\x00\x00\x00\x00\x00\x00\x00\x00\xf0?\x00\x00\x00\x00\x00\x00\x00\x00\x00\x00\x00\x00\x00\x00\xf0?\x00\x00\x00\x00\x00\x00\x00\x00\x00\x00\x00\x00\x00\x00\xf0?\x00\x00\x00\x00\x00\x00\x00\x00\x00\x00\x00\x00\x00\x00\xf0?\x00\x00\x00\x00\x00\x00\x00\x00\x00\x00\x00\x00\x00\x00\xf0?\x00\x00\x00\x00\x00\x00\x00\x00\x00\x00\x00\x00\x00\x00\xf0?\x00\x00\x00\x00\x00\x00\x00\x00\x00\x00\x00\x00\x00\x00\xf0?\x00\x00\x00\x00\x00\x00\x00\x00\x00\x00\x00\x00\x00\x00\xf0?\x00\x00\x00\x00\x00\x00\x00\x00\x00\x00\x00\x00\x00\x00\xf0?\x00\x00\x00\x00\x00\x00\x00\x00\x00\x00\x00\x00\x00\x00\xf0?\x00\x00\x00\x00\x00\x00\x00\x00\x00\x00\x00\x00\x00\x00\xf0?\x00\x00\x00\x00\x00\x00\x00\x00\x00\x00\x00\x00\x00\x00\xf0?\x00\x00\x00\x00\x00\x00\x00\x00\x00\x00\x00\x00\x00\x00\xf0?\x00\x00\x00\x00\x00\x00\x00\x00\x00\x00\x00\x00\x00\x00\xf0?\x00\x00\x00\x00\x00\x00\x00\x00\x00\x00\x00\x00\x00\x00\xf0?\x00\x00\x00\x00\x00\x00\x00\x00\x00\x00\x00\x00\x00\x00\xf0?\x00\x00\x00\x00\x00\x00\x00\x00\x00\x00\x00\x00\x00\x00\xf0?\x00\x00\x00\x00\x00\x00\x00\x00\x00\x00\x00\x00\x00\x00\xf0?\x00\x00\x00\x00\x00\x00\x00\x00\x00\x00\x00\x00\x00\x00\xf0?\x00\x00\x00\x00\x00\x00\x00\x00\x00\x00\x00\x00\x00\x00\xf0?\x00\x00\x00\x00\x00\x00\x00\x00\x00\x00\x00\x00\x00\x00\xf0?\x00\x00\x00\x00\x00\x00\x00\x00\x00\x00\x00\x00\x00\x00\xf0?\x00\x00\x00\x00\x00\x00\x00\x00\x00\x00\x00\x00\x00\x00\xf0?\x00\x00\x00\x00\x00\x00\x00\x00\x00\x00\x00\x00\x00\x00\xf0?\x00\x00\x00\x00\x00\x00\x00\x00\x00\x00\x00\x00\x00\x00\xf0?\x00\x00\x00\x00\x00\x00\x00\x00\x00\x00\x00\x00\x00\x00\xf0?\x00\x00\x00\x00\x00\x00\x00\x00\x00\x00\x00\x00\x00\x00\xf0?\x00\x00\x00\x00\x00\x00\x00\x00\x00\x00\x00\x00\x00\x00\xf0?\x00\x00\x00\x00\x00\x00\x00\x00\x00\x00\x00\x00\x00\x00\xf0?\x00\x00\x00\x00\x00\x00\x00\x00\x00\x00\x00\x00\x00\x00\xf0?\x00\x00\x00\x00\x00\x00\x00\x00\x00\x00\x00\x00\x00\x00\xf0?\x00\x00\x00\x00\x00\x00\x00\x00\x00\x00\x00\x00\x00\x00\xf0?\x00\x00\x00\x00\x00\x00\x00\x00\x00\x00\x00\x00\x00\x00\xf0?\x00\x00\x00\x00\x00\x00\x00\x00\x00\x00\x00\x00\x00\x00\xf0?\x00\x00\x00\x00\x00\x00\x00\x00\x00\x00\x00\x00\x00\x00\xf0?\x00\x00\x00\x00\x00\x00\x00\x00\x00\x00\x00\x00\x00\x00\xf0?\x00\x00\x00\x00\x00\x00\x00\x00\x00\x00\x00\x00\x00\x00\xf0?\x00\x00\x00\x00\x00\x00\x00\x00\x00\x00\x00\x00\x00\x00\xf0?'
p31
tp32
bsS'inp'
p33
g18
(g19
(I0
tp34
g21
tp35
Rp36
(I1
(I46
tp37
g28
I00
S"\xbb3z\xa9~N\xd8?!\xe6B\xab\xc0\xd8\xd3?:\x1f\x83\xf318\xcf?\x7fNX\xc3;\xa3\xc7?\xa8<\xc4\\h\x15\xb8?i6\xdd\xf8\xf7\xd6\xb1?\xc5}-\x93E\x0e\xb0?\x04\x84\x14\xf7\xb5L\xc6?\xfb\x18\x9c\x8f\xc1\xf9\xc8?\x04\x84\x14\xf7\xb5L\xb6?\x18Z\x05\xc6\x9e\xf2\xb0?\xb1\xa7<\xc4\\h\xc5?\x9d\xd1K\xf5s\xc2\xaa?\xf9\x18\x9c\x8f\xc1\xf9\xb8?\x9e\xd1K\xf5s\xc2\xba?\x7fNX\xc3;\xa3\xc7?u\xe3\xdf[GP\xca?\xdb\xb6m\xdb\xb6m\xdb?\xeek\x99,r\x80\xe0?\x7fNX\xc3;\xa3\xc7?\xf9\xf7\xd6\x11\x94f\xd3?U?'\xac\xe1\x9d\xd1?\xf0\xad#(\xcd\xa6\xcb?lxg\xf4R\xfd\xcc?L\xf5s\xc2\x1a\xde\xc9?\xf9\x18\x9c\x8f\xc1\xf9\x98?i6\xdd\xf8\xf7\xd6\xb1?\xd1*0\xf6\x94\x87\xc8?7\xdd\xf8\xf7\xd6\x11\xc4?\xb1\xa7<\xc4\\h\xc5?\xda\x95\xa8]\x89\xda\xd5?\xee\x8c^\xaa\x9f\x13\xd6?_\xcbd\x91\x03\x84\xd4?\xfb\x18\x9c\x8f\xc1\xf9\xa8?\r\xef\x8c^\xaa\x9f\xa3?\x0e\xef\x8c^\xaa\x9f\xc3?\xbb\x12\xb5+Q\xbb\xb2?\x04\x84\x14\xf7\xb5L\xb6?\x0e\xef\x8c^\xaa\x9f\xc3?8\x1f\x83\xf318\xbf?\xbb\x12\xb5+Q\xbb\xb2?\x9e\xd1K\xf5s\xc2\xca?\xa6\x1b\xff\xde:\x82\xd2?\xda\x95\xa8]\x89\xda\xd5?B\x8a\xfbZ&\x8b\xcc?L\xf5s\xc2\x1a\xde\xc9?"
p38
tp39
bsS's'
p40
g18
(g19
(I0
tp41
g21
tp42
Rp43
(I1
(I55
tp44
g28
I00
S'\x06\xfc\x92\x14\x82\xee\xf3\xbfz\x92\xea\xe9\xec\xe2\xdf?\xab\xd7\xa9x\x83D\xff?\xd5{\xa5\x81\\\x1a\x10\xc0\x85]\x15\xb9\xa0\xaf\xea\xbf_\x15\xca\xbb\xb2\xe7\xf0?h:m\xee]\x00\xf0?\xad\x95\x1ei\xac~\x16\xc0R(Z\xee\x90\x7f\x02@\xb8\xb7\x89\x88\xafA\x05\xc0\xfe\x99\xe5\x8a\xebj\x05\xc0\x1a\xeac\xff\x8cH\x0e\xc0\x87\xd8ifs\xe9\t@\xe7jl_\xce8\xf3\xbf\nqSP\x80\r\x10@\x0c\xa8\x98\x19\x8dZ\xf8\xbf\x96\xd5\xcd1\x10\xbc\xf5\xbf10\x07\xb0\xa9]\xf6?\x86\x8a\x87O_x\xe2?\x96Q\xc7\xb6<t\x08\xc0\tXr\xfbJZ\xd1?\x19\x05\x1f1\xdc\x9a\xef\xbf\xb1g\xf2K\x89\x16\x16\xc0\xa8*79Oq\x07\xc0\\\xab\xb4N>\xc6\xbf\xbf\xf8\xf8\xd1C\x81"\xfb\xbf\xc4[K\xe5\xe8\xd1\x02\xc0+\xe1}dk\x17\x0e\xc0\x7f\xb5\xa9BC\xb7\x0e\xc0\x9b~\xe10\x10\x18\xd2\xbf@\x7f\xca\xb0\xb0\n\xfc\xbf\xde\xb4\x158\xf4\xbe\xc4\xbf&\xfe\x03\xdd\x18\xde\xf0?\xa4 \'\xd5\xed\x98\x06@\x98\xe0D\x8f\x18\x16\x00@\xb4,]65!\x06\xc0&G@\xbb\x85\xab\x0f\xc0v/\x01Ud\xf8\xe1?\xdeWn\xc3\x08\x07\xe5\xbf\xcf]\x92\xe0"(\x15\xc0\xe4\xb7\x01F+D\xfd\xbf\xe4)G0\x8d\x94\xee\xbf\x8a\xe5\x05\xe1\x89\xa6\x0e@\xbf7e|7\xf4\xfd?h0\x06\xdc\x91\xd9\x12\xc0\xb5\xa9\xe7\xb9\xd8~\x15@\x8cM*\xdclK\x04@\xb0G9\x92\x83\x1f\x13@\x9f\x1cX\x853 \t@\xe0\xcf8\x1a9\xf5\x00@C\xcb4\xff\xc9N\xd3\xbf\xc8:#j\x87\xd7\xf6?\xf7\xe1\xa2\x83\xe4\xc5\x16\xc0!\xd3\xf5\x11\x9dz\x13@\xe4\xeb]>\xe3\x0b\xd3\xbf'
p45
tp46
bsS'np'
p47
(dp48
g21
g18
(g19
(I0
tp49
g21
tp50
Rp51
(I1
(I55
tp52
g28
I00
S"\xd6\x08'e\xdbe\xe9\xbf+k\x9fe\x97k\xf3?\xe86v\xea2\xe0\x01@{\x14\x02H\xf5\xcb\x10\xc0\x1a\xaa\x841\x9e$\xe3\xbf\xf7\r\xfd\xfa\x18Y\xf7?\xa7\xc6g\x85\x03\x1d\xfc?&*FvF;\x18\xc0i\xc3\xda\xe9~\xc0\x06@\xfei\xc8\xa5\xfe[\x08\xc0\xf9s\xca=\x15_\x06\xc0\x05\x94\x9a2\xb2\xc9\x10\xc0\xcc? Bt\x84\x0c@\xf2\xdel\x15be\xf9\xbfC\xd1\xc1\xeenl\x14@\xffE\xaf,\x81\x0f\x03\xc0\xa9\xed!;\x0f1\xf2\xbf\xb8\xd5\xf4p\xf5\x1b\xfd?\xcb\x89GT\x89\r\xf4?/\xc9\x96.v\xc0\x10\xc0\x85Z\xd7>\xd3:\xd3?L\xc9\x9ado\xed\xf7\xbf\x1b`\x8c\x86\x16\xc3\x1c\xc0\t\xe4,v\x94:\x05\xc0\x99K\xb7\xeb\xe9T\xd0\xbf\x80\xedm\xf8\x14\x9b\xff\xbf\xa4_.\x84\xad.\x06\xc0\xa6\x01\xb1\x85u\xd6\x0e\xc0/\xe2n\x8a\xe4~\x10\xc0\xddB\xcf\x99\xcaY\xd9?\xb1\xe5\x81\x1e\xc1\xbf\xf5\xbf\xed\xf3\x02P\x04\xb9\xc1\xbfW\xcd3T\x81\xd0\xf7?5?U\xf8Y\x89\t@\x0e\\\xe7\x0ey\xeb\xfe?p\xe7\xaflS\xe5\x05\xc0'\x8a\x11\xb8j8\x16\xc0+qt\xa1\xc8\xb4\xe0?\xdb\xe6\xc7\x03Q{\xdf\xbf;\x1a\xc3\\)u\x17\xc0\x01\xa5\x8f\xc7u\xf0\x03\xc0\x9d\x1e\x07;[\xe3\xf2\xbfM\xed-Z\xefw\x13@\x91\xde/\\\xf1\xfa\x01@\xff\xdb\x8e\xaby\xc8\x15\xc0\xd06\xfe-\xfa<\x18@\xb7l\xcc\x16\x07\xd8\x02@_2\xb3/\x17\x90\x13@\x931\x91\xd9\xb0\x97\r@V/2S\xe3\xc9\x05@\x01W\xa8vW\xe9\xd0?W\xa9\xafi\xab\x87\xf3?\xbd'Ts\xa4U\x19\xc0\x8e8\xa1\x16\xba\x8b\x19@:]v\xbf\x18\xf6\xfb\xbf"
p53
tp54
bsS'w'
p55
g18
(g19
(I0
tp56
g21
tp57
Rp58
(I1
(I55
I46
tp59
g28
I00
S'u$\x8c\xcaG?\xe6?\xc4\xba\xa7+G\xc2\xbe?\x17&hn\xc00\xea\xbf\xcc9Z]\xe5,\xda\xbf\x17\xe1P\xf8\x08\xb5\xcc?Q\xf3=\xbc\xdd\xbd\xbf?}\xc9r\xe4\x15\xe6\xd0?\xc6-\xc9|TL\xda?\xc2\n,O\x95"\xdd\xbf\x9am\xab\x1a)V\x8d\xbf\xc2\x16\x11P\xd2\xa3\xdb\xbf\xe14\x10)V|\xe8?9\xc3\xeb6+\x07\xe0\xbf*\x95,\xb4\x92\xc4\xd5?\x0b~;<3\xcf\xe1?Zg\xee-\x86\xa9\xdd?\x08s\xb00\xf9]\xe7\xbf\x89\x7f\xbb\x08\x91\xd2\xd8?:\x13\xcc-\x04\x9f\xdd\xbf\x97\xae\xf8=\xf6W\xbe\xbf3\x91\xe0n^G\xb5\xbf\xf0\x06\xdd\xa3\x80\x88\xa2?\x80\xf8`\x01\xa5\xfe\xa1?\xfe\xdc\x94Z\x07E\xe9\xbf\x9f\xa1\xd3_o\r\xe1\xbfU\xb7\xc4\xa5^\xfc\xe3?\x99\x0e\x9c\x9e\x86\xbb\xde?|\xe7\x89\x98\tD\xd1\xbfPg\xa2+\x94c\xe9\xbfJ2\x92S\xc9\xe5\xe5\xbf\xd8\xbb\x9ex\x85\xaa\xd5?\xe7\xe2\xbc4M/\xd0?+\xb4\xfa\xbd\xfb\x85\xe0\xbf\xc2(\xc7\x99\xf4\xe7\xdb?\x98\xaa\x9dD\x8c\xc6\xd0\xbf3N\x89\xff\xf5\x97\xdd?\xb9\x02\xb5\xc1K\xf1\xc8?I\x91\x84y?\xab\x96?I\xbc\x8b\xb8\xee\xa2\xe0\xbf\xe3\xa7t\xa6\xdfy\xe3\xbf\x1cm>\xb8\x0e\x98\xc4?\ngn1\x07$\xbc\xbfo\x9bc#{\xe9\xdb?\x93\x16\xd3_\x8f[\xcd?x\x9e&-.\xe0\xd5\xbf\xd7\x01\xdf\xfdN\x8d\xd7\xbf\xa0<#\x99\x9by\xc5?i\xcb\xae\x16\xa4f\xab?\x9e\xe5\x04\xae\x91\x8f\xd7?S\x93\xff>\xd3\x8c\x83?7\xa5R\x9b6\xc4\xd4?\x1c\xb8\x14\xaf@}\xdf?\x16\x07\x85m\xf1f\xe1\xbf/N2t\xf0c\xa2?\x12Q\xa0Y\x05\xb0\xe5\xbfm=\xd8@\x0e\x99\xe2\xbf\xf2m\x95\xe2\xa6\x1d\xc3\xbf\xf7\xa2w\xe7]\xb7\xe5?\xe3\xda\x1e\x8171\xc8\xbf\\\x96qlQ\'\xd0?\x02\xf3Ia\x8c\xd5\xe3\xbf\x01F&\x12\xee\xf9\xdb\xbf\t\xaf\x9f\xd2\'\x8f\xe7\xbfa\x8e\xdb\xd1)b\xca?\xff:\x8b\x8a3\xea\xd9\xbf\xa4\xc5\x91\x8dV\xe9\xb6?\x8e\xefqg\x03\xa3\xdf\xbf_\xdb\xff\xafK\x1a\xd6\xbf/\\\xe3\x1e\x02\x92\xe1\xbf\xc6\xc9\x0c\x84\x05\xd3\xe6\xbf\x000\xb5w\x12\'\xe9\xbf\x89U\xfe\xda\x1d|\xc7\xbfq\x8d\x85\xee\xf0\x11\xd3?\xdd\x91\x9b\xf8\x1f\x97\xe3?\xf6"\'\x9a\xf5\xc8\xd0\xbfM\x11\xfe\xf3&\xfd\xd6?\x92\x80Zq\x9c\xfc\xc5\xbfLl\x88\xdb\x01\x88\xc3\xbf\xa3\x98r\xe0\x913\xde\xbf)\x105\xe0\xaf\x1a\xd3?j\x0eDy\xdf\xd5\xe7?\r\xde\xff\xb7\x9a\x81\x93\xbf\n\xc2\x8c\xc2(\x11f?\xb2\x0e-=\x85N\xe8\xbf\x9f5\x91\xd1\x1d\xd8\xd3\xbf]\xf8L@5\xa5\xe0?HJ\xec\x04\xa8/\xe8?\xcd\xdf\xfbbOb\xde?\x11_\xe3\xfd=[\xe5?\n\xe0n\x06*J\xcb?\xfe\xe8\x8a\xf5\xac\xf6\xbe\xbf\x7f\xb9\xca\x8a\t\xd2\xce\xbf_\xdaP\xa5\xfa\x03\xdc\xbf\xf0I\xc3|8\xaf\xb2?\xaa\x9f\xe0\xc0\xe9\\\xdd?\xc1\xa5\xfa\xe9D\xd7\xca?\xdfP|\xe1t\x1e\xda?\x03\x7f\xe5\xeej\xa6\xd2\xbf)\x9a\xc3\xc4\xd0\xae\xbe\xbf\xcb1\x8e\x08Q\x91\xe0\xbf\xd5\xa4p\xdbo9\xbb\xbf\xe5\xb9\xe8\r\xd8G\xe5?\x9a\x90\xcbL\xe4/\xd6?\xe7\xa0#\xd7 \xf1\xdc\xbf\xd7$(N;\x13\xe0\xbf\xb3\xe3V\x11\x04\x98\xd4\xbf\x9b\xb5\x86\xe0\x85@\xe7?\x9ag`j\xce\xc7\xe4?\x9d+7\xc6K%\xdf\xbf\xce\xe2\t\x8a\x1a\xcc\xe4?z\x18$i$u\xd2\xbfR_\xa4\x14\xae\xc6\xe2\xbf\x9f\xda \xa4\x15c\xd8\xbf\xc7\x11\\\xf5\x89\xe2\x9c?-[\xd7\xfe\xe4\xf1\xdd?\x15kS\xe6\x89X\xdd?G\xc1Ff\xfb\xd6\xe1\xbf\x02\x19\xf3\x16\x07\xcc\xd2?\x95\xe0\xb4\x8a\xc0\x1d\xe0\xbf\x1b\x8f\xe3Ks\xfd\xe0\xbfb9\x1b|\xfe\xea\xe1\xbf\xe4h\x1d\xba\xcdv\xe2?b~\x06.K\xa0\xdf\xbf\xf2\x08\xf5\x90\xe9\xb8\xe2\xbf\xa0C\xe8]M\x01\xe4\xbf\xf9\xa4\'\xc5G\x8f\xd3?\xa1P\xc8uH_\xe1?\xac\xef\xf2\x0f\x13\xd8\xce?\x87\x9c\x93\x160{\xd3\xbf\x12\xf7\xc7\xac-2\xdd\xbf`\xf6\x8d\'7\x9f\xd1?\xef\xf8\x1f\x1e\xca\xec\xc2\xbf\xaf\xf7\x84\xc2\xd7\xda\xc5\xbfP;$\x0c$\x1b\xe7?\xc9\xcf\x8d=8\xf3\xb3\xbf\x8e\xe3\x03Z/\xe9\xe0?\xdb\xd5\x04i<\xb2\xb5?6\x98\xb4\xb8a\xb6\xe0?>\xf0\x9c\x8a\xf3\xad\xd9?|\xe11}\x9fv\xea?\xeb\xfe\x94&1Z\xea\xbf\xe3\xf7\xc1\xe3\xd8\xb5\xd1?\xa9y3\xed`\xd6\xd0?\x89\xf3\x19\x92\xba8\xe4?\x04T\x06NK:\xd5\xbf\xa6I\r\xedIa\xd0\xbf\xb0zWdf\x8e\xb2?y\x1f\xc4J\xa8<\xc5?\x9b\xca\x1b\xfa\x9bf\xe4?\x06\xcb\xad\x83\xe2\xd4\xc7?W\xc8\xacQ\x12\x94\xdc?<\xe9\xebj\xc8\xae\xaf?EA\xb6_\x07\\\xad?K\xc1\x83\xf7\x93{\xe5?\x10\xdf\xa6$\x1cK\xe0?\xd1\x1b"O\xe8F\xe2\xbf\x8b\x05\xb1\x8f\xf1\x1a\xd8\xbf\xeb\xa4\x01\x19Z\xbd\xd4\xbf\xda\xbe{\x17\xce\xbf\xc6?\xd1\xf8Zd?\xdf\xde?c,\x98\x03\xc5\x87\xe0?\xb6+b\xf8{>\xd1?{\xcb\xfe\x93=!\xe3\xbf`&\xb0\xaf\x7f\x9d\xd8?\xc1B4\xe9\xdeN\xa3?\xea\xc1:\xc5\xa9\x84\xe7\xbf\xa8$\xdb\xb2b\x0c\xd3?\xed\xb4M\xcd\x06\xccx\xbfWV\xfd\xd3\xdd\x93\xe4?\x1f\x9b\xb1\xe1\xce\x83\xe7\xbf:\x0b\x8e\xecvc\xca\xbf\x9aV\xd8vf\'\xb5\xbfH\xc1~\xe9\xb3e\xe4?Q\xfe\xd0\x8c0\xd6\xbe?w\xd1\x85\x0f\x03\xf2\xe5\xbfF:s$\x02\xe8\xd5\xbf\xce\x1f\x8cU\x9a\x19\xbc?\xe6\xc8%\xea\xa4d\xb3?2\x8aB\xeb,s\xd3?I\xe1~\x1d\xce`\xb7?\x14\xd0\x01\x03\xfe\x94\xe1\xbfL \xa0\xbcN\x13\xe8?M\x89\xa58\xa53\xa9\xbf\x7f\xc3\xea\xf2f\xc0\xe3\xbf\x04\xe5\xfbK_2\xe0\xbf\xfc\x18\xca\xf2\x12i\xe4\xbfJ\x99\xaa\xd2\xf2\xa8\xe5\xbfu\xf9\x00\xad\x1c]\xd3\xbf\x9e\xa3\xae\x85\xfd\xf2\xe7\xbf\xd1u\xc8\xe8\xb6\xaf\xe7?1\x7f]\x9fp\xb3\xdf\xbf\x9a\xe3\xff\x97\x02\xbb\x99?\x0f\xc4@\xd9\xf9\xce\xdd\xbf\xffo\xa3\xf3\xdb\x95\xdb?\xe5a=\x0baa\xcc?6\xcb\xc2\xfb\xf0T\xc3?\xc7M\xdcV\xd4\x15\xe4?\xa8Vm\x0f\xd4F\xb0?\xc9\x07/\xed\x11\x91\xc5?\xaf\x1e\x7f9\x9aX\xd4?n\x8eVf_\x9c\xb2\xbf\xa1d~c\xe5\x92\xe3?e}k\xf7^\xa6\xc1?~\x83,~\xca\xbd\xe0?\xad\n\r}15\xc9?\xe7N\xe9\x94\x11\xa4\xe0\xbf\xb3\x86\xdc\xa5Y\x9f\xd7?\x8c\x86H\xecL\x10\xbd?\x92\x82\x84\xd0\xd4\x1c\xe6\xbf,O\xaf\x1f\x1b\xd3\xbb\xbf\xb2\xc1\x06\xf8\xec\x0e\xc7\xbf\x92\xd3\xcd\xe4\x8c\x18\xe4?g\xc2\xcc\xfcTl\xd6\xbf?f M\xd7\x1a\xd7?\xe1+.\x160\x80\xe5\xbf\xb5_\r\xb2\x19\xb7\xd9\xbf\xc6\x8c:E#H\xc0\xbf\x15PV$\xc2(\xd2?\x9a\xde\xe2\xf3\xa5k\xd0?\xb0\x11\xc5\x19\xad1\xe1?\xe6W^\xf7w\xd8\xe6?\xd3\xdbGlD\xbc\xd2?j\x01\xf6\\\xf8\x14\xe6?\xfa\x8a\x99\x1a\xa2\xb9\xdb?\xc8c\xca\x85\xb9\x1ab?V\xbe\xe7\x19\x8d6\xda?q\xdab\xac\x01\xd2\xde?Q&N\x92%\xf1\xda\xbf\xff\xc6\x7f\xfeU\x95\xe5\xbf\'\x81\xdam}o\xcd?u\xf1\xf2\n8\xd0\xe0?<\xfdX2_\xb0\xd6\xbf\x1eL\x8e\x85\xde\x11\xb4? |\xcbU\x99\xa2\xb4?4\'3\r\xf4\n\xd4?\x1cQ\xbe\x1b?\xae\xae?eb\x86\xb1\xa2\x98\xdd\xbf<)\xe0M\xbc,\xda\xbf\x0cz\xb3\xd9Uy\xb6?\xfc\r5R\t\xc5\xa4?[\xbc,\'M\x9b\xe2?dY<\xca\x17\x18\x88\xbf\xf2:Q\x8ewp\xea?\x1d\xbc\x13=\xd9\xc0\xd0\xbfRn\xe9\x0fP\xeb\xd7?\xb8\xb5Ca.\xd4`?o0\x10\xad\x82b\xb5\xbf\xea\x8d+\x91\xf2\x0c\xe1\xbf2\x85:\x84q8\xe5?\xaf\xde\x95\xa4\x0b@\xca\xbfl\x8e\xe9sa\xa3\xe5\xbf\x8f\x84\x01\xd1\xf8\x1a\xe9\xbf\xfd\x10\xca\xff\xed=\xc1\xbf\x1c\x1d\x00S\x1c\x07\xe4\xbf\x81\x8d\x80\xd5F9\xe4?l\xf5\xbc(\x08A\xdc?\xf7\xe0\x8b8HQ\xe1?\xaa\x12e\x13C`\xd6\xbf~\xaa\xce\x88[@\xea\xbfM\x1fq)\x8bL\x95\xbf\xc8\r\r\xc9\xde}\xcb\xbf\xdc\xd4\xdf\x95U\x81\xb4?\x02\xdfK\xac\x7fv\xae?\xd7\xffB\xfba\x1c\xb0\xbf\x17W\x02.\xbe\xd5\xe3\xbf\x81\x00\xbax\xd5\x89\xe0\xbf.J\x01\x01\x0c\xa7\xe3\xbf7\x068d\x91R\x9a?\xa9\xa7\xee\xb4\xd1\\\xe4\xbf\xea7\xf9\x91*k\xc5?\x05\x13\xc2(\xa8\xa2\xbf?-\x92\x14Hmx\xb4\xbf61\xc9H"\xca\xe7?\n\x0c\x87\x9c\xea\xf8\xe4?\x92&\x8b\xe9J\xee\xe8\xbf\xe1umW\xeb\xba\xbc\xbfh\x87"\\\x95C\xe9?p\xba\xd1\r\x03H\xc5?\xe4\x04\x8dc\xb4\x18\xc8\xbf\xfe\xd3N{J\x91\xc2?\x8a\xc0\x11X"\\\x9c?\x9eP,\xb7\x9c5\xe5?\xe5\xf8\xc4\x9d\xc7\n\xab?@$\xa2F\xc3\xba\xc7?\xed\x85\xda\xd2RZ\xd7\xbf\xe2\x1d\xb7~J\x92\xe3\xbf\xf9\xb9\xe6\xc9E\xac\xdb?k\xbb\xac;\x8c\xcb\xd1?b\xdb\xe9\xb1\x11i\xe3?\x03wx1b\x1b\xe4\xbf\xc4\x90E;k=\xe6?\x02S!\xe6E\'\xb2\xbf%\x08;\x02\xbao\xc2?\xa5\x0ci)k<\xe8\xbfL\xad^\xbcy\x10\x80\xbf\xf2\x82\x9a|\x9d\xce\xd0\xbfg}\x11W\xbc?\xcb?U\x08h\x0f\xf1\xe4\xd3?\x13k1O\x13\x00\xa3\xbf\xca\xadNy\xc3\xee\xd7\xbf[l`"\x89\x91\xd1\xbf\x7f\xaf\xec\xab\xf7\xf0\xe2\xbf\xaa\xbd\x0019\x9b\xe2\xbf\x01\x05\x04\xcfD}\xa9\xbf-\x99\x11a\xb4\x0c\xd7?\xad\x96\xe2a\xcc?\xe6\xbf\x87\x04Z\xf3\\\x19o\xbfg}y\xa3A/\xb2?\x8d+\x0fE\xddh\xe8\xbf\xb7\x87S\x9d\x89\xb1\xe6?-\x11\xf5\xb3Q"\xe3\xbf\x84\xc6\xb8`l\x15\xdb\xbf)\x11*\x87\xa5\x87\xe2?h\r`B\xf9\xdf\xd3\xbf\x00\xf6\xa5\xcf`\x06\xc9\xbf\xc8\x95\x14XOn\xba?3\x8dx\x91~\xa8\xc6\xbfx\xe0\x02\xb3fd\xe3\xbf9\x8d\xca\x7f\x84V\xe4\xbf\xdd"\t\xe7\x94x\xde\xbf\xf9}\xb6\xf5\xe6q\xe6?"\x94\x95\xd8m\xc1\xd8\xbf\x0e\x00\xf6\x84b1\xd0?\x9d\x85\xe8\x7f\x9e\x01\xc0\xbf\x1f\xf5w\xf4\xf6\xc1\xd1?/\xa8<\xb9\xab\x9d\xdc\xbf\xb1<}n\xb3\x1d\xe9?B\x12\x13:\xd5\n\xe8?\r\xc3\x18\xaeIm\xb5\xbf\xa9\xbf\x87\xc3?\xf7\xe8?\xf8\xa8\xb0\x8e\xa8\xc6\xd7\xbf\x8c\xf4-\xcb\x9d\xbe\xd2\xbf\xacq\x10g\x8ew\x92\xbf]R\xf9\xea^}\xb7\xbf\xe7\x1d\xb5b\x8e\x13\xd1?Z\x81\xd0itl\xe3?\x07\xc4\x07h\xe2\xd5\xc5?\x1d(7\xe1\x11\xc3\xb9\xbf\xe7\x80\x01\x9f\xbb\x14\xdf\xbf)YP3\xa7\xd0\xd6\xbfK+\xf0\xc4\xcf\xd4\xe0?^\x94\xe9\x98m\xa9\xe8?hA\xd9\x9a\x90\x0f\xd6\xbf\xb4\xdeA\xa2J\xab\xd5\xbfN15\xaa\xd9\xb6\xd4\xbf\xfc\xc6\xf4\x03]\xce\xd0\xbf8\x8f\xb5\\\xe1\x8a\xd5?:W\xb1\xcd\xba\xb4\xe5?\xde{\xe3?\x82\x95\xd2?\xbf\x14\xe8\xa5\xbf\xa8\xd2?\xdf\x19?\x92\xda\x91\xdb?\x08\x81\xbb\xc6\x08\xb7\xd8?\xb9\x05>\xcf\xe5\xd1\xd4\xbf\x03\x9bE\x15lp\xe6?\x10P^\xb8\xce\x14\xb4?\x91\xf3\x9c\x95\r\x8b\xde?[\xec\xf3\x04>\xfe\xe0\xbf\x05?\xb3*"\x9b\xce?\x9b\xf7W\xdb\xc8\xe5\xe6?|)\xa8\x84\xbb\xe5\x96?N\x99\xe9b\nU\xe9?\x088:\xe2\xa1B\xde\xbf"C\xa0Y\x8d\x14\xd0?;\xa5\xf2\x196\xb0\xb5\xbf\x95\xacM\x06_\xbc\xe4\xbf\x1a+\xaf\x01h\xd9\xd1\xbf\xf3\xfa\x87\xd7\x13\xbd\xe2?\x04\x93\xe4\x0e?\xb4\xe1\xbf-\'\xb2\xdc\xfb\xde\xc7\xbf\xa2D\xeb\xea\x1a\xde\xe2\xbf\xbb^\xb5~OS\xb7?h\xa3l\xbcD-\xd8?m\xac\x1bO\xbbe\xc0?\xfa\x16H\x19\xad\xf3\xc0?\xcd-P\x92\x94o\xe2\xbf\xc5L\xbb=\xebL\xe8\xbf\x864p\xa6\xff\x85\xdf\xbf\xd2<\x16-\xcf\x93\xd9?\x05\x08\x93\xb3\xde\xb5\xcc\xbf\xb5b\xc2\xb3.\x10\xe6\xbf\xa4K\xa5\\\xf5s\xd2?\xa7t.\x10\xa4\xe9\xb0\xbf\x8e\xd9\x952\xed\xe9\xdf\xbf/\xa2\xed\xeb\xce\xd6\xd8\xbf]=\xf6h.\x1e\xb7?\xeb\xc0\x00\x00R\xa1\xc2\xbf\xf3A\'\xbea\x86\xe1?\xed6k\xd1\xd0\xaf\xd1?\xe1}\xc9\x8a\xa3\xbc\xbc\xbf\xc6\xd3|#\x1co\xd0\xbf\xb3\n\x8bc6\xfe\xe0?\xb5\x04\x01\x1e]\xe7\xd6\xbf\x07\xc2\xd9>\xe9\xd1\xe1?-\x8dK\x97\x1f\x19\xe6?\xa2i8dFeb?\x14Jc\x8f\xfbB\xcf?\xe3\xc8\xee\xc1O\x03\xbb?\x00\xe9\xfel\x157\xe1\xbf\x08\xed+\x98m\xe6\xe5?\xef\xaf\xeehy\xe1\xc3?m\x07\xb5NK\xe5\xd7\xbf\xf3\rLON\xbb\xdd?\xd9\xc2\x7f\xb0\x880\xe4?\xa4\x97\x7f\x9e\xd3\x8e\xc8?*\xaf~nt\xc2\xe2?6"\xb3\x16\x8b\x99\xe4?\xef\x019\x96\xea\xd0\xe4\xbf\x19\xd8Y\xbb\x08O\xe3\xbfj\x06D-\x91>\xd2\xbfS\xce\x07\xfb\x08\xdd\xdc\xbf\x8f\xab\x8e}\xb2%\xde?\xc2\x8a\xc7\x81\xf1v\xdc\xbf\x94\xd4\xe4\xf1\x8a\xed\xe3\xbfl\x9d\xf3v\x11\xc9\xe5\xbf3\x0cR\xa6\x0c\x8d\xd4?"\x85\x16\x1d\x9au\xc2?g\xa7G\xea;\x9b\xc9\xbf\xac\x89t\x86X\x08\xe5?9%\xfeb\xec\xe0\xc3?d\x88\x95\xa7\x8aU\xe0??>\xd4q-\x87\xe2?\xe7\xcf\x12\x86|z\xd6?\xfce\x12e\xacJ\xba\xbftCv\xae\xd1\x9f\xdf\xbf$\xec\x90]\xb4=\xd5?.\x90\x95/\x9d\x83\xe1?\xb7\xce\xe1P3\x15\xe2\xbf\xaf[\xfcWd\x81\xe3\xbf\xd4\xe0\xfae:.\xc9?\x90\x91f\xe8\xaf$\xe6\xbf\x11\xb7\x12\x1b\x90\x00\xe4\xbf\x85i\x03>$\x1a\xe5?\xf3\x83\x8c\xdf\xed\xb1\xe4?\xc5\xd5\xfd\x9f(\xc9\xd2?\x1c\xd8\xa6\xfb\xa3\x8e\xc3?\x9eS\xb4\x8c\x0b\xa7\xe6\xbf\xe2\xf2aCp\x12\xd9?\xe2\x8c\xe9\xb65=\xc0?RqF\x1d4\xc9\xcd?\x06\xc5\xc61\x9b\x9b\xde?\x95\xb0\xc0\\&\xff\xc6?b\xf1\xe776\xad\xe0?VLn\xce6\xfe\xd5\xbfM|\xf3w\xac%\xe3\xbf\x81\xc33%\xc6\xfd\xe3\xbf\xba\n\x1bG\xba\xb3\xc3\xbfK\xa12k^\x85\xe0\xbf\xa4\x8f\xe7E\x8bj\x8f\xbfO\xc5\x8f\xffq\x9b\xe2?\xcbO&\xa9M\xb9\xd5?.*\x84\xcf\xaej\xe3\xbf\t<X\xb2\x05\x11\xca\xbfj\x92b:\xbb\xcd\x90?\xb9\x90F\x1f\x93\xcf\xcd?\x85\xf4\x87$\x0f\xea\xde?\x19\x0bSP\xca\xa0\xbe\xbf\xd5nn\xdb\x8f\xcc\xe3\xbf\xc4nW\x94\xa61\xe4?\n\xaa\x9c\xea\xec\xa0\xd3?\xf2\xac\xa8d\xf1F\xe0\xbfD7\xe2\xdd,C\xb4\xbf\xc8L\x83\xac\xe7\x01\xe0\xbfyq\xcc8S@\xe6\xbf)\n\xbc#\x84\x04\xe0?GO\xdaA\x05\x87\xd8?Tf\xaa\xf7J\xcc\xd1?\xa9\x87\xc6\x81d;\xe2?fGq\xcf$\xd1\xe7?d$\xf0\x80\xbf\x93\xdc?CV3\xc9i\xa8\xdd?\x9d\x95\xb2\xe3dp\xb0\xbf\xb1\xa9\xda\x11\x14\x16\xc3\xbfF?\x81\xb3\x8a\x8a\xe1?l\x14\x19_6\x00\x80\xbf\x01,w\xb3B\xd9\xe3?\xb8\xb9$c\xab\xbe\xe8\xbfG\xd5\xe0"k\xd9\xdd?\xe8l\xd9$\x0f\xfa\xe0\xbfd\x7fRi\xccU\xdd?w\xab\x93\r"Y\xda?P\x03I\x84\x80\xd9\xbe?\xd4\xbe\xf5\xab}\x1c\xdf\xbf5,\x7f\xd5"c\xab\xbf\x9e\x9327\x95\x82\xa4?\xc3\'\'"\x17\x12\xe9\xbf\xe1,5v\xda\x9a\xc9?\xf9ei\xc5Kc\xe6?\xf2\x15\xc8\x85v\x8c\xd4?r3\xbe3\xd5\x0b\xdd\xbf\xdd1$7;H\xb1\xbf#\xa0\xd2\x80\tj\xe3?\xca\xaf!\xaf(Z\xbb\xbfbMF|g\x12\xd7?\xfb)\xb1\x7f\xe0\xd4\xca\xbf\x94\x02G\x81\xb2\xc2\xe5?\xfb\x0f\xbd\x12\xb2\x81\xc6\xbf\xa5h\x05j\x00\xf2\x95?\xec\xc9\x1a[\xd5\xd7\xe6\xbf\xe8(\xd2\x01\xb8\x07\xa3\xbf\x82E\xad\xcd\xc3c\xe6?\xf6\xbeM\xa7\n\xb7\xd1?A\xc5\xe6\xc4\xb6\xf0\xe1?\xb3h7eod\xb0\xbf\x9f\xa5\xcc\x92l\xbf\xd6\xbf\xf5\x91<\xbe\x90g\xe1\xbf\xc5\xed0\r1\x8e\xb0\xbf\x8d\xbb\xeerY\xe2\xdf?\xb7\xc0\xc1\xe2\xe8A\xbb\xbf(&\xd36\xe6\x95\xa4?\x17/\x15F{f\xdf?\x10\x8c\x07,W\xd6\xbb?\xe0\xccV\x12d\xbf\xe3\xbfR?\xc7*\xc4{\xd7?\xc8r\x1c\x8d<\xb4\xe5\xbftR\xe3\xa0\x81P\xd2?q%\x8bm\xa5N\xc3\xbfB\x02\x92\x8c(J\xc9?\xdab<7\x8b\xe1W?\x14xx\xben\x1e\xd4?\xc5\xc9\x84\x8a\xc85\x99?\x9b\xc9\x8bg\x02\x1e\xcd\xbfbC_\xe9\x90\x96\xd7?\x8a/\x11hg\xd9\xe2?P\\\x8a\xfd\x92\xc7\xe7\xbf,\x95?WO\xd3\xd5?\xe6\x11h\x01<\xfd\xe3?TA\x8a\x8bR\xdb\xad\xbf\x9f\xc3\x05\xff)\xbf\xd1\xbf\x14\xd5B\xfeDS\xdd?\xa1\x05\xe2F\xf2O\xe2?\xea\xc9&3G\xfc\xe7\xbfr\xadiN\xafV\xd1?\xe7\x81.<\xa2\x9c\xcf\xbf\x07\x8f\x03\xc41_\xe1\xbfY|\xb1=\x1fp\xe5?e\xf9t?h\xe3\xdd?Fr\x84\xc0^8\xe7\xbf\x84H\x99\x90\xf5\xa3\xd5\xbf\xdfP#\xd0M>\xa4\xbf\xd2\xef\x91\x8f\xfc\r\xbc\xbf\xc6{\x16\x18\x0cz\xc6?\x94e\xaa\xb0\xa1B\xb2\xbf\x19\xda\xec1\xb4\x12\xe5\xbf\x86\xda\xa1s\xd3\xb9\xe6?\xde2\xd6`\x9c\xde\xe5?\x1dkY\x86z\xfa\xe5?9K\xde\x00^\x03\xb9\xbf\x03<\xacE\xbb\x8bn\xbf-\x13\xd7\x9a\xd3K\xde?P\x89>\x1eG\xdd\xc4?\x01\x8b\xa6\xc7\xf0\xf4\xe2\xbfS^\tK\xb5\xc7\xe7?\xab\xad\xfa\xd1B\t\xbc\xbfeQ\xaeJ\x17\xc4\xd0?\xf4\xed}\xef\xf1\xca\xe4?\x01@t\xb2\xe6\x81\xc0\xbf\x9a\x1f\xcd\x84p]\xc3\xbf\xc5bw\x7f^\xb5\xdd?"z\xc1\xb2\xa4\x14\xc2\xbfj\x89\xf8AhQ\xe8\xbf*\xbd\x14a\xcc\xd7\xe7\xbfx\xec\xb8\x8f0\x1e\xc8?\x15K\xcaqI\x88\xe5\xbf\x8b.\x9eGMs\xdb\xbf\xb3T\xd5\x91-\xb2\xcf\xbf\xddG+Oe\x87\xe6\xbf[\xd3\x9f\xf7\xb9\xb8\xbd?\x16_\xdf\x9a\xf2\xfc\xe3\xbf\x9b)\xe8\xb9v9\xb5?\x85\xc3\x0e\xaf\xef\xb0\xd4\xbfs\x88\xd3\x85\x15N\xd6?\xe7\x8b\xd6~\xc3\x82\xde\xbf\x98Y\x06\x7f\xac\x13\xd5?\xa9\xcb\xf7\x87\x9fZ\xa4?-c\xfe\x08\x0f\x10\xe4\xbfW\x1d\xc3\xd2\xd8\xaf\xcd?\x91\x89\x12l\xc9 \xc0\xbf5\x1a\xd1\xe7\xf8\xb2\xe3?\xfa\xa1\xd7\x1a\x1ff\xda?5oQ\r\xb2\x82\xe7?t\xc2\xd4\x84#S\xe0?\x1cc\xb4L\x80*\xc4\xbfC\xa2|\xb3\xdd\xad\xcd\xbf\xa9\x9f\x14}\xbe\xd7\xdb\xbf\x92\x15V:\xb5{\xba?\xc4G\x9f\\D\xdb\xe4\xbfC\xb1\x13\x8f\xc3\x90\xa3?\xd6\x1c\xc3Vv\x1d\xa1?\xff\xf8\xeb\x19\x86{\xe1\xbf\x1d\xa0\x0c{]\x83\xc0\xbf\x89\x10\xde\xc5\x07r\xd2?\xac\x17\xec\xfe\xd4\xf0\xe3?\x84\x94\'\x0b\xbeS\xe7\xbf\xd6e\xae5\xb6\xb8\xc6\xbf\x9a\x80\x19\xe4\xe9\x17\xe9?\x18\x93v\x96\x07\xfd\xe4\xbf\xbd\xbd\xb6uB\xb4\xbe\xbf\x98\x95\xf8 0I\xe1?X\xb8fM\x81\x1e\xd7\xbf\xdd|=\xa9\xf4\xb0\xe2\xbf\x9f\xad,\x99\x9ea\xd6??\xe4\x0f\xd6\x1d\xaf\xe8?\x9d\xe4\xbb\x13\x8b\\\xe2\xbf\x1cH\xb8Ix\xec\xd1?\xa7\xdd\x00\xb1\\e\xe7?\xb2\xdc\xa6\xf9\x0f?\xd4?\xf5\x98\xef\x99\xd2\xcc\xda?\xf9\x1d\x8b]\x13I\xe6\xbf\xcc\x81T\x93\xcd8\x86\xbf\xe10R\xaeY\xd3\xcf\xbf\x8d\xc6>V.\xc3\xd6\xbfZo\xb3\xf6a\x91\xdb\xbfL\x9b\xb9\xe0\xd7\x99\xd7\xbf\xa331Y\xfc\x8e\xb0?\xa2(\xacY9T\xdc?iW\xf1\x86\n\xd1\xe2\xbf=\xf0!\x8f\xb0\xd6\xc8?b\x83f!\x9e\xd4\xe4?\x0b\xcbE\x03\xe1\x87\xe5\xbf\x14o,\x1f\xdd\xed\xdc?\x9cq\xd1\xf4dw\xe5?y\x93\x1e\x0b\xe5\x0f\xac?\x10\xfb\x00m0\x00\xdf?\\\xb0\xb3\x99M\x9c\xd3?\x8e j\xff\xf3\x93\xeb\xbf\x06\x89a\xa4P\xdb\xd9\xbf\xfb;_M-\xe0\x9c\xbf\xc7%Z\xd25\x91\xb0?J\x80\xba\xda\xa4I\xc8?\\\xf7\xb9v\xecE\xd8\xbf\x0c\x9frj\x84\xa1\xb4\xbf\xda\x06~-\xfe\xff\xd0?hg2*\xd5?\xd9\xbf\xf0\xc8T\xa9\xfd\xd8\x98\xbf\x8cp\xfbYW\xf7\xdb\xbf\x18\x83\xd0W#\xc5\xc5\xbfJ\xd3!Ti^\xe5?\xbe""\xdbT\xf6\xcc?bW7Nm\x8c\xea?|\xb1)\xd5\x0cv\xac?S\t\xdb\xab\x80;\xe6?\xe3\xc9b76\xd6\xc2?;/5\xd1v\xb0\xb0?F\xd7\xf8\xfb\x8f{\xda?\xcf\x90\xdf"M\xe6\xbc?\xd1\xeaP\xc4I.\x93\xbf\x00\x1fB\x14L\x9c\xdd?\xd6\x86\'\x05\x14\xd1\xd3?\xa1\x17\xbf\x01|\xef\xd4\xbf.\xe3\x01)}T\xd3\xbf\x0ex\xb9\x03C\xc3\xdf\xbf\x0f\x8d\xd8\xceaZ\xdd\xbf\x08\x91\xe8\xc4\xf6\x8f\xe4\xbfzh\xe7qw\x12\xde\xbf\x82h\xc2\x91\xed\x12\xe7\xbf\x16\xc5i\xe3\x07\xd7\xd8?n\xbf\xa0;\x88\xa5\xbd\xbf\xf9\xaf\xe2\xd1\x8d\x9e\xdb?!\xd0\xb3j\xb9\xf8\xe4\xbf\xd0\x80\'\x06`\xa0\xce\xbf\x06~9\xe3\x7f]\xcd?\xd0$\xae%\xfc\xe7\xd3\xbf\xcb\xa6\x1b\x15< \xe0\xbf\xe27V\xc0\xc4\x00\xcf?4\x9d0\x1d\xe3\xf6\xd5\xbf\xa0\x94\x1b\xa7\x04I\xd3?\x05<\xf5\xbc4\xee\xa9\xbf\xdc\xde\xd2\xd9\xe7\x18\xb0?\xe3N7\x98_\x81\xa1\xbf\xc8\xb1#\n*\xfe\xe6\xbfZyI\xc4\x83r\xe2\xbf\xaa\xad\x86\x89\xe5\xb8\xc1\xbf\x88N\xad}\xef\xd0\xdc?3\x11\x94\x94\x89b\xda\xbf\xe51\\{\x96\n\xe4\xbf*R\x81H\xd3\x11\xe6\xbf}g\x82\xc6n4\xe7?\x8a\x12cK0\xc6\xe6\xbf\xb7\x9a\xd2\x90\xc1\xa7\xe5?0)E\xaf\x81\n\xd4?\xe8\xb4\xc1]\x80\xba\xde\xbf(\x9cP\xab6\xaa\xdd\xbf\xd9\x13}+CB\xc5?(\xbc\xc1\xb7U\x87\xe5?\xe6i\xbe\xf6\xc0\xee\xde?-obY\x16B\xdc\xbf_KW)\xe2\xdd\xdc\xbf\x14I\xdf\x9b\xe5`\xe1\xbf\x86\t\xac<\x91\xcd\xd2??\xb5\xb2}\xb1\xe9\xcd\xbfvc&k\xd3|\xe6?\x94\xf2\x98\xac\xce\x95\xd0?\x19\xd8\x90\xa2\\A\xe8\xbfQ\xda\x94\xe7\xddH\xd0?{\xfa\xe2\xebq\xdd\xd1?\x06\x97\x0c\rM\xa3\xd0\xbf\x98\x8am\xb43\xfd\xdd\xbf\x82G!5\xbdz\xe2?f\x82hy?\x1b\xa7\xbf\x10}\x02\xfb\x9cE\xab?,\xd7\xa4\x92\xf1Z\xc6\xbf\xa2\xd2\xe2p+\xd1\xe0\xbf\xe8\x1f?c\xe7A\xb2?\x1b\xee\x0c*\t\xf7\xcd\xbfV\x02S\x93\xf4\xa2\xdd?\x80\xcdi\xb2.\xaa\xe9?\x9f\xd4iv+\x9f\xc9\xbf\xf8\x9er\xec!\r\xe2?\xc2\xc3\x18S\xa8\xd2~\xbf\xfe\xbb\xec\x8a\x02G\xdd\xbf\x17\xbcH\xff\x88\x8a\xcf\xbfb1V\x12_2\xe7\xbf\xd8\xf2\xb1\x06\xec@\xd8?.@\x8ez\xdbE\xe3?$\xc8\xa9V\x16\xea\xe7?}\x99\xe5^\xbc\xcc\xd9?n\xa7\x9f\x07e\xd6\xc9?Ne\xa1\x06\xf0\xba\xe8\xbf\n?\x15\x92\x86\x1a\xb1?\x1d\xb6\x1bJ\x9bl\xa1?\xff\x92\xf6\x0b\xac;\xcd\xbf\xf6\x9c*qh\xb1\xd9?9\xc3\x016c\xe2\xe5?&\x11\xdaeJ<\xbd\xbf\xb2\x08\x8f\xe5=5\xe3\xbf\x97k\x19\xd5R2\xb7\xbf& \xc3\x91\xb9+\xe5\xbf{U{~\x0c\x80\xdb\xbf:bW\x18\x18t\xd6?\xe4X,\xc7\x9c\xdc\xe7?\xcd\xcd\xea\x08\xe9A\xb6\xbf\x0e\x1a\xda\x10\x9c\x8b\xd6?\x8b\xa9\xd4s\xdc\x86\xcf\xbf\x8b\x17\xa8d?\xe4\xe4?\x15\x97\xb6 N\xfa\xc1\xbf}\xb7A\x16r\xf5\xda\xbf\xd9\xa2\xf8\xb6\xc5\x00\xd7?j\xabj\x12n#\xa7?\xd8\x8a\xd1}\x04i\xe0\xbf\x82\x9d\xd3L\xce\xa2\xcf?N\xc7\xc0u\xbf\xaa\xc9\xbf\xdd\xcfz\x1a\xae\x1a\xd1?/.;\xdbV\xb8\x9c\xbf\xd9\xc0\xe7\xdfS3\xe0?[\xa3\xa8\t\xadD\xde\xbfSL\x16d\x96\xa9\xe2\xbf0JV\xa8`\x1dS?\xafF\xc2~\xc5\n\xd9?S\x04\xa6Xa\xbe\xe3?\xc9\xe4"\x80\x03\'\xe6?\x90^\xac\xd7\x0b\x86\xcd\xbf\xc7\x80\xb9\x15l\xd3\xe4\xbf\x07\xf6\xfa\xe8A\x1e\xcc?\x93\xf2O\x94<\xa2\xd8\xbf\xb5Jp\x8c\xd9w\xd3\xbf\xc4\xa6\x89\xba\x8b\x1e\xc9?\x1d\xb4\xf3\xc8\xbe\x08\xdc?zQZ\x87?(\xda\xbf5\xe4\xc9)\x9b\xd3\xd2?\xdc\x83)\xf7-\xf3\xe1\xbf\xdd\x9fO\x86\x08v\xe5\xbfI\x87\xf7|3\x8d\xd9?m\xf0j\xdd\xcfX\xe3?\x1bW>\xed\x95\xee\xdb?\xf5\xbd\x99*y}\xdf\xbfiR\xc8\xa2\xc3k\xa8?\x92B\x0b-[\x16\xe4\xbf\xb5!\xbb\xcb\xe7\x91\xe6?\x8a\xb1=\xf9\xebm\xe1?\xe2\xbee\x8f\x18R\xd8\xbf\xb9\x97/\x89\xdbj\xd6?s\xee\xa9\xa4\xe7\x1f\xe2?\xbaJ\xa5wz\xac\xe5?,\x06\x15\x9c\x1f\xb5\xe0\xbfb\xe8\x03\'\x95l\x8c\xbfy\xfc*\xc2/\xd1\xe6\xbf<\'LB\xe9\x1e\xd1\xbf\x87\x85Pq\xe6\xd1\xe3?\x04\x1f\xe1\x17{\xd6\x8f?\xd6\x98(\xd9\xcf,\xb9\xbfw.\xe5I\x01&\xe3\xbfqmj\xd7\xa4L\xd0\xbf*\xa9O\xf0\x08\x06\xe7?\xb5/W\xd8\xf6\xf3\xc4\xbf\xf3\xdd+\xa3B\xb6\xde\xbf\xc0\xf5\x08\x94+\xff\xce?r\xbb\xd2M\x16\x8d\xe2\xbf\x12\x7f\xe5\xa5Z!\x91?\xc4<3B\xb3\x87\xd5?\xeeb\xf2\xd0\x10\xf2\xe6?.\xf3\xa8\xef\xd3\xf4\xcb?\xf2\xcb`\xc4#\xf9\xe4\xbf\x90\xbd\x17\x9e\xef\xd8\xe2\xbf\xf9\tRg\xae \xc6\xbf%4\x9d.\xe6G\xe4\xbf\xd2%\x07\xe6\xd4L\xe1\xbf\x10\x89\xcc\xe2\xf3b\xd4?\x94.\xfb\xcd^\xe0\xe4\xbf=\xd5\x8b\x85\xb3B\xc0?"P\x12\xeb\x7f\xe6\xc9\xbf\xcb\xa6B\xb4\xeb\xe5\xe2\xbf2\x90\xd9\xcf\xab\xba\xd3\xbf\x0f\xc9\x00\xd2\x96\xa6\xdb\xbf\xf5_<\xb0\x19\xe1\xb4?\xf5wC\xcc:\x1d\xc4\xbf\xc5\xd8\x1ec\xeb\x9f\xa2?\x1b\xa9!j\xd2\x06\xe0\xbft\xd6q\xednE\xd1\xbf\xa8fP\xe3\xb2&\xe3?)\x823/Pz\xbf\xbf\xbd\xb8K\xd0\xda\xc4\xda?hB\x11\x03rE\xe2?\xa3@QC\xc3\xcb\xd1\xbf\xcd\xb9x\xf0F\x0b\xd3\xbf\xa6\xc2\xe7\x15\x0fn\xe0?\xf2o$\xfc}\xe4\xd4\xbf4l\xa9\x8eCU\xe5?\x19\xc1rJ\xe6\x89\xe5\xbfb\xfb{\n\x96c\xd8\xbf>\x15\x818G\xe1\xd9?\xcbP\x90\x8b\x99\xbe\xdf?\xa6\xed\x8a6\x86\x99\xd0?\xfaR\x1c\xa46v\xe4?\xa9(m\xf0\xc9\x89\xd8\xbf\xab\xe2k\x1d\xe3\x84\xde\xbf6\xeeN\x8f0G\xe7?\xa7B\xd6\xf1 O\xbe\xbf\xf8(M%\x17Z\xc7?\x96\x8dUuh\x92\xe4\xbf\xee@\xba\xbdG\t\xea\xbf\xc68+~\xd1Q\xb9\xbf\xe5\xdc\xbb\x1e$&w\xbfr\xf7\xa5-\xc7C\xcc?5\x1e\xc3|\x87\x82\xe7\xbf\xf3\xcdQpN#\xea?\x1fn\x9d5(d\xa4?\xea\xc7\xfe\x08\x1d^\xc7\xbf\x0b\xb3`L\xdb\xc6\xe9\xbf\xde\x052"E\xab\xad?>\x8c\x1b\xc1\x1c=\xaa?\xda\xad\xe3\x19\xc4\xd8\xd4\xbfUd\xc1h\xd8\xe4\xda??-Z*_\xf0\xe9\xbf\xd5\xf2\xed\x92>\xb8\xb1?\xdf\xf7\xbb\x96\x0f=\xd6?\xd3\x10\xbf\xf2y\x14\xb1\xbf\xfdK\xca\xac_\xa7\xcb\xbf\x1fc\xf5\xc8\xaff\xd8\xbf\x8e\x94\xady\xcbC\xb7?\xcc\x99\x8e+~\xab\xc3\xbf\x8e\xb9k\xae\xc9\xe8\xe3\xbf&T\xe4\x12\x14a\xcd\xbf\x97\xf4\x03\x9a\x12#\xd5?\x06\xa1{\xcb\xf06\xe4\xbfCO\x9a-ZA\xcf?B\xfd\xe2\x1e-\xdc\x83?)\xaf\x89\xa6\xd0\xe9\xbb?kH\xcch\xf8S\xd7?{\xbf\xc3\xe1TZ\xb2?\x04\x07\x8f\xfb!d\xe3\xbf\x9a\x1f_l\x97\xc1\xe5?ud\xbc\xd0\x13^\xd3?\x1e\xa7\xf4EDv\xe7?\x9b\x04@H\xdc)\xdc\xbf\x8fHqz\x0f\x93\xec?\x7f\xa6\xf6\x8d\x1b\xb1\xd9?e\x89Fi\xa5\x8a\xe1?\xe3R\x89|\xe2;\xe6?\xe293a\xe6\x1c\xb7\xbf\xe7\xc6\r\x9d\xab\x89\xd0?\xf2\xce\xc5\r\xecz\xe1\xbf5Q\xa0\x95\xcal\xb0\xbfk\x84\x84\x8b\x85\xab\xc5\xbfx\xef@\x06\x8cs\xcb?R\xcf+\xc4c\x99\xbd\xbf\xca\nF\x10\n\xda\xa5?t\xe8p\x9c/X\xd7?\x81\x92Ep=\x93\xe5? \\p\x91xh\xdb?$\x04\x9d\xb0\x01\xa6\xdb\xbf\xd0\xf8\xc9\xff\xa4\\\xdb?h\x15\xe3~#\x0b\xe4\xbf\xa5:#n\x17\xa8\xe6\xbf\xc35^\xc6\xa7\xee\xd4?\xe1\xba\xfa\xc9\xc75\xd9?k\x95\xe9?\xb1\xc5\xdc?O\\`\x1b}\x1b\xde?\xdf\xd4$\x87\xa0\xcb\xe1?\xf7B8~p\xf6\xd3\xbf\x88\x83q\x94\t\x05r\xbf^\x05#\xbd\x98\x00\xde\xbf3\xed}\x00\x0eM\xc1?\xdb\xfe\x0e\x9cT\xd3\xe0?tR]\x14\xf7 \xdf\xbf\x9e\xad\x97\x9d\x17\x16\xe0?~L\x92\xbf\x8aA\xe7?\xb6B\xf9\xc2\x10\x0f\xe1\xbf\xb8H\xd6\x9d\x8b\xbb\xc6?\xd6l\x96M\x02\x0b\xd9?\x8a+e6\xb4?\xa6?\x04\x8e\x9cT\x9f\x9d\xe2\xbfAY\x81\x01\xd5\x0e\xe3?)\xb21\x8b\x87\xdf\xd7?\x99\x1fLR-\xad\xe1\xbf\xbe<Y\x1a\x8cS\xdc? \xcc9J\x89\xda\xe6\xbfQ\x0fw\x9d\xff\x8b\xdb?\x07/\x10\x17\x97\x9f\xc3?\xb4\x1c\xb1\xa8x,\xd2\xbf\x02\xb0\xd9\x99\xf2\xaf\xd0\xbf\x91\x0f\x1a\xb8r\x16\xe0?\xd2\x1d\xeb\xb5U_\xdf?\x89\x17\x05\xeb\xd3\xfe\xe3\xbfi\x98\xdd\xc89i\xce?q\x11\xa7\x7f\x00\xdf\xa9\xbf\x89\xb1\x8e\x1aX\x9f\xd9?\xafk\x11f\x18\xd4\xe3?<\xa8?-_K\xda?)\x84\x84^\xf5g\xdd?o\x0cD\xfbpc\xd6\xbf\xdc\xfa\xaf\xe3\xcf\x90\xe7\xbf\x06\x10g\xd1\x1a\xad\xdb?\xfa\xa7\x96(\xea\xe9u\xbf\x9c\xfd\x85U\xd4W\xda?g\x13\xa3\x04\xb0u\xb5?\xf2\x97<\xaf`\x9c\xc3?$\x1b\xcc ~\xb8\xe6?XWRhL\xd7\xdb?\x14Rs\x18\xd2*\xd2\xbf\xab\xcax\xf2</\xc7\xbf\xb6\t\x15Eef\xe2\xbf\xe7\x1c\xa4\xbb|\xb4\xdb\xbf;J\xfd\xac@}\xaa?\xbd\xc1\x12\xc4\xf3\x02\xe5\xbf\xcd\xa4A\xe0;u\xc4\xbf\xb8ulR\x9e\xb3\x9c?\xdbRRj{\xa2\xc7?\x16\x96\xc4D\xa8C\xc7?{\xea\xa0h|\xb6\xe4\xbfB~\xdaA9\xbf\xb2?\x87>G\x02\x97d\xe7?\x8e$\x95\xd4\xcc\xb2\xe3\xbf=\x12\xe7\x19\x17\xeb\xde?\x8f\x1f\xecM\x06\xae\xe5?\xd6\xab\x15\x17\x84\xf8\xe0?\x7f\xfc\xef8\xd8\xf4\xc5\xbf\xf3\x01F\xc1\xc9\x03\xd7\xbf>5N\xc4/*\xe5?\x02\xc8"\x91?r\xc7?\xf0\xbbz\xd8\xd1E\xc8\xbf\xb7\x94\xa4$\x06\x87\xba?!\xd9`\x1c\xd7\xe4\xe0\xbfQ0\xd5V\xb2\x82\xcc?\xb7:6\x05#\xb6\xe7?\x91&PG\xa7b\xe7\xbf\xfa\xa3G|\xca\xb9\xde\xbf|tXRF\x93\xe5?\xc8\xf3\xfc@\xc7q\xcb\xbf\xf7\x84?\xb9k\x8d\xe1\xbf.\xad\x04\xd9\xf0E\xce?47\xe2\x9d\x08J\xd7\xbf&k\xc3d\x9d\x85\xdf\xbf\xaa\xeb\x9f~R\x7f\xdf?\x99\x1b\x16]\x0f\xbc\xc2\xbf\x7fV\x84F\xd6\x7f\xe1?\xc2\x7f\xc2|z\xf7\xd5\xbf\xff\xc4\xdd!\x9c\x9c\xe9?\xba\x00\x06\xa4\xe29\xdf?\x0f\xc7\xd5\xf7l\x9c\xd9\xbf\xd4<N\xd9X\xc2\xde\xbf\xab\xd8p\xea\xf4\x93\xbc?g:Ql\xfc\x80\xc5\xbf(\x16\x15\xabp\xef\xe8\xbf\xb9.N\x8f9\xed\xda\xbf\x86\xec%\xeb\x12\x0e\xa2?\xe3\xd3\xc8{w\xb4\xd3\xbft\x1dF\xc5_O\x92\xbf\xb6Om\xb7\x1d\x06\xb6\xbf\x86\xff\xe7I\xf5\x01\xcf?\xc6j*3\xf0\xab\xb5\xbf\x87 X\xb5\xc0\x99\xe7\xbf\x90\xd7m:\x83]\xdf?\x1d!#\xd6\xb8?\xd5\xbf\xc1\x10?\xa9\xc3\x14\xd0\xbfUI\xa29\xf2\x1c\xb3?W\x85\xd6\x80\t#\xbb?\x85\xe6\xaa\x17| }\xbf\xe9\x1f\xb6\xee\xfa\x81\xda?\x16\x83\x97\'\x89\xcf\xe2?\x8di[!\x85z\xbf\xbf\xed\x12;\x9aW\xea\xe3?P[\x8f\x85\xc3\xb5\xd7\xbf\x01Z\x1c\x06C\xdd\xc2?\xb1\xed\x9fS\xe0\xf6\xe4?\r0\xac\xd3\xa0\xb2\xe3?\xc4]\xaeN\xb4\xf5\xe5?\xc1\xe6N\x01\xc6\xa0\xdb\xbf\xcc%D\xe2\xc6#\xe6\xbflc\xdb4\x08\xe4\xe0\xbf\xe0\x1d2\xb4@\x88\xe8\xbfQ\x05ml~\xf2\xe6?;[\x88B@\xf5\xb9\xbf\x04C\'\xa6\xa9\xdd\x9c\xbf\xc3\xfbDDc1\xe3\xbf\x9d\xc5}5\xc4%\xbd?\xeftc\x9f\xca\xc1\x8b\xbf\x1a\xb8\xd1M\xdc\x06\xb8?\xae\xd6q\x18\xc9\xbe\xab?\t\xc9\xa1\xac\x86\xdc\xe8?\x9d\xb4\xe35`\x94\xcc?\xfe\xe8\\+)0\xc3\xbfo\xa0\xf9b7\xc9\xe8?\xf3(\xd3S\xd8\xda\xe2?\xff\xe9Tnb\x0f\xdf?\xbci\xd7\xe7\xaa&\xe5\xbf\xeb2\xbb\xf7\xd6\x1e\xdc\xbfF\t\x0cr\x1f\xb0\xe0?Y\x1a\x97c\xd5\xf2\xe5?\xcf\xd3\x9bq\xca\x96\xd1\xbf8\xa5\xdb?E\xbb\x9a\xbf\xdf7\xa9I\x95\xad\xcf?u\xb9u=\xd6\x10\xe1?\x88\x9a\xb6\x92@}\xd2\xbf\x14\xba\xef\xb4\x1b\xc8\xd7?\xcb\x0f\x08\x9b\xba\n\xe0?\x01a\x84}&\x98\xe1\xbf\xadT\xd9\xfc\x9d\n\xe1\xbf\xd6n\xb5yd)\xcf\xbf\xd10\x865\xb0\x1c\x83?\x9e\xed\xf1\x0c\xbb\x03\xbd\xbf\x9d6\xcb\x15"\x18\x99\xbf\xf4\x07\xc9\xa3v\xe2\xcc?\x8bL\xeb\x11\xdcT\xa9?\xe29\xf3\xda\xadr\xaa\xbf \x1fD\x8eDo\xe3?\xd59+\x00\'T\xe7?\xe7\x0f@\x19\x18W\xe8?L\x91\xefA\x80{\xe7?W\xe1\xc1\xe0NP\xc1\xbf\xc7\xf8\xfa\x11\x10\xc1\xdf?\x0f\x8e\x1d\xc4>r\xa3\xbf\x83{\\, \xe2\xb1?\x97\xb7=\xc1-\xe8\xe3?5T\x81\x88\xbc\x89\xdb?)\x12\x7f\xc4\xb8=\xbc\xbf\x8d\xa1\xd5I\xe8\xe6\xe2\xbf\xb9V\xa7*\xa2\x07\xdf?\xa8\xbc\xe3\xa84\xa9\xdd?suO\xe5g\x16\xe4\xbf\x18k\xac\x9d\x05\t\xa5\xbf\x9dP\x0e\x85u\t\xe1?\x06\xbbY\xbd\\\x07\xc8?X\xbf\xf8\x9bH\xb6\xe2\xbfP\xe8D\x9f%E\xde?\xe7E\r\x91\xf0\x9d\xdd?\xc4u\x98Al\x98\xe3?\xf4\x9f;!*$\xbc\xbf\x16\xda\xc5_\x17\x9e\xdd?h\x9a\xfb@\x86\x10\xcd?ya\x92\x8a\x9e\xbe\xe8\xbf\x9a\xa6\xed\x90\x95\x0c\xda\xbf\xda\xbd\xf0&\'\x9d\xcd?\x19\xc7\xc3\xe3r\xc2\xdf\xbf\x9f\xa51\x91%\xb8\xdb?\xc3\xcbE\\\xc1\xf0\xe1?\xb7\x1f\x08\xb3\xd5_\xe5?D\x1e\xa1\x06\x81,\xd8?ia\xd9\x8c\xc0\xf9\xc5?\x86}!u\xf5\x0f\xc8?\xc5I\xa0\xe8\xa1\xdd\xd0?x\xf1\x870\x9bD\xd3?\x93E\x91\xec\x99\xc5\xcc?,d\xf3>\xa2\xbd\xc9?"#\x17\xb5\xc1Y\xb5?\xb2\x86\xc3\x97\xba\x0b\xe1?h\x96\xaei\xf6\xd0\xbe?\xa4\x9ds\x19\x190\xdc\xbfO\x83\xd3p\x0b\xca\xe1?2\xda\xa4\xe1J\xaa\xe7\xbf\xbc\xcc\xc1q\x99\xae\xe3\xbf\xbc\xfc`\xec\xd6\xeb\xaf?\x1d\xa8B3\x1f\x17\xe4\xbf\x9eo\xdc\xd4uY\xb9? +\x92\x1a<\xcc\xe1?#{\x01\x0f \xc3\xe3?[R\xb1>\x14\x13\xd0\xbf\xb7e\xca^\xbe-\xe2\xbf\x8f\xbb\xa8\x19\x14\x8b\xde\xbf\x9b\xc7\xd9\x0c\xdf\xe1\xe9\xbf@4\xc0\xcb\x04\xf3\xe1?\xd0\xdfr\xf5\xe5`\xdc?b\x1f\xb9 \nu\xd7?\xe5\xe8\xa3\xb6w\xf0\xe2\xbf\x8fg\x92\xacB\xb4\xd9\xbf?N\x8aO\xeb\xe6q\xbf\x985\xaf\x02\'&\xca?|?\x13\xcb\x18\x1e\xbc?\xa8_\x04g\xf3\x9e\xc9?W89\x94\xda~\xe8?O\x9ev\xfb\xb0\xba\xd8\xbf\xc5>\\5|\xfe\xc4?\xe3`te\x079\xc8\xbf\x1aw\xc4\xad\xbf\xbf\xe9?q\xb2\xbb\xce\xc8\x04\xb4?\xf6 g<\xb2\x88\xe4\xbf\xf3\xb4\x88I\xed\xb5\xdb\xbf\x1cB\xaac\xf0+\xd3\xbf\x15\x01\x0b3R\x94\xd1\xbf\x99tF\xf7\x98\xb7\xb5\xbf*\xf39\x1bb$\xda\xbf\xa8\xdeI\x98\x82o\xe4\xbf\x8dmIR\x07}\xd9?F+ \xcc\xb0\xfd\xe4?\x15e1\x03~\xc2\x86\xbfaISk)\x06\xce?\xe9\x9ex\xd5,<\xd0\xbf0\xa0e}\x87\xa0\xde\xbf\xc5\xa1\x0e\x8a\x0c!\xe5?<\x9e-;\x1a\xcd\xe2?d\x17c\xad#i\xe8?\xea\x0f%\xd8\xa9l\xd6?\x88<\x8d5EO\xe5\xbf(\x9c\x02$}%\xe0?\x8f\xb1\xf0m\x0e\xf9\xe6?\xe5\x9c\x07L\xb0\xe0\xbd?\xe5L\x91\xfe\x13\x0c\xb6?\xbf\x8f\xce=\\\xf7\xe1?=\x900-u%\xd1?\x0fg\\\xb2u\xca\xe1?\xd2\xce\xf8\xe3\x90\xfb\xe3?E\xa5s\x18ft\xe0\xbf\xd3\x99INK\xcb\xe2\xbf\xde\xfa9@v/\xe4?\xab\xdd\x85\xe1\x10)\xb1\xbf\x0c\x90\x1ae\x0f\xa5\xac\xbfA\x1cv\xdc\x05}\xd9\xbfO\xcbI\x85Si\xc8?\xf3n\xe7\x8c\x18J\xd4?\x81P\x97\x80\x06\xf2\xd5\xbf\x80\xf3Pu\xc0\xf7\xc8?E}\n\xd3\xc4\xb6\xcb\xbf\x8b\xea\xd4\x9c\x92\xa9\xe8\xbf"lWR{\xd9\xb6?\x11\x13p\xb1\xf2\xf7\xe1\xbf\x15F\xfc\x8c\xcdi\xca\xbfq\'\xdb\xba\'I\xd2\xbf\x9fb\x0e^8\x82\xe1? \x1b\xc9vN>\xcd?\xffM,\xd6\xdb\xf0\xde\xbf\xdb\xda\xa9\x9b\xb0\x91\xca\xbf\x1a\x80\x88Z(\x0c\xd0?\xec\xfb\x89\xac\xb0a\xdb\xbf!\x12\xbe\xf8\xb7\x8e\xdc?dm\x95^\xaeI\xc6?\x8b<\xe81\x17\x88\xb2\xbf\xc7\x18b#*\x81\xe5?\x0c\x16\x9dv\xb3{\xe2\xbf\xba>\x98u\x85\xba\xdf?\xd8[\xb8\xd8\xa9\xe2\xe6\xbfKU\xd9!\xd7\xa0\xcf\xbf\xe0~\x8d\xdfT\xa1\xd1\xbfY\x9a\xff\x14\x16N\xdb\xbf\xd5\x877q\xd9\x86\xd4\xbf\xf2\xdc\xca\x90o(\xb8?\x91\xbbL\xf2\xf7\x1a\xc8?\xb9U3\x0fB6\xe6?\xe0\xed\xbf\xa3\n\xb8\xe4\xbf%H\x99\x13\xe6\x14\xd5?\x9c\x05\x13H\x08\xbf\xc9?#\xf8\x8a~\x15X\xe8?\xc9\x10\x97\xc6f\xaa\xb0\xbf\x89|b\xdf<B\xd8\xbf(\xf3\xa5\x02\'\xee\xe4?\xbb\xee2:\x84O\xb7?P\xdc\x9d\x92\x16\x17\xe8\xbf\x11\xc2\x13\xaf}\x0e\xe7?\x1e\xbe96\xba\xd1\xc9?\xd6\x06\xecd,\x7f\xd6?\xae\x1dN\xca\x10E\xdf?\tN-\xa8~\x8a\xe6?\x88\xd8Z\x96sa\xca?\xddm},d_\xdd\xbf\x86S\x0f\xd7\xcb\x13\xbb\xbf\x84\xb6\'\xcdvK\xd7\xbf\xdb\x8e\x0ek\x01\xa1\xd4\xbfA\xd7U\xc4\xe1\x0b\xe2?\x00\x04;\x14T$\xc1\xbf\xe3\x18\xd4\x8d\xda\xb1\xe3?\xf4\x80\x1f\xedp\xf6\xc9\xbf\xc3\n\xc5\x8f\xbcY\xd1?\xc9\x82\xbb\x16\x1a\xc6\xe6\xbf\xea\xa8Y065\xcd?r\x8d\x9a\xf2V\xb6\xe7\xbf3I8{l\x14\xce\xbf\x9c\xb2S\x88=*\xbc?\x81\xd1\x06X{\x9c\xd2?G\xf1\xc6i\xe7\xb9\xe5\xbfA3d\xff;\xb8\xde\xbf\xcc\xe9\xf5\xdc55\xe4?\x12\x9f\x83S3\xcb\xd6\xbf\xb3\xe5\x85+\xbe\xd6\xc8\xbf\x86\xbb\x01%sa\xc4?\xa2\xaf\xc0\xdc>\xa3\xd3\xbfv"\r\xc4 \x07\xdc\xbf\xf0\xd3p\xd0&X\xca\xbf\xad\x08\xad\\\x08\xa5\xdd\xbf(\xb4\x02S~F\xd3?}\xa1\x05\x0b9@\x89?\xc5\xe8k)S\xf6\xce\xbf\xb0\x17$K\xbaj\xb9\xbf`\xc5\xcb+\xa4\x1a\xe7?&\x15t\xa2\xb5\xce\xe3?GU\x04\x0e\xb47\xe0?\x8a)DsE\xc7\xd9\xbf!U\xb9\xf3\xf00\xe7?\n\x931\xfa\xeb\x08\xc8\xbfCj\x8b\x842\xd4\xdc\xbf\x81\xf3;\xfeL\xc2\xe6\xbfL\x06\xf6S\xbf$\xcb?\xc2\x9d\x9b\xa7\x1a\xec\xe4?\n\xe3\xdc\\\xa0u\xd4\xbf3\x97_\\\x1eK\xda?\x02g\x99gG\x00\x95?b,\xeb`\xae\xae\xe3?\xa1W\xa8\x1f\xbc\xc1\xe7\xbf\x11H\xa1$c\xf5\xc2?\x10\xf8w]\xf4\x81\xd2\xbf-[\xd1s\xe4\xe5\xb3\xbf\x18\x92\xe8\x90\x10\xe6\xe5?\x10\x06y\x81\xe72\xa5\xbf\xae%\xa0\xdc?p\xd6\xbf\xb1\xe8.\xad\x1c\x18\xbc?\x85\xf1\xc7y\xb6\xd3\xe7?2\x83\xd2\xe8az\xd3\xbf\x9a\xd2\xe7h\xe2\x81\xda?\xaa\xd3g_s+\xe0?\xfc\xb5\x8b\xbc\x13\xc2\xe5?\x9d\xa5\xd3\xa4\x0b1\xe3?\xa8\xa3\xe2\xccrm\xdd?3R\xbc\x93~\x1d\xb4\xbf\x15^\xfa\xe3\xda\xdf\xe0?r\xa8\xed\xc1\xe84\xb9\xbf\xd7!\xd0\x83e%\xe4\xbf\xbf\xe8\xf7be!\xd1\xbf\xfb\x10"H\x04!\xde?\xb2g\x04\x87P\xb7\xdb?\xdc\xff\x9f\xda\xf7\xe2\xe1?;\xce\x94\xc4\t\x99\xcb\xbf\xe3\xbc7n\x86\xa6\xe0?\xb0\xb0_9\xe9S\xc5?"\xa2\xe0\xd7\xa4\xe2\xc8\xbfp[Q\xa0v\x9d\xd4?\xee\xf1$dB"\xc1\xbf\xb3.\x91vX\x88\xde\xbf\xf5\x91\x19\x1e4\xa0\xd8\xbf\x12\xe3;\xb9Mr\xdd?\xd3\xccF\x18\xa0\xd3\x8b?t\x98\x9a[b~\xe1\xbf\xa2\xf6\xec4\x0b\xe9\xe5?\xbe-\xc7m\x9b\xbb\xe1\xbf\xec\x99\x97\x08\xa9\x82\xe4?ae\xe1*\xee\x1b\xb2\xbfU\xc9[\xc0\xf4\xe9\xe2\xbf\xda\x17\x83\xc2N\xdb\xac?f.\xbd\x9cp\xf4\xd4\xbf\xe4\xbaUPB=\xd7\xbf\x02s\x14\xdd7\xd7\xde?\xa0wo\xca\ra\xbc\xbf6\xf0\x1b\x02v\xcc\xd5?\x8e\xe8\xf2\xdeV\x19\xd8?\xb2\xa9\xaa\rPW\xe0?BNu*\x93\x84p\xbf\xbcu\xdfX\xd7\xdb\xd0\xbf\xab\xf1\xd3\xc7U]\xe7?=K\xc1\xfem\x12\xe7\xbf\x8d\xe9\xdb\x9d\xf8\xff\xe6?\x11,\x19\xf7\t\x1e\xe6?n\x11\x11o\x94k\xe4?\xe1\xa7\xb2:\rW\xdf?\xb7\x9e\xfa\xc5\x06\x92\xe0?\x8b5\xdd-\x1f\x87\xb2?\x0c\xbd\x83\xd9Nq\xe1?\xe4wsOw\xf1\xce\xbf\xa73\x9a(m{\xd8\xbf\x1d\xb5-W\x87\xfe\xe1?\x90 0t>Y\xd5\xbf\x1c%\x84:^\x05\xde\xbf\xbb\xa3Ejk\x1e\xc0?\xe8~\xdd\x8a^\x83\xc9\xbf-\x0f\xfb\xc2@\x0e\xb3?\x141T\xd2\xf9\x8d\xdb?\xebJ\xaf\x8c\xab\x00\xe4\xbf\xfb\xbb\x81\xca(q\xe5?\xcep\x15\x81\xb4=\xe4?\xe7\xd7\xc8\xe1\xa7\xbb\xc8??\xec\xd0\xa0P\xf4\xe5?\xba?;/\x7fW\xa5\xbf\x07\x9f\x8c\n\x9a\xe8\xd0?w\xffp\xd4Ra\xe5?\xd4\xb8M\x0b\x1b\\\xe2?}\xeb\xc0\xe4\xece\xdc\xbf\x88V"}\xa9\xba\xcb\xbf\xc5\x10U/HM\xc5\xbf`\x1a%c\xfe\xe1\x81?PP\xa6_\x0fY\xc8\xbf\xc9\xd4\xad\xf7\'\xc9\xd2?\xe8\x99`\xda\xa3y\xe0\xbf\xd0\xb8\x17\xe8\x82\xbd\xe2\xbfj\x1e\xa5\xeb"\xc2\xdd?H\xc3!\xac\x82\x9e\xe6\xbfr\xcd\xcd\x92\x95\xb1\xe0?t!x\xf1 \xb1\xc1\xbf\x11\xb5\x1f.H\xc2\xd2?\xdfv\xdd\x16\xd6\\\xc1?\x00\xdf\xc9\x0b(\xd2\xde?1\xbb\x11]\xcb9\xe3?\xd8\x1a\xf2<\n\xb2\xe5?\x9cW\x96\xc0+\x9a\xe2?Xp\x00N\x13T\xe5\xbf\x06H/q\xea\xab\x9a\xbf\x85\xcf!\x0c\xab\xf5\xd0?9]\'\x8f\xa9\xa8{\xbf`\xcfn\xc5\xa8`\xe0?W\xe3\xd49\x1d7\xd6\xbfTB\x05\xbc\\\xd1\xe4\xbf&8CvE\xda\xd3?&k\x99\xbc\xf9\xeb\xcd\xbfg\xee\x16\xefqe\xe3\xbf6\x17Y\xbdZv\xc6?\x84^\xf3\xeb\xf8\xb0\xe0?{$!>r\xbf\xe3\xbf\xfc Y\xe7\xf7\x06\xc2?\xee\xc1\x96\x92T\x1f\xcf?M\xba\xe3k1R\xe4?s\xe3\xba\x9eT\xbc\xdf\xbf\x90\x82p\xa8"\xcd\xe4\xbf~xb\xa4\xe9\x80\xe6\xbf *jr\xc0!\xc6?\xed\xd6\x7f=P:\xd5\xbf\xbb\xde\x88\x9a\x92A\xe3\xbfM?n\x87\x99J\xdf?Bj\x85\xf4c\x8f\xd1\xbf0\x0eUto!\xe3\xbf\xb3\x9c\xa13a\n\xd1?\x0c\x8c\xfa2\xe8_\xb9?3\xd7\xb1\x94\xddY\xe2?\x82\x9b\x07\xa2:0\xdc?\x11\xb5C\x19\xd3h\xb9\xbfr\x11\xe9\xfd)C\xd9?\xb3M\x15\xef\xaf\x1b\xe1?\xc2\x1f\xebz\xd0\r\xc9?\xd1M\xa7\xb1\x8b\xa8\xa0\xbf\x03\x93\x04]\xdf\xc6\xdd\xbf|\x13\n\xf2?]\xd3\xbf\x00Z\xf5\x81\x1a\xc0\xc0?"\x18]A\xa79\xe7\xbf+G\x13\xfe_\xbc\xde\xbf6<\x82\xe3p\xc3\xc1?\x85\x0f`\xa3m\x18\xe7\xbf\xd8\x8d\x11\t\r5\xb0?\x05\xa4\xfc\x89\xd26\x80?\xb7\xdf\xf3\xec\xa4\x8d\xe0?z \x13$\xaf\x80\xdc?\xdb\xbb\xec!\xd3L\xe6\xbf9y\xc4\x1b\xaeq\xe0?\xa4\xdf\xab\xe4\xbc/\xe5?\x1f\xe3Iy\x8bg\xd0\xbfRnMz\x15|\xdf?\xeb\xbbU\x8a\x0c\x7f\xcf?}x\xbd\xcfz\x0b\xc4?U\xff=G\td\xd2?\xdd@\x18\x91D\xee\xd3?6L\xa4\x08\xbf]\xe3?\xb7d0 B\x15\xda?\xba\x19\xa5, \xed\xe6\xbf\x00*l\xb4\xa5\x8e\xdf?\x07\xb6\xc18r\xfc\xd2\xbf\xd0r\xfd\xe5\xf5\xf3\xd0\xbf\x16\rP*a>\xe5\xbf\x80\xfc\xad\xe4\x80\xfd\xd7?`\x03\xb7\xc4\xdf\'\xba?\x80,\'@\x9c\xdc\xe4?\xb9\xab&\xb4\xf5\xa6\xd0\xbf\xc1Y\rq\x0e\x14\xe7\xbf=\xe4\xe2\x9c%\xa7\xdf?u\xa7\x17\xeb\xd9I\xb1?\xcf\x811\x98\x17\xcf\x7f?\xcfy,\xcc\x0ck\xbe?\xd3t\x9f\xa7\xbb\xe6\xd2?\x9e\xb1e\xb0\xe2G\xa6\xbf@\xaa\x08x@!\xc8?\x11\xf1\x1dC<\x14\xe9\xbf\xc0\xb3\xce.3\x9f\xcd?\xd6\x11\x80M\x07P\xd2?-\xf3\x04M:\x8c\xde\xbf\x1c\xb6\xb0\xee\x9b\x92\xe0?XE\xd1\x81\x1f$\xe1?\xa91\x9f\x91\x97\xf9\xe6\xbf\x1a\x8f\xa6h\x19\x9c\xe3\xbf\xff\xc0:n:]\xd6\xbf\x90\x0e\x17\xe2\xdc\xcc\xca?\x8b\x1d}\xf8\xbc\xcf\xd3\xbf\xd6}\xa8\xfa\x8a+\xbc\xbf\x10\x1e\xd7bK\x19\xd5?H\xa8:\xf9\x80\x8a\xe0\xbf\xdb\xb8\xc9U{{\xe3?\n\x19\xdaN\x8e\x01\xe6\xbfI\x01\x05\x8b;\xc7\xdf?\x9b\x1d\xbff\x86\x81\xc0?\x87/kJ\x17\xf5\xa6?Q\xb0\xea"\x05\xa7\xdf\xbf\xa6\x1d\xb9\xaf\xd2\xb3\xe0\xbfEH]H\xaaS\x91\xbfe8\x9f\xeb\x13m\xe3?\xf6\xc1\xdc@\xa6\x91\xe7\xbf\xbbtt\x81\xaa\xe7\xbe\xbfc\x04\x81ks]\xb0\xbf\xe3\xc2\x152\x88\x89\xe2\xbf\xd1\n<",<\xd2?F\xa64j\xb3\x82\xe2?\xbb\xd9M\x8b\x8ez\xe5?\xdb\xed\x87!\xebH\xcf?\xf2\x19f\xbeb\xed\xe2?\x16\x1b@\xf0St\xd0\xbf\ri:\xc7\xb3\xbc\xe5?4\xd9\xb4_jf\xa9?`\x11\xbf\xab\xbd\xc2\xdc?\xdc\x04\xa4\xe8\xd6\x1a\xdf\xbfW0TM\xbb@\xc4\xbf\x11\x80e\x0c\xb8\xdc\xd8\xbf_\xb2C\xc0\xa2\xa1\xe4\xbf0\xf2\xdd\xb1\x03\x15\xd9\xbf]e\xacT+\xc1\xc9?\xe5I\x87\xa4O\xec\xe4\xbfHn\\\xbe}!\xe2\xbf\xdb\x17\xa3\x19\xd0\x06\xc1\xbfc\x03l0;T\xe6?\xf62\xb5H\xc0\x88\xb9?s\xb6\xa2?\xa4\x02\xc9\xbf*CAe\xd0\xa2\xd4?\x01\x00\xf8\x11u\x19\xd7\xbf\x85\xd6\xbaL\xbbp\xda?I\xc3D\x7f\x8ci\xd8\xbf\x91\xdb\xae7\x8a\xce\xd2\xbf\x84:\x94B)\xbc\xe4\xbf\xe4Px\x8d\xf6\xc4\xd9?\xcb\xb5\xf8\xb0\xe1\xc6\xdb?\xf4\xd7\xdbQ\xbd\xef\xc9\xbf\xfa\xa8\x1e\xc1l\xcb\xce\xbf\xac(\xfb\xe1_\x01\xe0?A\xc0\xb0\xd1%\x99\xe0\xbf\xa0\xf8=&\x8d\xcc\xe3?(\xdd&\t\xea\xce\xdf\xbf\xd0\xcb\x92\x11\x84}\xe5?9\xd2\xd2o:O\xd1?.WL\x8d\x0e[\x9e\xbfy\xe3\xfc9\xb1\xdd\xe4\xbf\xb1\x9e\xfa\xec\x9f\x9a\xcf?\x19\x15&Z\x07N\xc1?\x9b\xbf\xfe\xbc\x01\xc1\xcb\xbfP\x8dR4\xad\xb8\xe6\xbf\x92\xd8\xaf\xf6\x17>\xe7?\xd1\x8a\xa1Zk\x11\xe1\xbf\xa0\xa3h\x13\xb5\x86\xe3?)\x1cp\xec\xa4\xcbq?\x8cU\x1f\xda*ib?\xd6\x8fBw\xfa\xba\xde?Vx`\xb3\x82\xce\xdd?m\x8fST/<\xe2?a\x80\x8aC\xfb\x12\xb5?\xf15\x84vV\xc7\xe6?\xcc\xc5ZZ.\xab\xd3?\x9a\x11\x85\xf7\xbb\xa7\xe4\xbf\xf6.&\x95U\x0e\xcd?\xce\xf1_,\xe4\x19\xe2\xbfY\xe9\xce\xb8<\xcf\xca?\xb8\x0b\xe3\x08\xd9\xcc\xe2?\x95\x04+\'w\x05\xbb\xbf\xa9\x86\xd4\xb6\xf0\r\xe7?\x19t\\D\xfa\xe3\xe3\xbf\xd6\x9e\xb9\xd0c\x9a\xe3\xbf\xde\'\x91\xb6\x14\xc6\xb9\xbf\\]\x9a\xbfJ&\xd4?\x12\xf3u\xbd]\x97\xc7?\t\xeb\x11\xdb\xe1P\xc3\xbf\xa1`\xc1\xa33\x17\xd0?\xbd\xb2\xfdx\xdd;\xdb\xbf \xd6\xe9\xe2SD\x82?\x1f\xe8r\xe8a\x80b\xbf\x9c\x95\t\xf0T\x0f\xc7\xbf\xfe\xfb\xc5\x11\x1bQ\xe3\xbfjxR\xaa\xec\x9c\xdc?P\x19\x8a\x80\x80\xf2\xdc\xbf-\xa9\x05\x16a\xef\xda?+0\xeft\x95\x82\xdc?\xd1Z_\x8a\xc4T\xc6?\x13x\xda\xb8\xb0\x17\xe2\xbf\x9e\x19\x03I\xdf\xd4\xe0\xbf\xd0\xa2\x8e\xdd{\x1b\xdb?Cn\x91rF\xaf\xe0?%\x1c\xaa\xc8\xde?\xb5?\xbeP\x92\xd1>\x8a\xe0\xbf0\xd5\xbf*\xfc\xbc\xe1\xbf,\t\xe5\r\xe3\x08\xda\xbf\xff\xe7:^e\xd3\xe7?\x95\xe1\xd8\xa8\xec6\xda\xbf\xd4l\x8a+\xce\x1d\xb1?\x9e\x12\xd5)*Y\xc7?D\xf1\xce\x7f9\xdc\xe4\xbf\x98\xe0\xcb\xcb\x88\t\xe3\xbf\x9fb\xfe\x08q\x05\xe1?:S=\x06S{\xe2\xbf\xa3\xe6_\xc6\x9eb\xd8?!\xe0@0\xd3\xc8\xe1?\x8a]I\xd2,\xad\xca\xbf\'f\xb2S\x0e\xa8\xe5?B\x83w\x16\xd0i\xa8\xbf\xe7\x08\x99\x90|\x0c\xdb?g\x82Tm\xa58\xe8?\xcc\x07\xbb\x8d\xcb:\xcd\xbf\xed\xb4P+\x15\xc3\xaf?\x14-v\xc8\x1f\xcb\xe5?w\xaf\xc3\x843\xbf\xe2\xbf\xa0\xaafQW\x9c\xd5\xbfX\x9b\xfa\xac\x8e2\xe4?%D%L\xfb\x10\xe6?\x1f8\xd2r\xc0;\xcf\xbfm\xf4\ne\xc6\x8b\xe1?\xfa\x07YZ\x86\xb5\xe0\xbf&\x8a\xe7\xf5\x19\x0b\xd3?#\xbe\xae\x94\xe3\xb2\xda?\x17@\x13Y\x996\xc9?\x18\xc8L\xa2,#\xc5?\xf5r\xe5\xdc\x84\x1f\xd6?\xfd\xdeiSF&\xdf?\xfc\xf2\x1e\x88O\xae\xe7\xbf\xd0\x18\x94\xa3\xb23\xd6?\r\xaf\xbb\x94\xc2C\xc9\xbf\xdd\xa2|\xe9N\xb1\xe0?\x870\xe8\x08)6\xda\xbf\x167bp\x18H\xe6\xbfS$\x15\x85\x8f\xec\xd8\xbf\xea(\x85wF\x82\xad?\x9f%\x1b\xf7\x87\x8c\xe1\xbfC\x91\xbcV:m\xcd?\xe7A\xf5\xaf\xa3u\xc0?\xf4\xf4\xe1y\xd0\x1e\xdc\xbf\x89\x0bR\xb9\xba\xed\xdc\xbf\xf4:?=E\x8c\xd6\xbfM\x1f\xe2\x1b\xd0\xc5\xe0\xbf\xff@\xcf\xca\x04Q\xd3\xbf\x9dY\x87\xc5\x9eC\xe0\xbf(\xbduP>\x87\xe1\xbf!\xe2\xa3\xc1r6\xa3?\xa6\x0f\x10\x95\xbd\xa0\xc1\xbf\xe9\x82JXv\xa3\xde\xbfi5n\x8a\x0cq\xb6\xbf\x90_\x8b"D\xe5\xb9\xbf\xd7\xad\xe13\x8c\xba\xd3?\xdb\xf2H\xb60p\xe3\xbf\xc4h\x98\xee\x15~\xc3?6FJp9\x92\xe7?\xa1t"\xc9 \x0f\xe1\xbf\xd6\x00\xcan)\x16\xe4\xbf\xb8\xcd\x06\xb9\xa4\xd4\xc6?mA\xbfN\xb2V\xe1?S\x94\xbb\x8c\xa7\xa5\xc8?j\xb2\xe5\xdf\x1d\xec\xda?6a!\xe3P\x03\xc4\xbf\xac\xff\xc0\x9e\xfc\xbf\xce?q\xd8\x89\x8d\xab\xd0\xd4\xbf~u\x98\xbe]]\x9a?a\x11\x96kai\xe7?\xf0\x94\xd1\x81H\x00\xd3\xbfD\xfc\nf\xa6\xbe\xc0\xbf\x0f\xe8\xf7\x8b\xa9\xe4\xe6\xbf8\x82\x08>\xa5\x8e\xbf?)\xdb\nnQ)\xdb\xbfp)Ea\xfe\xe5\xba?\x7f\xb6\x9d\xa7S4\xc9\xbf\x05\xcb\xe8\xa3\x89\x04\xe7?T\xcb\xf1]\x8c\x1b\xdd?@\xd2\x18\x0f\xe1 \xcf?\xd70y4\x90\xac\xd5\xbfF<\t\xfeP\x11\xe2?\x1ch\x95\x13A\xef\xd8\xbf\xf1\x82\xbb\xec\xcbO\xd5?W(Lz\xc0E\xdb\xbf\xf2pS~\xf5o\xe0\xbfDX\xa9\x9f$>\xc2?\xcb\x1f\x9b\x89\xcci\xd2\xbf\xdd\x00\xd4\xbbPK\xd5?\x12\xdc\xe1\xf9`U\xe2?\xa8q\xd5\xaa\x18$\xe1\xbf\xce\'\xdc\x15\x03\t\xcc\xbf\x8a\xff\x1b4\x9a\xf4\xd8\xbf\x9a\xc8\x81\xa7~\x12\xe9\xbf\x13\xea%\xaa\x87\xdc\xe2\xbfu\x9eh\x0b9l\xe3\xbf\x8ee\x87\xbf\xcc<\xdf?D\xf6-Ua\x1e\xe2\xbf;3\xb7R\xbaV\xdd?\xd1\x06j\xd3\x96\n\xe3\xbfG\xbe\x92^|\x1c\xe5?\x83\x0b\x7fs\\\x08\xe3\xbf\n>\xa2X\xd0K\xc3?C5\xe3_\x9e\x18\xe6\xbf\xe4\xb6,\x96\x02\x11\xd2\xbf+\xf7\x04\x9c\xc7\x03\xcb?\x7fb\xb7\xa0,\xed\xe3?@\x98\xd7\x14Bh\xe1\xbf]\xddJ\xf3]\xc7\xbd\xbf;\x0f\x97\xd7\xbc\x81\xc0?\x91\x1b\xf1\xf4j\x01\xe2\xbfP,\x1c2\xd1\x15\xbe?3I\xe6\xcc|,\xe3?\xfe\xfd\xfc\xb3T\x1f\xb0?\x99\x92\x85%|\xdf\xc8\xbf\x8cH\xd9|\xce<\xe0\xbf\x15L\xeb\x83r\x80\xdf\xbf\xdd\x83\xed\x99tC\xd1\xbfFL\xf9=\x00\xc1\xe6?\x7fXwV\xd5\xe6\xb9?^]\xc4"\x95_\xdf\xbf\xef\xa0/?W\r\xe5?k\x91l\xec\xa0\x9c\xe5\xbf[\x8fR\xde\xac\xee\xdd\xbf\xec(\xb8c )\xa8\xbf\x84j\xcc\xcbMD\xe8\xbfZ\xd5\xa1\x00\xbd\x95\xd6?\xb5\x9e\xf8{\'V\xb6??\x01k\xd3\xdaX\xda? \x11\xeb_\x9e\xf2\xc8?W\x03\x9b\xa8\xb7\xeb\xe4?\xef\xd4%\x7f\x8e\xf2\xd1?vT\xff#\xb1\x0b\xe2?\xfe\xda\xc8\xac\x90G\xb8\xbf\x152=\x97O\xc7\xe6?q\x1d}\x849P\xb3?\xbdg\xe3\xae\x12,\xe4?k\xb8\x9d\x01\x94n\xd4?\xaak\xb7\xdd\xa3d\xb5\xbfK\xb5\xcf\xfbV\xcb\xe2?\xbd\xb4;\x8b\xce}\xdc\xbf\x06\xf7.\x8c\xbcf\xd6?l\x9f5-:\x96\xb8\xbf\x03$\x0f\r\x15\xb5\xe0?\xc5$\x7f "\xfa\xd0?\xbeH\xe5\xba|3\xe6?\x99\xe6\x9e\x10\xdfF\xdc\xbf|\\\x947\xf2d\xd5\xbf\xb3\xfb9\x07R\xca\xe7?\xcdL\x1fr\xfb>\xb9?\xa8\xf8\x04D\x19\xfd\xe7\xbf\xfa\tg\xf7\x7f%\xd6\xbf\xa6\xa5\x1bT\xd5E\xad?\x06\xae\xe9U\xc9{\xd4?\x86\x8ek\xcdq\x8c\xe8?cF%\xc03\xb1\xd7\xbf\xce\x06\xdc\xcf_\x8a\xe6?N\x86\x19\xcb\x82\x05\xd3\xbf\x9d\x82]\xd1d9\xd9\xbf\x11\xbb\xd4%\x8d\xcc\xe1?\x1e\xbdk=-\xb8\xd8?!\x93\x7f\xf1kV\xe5\xbf\xcd\x87`d!\x8b\xba?dP!\xc5\xf5\x0c\xe3\xbf\x82\x86\xe6P@:\xe2?\xb5\xa4\x9e\xf5\xa0O\xe8?[\xc5l\xc2\x104\xe9\xbf\x90q\xc4T\x18q\xd9\xbf\xf6\x9f\xfbb\x937\xc1?\xe3\xb0\xe2\x9a\x8b!\xe8?\xb8\x918\xe2~\x18\xd6?\xde\xf1\xda\\\xc9\x87\xd5\xbfm\xe3i\xd2\xd5r\xda?{7\x8as\xeca\xd0\xbf\xb2\x00\x8c\xd2[\xf0\xd3\xbf8\x0e\xcc\xae\tJ\xc4?\xf2{\xc1\xdb5\xa7\xc3?>\xe6M\xd7\xf2\xf0\xc5?K\xddA\x16\xd0*\xa6?`3\x8dK$\x95\xd1\xbf\xd7\xd7\xe3z\x07\xdc\xc6\xbfJ5\x00\xc6\xe6@\xd4?\x11\xd8\x9cy\x11s\xe8?\xf9\xb0;r\x88\xc6\xe4?\x03\xa6\xc5\x8f\xbe\x05\xe6?\x92\xe6<\xe1O\xa1\xde?\xc3![\xfe)\xe8\xa9\xbf\xb7\x9d\xb0\xb95\xda\xe7\xbf\xde(mB\xbd\xb1\xe0?\xc6`\x182\xcb+\xd5?\xe7\xb2cD\xe1\xcf\xad\xbfk\xd3\x1d\xa0$K\xc9\xbfU}+\xf6\x06\xfb\xcf?\xc8s\xf0#\xeaf\xe0?\\\xae\xa7\x87\x85\xf6\xdf?\xaa\x01\xd7\n6\xbd\xcc?09#Y\xf9\x1f\xc8?\xbd\xc0\xb3>iw\xb3?\r\xdf\x07\x04b\x8e\xc2?\xc3\xb9\xd0Z\x19\xf1\xe3?\x1d\xccZW\x9cW\xc0?\xf42\xb2\xc4\xbd\x99\xc5\xbf\x9e$0\\N\xb1\xeb\xbf\x01yJ5\xca.\xe1?2K\xc0\x1a\x02\x0e\xd6?\xcf-\xb8,\x8as\xd4\xbf\x0e\x13\xb4@g\xa4\xe7\xbfd\xed\xb7\x0e\xd7\x94\xbb?w\x0c\x87\x85\x87\x02\xe5?\xb8\x8d\xfa\x8a\x07\xff\xc4?\x0b\xce\x0ebK\xc7\xe2?\xe7r\xa6\x00\xef\x84\xc5?^\x06\x05q(\xab\xe4\xbftn\x80\x90\xf3\xd5\xc1\xbf\x99&pP\xd2|\xdf\xbf\x12\x88\xa0\x1b\xe0\x00\xe8\xbf\xdc\x03\xd9Q\x01y\xe0\xbf-4\x08\xb5\xb9\xf1\xe1\xbfG\xb9\xdeN\x86\x9f\xe0?\xaa\xf6\x05\xe8i\xba\x98\xbf\x1e\x14\x11\x17\x99\x8d\xc0?f+\x9eG\xad\x07\xe7?&\xfc\xf4yD\n\xa0\xbf\xbc\xdb\xd2\x17[l\xcb?\x0c\x9cWP\x92\xf6\xd7\xbf\x05\x1c\xe1\xfcR\x8e\xd1\xbfn!\x8b0za\xe3\xbfh6E\xccH9\xd5?\xbcO&W\xac\x9d\xbf\xbf\xc1\x109\x14\xe9\xbc\xc5?\x15vi\xf9\xf5\xd5\xca?G[\xc7v\x19\xb4\xa4?\xa5\x9b{\xa3\xc2\xc8\xc1\xbfw0\x18>\xe1+\xe2?}~+\xdb\xe1\xa6\xb2?\xd7\x84tE*,\xa9\xbfbl\xdb\xc2T\xd3\xd7\xbf\xa4U\x0b\x9d\xdb\\\xc1\xbf\x88\r\xea\x93+?\xdc\xbf\x1aT\x92\xd5\x8b)\xad?*K\xb5W\xf6$\xe4?-\xcbe|qO\xaf\xbf"\xbf\xd9\x92\xc5>\xea?h\x14\xebT\xe8H\xe4\xbf\x87\xe1\xc0V\xad\xc2\xe8?\x81\x03\xa5W\x1c\xe6\xd3\xbf\xc7\x88\xd3\xcc\xdf\xb1\xc8?\xd4o\xe6\x88\x14%\xe5\xbfT\xaf\'\xe7\x83\xf8\xbe\xbfh\x1dj*8\x96\xe5\xbf\xb6Q\xee\xbd\x01\xd9\xb7?K\xca\xe1h\xf3\xd5\xe0?\x1d\n\xb3\x0b\x0f\xbd\xdb\xbf\x1eP`\xdbX\r\xdd?\x8d\'kz\x91\xcb\xe3?~PF\x00\x8fe\xe2\xbf6`W\xb2=\xd0\xbb\xbf\xa2\x17Xv\x0b\xd7\xd6?\xebWhz\x83\xdb\xd3?\xea\xd1\xce\xb2\xe2\x83\xe4?EZ\xbf\x1d\xba\xff\xd8\xbf\x9d\x86\x9b\xd4TR\xe0?@\x9d\n\xaa\x1f\xf2\xcc?\xfa\xa7\xce\xf5P\xbe\xd2?\xc9\x88\xfc\xf0:\x04\xd3?Jz\x07\x06\xef\xe6\xd3\xbf\xb5#<\x13\xa4\xc0\xd8?\t\x9e\x82 \x9c\xcd\xd1\xbf\xa9M\xe0\x05\x16i\xe1?"[*\xdf\x06n\xd2\xbf0x\xf9c\x07\x0f\xc6?0q\xc3\xec\x03\xc0\xe6?IsK\xac\xc6\x19\xe5\xbfn\xfe;O\xf5}\xe0\xbf\xa6\x97\x97\x07\x03\xf4\xcc\xbf\x8a\xddN$M\x80\xe5\xbf\x0cJ\x96A\x99s\xde?e\xaar\xb4\xf57\xdc?\x1f\x81\xee\xb2\xb3\xcc\xd0\xbfh6p\xdd\x17K\xe6\xbf\xc7\xf3\x82\x84\x06f\xe2?<\x003\xd3\x1f\xcf\xd9?~U\xcc?>\xfd\xb8?Ov\xec\x93\xdd\x16\xe2\xbf\xa9\x1d\x96Sud\xd5?\x1a2B\xa2\xa8\x99\xd2\xbf\xe2d\x96\x1f5\x0c\xe0?\x9a\xd6\x9b\xc7\xff@\xd1\xbf9\xf1\x0bj\xd8\x81\xe7\xbf\xde@UO\x14H\xc9?\xb5\xbf\xe0\xa6jT\xe0\xbf\x17\xd5\xe1U\x80h\xc5\xbf\x0eo\x93\xe5W\xe0\xe1?dx\x87-<\xb0\xd3?\xad\xf6Ty<\x8a\xdc?+g\x94Pw\xf7\xe6?\xa4\'\xb52\xde\xce\xe4?\xf3OT\nO\xeb\xca?\xec\x17\xf9\xe6\xce\xb1\xe6?%(\x1ag@\x05\xcc?\x9e\xc4\xe0\xfah\xad\xd6?\x0e\xed\x87\xe1\xef\x05\xdf\xbf^\x8a\xfeQ\xf9\x03\xc4\xbfU\x1f\x15\x0f\xd92\xe4?\xee\xdc*\xda\x85e\xbd\xbf\\\x1b\xd6\xe32\xfa\xe2?J~{\xa0\x90\xf2\xc1\xbftpP7\xea\x1b\xe4?\x1bt9ib\xf4\xc6\xbf.vP9)\xa7\xe1\xbf\x99\xe4\x08\xc5cL\xe7?\x83\xf7\x9c\xa3$\n\xd2\xbf2\xa4=\xe8i\x18\xe2\xbf\xa9DE\xfb\xac-\xe5?\x96\'\t\xafq\xb0\xe2\xbf"a\xed\xdd\xa0\xb8\xde?Z]\xfc%P\xcb\x96\xbfN\xf6L\x9b\x11\xfe\xcc\xbf\x10\xb9S\x1dp\xec\xe5\xbf\xc3v\xbdf\xb1\xee\xd7\xbf\xdfy\x10*\x83\xd5\xd4\xbf\x8fG\xbbP\x9d\xa1\xe4?\xf8\t\xeaP\xf1\xdb\xa3\xbfM\\;\x1b\xb0\xb3\xd3\xbf\xe9;\xd7\x92\xf6X\xc4\xbf\xb5\xbfq\x05 u\xc4?\x02A\xeb\xc2+\x0b\xe8?9\t\x14\xd0\x9f\'\xc7\xbf\x84\xda|t\xc8x\xdd\xbf\xde\'\xce\xae\xe6\xc8\xdf?vH`\x99\x84\xd9\xdd?\x8a\x1bxzA\x06\xba\xbfZ\x8b:\\W\xd5\xdc?\x12du\xb79\xce\xe0?\xe0_N\x1e\x15\xf1\xd6\xbf\xd8\x8al\xfa~\x8a\xd4??\xba\xbaNck\xae\xbf*\xc6\x05\xb4\xbb\xb0\xc9?db\x0b\x8a\x9b\xeb\xe4\xbf3\xed\x80]\x83\xde\xcd\xbfQ\xae\xb3\xd2\xd0\x0b\xc9\xbf\x17\x07\x14\xe6(S\xdf\xbf\xd5^\xbd-q\x98\xde\xbf\xd4E\xaa\x957\xbb\xbc\xbfib\xed)\xf1\x83\xc8?\xb7\x0c\xe6\x08\xae\xa6\xc4?~\xef\xef4\xed\x1a\xe7?\x95\xa8\xd9\xacj.\xe8?\xe5m\'\xe4U\x1f\xcb\xbf\xcd3\xc6z1\xd2\xc9?\xa5\xe6\'\xc2\xf5\x95\xd4\xbf\xf7A)\xf8\x0f\x07\xe0\xbf\xa70\xae\x0f\xacI\xe9\xbfi\xd9$\xc6\x80G\xd6?\xc4\xb0\xca%\t!\xe4?S\xb4"g\x93\xfc\xe3?h,\xf4\xb4?\x99\xe0?\x9bT2\xf2M\'\xc6?\x15\xad\x05\x85x\x04\xe8?\x1c\xcd\xc4\xbfw\x1f\xda\xbfI[\xc2\x0eX7\xb3\xbfk\xedE/\xe9G\xc9\xbf\xb3K<Bq\xa4\xde?\xe67\x7f\xcc\t\xf7\xbc\xbfB\xedm\xd9\x13\x84\xd9\xbf\xa0\xea;\xbe\xe45\xe2\xbfTj\xfe\xf5\x0e\x88\xdd\xbf=sK\xe3\xc0o\xe7?c\xfb\xa0\xd2\x1eZ\xc2?\x04(\xa3\tJ\x0e\xc4\xbf!\xe8\xd0\xd7\x96\xc3\xc4?\xe1\x91L\xe3\x8b\x9a\xe2?\xd9t\xb1\xaf\xb2\xee\xe5\xbf\xc2N\xa3\xd8%@\xd8?h\xc6\x83\xf1\x84\n\xc8\xbfCR\x0e\xc1\x8d\x81\xe0?\xae\x1aD1\x89\xec\xe5?)\x97\xfe\x80(o\xc4?\x8e\xb5\xeb\xbcw9\xd8?\xec\xe72\xd4\xb2\x11\xe0\xbf\x04#\xc2\x7f|\xcf\xcb?\xda\x08\x17`nbN\xbfv\xb0\x94\x95\xe6\xe4\xcb?\xd1\x1fZU\x80\x9a\xde\xbf\x827F"F\x82\xea?\xe7\xf3\xa2\xcfA\x04\xcc?\x1fu\x9c\xb3\x805\xc3?\xf4\xda\x94\xc1\xaa\xbc\xe7\xbfq\xe7K\xf3Kbt\xbf\xd3\'\x80o\xaf(\xe0?\xd4h&D\xec\xad\xe9?\x08y\x8e\xd8\xd4\xec\xe0\xbfO8>\n\xfc\xe4\xe0\xbf\x1e?\x15&\x1d&\xe6?\xc2fW\xd9\xfcg\xd3\xbf^\x05\xb3c\xbb\xfa\xc7\xbf\x0f<\x13\xd6\x85\xdd\xe5\xbf>B\x88^E;\xaf?\xf5\x04\x08S\xcb\xb2\xd6\xbf\xc9L;X\x9b\xcf\xc8?\xe2\xc0\xd1H\rF\xb8?\x81d\xd0\xf3s\xfe\xd6?\xbb{\x06\xacS\x8f\xe1\xbfO\xba\xd5\x8b{\x92\xd6?\x85\x13\xa7\x8al\x86\xc8\xbf2\x02\x8dV\x18y\xe6?\xed\x07\xfe\xe2G\xb1\xe7?\x88\xd3 \xfc_Q\xd2?\x86\xd2\xc1\x00\x07\x18\xb0?P\x9d\x87\xafd\x9e\xbe\xbfW\xa82h\xda\xda\xd0\xbf\xf7\xdc\x80\xa8G\x0c\xe9?\x95\xe0\xb5\x0bX\xbd\xd8\xbf\xe6\x97\xb0*\x98\xab\xb9\xbfI\x861\xadNx\xd3\xbf.A<\x1e/\xcd\xd4?"\xb4A\xfdD\xb5\xca?\xe2\xa8\xba(vy\xe1\xbf\xf3\xbe\xcc\xbb\x958\xc7?\xaf\xc7\xb3s](\xbe?J;X{\xf4\xa8\xb1?\xb6\xbbs\xd4\x8do\xe0\xbfX\xfe\x9c\x83\x03"\xd1\xbf\xb2/\x00\x195o\xe8?\x93\x00\x96\xcb\x80-\xe0\xbf\xcd\xa7\xd5\x13yd\xdd?\x1an\x16\xb8*\xc6\xdc\xbf[C<\xad\xf3\x03\xd1\xbfw\x01\xa6\x1dq1\xde\xbf\x1f"\x81F\x05\xfa\xd9\xbf\xff\x95F\x1c\r\xd1\xb8\xbf\xd2Y\x8f\x943\xb7\xdd?\x82r\xdc\xb4\x99v\xdd\xbf1\xab\'\xc92\xab\xc0\xbf\x1d\xf4R\x8c8|\x88?\x07\xa8\x7f\xa0\x8d\xfa\xb0\xbfI\r;\xbc%\xce\xea?\x10\x8f\x0cs\xf9/\xb3\xbf\x97\xc0\xd3\x9f\xa5\xcf\x9e\xbfU\x0f\x9e\xb1\xab\xe1\xcc?x\xb2\xc7g\x15\xb5\xca?\xd5\xe1E[\xa8\xd6\xe0?\xa5"\xb4NR\xe5\xe8\xbf\x10\xd1\xac\x99\xa0\x8f\xc3\xbf\xbf\x16<\xc4\xcf\x0f\xca\xbf\xd6\xd3\x98sV}\xdd\xbf`\xbe\xc2\xcd\xb3\x8a\xd8?\x8flD\xa5{S\xea\xbf<D\xa4\xbe\r\xd6\xa8\xbf\x1d#6\x1f\xc0\xd2\xe3\xbf\xaf#K\xb0\x99J\xd7?SWH\xf9\x80\x0c\xec?\x98\xce\xd5g4`\xdc\xbf\xb5~UL\xb8\xec\xcc?\x8b\x82@\xd3\x8c\x19\xc8\xbf\xa4\xb24\xfa\xc9\r\xe6\xbf\xf5\x9c\xf9SS|\xbf?\x1dH\xf8\xc2\x97f\xcd\xbf\xe6|\xc9\xc6\x10/\xcd\xbf\x18!\xd3\xd7\xf3F\xe5\xbfpc\x9b\x9aq\xf6\xe5\xbf\x84 \x83\x9fb\xdc\xc5?e\xbb\xba\x053\xdc\xe2\xbf\x88@\xbfY\xf5\xc4\xb4\xbf\x8e\xa4\xd2\xa4\xb3V\xd2\xbf6\xc9@\xb0c[\xe9\xbf\x1a\xad/\xb49.\xb8?y|\xc78\xab\xd1\xe6\xbf\x1fR\xd4\x1f\xb7\xbd\xca\xbf\xf7\xdbMUV\x1b\xe4\xbf\xba9S\xcaj\xfd\xd8\xbf\rc\xa2\xfb\xa9F\xe4?9\x95\t\xf8\x84\xec\xc4?\xca\x9e\xf0\xb7\x0c&\xd9?N\x14\x89\x88\xa5\x0e\xd0\xbf\xb7i$9\xa7Y\xc7\xbf\x1c\xe9k\xd5\x1aN\xe6\xbf]\xe5\x9d\xa8\xefu\xe4?\x99mV\tP;\xd7?\x95\xcb,\xc7?\xfc\xd0\xbf\'Y\x7f\x0fG-\xe8?\xb3\x11\x96\x9d\xed\x99\xe4\xbf\xb4\xb7$\x9c{\xa4\xc7\xbfO\x82\x95\xba;.\xb1\xbf\x1d\xef\x87\x0f,"\xd5\xbf\xeb\x87\x81\xe2\xc6W\xdb\xbf\xe5\xbd\x8e\xd9\x0c9\xc4\xbfh\x9a\x80\x13\x89\xe8\xbd?kWU\xbf\xfc\xfb\xcf?+{\x00\xcc\xc6\x1e\xc1\xbf\xdd\n\xe4_u\xc4\xe3\xbf\xb0e\x93\x04~}\xde\xbf\xec\xe3\xc4\xdfYX\xe8?\x94\x83\xd4R\xfc^\xd6?f\xa2\xb4\xea\xdb\xd4\xdc?\x01-\xe9\xc2\x8f\xee\xc8\xbf\xb3\x9e\x82\x8f\xceX\xbb?\xd7\xbbt\xf30\xe0\xe1\xbf.\xd2\xe6\x92\x85#\xbc?\xc5\xb3\xc8\xd8\x85Y\xdc\xbfV\tQ\x840\x01\xe2?B\xba*\xdey\x1f\xdf\xbfp\xd7u\x10F+\xe5\xbf\x16\r\xcb\x8b9\x15\xcf\xbf\xe79\xd3\x17\x88\xdc\xe6\xbf\xdc\xfc\xe9\x83\x08[\xdf\xbf\xd8K6\x01\xff\x1a\xc6?\x05\xd7\x92%\x97:\xd5?\x9b\xd6\x1e\xe8Zx\xd0?q cF\x02\x8f\xe5?N\xe4\x1bh\xb2\xc8\xe0\xbf^j\x88\xdd\x0b\xd9\xaf?\x99 \xb5%r\x9f\xe4?\x94\xd3\x10\x9e\x7f\xd4\xc2\xbf\x9c\x92\xf9\x16m\xb0\xe1\xbf-\xbc\xaf\x8dYC\xda\xbf\xd9\x1b\xf17T#\xba?\xb2\x0es\xb0\xac\xd1\xe2\xbf\x0e\xa0\xda(a\xb2\x83\xbf>\x1f\xeb\t\x1f\xd9\xe0?|(%\x96\x1f\xe8\xdc?\xbcw\x03\xfb\x8e\x05\xe1\xbf\xefG\x9b\xb7\xc2L\xd9?\x9f\x02\x02+\x1fy\xe6?\x0f\xeb\xb4\xec\x19D\xd6?\x8dy\xae7\x8a\x12\xd3\xbf\xb3\xcbh\x1fS\xb1\xd9?\t\x05i{y\xbe\xb2\xbfn\x1e\xc6\xd5E\x14\xe0?%F\xac\xa7\xb6\xf4\xd0?\xba\x08\xdc\xed\xf4\x93\xcd?IQ\x08"\x0c>\xad?\xc8[\xd9$x\xab\xe5\xbf"\xd7/?\x1a\r\xe6?\x90\xbd\xa8\xf7\xe6\xc4\xe6\xbfH\xc4\x07\x9e\xfa1\xd3\xbf\x91\x88\xc2\xca\x8c\xdd\xe4?\x1fy\xe2\x83\xca\x08\xad\xbf\xe4.\x04(e\xde\xcf\xbf\x0b\x8f\xb5\xad\x92\xd1\xd7?\x0bN\x87\xa5\xe2\x99\xd9\xbf\xf4\x8d\xec?~W\xdf?\xa0\xcd\xe2\xaa\xa7\x90\xcf?\xa6\x87O\xdd=\xa9\xe3?\x02Y/\xd6\x19|\xc7\xbf\xf6\xa0`U\xc3\xd0\xe3\xbf\xccA\xac\x98\xaf\xe8\xe0?\xae\xab\x15E\xba\xaf\xe4?\x11{\xff\xf3\xa8\xe4\xce?\x88[!\xabi\xf5\xd7\xbfYV\x8ac\x945\xc2\xbf\x9b1n<\xc2\x8d\xdf?2\x9f\x18\x82\x00I\xe6\xbf\xc4a\xa3\x11\x8e\xb7\xdc?\x8dqhn\x04p\x9e\xbf\x83\xd2\x9em\xab\xbf\xde\xbfamo\xbcK\x95\xdb?cc\ns\xdf\xf1\xe2?\xa6#Q<\xa6\xdb\xb0\xbf\xec\xca\xab\xbf\xba\x98\x81?X\xed(*\x9e\xdd\xd1?F\x04\x07\xdb\x04\x18\xe6?\x84\xf5?8z\x16\xd0??W\xb59X\x93\xe0\xbf\x91\x83\x8a\xfa;\xf3\xd8?\xb0\x89\xab\xf3\xc8\xca\xdf?\x9a\xcc\xceL\xc0R\xe2\xbf\x99\xba\r\xaf )\xdf?U\xb3\xc2\x04\x04\xfc\x91?\xfe\x13\xd7os\\\xd9?\xca\xa4\x8dH\xbb\xd0\xcb\xbf~J\'!\x8d\x11\xd7\xbf\xbbR\xf6\xf7\xdd&\x9b\xbf\x03Z%\x9a\x9f=\xd6\xbf\xa9\x87\xdb\xecTZ\xd3\xbfyn\xb2\xf7\xb5\xa8\xcb\xbf\xf6\xe70\xf4$\x9d\xe9\xbf\xea\xdb\xa1\xbc\x7f\x94\xe6\xbf\xf5\xb9\xbb\x81A\x17\xde\xbfP\x96\xa6\xe8\x9a\t\xc2\xbf\xb9\x9a>L\xf0\x05\xd0\xbf\xfc\xda8=\x90|\xd7?\x8b\x82\x95\xc1\xd0\xfd\xd2?\xeei?\x15j\x80{?\x8b\xd8\r\xe2\x10\xc7\xe4?m\xdb@S\xf1e\xe7\xbfH[\xfa\xfd\xa2\x8e\xd6\xbfO\xc2\x15^\xd3\x92\xe2\xbf\xb8K\x92e\xc8\xa6\xe1?t\xa1\xe64\\*\xc2\xbf\x000\x1fFfE\xd6\xbf\xa7\xa8DZ$\x0c\xb9?\x93\x10\xf1\xe2\x89\xf6\xe5\xbf&\xb0w%\xd9\xfa\xc7\xbf$\xb0i\x01M\x9d\xd6\xbf>\xdc\x1dA\x9a\xd0\xdb\xbf\xedv3\xb7\xf3T\xe5\xbf@\xeelH\xa0f\\\xbfy\x10\xa5\x0eA.\xc7\xbf\x96;\x82_\x8e\x98\xb7\xbf\x8e\xeb\xf68\xde}\xe5?\x18\xf5\xc4V\x7fj\xd7?3F4?7\xd5\xcc\xbf\xce\x18Y\xc2\xe7\xfa\xb0\xbf\x87\xc5\xd4\xcf:D\xe1?\x88=u-\xd5q\xe3\xbf:O\x8a\xb2\x19Y\xe2\xbf\xf9\xeb{\xd3\xd3\xe7\xe8?o\xb2\x93?~I\xe3\xbf\xdb\xfdQ*\x1cG\xe2?fbYP\x87\xf7\xdb?\xe0\xff\x98\x1d\x9f;\xe7\xbf\xd2v\xf3\x929y\xbf?\xd4B\xaa)@\x04\xd8?\x08\x91\x0e\xfa-\xd9\xe3\xbf\xa6x\x8do\xc2\x9a\xd6?D\x101+]\t\xdf\xbfO9\xb5!)\xd6\xca\xbf\xf3|\xccv\xf2\x8e\xe5?\x92\x90\xdd\xa2\xfc\x03\xbd?\xa4\xb5\x0e\xe8\xca\xc6\xe6?\xb4\x06\x99\xbf\xd6\xd7\xe6\xbf`\xfak\xa6 \xf0\xe3\xbf8\x01\x10F=\xb5\xc4?\x88%\xa6}\xd4\xf7\xd9\xbf\xedF8n\xbb\xae\xb7\xbf\x9cx1\xbej4\xe6\xbf\xf4\xdc\x7f5=W\xdd\xbf\xda\xfa\x90\xbf?\x91\xd4?\xca\xd7b\\\x91Z\xd1\xbf\x15\xafv\x8e?\xdb\xb5?\x90\x94\x16>\x9dJ\xe8?\xe7\xc5\xc2\x9bZ\x02\xcd?\xd3\x12T\xbd\x1a\x80\xdd?\x0c\xd8\x0b\xb7\x07k\xe3\xbf\xef7x\xfc\xb2\x0f\xc4?*\xf7r\xf2m\x7f\xe0\xbf\x85\xfa!;#=\xb3\xbf%\xf0\xe3:sR\x85?j%\xf7\xcc\xba?\xd1\xbf\x8c\xac\x83\xd7\xb9a\xb1\xbf\x04\xd1Uj:;\xe7?\x9aV\xc1\xc4wI\x9d?\xf5J\xe7.n\xf0\xd5?\xec\xce@\xab\xe35\xd8\xbf\x8e\x9d0\xb9W\xb8\xd1\xbf\xa33\xcd\xeb\xe2\x9c\xe4?s\x96\x8bq\xb1b\xdc?\xf4\x93\xef\x15!\xd8\xe0\xbfa8\xe2\xab\x0e\xbe\xdc\xbf\xe6\x1b\x91\xc0\xccE\xcf\xbfaCD\x10\xae\\\xd3\xbf_\x93/\xf0\x1e\r\xc5?\x9e\x01*\xb6\x8f.\xb6\xbf\xbaL{\x0b\x0f\x10\xe0\xbf<\x8a\xdef:\xc6\xe2?-Wpn\x9c\xd9\xe2?\x9b=\x13\x9b]\xe9\xe4\xbfD\xf9\xa3\xdc:\xf3\xe1?U~\x13\x9e\xa3~\xe0?\xe9\xe6\xa9&\xe3\xdd\xe0\xbf\xf0E\t\xf0\x7f\'\xc8\xbf\x17B%\x0b4:\xdf\xbf\xcc\xab\xcf|\xf4\xf1\xd6?\x8f\xc7e\x88\xa7n\xe6\xbf%\xe4\xe7\x16\x8c\xd0\xbc?\x9d%\x0b5\x97\x8a\xcb\xbf\xcd\xde\x9dXt~\xe3?\x04\x8aq\xcbo\x03\x93\xbfC*Y\xdbnw\xe4\xbf\xa8\x04P\xfaj\x12\xe1\xbf`$\xdb\xb9&d\xcd\xbfp\t0\x04+\x0f\xe5\xbfF\x8e\xde\xbe\xf5\xce\xd8\xbf"\x99\xd2\xab_\x19\xd5?\x8aC\x16@\xca\xe3\xdc\xbf\x9a\xfa\xb6\x05\xb2\xb5\xc6\xbfF\xa7u\x9c8R\xe3?1\xbb\xb2\x9e\xd1\r\xdf\xbf\x86\xf7g3j\x8f\xe5\xbf\x9a\xc1J\x91|\xab\x85\xbfO\x16\xb8\x19F\x16\xba?\xdf\xa9\xe6HC\xa9\xe4\xbf{\x88\x94\xda\x10\xe8\xce\xbf\xfcx\xf7\xf0\x03\xbe\xe6?;B\xcdR\n\xe4\xc3\xbf&\xfd\xad@\x13q\xe6\xbf~$\xca\xf4\xf8\x82\xda?\x9bB[[\xb74\xce\xbf\xcem\xaf?\xe8t\xd3?\xce\xac\xd7[\xad]\xe6?\xffl0G\x1e \xd3?\xb0\x18\xd2\xa78\xda\xb0?\xaa\xc7\t\xae\xf8\xd1\xd2\xbfJ\xd8\xdcw\x82\x9a\xda\xbf\x7f\xe4\xebF\x8a\xad\xd9?0\xdbqz\x83\xda\xdd\xbf\xb2e\x9c\xb9\xeb\x9c\xe6\xbf\x7f6\x1c\xee\xf0\xe8\xe2?\xb6\xa2\xa6\x14\x90.\xd6\xbf\xc5\xa7\x8c\xb5\xf1"\xdb?]\xfc\x14\x80\xb8\xc5\xd6?\xa2\xcd\xd0\xfe\x1e\xba\xde?\xa9\x08\xbdPQ\xe6\xc0\xbfCF\xe9\x15\'9\xda\xbf\xc7eg\xda\xd8\xc3\xd4\xbfm\xe2\x11>t9\xe1\xbf\xa5\x04\xd0>[\xf2\xe2?\x9c\x8b\xae\xf4\xfc\x11\xe6\xbf\x19\x04##C9\xc4?\xab\x00R\xef\xdd\xdd\xd0\xbf\x87\xfe/;b\x04\xd5\xbfNVg\xfb\x034\xe3\xbf\xb9u\xe4\x86%Y\xbe\xbf#\xf7\x88\xf0\x1b]\xd8\xbf\x95)\x0e\n\x98"\xd3?hR\x9cZw\x18\xd3?.\x9c.Q\xf0k\xe9\xbf@\xf3{*\x07r\xe2?\xa4o[?\xfa%\xe1\xbf7\xcf\xa1n\x17\x05\xe1\xbf\xea\x8f(\xf6\xea\xa0\xda?\x93=\x17\xb8\xd3\x1b\xd6\xbfT\x87__G\xed\xc0?\n\t1\x0b\xd2\xa6\xd5\xbfWZ\xf8AE\xf3\xd0\xbf\xc5/]*\xc3\xfe\xc7?q_\xc3!\xc7?\xe3\xbf\x1b\xd3}GQ*\xa7\xbf\xcb[|\xdb\xd0\x07\xe3?\x08\x99\x9a`Q\xaf\xbf?;\x8b1\x12\xa88\xe8\xbf\x81\xb5\xee\xd5\x1ds\xc6\xbfZ\xe2X&\x8e\xe5\xe0?\xd3\xc2\xefl{w\xd2\xbf\x8e\xbaSayq\xd2\xbf!\x0cWC\x15\x04\xd3\xbf\xbb\xd2(\x1fF\x92\xe0?\t<\xd5L\xe3n\xd4\xbf.\xf9\x9d!\x86h\xb2?\xe4\x84C\xbb\x1e\x16\xc9\xbfo\xf1`\xb3\xc8E\xdc\xbfZ\xc4pt\xda{\xe3?b3~p\xa5\x82\xcf\xbf\xc4\xe2$\x8d.\x7f\xe2\xbf-\xfc\xaa\xd4\xd9\x84\xe4\xbf\x84\x93\xf5\xb4*\xed\xe7\xbf\xc6\xab\xefa%\x0b\xe4?}\x86\xe4(\xa7\xb6\xe4?\x841\xbe\xd4:\x15\xd6?\x8ep~\xfb\xef\xb9\xb0?\xcbM@eg\xb6\x80\xbf\xc7)\x11ov\xf5\xdc?m\x08c\xc1x\xbe\xd5?\x16\xd8.\x05V\x14\xe5\xbfR\xfc\x01\x9d\xc7_\xe5?7\xbd\x8b\x00L\xeb\x90?\x8e%\xbd2\x16\x0b\xc9?S\x93:\x13Z\xa4\x88\xbf\xfc"\xf3!\xe9\x1bd?\x8c\xc7eC\xa8\xcf\xdc?g,2w\x80\xde\xe2\xbf\xa1\x7f\xa3\xf3\x14~\xdf?\xf4\x97\x12\xd4(\xb9\xd1?\x80\xe6$\x84\xba4\xde?p2\x04"\xcf-\xb2?\xads\x1b\x84lb\xe6\xbf\x02e\x92o \n\xe3\xbfw\xfaW2Oq\xe5?\x04\xba~\x19\xbc\xff\xe2\xbf\xc0\xb45\x1c/\x95\xbc\xbf\xde\xa3R%\xf3b\xda?NDt\x86TK\xdf\xbf\xc8\xf5_\xde\xb2o\xa6\xbfP\xa8\xc6mk1\xe9?\xf9\x8a7\xfb5\xbc\xd1\xbf\n\x99k\xe0u\xac\xc2?\xd2[\xf3\x82\xea\x04\xc8\xbf\xc1\xe7G&b\xfd\xdd\xbf\x94\xa9\x80CN\x00\xe7\xbf\xa1\xb1\xe1\xa9\xf3I\xe7\xbf\xa6\xb1n\xe1G\x08\xb0?x\xdaF]\xe3\xe5\xd2?\xb4V\xd8\x1e\xba;\xe3\xbf_d\x9c{\xa5\xf6\xe5\xbf\x1ar\xc60\xb2\xf8\xae\xbfB\t\xd7z_\xbc\xe3\xbf\xd8\x11$\xcd\x9c\xb8\xd1?\xfd@:Q.r\xe1?\xe7=y\xa36g\xb5?\x98\x81\xb1\x03C$\xd7\xbfb\t4\x82\xcfa\xd1\xbf\xb7\xea\x07\xda7C\xc6?z\x96I%\xe3\x08\xe7\xbf\x12\xf8\xdc\xb1\xfeS\xbd?n\xb0\x1a\xac_m\xda\xbf\x1c\xdb\xd0\x10\xde\xb4\x86?\x01\xdeuY9\'\xd7\xbf0;\x1d\x8f\xb98\xd3\xbflK*.\\0\xe6?fYv"\x86\xe8\xe4\xbfA\xda\xe1K\xcb%\xd0?\xd4\xe90\x15\xc9\x87\xe3?\x9f^\x8f;}\x97\xa7\xbf\x9f%O\xc5\x91K\xe7\xbf\x12\xa24\xc4\xa3\x1d\xe6\xbf\x11\xf6\xe5\xb5h3\xdc?U\x1f\xdfH\xd2\xbc\xe1?\xd3\xe1N\xa1\xeb\xf3\xe5?V\x86|P)\xef\xd6?JJ\x0c.O\xfe\xdd\xbft\xad\x83\xe4\xc9\x81\xd0?K\xc0\xd6\xd1]\xaa\xad?$\xfd\x0ba\x82\xef\xe0?%E\xbaDu\x13\xd3\xbf=\xf1\xa3W!&\xd8?\xf52e\x88/\xa6\xd9\xbfHf\xa9\xa9\x95\xac\xe8\xbf\xc4;w\xf5\x84\xd9\xe6?\xfc0b_`\xf8\xda\xbfh\xe7\xa0\xed\xfa\xd9\xd3\xbf\xd1\x87t4V\xf7\x8f\xbf6\x12\xdfx\x8e\xd8\xb3?\x84KtO\x19\xb0\xbc?\xc3\x81~\x08}\x81\xe4?\x9c\x96\xd0\xff\x8f\x15\xb8\xbfX\xd1\x03\x8f\xd1\xc6\xc9?T\xf4t\xe8\xec\xd7\xe5?N\x9c\xbf \\\x87\xce\xbfN\xdb\xeb.i\xfe\xb3\xbf\x17\xc1\xb9\x01y\xe6\xc5\xbf\xd34G_\tL\xe2\xbf\xbe\x8dy\xca1\xa3\xe1\xbf\xdb\x95\xf3\xc6\xb5\x95\xdd?\xde\x19\xa9\xe0\xecYr?\x12L\xc4]\xf8\xf8\xa8?\x17C\x0b6i\xff\xd0?\xf1\xd6\xc7\x89K\x97\xe1\xbf#\xeb\xa7\xc2\xd6\x02\xd4\xbf\x9a\xf8\xea+\xa5P\xde\xbf\xd9\xd8\xa2\xf1#\x85\xc4\xbf\xed\xc9|\xa1G3\xe8\xbf\xe0\x17\xdf`^\xed\xd1\xbf\xb2\x85\x8b\x9c\xdd\xb6\xb5?\xb7\xca\xb3\xc4\xa4i\xe6?\xe0\xa6\xec\x15\x87i\xd3?\xc3\x915\xce\xf6\x12\xa7?{f\xdf\xc3\xb7\xae\x9d?r\x80\xd4\xd5\x7fI\xe1?\xbe6\xfa9\xc8\xa3\xe0\xbf\x9aY\x15\x8azY\xd2?m\x0eb!fa\xe1?\xf4\xe2\x93\x946m\xd2?\xa8&\xc1*\\\xae\xe0\xbfU\x0f\xe4\x06\x91\xdc\xe5\xbf\xe6\x8c\x01+\xb69\xe5?\x13\x12\x17\xef\x0f,\xe2?\x16\x1b\x9eXW\x16\xe0\xbfMWW\xa5\xd9\xc3\xe4?P\xfb\xbe\x15\xbe\xf5\xc0\xbf\x1cU\xb6K;\x99\xdb?\x9d\xe3\x830\xb5\xcb\xd0\xbf\xe7\x946\x88\x83\x83\xd2\xbf9\xe7\xaa\x1a\n\x87\xc3?\x0f+b\x8e\x1d\x87\xcf?\xf0\xbf\x9d8\x18n\xc7?\xbeT\xca\x84<e\xe7\xbf\x10\xacf\x15[\x97\xa4?\xaf(\x0e\xea\xaf\x88\xd4\xbf\xf7\xe1yE\xf3\xc9\xd8\xbf\x0b\x1e4\xbd\x15B\xe4\xbf\x87\x1b\xbc\xfc\xf7\x9d\xd9?g\xe1\xde\xbd\xc7\xfe\xd5?\xed.\xbd\xcc\xc0=\xe3\xbfg\x1aG\x84JN\xd6\xbf\xf8\x84\xb8\xb4m\x03\xc9?`g\r\xb6\x87h\xe3\xbf\x83\xa8\x82\x1dQ5\xe0\xbfz1=&\x0cF\xc3?\x80\xa6\x1ar\xf4\x1b\xe1\xbfc\xa7\xcfVS6\xe8?\xaa\xa4\t\x88\xc1\xc7\xd4?F\xa7\x0b\xa3\xba\x1d\xe3?\x99\x0b\xf5o\xaaK\xd6\xbf\x9e7C\xb6"\x98\xca\xbfX\x9e\xcf&\x01\x7f\xbc?0\xcdgA\xc2\xc5\xe6\xbf\x0cF\x1cr<5\xdd?~\x0fY\xee\xe4\xf9\xd4?YU(~\xe0\x04\xd9\xbf\x9b\x0fH\xe3\x13\x17\xae?\x8b\xd6\x18\xf754\xe7?\x16\x83y\xc7\xb8%\xe1\xbf\x93\x88\x0e4\xb8\xc2\xe4?fa\xc9t\xd8\x02\xdc\xbf\r\xfet\xc0\xd2=\xd2?\xdd\xfe(L\xb6\x82\xc5?\x12y\x82\x93\x9a\xd2\xe4\xbf\xfaWzn)\x82\xde?\x91\x1c\x86\xf4e\x8e\x97?\xa7A\x16\x14\xea\xb0\xd9?\xb2\x8b(\xa8\x19V\xe5?\x03|\xfc!\xfeT\xe0?\x92\xcft\xc3\xc1\xa4\xe4\xbf4\xaa\x8c~\x860\xdd?\x8f\xab~\xeb\xc8O\xe1\xbf\xd4>\x06\x98\xaa\xa6\xe5?\xda\x9c\xaeB\'\x0b\xe0\xbf3\xb5\xa0~>\xf1\xe0?\xf7\x8c\x10\xf3\x86\x0c\xe6?c\xdb\xa6"\x9dd\xe2?\x85\xe8%9\xce\xe8\xce?\xf6J1\x87gk\xd2?J\xa0\x9b\x80\xa5\x90\xd6\xbf=\xf6\xf7\x95@"\xdd?\xc1h\x8d\x8a\xaf \xe1\xbfvq;wj-\xc0\xbf\xea\xe7\x04\xd3!n\xc1?\x9a\x14\xf2\x968A\xd3?\x06\xfdD\xef\xbe\x13\xe1\xbf\xa6$\xb0}\xa6Z\x92?\x16\x8fw\xa2G#\xe4?\xfenx\xc7\x94\xae\xa4?M\xad\x14\x96\x04?\xdc?\x1d\x14\xa4\x840I\xdc?u\n3j\x93\x89\xda?+\x829\xedq\\\xda\xbf@5^+\xc1\xec\xc0?sI\xcbxl\xf2\xd3\xbf\xbf\x85\x1e]\xa3\xde\xe4? Q\xf5\xcfqK\xe1\xbf\x81o\x19t:\x1d\xd2\xbf\xab\xdb\x03k\x06\x83l?\xb4L\xc8\x80\x149\xd3?\xd4Ipn\xf9}\xd5?#+\xf7\x88\xcf*\xe2?*\xc6\x91%\x93Q\xe4\xbf\x19\xe7\xc0+#\x1f\xd7?\xbf|\xe4.>4\xcd\xbf\xdb\xa3\xe6[\x07[\xdb?\xbaz\xd8\xe5\x0f\xb6\xe4?WW\x89L\x83\x96\xe3\xbf\x1c\r}8\xd9\xcf\xe4?\xf9*\xf3Sj3\xe2\xbfl\xd7\x04\x15\x9f(\xde\xbf\xaf\x8fe4?\x85\xd0\xbf:\x92q\xdbT^\xc0\xbf\xb4l\x06e\x82\xc59?b\xc2/\x08\x8fk\xe6\xbfk\x00\xda}\xfe\xa4\xe5\xbf\xec\x81\xea\xa1\xc6\x16\xa7\xbf\xb5\x16X E\xd2\xc4\xbf\xfdm\xd8O\x16%\xe1\xbf.\x94Pe(\x8b\xad\xbf\x7f\x17\xcdIu\x0e\x99\xbf\xf3A\xcb;a\xec\xe3\xbfr\xb8\x13\x8b\xb7\xa2\xdd\xbf(\xae\x84\xdf\xca\xfe\xe4\xbf\xec\x84w\x87\xdf\xb2\xdb\xbf\xb9b\x92\x83k\xab\xe1\xbf\x98{X!\x12\xb9\xe2?\x19\xfe\x07\xces\xc8\xb0?\xef\xe7\xf4\xbe\xdf%\xe3\xbfh\xada\rJ<\x82\xbf\x1dvO]8D\xb2?\xfa\x02\x8f\xab#\xf1\xe6\xbfJ\xe5\x06\x9c\xda\x0b\xca?M\xc5\xc0^p\xf1\xda\xbf\xcb\xfdg\xc5\xb4&\xe1\xbfd\x96+\x89\x18I\xb9?\x07\\\xdc\x14P\x93\xd1\xbfv@5\xb0\xc0\x17\xe5?\x12\r\xa3\x95en\xe1?+\xdclCF\xd7\xcd?\xce\xb8\x86\x19ag\xd9?\\\x84\xea\x84\x82\xbe\xe6?h\x9b\xdc\x06+:\xc3\xbf\x0b\x00;\xde&\xac\xb6?\xd2\xee\xae\xc3\x0e\xdf\xda\xbf\r\x1f$\x9d\xb3\xc9\xd6\xbf\x85}\xb21\xef\xb9\xb5?\xda\xfc\xb9\x0c^k\xd6?\x9c\xb42Sp(\xde?\xb1E!\x8e>V\xe5?:\xf1\xceG\xecG\xd0?\x87)\x98|,\xc8\xd1?"\xe3\x19\x94\xb3\xdb\xd8?\t9\xaa\x8a\xca\x07\xd7\xbf3\x12\xbaO\xda\xaf\x9f?\xca8+zgz\xb8\xbf\xfa\x13E\x91@\xd5\xe9\xbfn1\xe2\x89\x19\x0e\xea\xbf\x9ekm\x88\xd3\x06\xe2?fP_*\xa5M\xe7\xbfY\xb0\xcb\x02\xfb\\\xd8?q\xb9\x05I\x06\xe1\xd6\xbf5@\xe2\xdao\xfa\xc8?4\xe4Z8\xee\xf6\xce\xbfx\xd5\xe6\xbf/\x10\xe3?\x90\xa5F\xac\xbe\xfe\xbf?\xe1\x98\xad\xdbfz\xd6\xbf\xac\xbe\x94\xde\x87`\x90?66M\xd5\x8d\xeb\xcf?\xf2S\xb3\x8d\xbaH\xdb\xbf8)\x07Y\x16d\xe8?y\xc5\xb7\xb6\x9b\xdc\xe3?\xd2\xa4h\xcfS\n\xc3?\x7f\x9a\xaaV\xb0\xe7\xaf\xbf\x08\xb3\xd0\xff^6\xe0?\x8e{\xeb\x94V3\xb0?\x9a\xf4\t\xc3\x7f\xb7\xe9?5#\xa8\x912\xdf\xd9\xbfL\xbe;<\xa8\xa6\xc6\xbf\x87\xa5\xa8\xa9\xca\n\xe0?\xde+\x80Xgm\xcc\xbf\x97\x0e.j\x80C\xcd\xbfH\x11\xbc`Y\xd7\xba\xbf\x1cd\xbcG\xa6\xdf\xab?\xa6\x9bT\xd8A>\xba?\xf1\xf1\xab.C\xab\xd8\xbf\xb5\xa6V(\xf6\xe8\xe2\xbf\xa4!\xbd9\xa9\x18\xe0\xbf\xdbn]\xa9\xc4\xe5\xe8?3M\xef\x13\xc55\xd5\xbf\xb9\x96\xad\x0e\x1dE\xe7?;\xe68O]&\xe1?\xd4\xb2\xc8k.\xa5\xcc?'
p60
tp61
bssS'transf'
p62
(ineurolab.trans
TanSig
p63
(dp64
bsS'out_minmax'
p65
g18
(g19
(I0
tp66
g21
tp67
Rp68
(I1
(I55
I2
tp69
g28
I00
S'\x00\x00\x00\x00\x00\x00\xf0\xbf\x00\x00\x00\x00\x00\x00\xf0?\x00\x00\x00\x00\x00\x00\xf0\xbf\x00\x00\x00\x00\x00\x00\xf0?\x00\x00\x00\x00\x00\x00\xf0\xbf\x00\x00\x00\x00\x00\x00\xf0?\x00\x00\x00\x00\x00\x00\xf0\xbf\x00\x00\x00\x00\x00\x00\xf0?\x00\x00\x00\x00\x00\x00\xf0\xbf\x00\x00\x00\x00\x00\x00\xf0?\x00\x00\x00\x00\x00\x00\xf0\xbf\x00\x00\x00\x00\x00\x00\xf0?\x00\x00\x00\x00\x00\x00\xf0\xbf\x00\x00\x00\x00\x00\x00\xf0?\x00\x00\x00\x00\x00\x00\xf0\xbf\x00\x00\x00\x00\x00\x00\xf0?\x00\x00\x00\x00\x00\x00\xf0\xbf\x00\x00\x00\x00\x00\x00\xf0?\x00\x00\x00\x00\x00\x00\xf0\xbf\x00\x00\x00\x00\x00\x00\xf0?\x00\x00\x00\x00\x00\x00\xf0\xbf\x00\x00\x00\x00\x00\x00\xf0?\x00\x00\x00\x00\x00\x00\xf0\xbf\x00\x00\x00\x00\x00\x00\xf0?\x00\x00\x00\x00\x00\x00\xf0\xbf\x00\x00\x00\x00\x00\x00\xf0?\x00\x00\x00\x00\x00\x00\xf0\xbf\x00\x00\x00\x00\x00\x00\xf0?\x00\x00\x00\x00\x00\x00\xf0\xbf\x00\x00\x00\x00\x00\x00\xf0?\x00\x00\x00\x00\x00\x00\xf0\xbf\x00\x00\x00\x00\x00\x00\xf0?\x00\x00\x00\x00\x00\x00\xf0\xbf\x00\x00\x00\x00\x00\x00\xf0?\x00\x00\x00\x00\x00\x00\xf0\xbf\x00\x00\x00\x00\x00\x00\xf0?\x00\x00\x00\x00\x00\x00\xf0\xbf\x00\x00\x00\x00\x00\x00\xf0?\x00\x00\x00\x00\x00\x00\xf0\xbf\x00\x00\x00\x00\x00\x00\xf0?\x00\x00\x00\x00\x00\x00\xf0\xbf\x00\x00\x00\x00\x00\x00\xf0?\x00\x00\x00\x00\x00\x00\xf0\xbf\x00\x00\x00\x00\x00\x00\xf0?\x00\x00\x00\x00\x00\x00\xf0\xbf\x00\x00\x00\x00\x00\x00\xf0?\x00\x00\x00\x00\x00\x00\xf0\xbf\x00\x00\x00\x00\x00\x00\xf0?\x00\x00\x00\x00\x00\x00\xf0\xbf\x00\x00\x00\x00\x00\x00\xf0?\x00\x00\x00\x00\x00\x00\xf0\xbf\x00\x00\x00\x00\x00\x00\xf0?\x00\x00\x00\x00\x00\x00\xf0\xbf\x00\x00\x00\x00\x00\x00\xf0?\x00\x00\x00\x00\x00\x00\xf0\xbf\x00\x00\x00\x00\x00\x00\xf0?\x00\x00\x00\x00\x00\x00\xf0\xbf\x00\x00\x00\x00\x00\x00\xf0?\x00\x00\x00\x00\x00\x00\xf0\xbf\x00\x00\x00\x00\x00\x00\xf0?\x00\x00\x00\x00\x00\x00\xf0\xbf\x00\x00\x00\x00\x00\x00\xf0?\x00\x00\x00\x00\x00\x00\xf0\xbf\x00\x00\x00\x00\x00\x00\xf0?\x00\x00\x00\x00\x00\x00\xf0\xbf\x00\x00\x00\x00\x00\x00\xf0?\x00\x00\x00\x00\x00\x00\xf0\xbf\x00\x00\x00\x00\x00\x00\xf0?\x00\x00\x00\x00\x00\x00\xf0\xbf\x00\x00\x00\x00\x00\x00\xf0?\x00\x00\x00\x00\x00\x00\xf0\xbf\x00\x00\x00\x00\x00\x00\xf0?\x00\x00\x00\x00\x00\x00\xf0\xbf\x00\x00\x00\x00\x00\x00\xf0?\x00\x00\x00\x00\x00\x00\xf0\xbf\x00\x00\x00\x00\x00\x00\xf0?\x00\x00\x00\x00\x00\x00\xf0\xbf\x00\x00\x00\x00\x00\x00\xf0?\x00\x00\x00\x00\x00\x00\xf0\xbf\x00\x00\x00\x00\x00\x00\xf0?\x00\x00\x00\x00\x00\x00\xf0\xbf\x00\x00\x00\x00\x00\x00\xf0?\x00\x00\x00\x00\x00\x00\xf0\xbf\x00\x00\x00\x00\x00\x00\xf0?\x00\x00\x00\x00\x00\x00\xf0\xbf\x00\x00\x00\x00\x00\x00\xf0?\x00\x00\x00\x00\x00\x00\xf0\xbf\x00\x00\x00\x00\x00\x00\xf0?\x00\x00\x00\x00\x00\x00\xf0\xbf\x00\x00\x00\x00\x00\x00\xf0?\x00\x00\x00\x00\x00\x00\xf0\xbf\x00\x00\x00\x00\x00\x00\xf0?\x00\x00\x00\x00\x00\x00\xf0\xbf\x00\x00\x00\x00\x00\x00\xf0?\x00\x00\x00\x00\x00\x00\xf0\xbf\x00\x00\x00\x00\x00\x00\xf0?\x00\x00\x00\x00\x00\x00\xf0\xbf\x00\x00\x00\x00\x00\x00\xf0?\x00\x00\x00\x00\x00\x00\xf0\xbf\x00\x00\x00\x00\x00\x00\xf0?\x00\x00\x00\x00\x00\x00\xf0\xbf\x00\x00\x00\x00\x00\x00\xf0?\x00\x00\x00\x00\x00\x00\xf0\xbf\x00\x00\x00\x00\x00\x00\xf0?\x00\x00\x00\x00\x00\x00\xf0\xbf\x00\x00\x00\x00\x00\x00\xf0?\x00\x00\x00\x00\x00\x00\xf0\xbf\x00\x00\x00\x00\x00\x00\xf0?\x00\x00\x00\x00\x00\x00\xf0\xbf\x00\x00\x00\x00\x00\x00\xf0?'
p70
tp71
bsS'out'
p72
g18
(g19
(I0
tp73
g21
tp74
Rp75
(I1
(I55
tp76
g28
I00
S'\xfbm1DK\x1b\xeb\xbf\xa1\xf6\xdbqq|\xdd?\x90\xc1Qz\x9e\xbd\xee?\'\xa4\x04\x01\xc8\xfa\xef\xbf,%9D\xbd\xd7\xe5\xbf5>Q\x8d]\x19\xe9?\t\xe5w\x99I_\xe8?\x96\x91xM\xc9\xff\xef\xbf\xb1\xa5\xf7\x9b\xde`\xef?M^\xc5\xe9\xc2\xaf\xef\xbf]\x14x\xd0\xe9\xb2\xef\xbf\x8e\xd0\x07\xfb\x8f\xf7\xef\xbf\x96+e\x9c\xdb\xe6\xef?/6\xd8\xf0\xb6\xb0\xea\xbf"W\x86\x08\xa6\xfa\xef?T<m\xc2\r\x17\xed\xbf\x99\xdac\xe8d\x08\xec\xbf\tD\xba5\x04Q\xec?\xc7\xb6KY\xf1\xa8\xe0?\xf9\x7f\x80|\xd3\xdb\xef\xbf\xcc\xf7\x92\x1f\x8b\xf0\xd0?P*\xf4(\x1a4\xe8\xbf\x0bP2\xf7\xbc\xff\xef\xbf\xaf\xcb1\xcar\xd1\xef\xbf\xf7w\x19\x87\xba\x9c\xbf\xbfT\xbe\xf2Y\xae\xea\xed\xbf\xbe\x84\xd0\xf8\rm\xef\xbfL&\xcf\xdf%\xf7\xef\xbf\x14\x07V;m\xf8\xef\xbfo;\xa5\xd2x\xa0\xd1\xbfw\x19\x8c\x00-"\xee\xbf\xee=\x18\xce\xee\x90\xc4\xbf\xdb\x16\x9c}\xf6\x11\xe9?\xa7k\x9e\x93\x88\xc6\xef?\'\x86\xf5i~\xdf\xee?\x1dZ\x102o\xbf\xef\xbfMQ_\x86\x08\xfa\xef\xbfy\xa6t\xd9\xe4J\xe0?)a\x1e\xf8)r\xe2\xbfw\x93\xee6\x95\xff\xef\xbf\x8eeX\xa6Id\xee\xbf\\~\x89\r\x1c\xc1\xe7\xbf\t\xfc\x8eRM\xf8\xef?\xf8\n/\xafj\x85\xee?\x96\x00\xaa\x9a\xad\xfe\xef\xbf\x80V\xbb\xd9\xa5\xff\xef?\xc5\x16\x7f"\x15\x9a\xef?\x97\xd4\x88\xcf\xd8\xfe\xef?\x9f/\xa3eh\xe1\xef?6\rG\xa9-\x17\xef?B\xa22\xe8\x19\xbe\xd2\xbf\xef\x81$\x18\x87\x84\xec?u\xb4\xcdg\xd0\xff\xef\xbf\xb1\xe5R\xec\x08\xff\xef?\xae\x8e2U\xdd\x80\xd2\xbf'
p77
tp78
bsbag0
(g8
g2
Ntp79
Rp80
(dp81
g12
g13
sg14
I55
sg15
I1
sg16
I1
sg17
g18
(g19
(I0
tp82
g21
tp83
Rp84
(I1
(I55
I2
tp85
g28
I00
S'\x00\x00\x00\x00\x00\x00\xf0\xbf\x00\x00\x00\x00\x00\x00\xf0?\x00\x00\x00\x00\x00\x00\xf0\xbf\x00\x00\x00\x00\x00\x00\xf0?\x00\x00\x00\x00\x00\x00\xf0\xbf\x00\x00\x00\x00\x00\x00\xf0?\x00\x00\x00\x00\x00\x00\xf0\xbf\x00\x00\x00\x00\x00\x00\xf0?\x00\x00\x00\x00\x00\x00\xf0\xbf\x00\x00\x00\x00\x00\x00\xf0?\x00\x00\x00\x00\x00\x00\xf0\xbf\x00\x00\x00\x00\x00\x00\xf0?\x00\x00\x00\x00\x00\x00\xf0\xbf\x00\x00\x00\x00\x00\x00\xf0?\x00\x00\x00\x00\x00\x00\xf0\xbf\x00\x00\x00\x00\x00\x00\xf0?\x00\x00\x00\x00\x00\x00\xf0\xbf\x00\x00\x00\x00\x00\x00\xf0?\x00\x00\x00\x00\x00\x00\xf0\xbf\x00\x00\x00\x00\x00\x00\xf0?\x00\x00\x00\x00\x00\x00\xf0\xbf\x00\x00\x00\x00\x00\x00\xf0?\x00\x00\x00\x00\x00\x00\xf0\xbf\x00\x00\x00\x00\x00\x00\xf0?\x00\x00\x00\x00\x00\x00\xf0\xbf\x00\x00\x00\x00\x00\x00\xf0?\x00\x00\x00\x00\x00\x00\xf0\xbf\x00\x00\x00\x00\x00\x00\xf0?\x00\x00\x00\x00\x00\x00\xf0\xbf\x00\x00\x00\x00\x00\x00\xf0?\x00\x00\x00\x00\x00\x00\xf0\xbf\x00\x00\x00\x00\x00\x00\xf0?\x00\x00\x00\x00\x00\x00\xf0\xbf\x00\x00\x00\x00\x00\x00\xf0?\x00\x00\x00\x00\x00\x00\xf0\xbf\x00\x00\x00\x00\x00\x00\xf0?\x00\x00\x00\x00\x00\x00\xf0\xbf\x00\x00\x00\x00\x00\x00\xf0?\x00\x00\x00\x00\x00\x00\xf0\xbf\x00\x00\x00\x00\x00\x00\xf0?\x00\x00\x00\x00\x00\x00\xf0\xbf\x00\x00\x00\x00\x00\x00\xf0?\x00\x00\x00\x00\x00\x00\xf0\xbf\x00\x00\x00\x00\x00\x00\xf0?\x00\x00\x00\x00\x00\x00\xf0\xbf\x00\x00\x00\x00\x00\x00\xf0?\x00\x00\x00\x00\x00\x00\xf0\xbf\x00\x00\x00\x00\x00\x00\xf0?\x00\x00\x00\x00\x00\x00\xf0\xbf\x00\x00\x00\x00\x00\x00\xf0?\x00\x00\x00\x00\x00\x00\xf0\xbf\x00\x00\x00\x00\x00\x00\xf0?\x00\x00\x00\x00\x00\x00\xf0\xbf\x00\x00\x00\x00\x00\x00\xf0?\x00\x00\x00\x00\x00\x00\xf0\xbf\x00\x00\x00\x00\x00\x00\xf0?\x00\x00\x00\x00\x00\x00\xf0\xbf\x00\x00\x00\x00\x00\x00\xf0?\x00\x00\x00\x00\x00\x00\xf0\xbf\x00\x00\x00\x00\x00\x00\xf0?\x00\x00\x00\x00\x00\x00\xf0\xbf\x00\x00\x00\x00\x00\x00\xf0?\x00\x00\x00\x00\x00\x00\xf0\xbf\x00\x00\x00\x00\x00\x00\xf0?\x00\x00\x00\x00\x00\x00\xf0\xbf\x00\x00\x00\x00\x00\x00\xf0?\x00\x00\x00\x00\x00\x00\xf0\xbf\x00\x00\x00\x00\x00\x00\xf0?\x00\x00\x00\x00\x00\x00\xf0\xbf\x00\x00\x00\x00\x00\x00\xf0?\x00\x00\x00\x00\x00\x00\xf0\xbf\x00\x00\x00\x00\x00\x00\xf0?\x00\x00\x00\x00\x00\x00\xf0\xbf\x00\x00\x00\x00\x00\x00\xf0?\x00\x00\x00\x00\x00\x00\xf0\xbf\x00\x00\x00\x00\x00\x00\xf0?\x00\x00\x00\x00\x00\x00\xf0\xbf\x00\x00\x00\x00\x00\x00\xf0?\x00\x00\x00\x00\x00\x00\xf0\xbf\x00\x00\x00\x00\x00\x00\xf0?\x00\x00\x00\x00\x00\x00\xf0\xbf\x00\x00\x00\x00\x00\x00\xf0?\x00\x00\x00\x00\x00\x00\xf0\xbf\x00\x00\x00\x00\x00\x00\xf0?\x00\x00\x00\x00\x00\x00\xf0\xbf\x00\x00\x00\x00\x00\x00\xf0?\x00\x00\x00\x00\x00\x00\xf0\xbf\x00\x00\x00\x00\x00\x00\xf0?\x00\x00\x00\x00\x00\x00\xf0\xbf\x00\x00\x00\x00\x00\x00\xf0?\x00\x00\x00\x00\x00\x00\xf0\xbf\x00\x00\x00\x00\x00\x00\xf0?\x00\x00\x00\x00\x00\x00\xf0\xbf\x00\x00\x00\x00\x00\x00\xf0?\x00\x00\x00\x00\x00\x00\xf0\xbf\x00\x00\x00\x00\x00\x00\xf0?\x00\x00\x00\x00\x00\x00\xf0\xbf\x00\x00\x00\x00\x00\x00\xf0?\x00\x00\x00\x00\x00\x00\xf0\xbf\x00\x00\x00\x00\x00\x00\xf0?\x00\x00\x00\x00\x00\x00\xf0\xbf\x00\x00\x00\x00\x00\x00\xf0?\x00\x00\x00\x00\x00\x00\xf0\xbf\x00\x00\x00\x00\x00\x00\xf0?\x00\x00\x00\x00\x00\x00\xf0\xbf\x00\x00\x00\x00\x00\x00\xf0?\x00\x00\x00\x00\x00\x00\xf0\xbf\x00\x00\x00\x00\x00\x00\xf0?\x00\x00\x00\x00\x00\x00\xf0\xbf\x00\x00\x00\x00\x00\x00\xf0?'
p86
tp87
bsg33
g75
sg40
g18
(g19
(I0
tp88
g21
tp89
Rp90
(I1
(I1
tp91
g28
I00
S'49x\xef2\xc7\xc9?'
p92
tp93
bsg47
(dp94
g21
g18
(g19
(I0
tp95
g21
tp96
Rp97
(I1
(I1
tp98
g28
I00
S'\xb0\xe7\xb36[\xd5\xf5>'
p99
tp100
bsg55
g18
(g19
(I0
tp101
g21
tp102
Rp103
(I1
(I1
I55
tp104
g28
I00
S'C\xd5\xc5\xab\xd4\xf0q\xbf\xd3CS\x01\x802x\xbf6R\xf6\xf7n\x85\xcc\xbf\x8c\xb53\x03\xc8\xb2\xc1\xbf\xad>\xa3\x03w\xf2\xae?\xa9\xacq\xa4\xd5\xd0\xa4?z\xe9\x04\xc1\xf1M\xaa?`\xa7AD\x19^\xc3?\xf55a\xc6S/\xb4?a\xfb\xc7\xa1\xaeI\xc6\xbf\xe8\xf4\xbe\xf3\rU\x9e?\xbd\x9e5.\x8f\x13\xb0?i\x82\xfa\xa5p\xc0\xc3\xbf\x0b\x82k\xbb9\xd1\xb1?~\x91=\x06\x84a\xc9?\xef$K+\x88\xbd\xae?\x8b\x83=\x80\xe4\x13\xab\xbf\xa8\x10x\x11+:\xb1?\xd7\xd1\xff\xec\xd0\xb0\xa7?\xe6\xbd\xa9\xc09I\xa4?\xcb`\xe1\x7f$x\xa5\xbf\xb8\xf9oz\x96m\xb2\xbf\\\xb4\x8e\x00\x1d\xd4\xd1\xbf\xce:1\x0f-\xd0\xad\xbfz\x0e\xf2\xf8\x81\xaa\xa0\xbf\xcdh\x15.\x1d7\x92\xbf\xe6\x87\xcb[\xb1\xfb\xb9?\'\x8b,\xe4\xc6F\xad\xbf\'\xf3\xe0\x88\x90\xd9\xa2\xbf#\x91h\x06\xc9\x0c\xad?|z\xef~8\tx\xbf0\x04\x1dQ\xc6\x1b\xa4?\x7f\xffm\x8d\xad\x1e\x92\xbf]\xae\'y\x05\x18\xa9?\x80\x1aY\xc6\x12\xe7\x87\xbf\xce\x0c\xd2b\x0cX\xc2?\x1b\xba?\x90Z\x8e\xb1\xbf{N\xa2\x8a\x13<\x96?\x1a\xdc\xcd)u\x19\x7f\xbf5\xebw\x93\x14sr\xbfa\x1b\'\xe3\x0e\xd7\xb4?r\xab\x19K\xa7:\xa7\xbf\xb5\xe2p\t\xe8\x88\xd5?\xebE\xf77\xe4\xcd\xbd\xbfv3\x91\xa9\x96\xdc\x9d\xbf\xd3?\x8f\x1b\x08i\xce\xbf\x17\xadc\xf1#\x0er?\xeeR\xd2"\x7f7\x99\xbfj\xfd\xbfvlK\x90?L\xcd\xe8_\x8cc\xca\xbfR\\}\xf7\xd0.\xa1\xbf\x0c\\:P\xe3\x1c\xc8?\xd8\x0e\xfc\x91u\xf1\xd7?\xd5-S\xbc\x85\xe8\xd3?\x8d-\xfb\\\x81L\xa7?'
p105
tp106
bssg62
g63
sg65
g18
(g19
(I0
tp107
g21
tp108
Rp109
(I1
(I1
I2
tp110
g28
I00
S'\x00\x00\x00\x00\x00\x00\xf0\xbf\x00\x00\x00\x00\x00\x00\xf0?'
p111
tp112
bsg72
g18
(g19
(I0
tp113
g21
tp114
Rp115
(I1
(I1
tp116
g28
I00
S'\xb6\xce\xfc\xadgo\xc9?'
p117
tp118
bsbasg14
I46
sg15
I1
sg17
g18
(g19
(I0
tp119
g21
tp120
Rp121
(I1
(I46
I2
tp122
g28
I00
S'\x00\x00\x00\x00\x00\x00\x00\x00\x00\x00\x00\x00\x00\x00\xf0?\x00\x00\x00\x00\x00\x00\x00\x00\x00\x00\x00\x00\x00\x00\xf0?\x00\x00\x00\x00\x00\x00\x00\x00\x00\x00\x00\x00\x00\x00\xf0?\x00\x00\x00\x00\x00\x00\x00\x00\x00\x00\x00\x00\x00\x00\xf0?\x00\x00\x00\x00\x00\x00\x00\x00\x00\x00\x00\x00\x00\x00\xf0?\x00\x00\x00\x00\x00\x00\x00\x00\x00\x00\x00\x00\x00\x00\xf0?\x00\x00\x00\x00\x00\x00\x00\x00\x00\x00\x00\x00\x00\x00\xf0?\x00\x00\x00\x00\x00\x00\x00\x00\x00\x00\x00\x00\x00\x00\xf0?\x00\x00\x00\x00\x00\x00\x00\x00\x00\x00\x00\x00\x00\x00\xf0?\x00\x00\x00\x00\x00\x00\x00\x00\x00\x00\x00\x00\x00\x00\xf0?\x00\x00\x00\x00\x00\x00\x00\x00\x00\x00\x00\x00\x00\x00\xf0?\x00\x00\x00\x00\x00\x00\x00\x00\x00\x00\x00\x00\x00\x00\xf0?\x00\x00\x00\x00\x00\x00\x00\x00\x00\x00\x00\x00\x00\x00\xf0?\x00\x00\x00\x00\x00\x00\x00\x00\x00\x00\x00\x00\x00\x00\xf0?\x00\x00\x00\x00\x00\x00\x00\x00\x00\x00\x00\x00\x00\x00\xf0?\x00\x00\x00\x00\x00\x00\x00\x00\x00\x00\x00\x00\x00\x00\xf0?\x00\x00\x00\x00\x00\x00\x00\x00\x00\x00\x00\x00\x00\x00\xf0?\x00\x00\x00\x00\x00\x00\x00\x00\x00\x00\x00\x00\x00\x00\xf0?\x00\x00\x00\x00\x00\x00\x00\x00\x00\x00\x00\x00\x00\x00\xf0?\x00\x00\x00\x00\x00\x00\x00\x00\x00\x00\x00\x00\x00\x00\xf0?\x00\x00\x00\x00\x00\x00\x00\x00\x00\x00\x00\x00\x00\x00\xf0?\x00\x00\x00\x00\x00\x00\x00\x00\x00\x00\x00\x00\x00\x00\xf0?\x00\x00\x00\x00\x00\x00\x00\x00\x00\x00\x00\x00\x00\x00\xf0?\x00\x00\x00\x00\x00\x00\x00\x00\x00\x00\x00\x00\x00\x00\xf0?\x00\x00\x00\x00\x00\x00\x00\x00\x00\x00\x00\x00\x00\x00\xf0?\x00\x00\x00\x00\x00\x00\x00\x00\x00\x00\x00\x00\x00\x00\xf0?\x00\x00\x00\x00\x00\x00\x00\x00\x00\x00\x00\x00\x00\x00\xf0?\x00\x00\x00\x00\x00\x00\x00\x00\x00\x00\x00\x00\x00\x00\xf0?\x00\x00\x00\x00\x00\x00\x00\x00\x00\x00\x00\x00\x00\x00\xf0?\x00\x00\x00\x00\x00\x00\x00\x00\x00\x00\x00\x00\x00\x00\xf0?\x00\x00\x00\x00\x00\x00\x00\x00\x00\x00\x00\x00\x00\x00\xf0?\x00\x00\x00\x00\x00\x00\x00\x00\x00\x00\x00\x00\x00\x00\xf0?\x00\x00\x00\x00\x00\x00\x00\x00\x00\x00\x00\x00\x00\x00\xf0?\x00\x00\x00\x00\x00\x00\x00\x00\x00\x00\x00\x00\x00\x00\xf0?\x00\x00\x00\x00\x00\x00\x00\x00\x00\x00\x00\x00\x00\x00\xf0?\x00\x00\x00\x00\x00\x00\x00\x00\x00\x00\x00\x00\x00\x00\xf0?\x00\x00\x00\x00\x00\x00\x00\x00\x00\x00\x00\x00\x00\x00\xf0?\x00\x00\x00\x00\x00\x00\x00\x00\x00\x00\x00\x00\x00\x00\xf0?\x00\x00\x00\x00\x00\x00\x00\x00\x00\x00\x00\x00\x00\x00\xf0?\x00\x00\x00\x00\x00\x00\x00\x00\x00\x00\x00\x00\x00\x00\xf0?\x00\x00\x00\x00\x00\x00\x00\x00\x00\x00\x00\x00\x00\x00\xf0?\x00\x00\x00\x00\x00\x00\x00\x00\x00\x00\x00\x00\x00\x00\xf0?\x00\x00\x00\x00\x00\x00\x00\x00\x00\x00\x00\x00\x00\x00\xf0?\x00\x00\x00\x00\x00\x00\x00\x00\x00\x00\x00\x00\x00\x00\xf0?\x00\x00\x00\x00\x00\x00\x00\x00\x00\x00\x00\x00\x00\x00\xf0?\x00\x00\x00\x00\x00\x00\x00\x00\x00\x00\x00\x00\x00\x00\xf0?'
p123
tp124
bsg33
g36
sS'trainf'
p125
g0
(cneurolab.core
Trainer
p126
g2
Ntp127
Rp128
(dp129
S'_train_class'
p130
cneurolab.train.spo
TrainCG
p131
sS'__module__'
p132
S'neurolab.train.spo'
p133
sS'params'
p134
(dp135
S'epochs'
p136
I7000
sS'train'
p137
(dp138
S'rr'
p139
I0
ssS'goal'
p140
F2e-05
sS'show'
p141
I0
ssS'defaults'
p142
(dp143
g136
I500
sg137
(dp144
g139
I0
ssg140
F0.01
sg141
I100
ssS'error'
p145
(lp146
cnumpy.core.multiarray
scalar
p147
(g28
S'\x1e87\xd9~\xc2i@'
p148
tp149
Rp150
asS'__name__'
p151
S'TrainCG'
p152
sS'__doc__'
p153
S'\n    Newton-CG method\n    Using scipy.optimize.fmin_ncg\n\n    :Support networks:\n        newff (multi-layers perceptron)\n    :Parameters:\n        input: array like (l x net.ci)\n            train input patterns\n        target: array like (l x net.co)\n            train target patterns\n        epochs: int (default 500)\n            Number of train epochs\n        show: int (default 100)\n            Print period\n        goal: float (default 0.01)\n            The goal of train\n        rr float (defaults 0.0)\n            Regularization ratio\n            Must be between {0, 1}\n        \n    '
p154
sbsS'connect'
p155
(lp156
(lp157
I-1
aa(lp158
I0
aa(lp159
I1
aasS'errorf'
p160
(ineurolab.error
SSE
p161
(dp162
bsg65
g18
(g19
(I0
tp163
g21
tp164
Rp165
(I1
(I1
I2
tp166
g28
I00
S'\x00\x00\x00\x00\x00\x00\xf0\xbf\x00\x00\x00\x00\x00\x00\xf0?'
p167
tp168
bsg72
g115
sb.